{"help": "https://data.gov.sg/api/3/action/help_show?name=datastore_search", "success": true, "result": {"resource_id": "9b9d624f-19e4-42a5-87fc-442ad25305b5", "fields": [{"type": "int4", "id": "_id"}, {"type": "numeric", "id": "year"}, {"type": "text", "id": "level_1"}, {"type": "text", "id": "level_2"}, {"type": "numeric", "id": "value"}], "records": [{"value": "1225.3", "_id": 1, "level_1": "Total", "level_2": "Total", "year": "2015"}, {"value": "24.3", "_id": 2, "level_1": "Below 30 Years", "level_2": "Total", "year": "2015"}, {"value": "74.6", "_id": 3, "level_1": "30 - 34 Years", "level_2": "Total", "year": "2015"}, {"value": "118.3", "_id": 4, "level_1": "35 - 39 Years", "level_2": "Total", "year": "2015"}, {"value": "150.2", "_id": 5, "level_1": "40 - 44 Years", "level_2": "Total", "year": "2015"}], "_links": {"start": "/api/action/datastore_search?limit=5&resource_id=9b9d624f-19e4-42a5-87fc-442ad25305b5", "next": "/api/action/datastore_search?offset=5&limit=5&resource_id=9b9d624f-19e4-42a5-87fc-442ad25305b5"}, "limit": 5, "total": 12}}