{"help": "https://data.gov.sg/api/3/action/help_show?name=datastore_search", "success": true, "result": {"resource_id": "7b8e6bc6-9848-4a63-a62d-4dd51996e1c7", "fields": [{"type": "int4", "id": "_id"}, {"type": "numeric", "id": "year"}, {"type": "text", "id": "type"}, {"type": "numeric", "id": "count"}], "records": [{"count": "62", "_id": 1, "type": "Nursing Homes", "year": "2006"}, {"count": "2", "_id": 2, "type": "Inpatient Hospices", "year": "2006"}, {"count": "62", "_id": 3, "type": "Nursing Homes", "year": "2007"}, {"count": "2", "_id": 4, "type": "Inpatient Hospices", "year": "2007"}, {"count": "63", "_id": 5, "type": "Nursing Homes", "year": "2008"}], "_links": {"start": "/api/action/datastore_search?limit=5&resource_id=7b8e6bc6-9848-4a63-a62d-4dd51996e1c7", "next": "/api/action/datastore_search?offset=5&limit=5&resource_id=7b8e6bc6-9848-4a63-a62d-4dd51996e1c7"}, "limit": 5, "total": 28}}