{"help": "https://data.gov.sg/api/3/action/help_show?name=datastore_search", "success": true, "result": {"resource_id": "064f6357-a60d-42cc-a17e-ca8c8b61a7d4", "fields": [{"type": "int4", "id": "_id"}, {"type": "numeric", "id": "yr"}, {"type": "text", "id": "investment_schm_type"}, {"type": "numeric", "id": "net_wdl_amt"}], "records": [{"investment_schm_type": "CPF investment scheme (ordinary account)", "net_wdl_amt": "-1140400000", "yr": "2010", "_id": 1}, {"investment_schm_type": "CPF investment scheme (special account)", "net_wdl_amt": "-335200000", "yr": "2010", "_id": 2}, {"investment_schm_type": "CPF investment scheme (ordinary account)", "net_wdl_amt": "-1487500000", "yr": "2011", "_id": 3}, {"investment_schm_type": "CPF investment scheme (special account)", "net_wdl_amt": "-650200000", "yr": "2011", "_id": 4}, {"investment_schm_type": "CPF investment scheme (ordinary account)", "net_wdl_amt": "-1731300000", "yr": "2012", "_id": 5}], "_links": {"start": "/api/action/datastore_search?limit=5&resource_id=064f6357-a60d-42cc-a17e-ca8c8b61a7d4", "next": "/api/action/datastore_search?offset=5&limit=5&resource_id=064f6357-a60d-42cc-a17e-ca8c8b61a7d4"}, "limit": 5, "total": 14}}