{"help": "https://data.gov.sg/api/3/action/help_show?name=datastore_search", "success": true, "result": {"resource_id": "476b90b2-884e-49f6-856d-bfba2ba77e9e", "fields": [{"type": "int4", "id": "_id"}, {"type": "numeric", "id": "year"}, {"type": "text", "id": "type_of_property"}, {"type": "text", "id": "availability"}, {"type": "numeric", "id": "no_of_private_residential_properties"}], "records": [{"type_of_property": "Detached Houses", "no_of_private_residential_properties": "10638", "_id": 1, "availability": "Available", "year": "2013"}, {"type_of_property": "Detached Houses", "no_of_private_residential_properties": "371", "_id": 2, "availability": "Vacant", "year": "2013"}, {"type_of_property": "Semi-Detached Houses", "no_of_private_residential_properties": "21538", "_id": 3, "availability": "Available", "year": "2013"}, {"type_of_property": "Semi-Detached Houses", "no_of_private_residential_properties": "736", "_id": 4, "availability": "Vacant", "year": "2013"}, {"type_of_property": "Terrace Houses", "no_of_private_residential_properties": "38873", "_id": 5, "availability": "Available", "year": "2013"}], "_links": {"start": "/api/action/datastore_search?limit=5&resource_id=476b90b2-884e-49f6-856d-bfba2ba77e9e", "next": "/api/action/datastore_search?offset=5&limit=5&resource_id=476b90b2-884e-49f6-856d-bfba2ba77e9e"}, "limit": 5, "total": 20}}