{"help": "https://data.gov.sg/api/3/action/help_show?name=datastore_search", "success": true, "result": {"resource_id": "947b5cbe-0b0a-4fdb-b06e-aca1e34d87fd", "fields": [{"type": "int4", "id": "_id"}, {"type": "text", "id": "quarter"}, {"type": "text", "id": "level_1"}, {"type": "numeric", "id": "value"}], "records": [{"quarter": "1975-Q1", "_id": 1, "level_1": "Residential Properties", "value": "8.9"}, {"quarter": "1975-Q2", "_id": 2, "level_1": "Residential Properties", "value": "9.1"}, {"quarter": "1975-Q3", "_id": 3, "level_1": "Residential Properties", "value": "9.1"}, {"quarter": "1975-Q4", "_id": 4, "level_1": "Residential Properties", "value": "9.1"}, {"quarter": "1976-Q1", "_id": 5, "level_1": "Residential Properties", "value": "9.5"}], "_links": {"start": "/api/action/datastore_search?limit=5&resource_id=947b5cbe-0b0a-4fdb-b06e-aca1e34d87fd", "next": "/api/action/datastore_search?offset=5&limit=5&resource_id=947b5cbe-0b0a-4fdb-b06e-aca1e34d87fd"}, "limit": 5, "total": 181}}