{"help": "https://data.gov.sg/api/3/action/help_show?name=datastore_search", "success": true, "result": {"resource_id": "0d69f2c8-7280-4d04-80b6-2c3d5196f887", "fields": [{"type": "int4", "id": "_id"}, {"type": "text", "id": "quarter"}, {"type": "text", "id": "level_1"}, {"type": "numeric", "id": "value"}], "records": [{"quarter": "1976-Q1", "_id": 1, "level_1": "GDP In Chained (2015) Dollars", "value": "8.2"}, {"quarter": "1976-Q2", "_id": 2, "level_1": "GDP In Chained (2015) Dollars", "value": "7.4"}, {"quarter": "1976-Q3", "_id": 3, "level_1": "GDP In Chained (2015) Dollars", "value": "7.2"}, {"quarter": "1976-Q4", "_id": 4, "level_1": "GDP In Chained (2015) Dollars", "value": "7"}, {"quarter": "1977-Q1", "_id": 5, "level_1": "GDP In Chained (2015) Dollars", "value": "6.2"}], "_links": {"start": "/api/action/datastore_search?limit=5&resource_id=0d69f2c8-7280-4d04-80b6-2c3d5196f887", "next": "/api/action/datastore_search?offset=5&limit=5&resource_id=0d69f2c8-7280-4d04-80b6-2c3d5196f887"}, "limit": 5, "total": 178}}