{"help": "https://data.gov.sg/api/3/action/help_show?name=datastore_search", "success": true, "result": {"resource_id": "763bca1d-3269-40ef-8d65-c36000ce171b", "fields": [{"type": "int4", "id": "_id"}, {"type": "text", "id": "quarter"}, {"type": "numeric", "id": "jv_to_ue"}], "records": [{"jv_to_ue": "0.35", "quarter": "2002-Q1", "_id": 1}, {"jv_to_ue": "0.4", "quarter": "2002-Q2", "_id": 2}, {"jv_to_ue": "0.37", "quarter": "2002-Q3", "_id": 3}, {"jv_to_ue": "0.31", "quarter": "2002-Q4", "_id": 4}, {"jv_to_ue": "0.29", "quarter": "2003-Q1", "_id": 5}], "_links": {"start": "/api/action/datastore_search?limit=5&resource_id=763bca1d-3269-40ef-8d65-c36000ce171b", "next": "/api/action/datastore_search?offset=5&limit=5&resource_id=763bca1d-3269-40ef-8d65-c36000ce171b"}, "limit": 5, "total": 74}}