{"help": "https://data.gov.sg/api/3/action/help_show?name=datastore_search", "success": true, "result": {"resource_id": "e6594605-9d61-4efd-91c1-1607fe87681a", "fields": [{"type": "int4", "id": "_id"}, {"type": "numeric", "id": "year"}, {"type": "text", "id": "level_1"}, {"type": "numeric", "id": "value"}], "records": [{"_id": 1, "level_1": "Operating Receipts, SSIC 49-53 - Total Transport & Storage Services", "value": "36275.1", "year": "2000"}, {"_id": 2, "level_1": "Operating Expenditure,  SSIC 49-53 - Total Transport & Storage Services", "value": "31371.7", "year": "2000"}, {"_id": 3, "level_1": "Operating Surplus,  SSIC 49-53 - Total Transport & Storage Services", "value": "8456.3", "year": "2000"}, {"_id": 4, "level_1": "Value Added, SSIC 49-53 - Total Transport & Storage Services", "value": "14449.9", "year": "2000"}, {"_id": 5, "level_1": "Operating Receipts, SSIC 49-53 - Total Transport & Storage Services", "value": "38985.2", "year": "2001"}], "_links": {"start": "/api/action/datastore_search?limit=5&resource_id=e6594605-9d61-4efd-91c1-1607fe87681a", "next": "/api/action/datastore_search?offset=5&limit=5&resource_id=e6594605-9d61-4efd-91c1-1607fe87681a"}, "limit": 5, "total": 72}}