{"help": "https://data.gov.sg/api/3/action/help_show?name=datastore_search", "success": true, "result": {"resource_id": "696b8a7e-6d8a-4990-8c23-8d02aa454547", "fields": [{"type": "int4", "id": "_id"}, {"type": "text", "id": "month"}, {"type": "text", "id": "level_1"}, {"type": "numeric", "id": "value"}], "records": [{"_id": 1, "level_1": "Total", "value": "81", "month": "1970-01"}, {"_id": 2, "level_1": "Total", "value": "70", "month": "1970-02"}, {"_id": 3, "level_1": "Total", "value": "94", "month": "1970-03"}, {"_id": 4, "level_1": "Total", "value": "104", "month": "1970-04"}, {"_id": 5, "level_1": "Total", "value": "108", "month": "1970-05"}], "_links": {"start": "/api/action/datastore_search?limit=5&resource_id=696b8a7e-6d8a-4990-8c23-8d02aa454547", "next": "/api/action/datastore_search?offset=5&limit=5&resource_id=696b8a7e-6d8a-4990-8c23-8d02aa454547"}, "limit": 5, "total": 593}}