{"help": "https://data.gov.sg/api/3/action/help_show?name=datastore_search", "success": true, "result": {"resource_id": "5d03f34b-85cd-4929-8dd4-b60a488ac771", "fields": [{"type": "int4", "id": "_id"}, {"type": "text", "id": "half_year"}, {"type": "text", "id": "property_type"}, {"type": "text", "id": "estate"}, {"type": "numeric", "id": "district"}, {"type": "text", "id": "unit_floor_area_range"}, {"type": "text", "id": "rental_range"}], "records": [{"unit_floor_area_range": "131 - 295", "_id": 1, "estate": "Changi", "district": "17", "rental_range": "19 - 20", "property_type": "Bungalow", "half_year": "2015-H2"}, {"unit_floor_area_range": "372 - 492", "_id": 2, "estate": "Hume Heights", "district": "21", "rental_range": "22 - 30", "property_type": "Bungalow", "half_year": "2015-H2"}, {"unit_floor_area_range": "120 - 804", "_id": 3, "estate": "Sembawang", "district": "27", "rental_range": "13 - 24", "property_type": "Bungalow", "half_year": "2015-H2"}, {"unit_floor_area_range": "121 - 243", "_id": 4, "estate": "Seletar", "district": "28", "rental_range": "29 - 39", "property_type": "Bungalow", "half_year": "2015-H2"}, {"unit_floor_area_range": "74 - 196", "_id": 5, "estate": "Hooper", "district": "9", "rental_range": "Nov 51", "property_type": "Terrace House", "half_year": "2015-H2"}], "_links": {"start": "/api/action/datastore_search?limit=5&resource_id=5d03f34b-85cd-4929-8dd4-b60a488ac771", "next": "/api/action/datastore_search?offset=5&limit=5&resource_id=5d03f34b-85cd-4929-8dd4-b60a488ac771"}, "limit": 5, "total": 1146}}