{"help": "https://data.gov.sg/api/3/action/help_show?name=datastore_search", "success": true, "result": {"resource_id": "a077135a-a0ae-4656-9fd9-8fa61e8170bb", "fields": [{"type": "int4", "id": "_id"}, {"type": "numeric", "id": "financial_year"}, {"type": "text", "id": "housing_grant_scheme"}, {"type": "text", "id": "type_of_grant"}, {"type": "text", "id": "no_of_hh"}], "records": [{"type_of_grant": "Family Grant (living near parents/married child)", "_id": 1, "housing_grant_scheme": "CPF Housing Grant", "financial_year": "2010", "no_of_hh": "2249"}, {"type_of_grant": "Family Grant", "_id": 2, "housing_grant_scheme": "CPF Housing Grant", "financial_year": "2010", "no_of_hh": "4198"}, {"type_of_grant": "Singles Grant", "_id": 3, "housing_grant_scheme": "CPF Housing Grant", "financial_year": "2010", "no_of_hh": "926"}, {"type_of_grant": "Joint Singles Grant", "_id": 4, "housing_grant_scheme": "CPF Housing Grant", "financial_year": "2010", "no_of_hh": "59"}, {"type_of_grant": "na", "_id": 5, "housing_grant_scheme": "Additional CPF Housing Grant", "financial_year": "2010", "no_of_hh": "10307"}], "_links": {"start": "/api/action/datastore_search?limit=5&resource_id=a077135a-a0ae-4656-9fd9-8fa61e8170bb", "next": "/api/action/datastore_search?offset=5&limit=5&resource_id=a077135a-a0ae-4656-9fd9-8fa61e8170bb"}, "limit": 5, "total": 66}}