{"help": "https://data.gov.sg/api/3/action/help_show?name=datastore_search", "success": true, "result": {"resource_id": "c54f334b-9a46-4870-a301-da7816edf826", "fields": [{"type": "int4", "id": "_id"}, {"type": "text", "id": "month"}, {"type": "text", "id": "type"}, {"type": "numeric", "id": "numbers"}], "records": [{"_id": 1, "type": "Cars", "numbers": "5365", "month": "2014-01"}, {"_id": 2, "type": "Motorcycles", "numbers": "3991", "month": "2014-01"}, {"_id": 3, "type": "Goods and Other Vehicles", "numbers": "1270", "month": "2014-01"}, {"_id": 4, "type": "Buses", "numbers": "144", "month": "2014-01"}, {"_id": 5, "type": "Cars", "numbers": "4352", "month": "2014-02"}], "_links": {"start": "/api/action/datastore_search?limit=5&resource_id=c54f334b-9a46-4870-a301-da7816edf826", "next": "/api/action/datastore_search?offset=5&limit=5&resource_id=c54f334b-9a46-4870-a301-da7816edf826"}, "limit": 5, "total": 200}}