{"help": "https://data.gov.sg/api/3/action/help_show?name=datastore_search", "success": true, "result": {"resource_id": "a6e85e76-ca84-41de-8305-5ddf14356e4c", "fields": [{"type": "int4", "id": "_id"}, {"type": "numeric", "id": "financial_year"}, {"type": "text", "id": "entity_type"}, {"type": "numeric", "id": "no_of_businesses"}], "records": [{"_id": 1, "no_of_businesses": "70292", "financial_year": "2011", "entity_type": "Corporate"}, {"_id": 2, "no_of_businesses": "8068", "financial_year": "2011", "entity_type": "Sole-Proprietorship"}, {"_id": 3, "no_of_businesses": "3872", "financial_year": "2011", "entity_type": "Partnership"}, {"_id": 4, "no_of_businesses": "1858", "financial_year": "2011", "entity_type": "Others"}, {"_id": 5, "no_of_businesses": "73939", "financial_year": "2012", "entity_type": "Corporate"}], "_links": {"start": "/api/action/datastore_search?limit=5&resource_id=a6e85e76-ca84-41de-8305-5ddf14356e4c", "next": "/api/action/datastore_search?offset=5&limit=5&resource_id=a6e85e76-ca84-41de-8305-5ddf14356e4c"}, "limit": 5, "total": 36}}