{"help": "https://data.gov.sg/api/3/action/help_show?name=datastore_search", "success": true, "result": {"resource_id": "7c4cf27f-77d3-4da1-b01b-968c3e3552fa", "fields": [{"type": "int4", "id": "_id"}, {"type": "numeric", "id": "year"}, {"type": "numeric", "id": "illegal_immigrants_count"}], "records": [{"_id": 1, "illegal_immigrants_count": "930", "year": "2011"}, {"_id": 2, "illegal_immigrants_count": "690", "year": "2012"}, {"_id": 3, "illegal_immigrants_count": "600", "year": "2013"}, {"_id": 4, "illegal_immigrants_count": "350", "year": "2014"}, {"_id": 5, "illegal_immigrants_count": "310", "year": "2015"}], "_links": {"start": "/api/action/datastore_search?limit=5&resource_id=7c4cf27f-77d3-4da1-b01b-968c3e3552fa", "next": "/api/action/datastore_search?offset=5&limit=5&resource_id=7c4cf27f-77d3-4da1-b01b-968c3e3552fa"}, "limit": 5, "total": 9}}