{"help": "https://data.gov.sg/api/3/action/help_show?name=datastore_search", "success": true, "result": {"resource_id": "d4dbffc1-b097-4d86-9da8-afaf91dfbcbd", "fields": [{"type": "int4", "id": "_id"}, {"type": "numeric", "id": "financial_year"}, {"type": "text", "id": "actual_revised_estimated"}, {"type": "text", "id": "class"}, {"type": "text", "id": "type"}, {"type": "numeric", "id": "amount"}, {"type": "numeric", "id": "percent_of_gdp"}], "records": [{"percent_of_gdp": "0.045", "actual_revised_estimated": "Actual", "amount": "6809", "financial_year": "1997", "_id": 1, "type": "Corporate Income Tax", "class": "Tax"}, {"percent_of_gdp": "0.044", "actual_revised_estimated": "Actual", "amount": "6256", "financial_year": "1998", "_id": 2, "type": "Corporate Income Tax", "class": "Tax"}, {"percent_of_gdp": "0.044", "actual_revised_estimated": "Actual", "amount": "6565", "financial_year": "1999", "_id": 3, "type": "Corporate Income Tax", "class": "Tax"}, {"percent_of_gdp": "0.049", "actual_revised_estimated": "Actual", "amount": "8316", "financial_year": "2000", "_id": 4, "type": "Corporate Income Tax", "class": "Tax"}, {"percent_of_gdp": "0.049", "actual_revised_estimated": "Actual", "amount": "7821", "financial_year": "2001", "_id": 5, "type": "Corporate Income Tax", "class": "Tax"}], "_links": {"start": "/api/action/datastore_search?limit=5&resource_id=d4dbffc1-b097-4d86-9da8-afaf91dfbcbd", "next": "/api/action/datastore_search?offset=5&limit=5&resource_id=d4dbffc1-b097-4d86-9da8-afaf91dfbcbd"}, "limit": 5, "total": 336}}