{"help": "https://data.gov.sg/api/3/action/help_show?name=datastore_search", "success": true, "result": {"resource_id": "b8aced5e-fc60-4d7e-9b17-e68ac1bb5662", "fields": [{"type": "int4", "id": "_id"}, {"type": "text", "id": "year"}, {"type": "text", "id": "level_1"}, {"type": "numeric", "id": "value"}], "records": [{"_id": 1, "level_1": "Establishments, Total Services Sector", "value": "186767", "year": "2015"}, {"_id": 2, "level_1": "Establishments, SSIC 46 - Total Wholesale Trade", "value": "49266", "year": "2015"}, {"_id": 3, "level_1": "Establishments, SSIC 47 - Total Retail Trade", "value": "25650", "year": "2015"}, {"_id": 4, "level_1": "Establishments, SSIC 49-53 - Total Transport & Storage Services", "value": "12018", "year": "2015"}, {"_id": 5, "level_1": "Establishments, SSIC 55 - Total  Accommodation Services", "value": "483", "year": "2015"}], "_links": {"start": "/api/action/datastore_search?limit=5&resource_id=b8aced5e-fc60-4d7e-9b17-e68ac1bb5662", "next": "/api/action/datastore_search?offset=5&limit=5&resource_id=b8aced5e-fc60-4d7e-9b17-e68ac1bb5662"}, "limit": 5, "total": 27}}