{"help": "https://data.gov.sg/api/3/action/help_show?name=datastore_search", "success": true, "result": {"resource_id": "dd494c5a-d651-4fed-8e32-65dd72a5921d", "fields": [{"type": "int4", "id": "_id"}, {"type": "numeric", "id": "year"}, {"type": "text", "id": "level_1"}, {"type": "numeric", "id": "value"}], "records": [{"_id": 1, "level_1": "GDP In Chained (2015) Dollars", "value": "8170.2", "year": "1960"}, {"_id": 2, "level_1": "GDP In Chained (2015) Dollars", "value": "8835", "year": "1961"}, {"_id": 3, "level_1": "GDP In Chained (2015) Dollars", "value": "9502.4", "year": "1962"}, {"_id": 4, "level_1": "GDP In Chained (2015) Dollars", "value": "10456.5", "year": "1963"}, {"_id": 5, "level_1": "GDP In Chained (2015) Dollars", "value": "10132", "year": "1964"}], "_links": {"start": "/api/action/datastore_search?limit=5&resource_id=dd494c5a-d651-4fed-8e32-65dd72a5921d", "next": "/api/action/datastore_search?offset=5&limit=5&resource_id=dd494c5a-d651-4fed-8e32-65dd72a5921d"}, "limit": 5, "total": 60}}