{"help": "https://data.gov.sg/api/3/action/help_show?name=datastore_search", "success": true, "result": {"resource_id": "51196a50-8ec9-43de-bbc4-21dae04114fa", "fields": [{"type": "int4", "id": "_id"}, {"type": "numeric", "id": "year"}, {"type": "text", "id": "level_1"}, {"type": "numeric", "id": "value"}], "records": [{"_id": 1, "level_1": "Total Residents In The Labour Force", "value": "1314.6", "year": "1990"}, {"_id": 2, "level_1": "Total Employed Residents", "value": "1288.8", "year": "1990"}, {"_id": 3, "level_1": "Total Unemployed Residents", "value": "25.8", "year": "1990"}, {"_id": 4, "level_1": "Total Residents Outside The Labour Force", "value": "764.2", "year": "1990"}, {"_id": 5, "level_1": "Total Residents In The Labour Force", "value": "1372.9", "year": "1991"}], "_links": {"start": "/api/action/datastore_search?limit=5&resource_id=51196a50-8ec9-43de-bbc4-21dae04114fa", "next": "/api/action/datastore_search?offset=5&limit=5&resource_id=51196a50-8ec9-43de-bbc4-21dae04114fa"}, "limit": 5, "total": 120}}