{"help": "https://data.gov.sg/api/3/action/help_show?name=datastore_search", "success": true, "result": {"resource_id": "0fe2c982-5090-4b14-aada-bcd971868867", "fields": [{"type": "int4", "id": "_id"}, {"type": "text", "id": "year"}, {"type": "text", "id": "level_1"}, {"type": "text", "id": "level_2"}, {"type": "numeric", "id": "value"}], "records": [{"value": "3218", "_id": 1, "level_1": "Establishments, SSIC 47 - Total Retail Trade", "level_2": "SSIC 471 - General Merchandise", "year": "2000"}, {"value": "1397", "_id": 2, "level_1": "Establishments, SSIC 47 - Total Retail Trade", "level_2": "SSIC 473 - Transport Equipment", "year": "2000"}, {"value": "7742", "_id": 3, "level_1": "Establishments, SSIC 47 - Total Retail Trade", "level_2": "SSIC 4771/4772/4773/4775/476 - Personal Goods", "year": "2000"}, {"value": "3196", "_id": 4, "level_1": "Establishments, SSIC 47 - Total Retail Trade", "level_2": "SSIC 4741/4742/4751/4753 - Household Equipment", "year": "2000"}, {"value": "4276", "_id": 5, "level_1": "Establishments, SSIC 47 - Total Retail Trade", "level_2": "SSIC 472/4752/4774/4776/4777/479 - Others", "year": "2000"}], "_links": {"start": "/api/action/datastore_search?limit=5&resource_id=0fe2c982-5090-4b14-aada-bcd971868867", "next": "/api/action/datastore_search?offset=5&limit=5&resource_id=0fe2c982-5090-4b14-aada-bcd971868867"}, "limit": 5, "total": 90}}