{"help": "https://data.gov.sg/api/3/action/help_show?name=datastore_search", "success": true, "result": {"resource_id": "3c8b4c42-4150-4a94-b779-d9eeaf26529d", "fields": [{"type": "int4", "id": "_id"}, {"type": "text", "id": "year"}, {"type": "text", "id": "level_1"}, {"type": "text", "id": "level_2"}, {"type": "numeric", "id": "value"}], "records": [{"value": "99109.4", "_id": 1, "level_1": "Total Services Sector, Operating Expenditure", "level_2": "Remuneration", "year": "2015"}, {"value": "-9286.3", "_id": 2, "level_1": "Total Services Sector, Operating Expenditure", "level_2": "Changes In Inventory", "year": "2015"}, {"value": "2212174.6", "_id": 3, "level_1": "Total Services Sector, Operating Expenditure", "level_2": "Purchases Of Goods & Materials", "year": "2015"}, {"value": "22822.8", "_id": 4, "level_1": "Total Services Sector, Operating Expenditure", "level_2": "Depreciation", "year": "2015"}, {"value": "80252.7", "_id": 5, "level_1": "Total Services Sector, Operating Expenditure", "level_2": "Freight & Transport Charges", "year": "2015"}], "_links": {"start": "/api/action/datastore_search?limit=5&resource_id=3c8b4c42-4150-4a94-b779-d9eeaf26529d", "next": "/api/action/datastore_search?offset=5&limit=5&resource_id=3c8b4c42-4150-4a94-b779-d9eeaf26529d"}, "limit": 5, "total": 540}}