{"help": "https://data.gov.sg/api/3/action/help_show?name=datastore_search", "success": true, "result": {"resource_id": "d0b4d3f8-fc65-4350-b4d1-05c233ff612f", "fields": [{"type": "int4", "id": "_id"}, {"type": "text", "id": "month"}, {"type": "text", "id": "type"}, {"type": "text", "id": "age"}, {"type": "numeric", "id": "number"}], "records": [{"age": "17 - < 18", "_id": 1, "type": "Motorcycles", "number": "2377", "month": "2016-06"}, {"age": "18 - < 19", "_id": 2, "type": "Motorcycles", "number": "2234", "month": "2016-06"}, {"age": "19 - < 20", "_id": 3, "type": "Motorcycles", "number": "1348", "month": "2016-06"}, {"age": "20 and above", "_id": 4, "type": "Motorcycles", "number": "8948", "month": "2016-06"}, {"age": "0 - < 1", "_id": 5, "type": "Buses", "number": "1877", "month": "2016-07"}], "_links": {"start": "/api/action/datastore_search?limit=5&resource_id=d0b4d3f8-fc65-4350-b4d1-05c233ff612f", "next": "/api/action/datastore_search?offset=5&limit=5&resource_id=d0b4d3f8-fc65-4350-b4d1-05c233ff612f"}, "limit": 5, "total": 3868}}