{"help": "https://data.gov.sg/api/3/action/help_show?name=datastore_search", "success": true, "result": {"resource_id": "2222b452-7ab9-49e2-8a82-e134597248b6", "fields": [{"type": "int4", "id": "_id"}, {"type": "numeric", "id": "financial_year"}, {"type": "text", "id": "tax_type"}, {"type": "numeric", "id": "no_of_cases"}, {"type": "numeric", "id": "tax_and_penalty_arising"}], "records": [{"tax_and_penalty_arising": "197833", "tax_type": "GST", "_id": 1, "financial_year": "2002", "no_of_cases": "19611"}, {"tax_and_penalty_arising": "53254", "tax_type": "Individual and Corporate Income Tax", "_id": 2, "financial_year": "2002", "no_of_cases": "2992"}, {"tax_and_penalty_arising": "247107", "tax_type": "GST", "_id": 3, "financial_year": "2003", "no_of_cases": "19981"}, {"tax_and_penalty_arising": "149150", "tax_type": "Individual and Corporate Income Tax", "_id": 4, "financial_year": "2003", "no_of_cases": "16810"}, {"tax_and_penalty_arising": "117030", "tax_type": "GST", "_id": 5, "financial_year": "2004", "no_of_cases": "2820"}], "_links": {"start": "/api/action/datastore_search?limit=5&resource_id=2222b452-7ab9-49e2-8a82-e134597248b6", "next": "/api/action/datastore_search?offset=5&limit=5&resource_id=2222b452-7ab9-49e2-8a82-e134597248b6"}, "limit": 5, "total": 47}}