{"help": "https://data.gov.sg/api/3/action/help_show?name=datastore_search", "success": true, "result": {"resource_id": "01e85012-332d-48b0-85a0-c6a4964718c7", "fields": [{"type": "int4", "id": "_id"}, {"type": "numeric", "id": "year"}, {"type": "text", "id": "level_1"}, {"type": "text", "id": "value"}], "records": [{"_id": 1, "level_1": "All Items", "value": "0.5", "year": "1962"}, {"_id": 2, "level_1": "All Items Less Imputed Rentals On Owner-Occupied Accommodation", "value": "na", "year": "1962"}, {"_id": 3, "level_1": "All Items Less Accommodation", "value": "na", "year": "1962"}, {"_id": 4, "level_1": "MAS Core Inflation Measure", "value": "na", "year": "1962"}, {"_id": 5, "level_1": "All Items", "value": "2.1", "year": "1963"}], "_links": {"start": "/api/action/datastore_search?limit=5&resource_id=01e85012-332d-48b0-85a0-c6a4964718c7", "next": "/api/action/datastore_search?offset=5&limit=5&resource_id=01e85012-332d-48b0-85a0-c6a4964718c7"}, "limit": 5, "total": 228}}