{"help": "https://data.gov.sg/api/3/action/help_show?name=datastore_search", "success": true, "result": {"resource_id": "b698c206-a63c-489f-8c50-b439c349c025", "fields": [{"type": "int4", "id": "_id"}, {"type": "numeric", "id": "year"}, {"type": "text", "id": "institution_type"}, {"type": "text", "id": "sector"}, {"type": "numeric", "id": "no_of_facilities"}], "records": [{"sector": "Total", "no_of_facilities": "822", "_id": 1, "institution_type": "Dental Clinics", "year": "2009"}, {"sector": "Public", "no_of_facilities": "240", "_id": 2, "institution_type": "Dental Clinics", "year": "2009"}, {"sector": "Private", "no_of_facilities": "582", "_id": 3, "institution_type": "Dental Clinics", "year": "2009"}, {"sector": "Total", "no_of_facilities": "211", "_id": 4, "institution_type": "Pharmacies", "year": "2009"}, {"sector": "Public", "no_of_facilities": "58", "_id": 5, "institution_type": "Pharmacies", "year": "2009"}], "_links": {"start": "/api/action/datastore_search?limit=5&resource_id=b698c206-a63c-489f-8c50-b439c349c025", "next": "/api/action/datastore_search?offset=5&limit=5&resource_id=b698c206-a63c-489f-8c50-b439c349c025"}, "limit": 5, "total": 66}}