{"help": "https://data.gov.sg/api/3/action/help_show?name=datastore_search", "success": true, "result": {"resource_id": "47de52df-3754-49fb-8c79-eceec5d39f7d", "fields": [{"type": "int4", "id": "_id"}, {"type": "text", "id": "year"}, {"type": "text", "id": "ethnic_group"}, {"type": "numeric", "id": "infant_deaths"}, {"type": "numeric", "id": "infant_mortality_rate"}], "records": [{"ethnic_group": "Chinese", "infant_deaths": "658", "_id": 1, "infant_mortality_rate": "18.5", "year": "1971"}, {"ethnic_group": "Malays", "infant_deaths": "203", "_id": 2, "infant_mortality_rate": "28", "year": "1971"}, {"ethnic_group": "Indians", "infant_deaths": "70", "_id": 3, "infant_mortality_rate": "22.7", "year": "1971"}, {"ethnic_group": "Others", "infant_deaths": "17", "_id": 4, "infant_mortality_rate": "14.9", "year": "1971"}, {"ethnic_group": "Chinese", "infant_deaths": "677", "_id": 5, "infant_mortality_rate": "17.9", "year": "1972"}], "_links": {"start": "/api/action/datastore_search?limit=5&resource_id=47de52df-3754-49fb-8c79-eceec5d39f7d", "next": "/api/action/datastore_search?offset=5&limit=5&resource_id=47de52df-3754-49fb-8c79-eceec5d39f7d"}, "limit": 5, "total": 192}}