{"help": "https://data.gov.sg/api/3/action/help_show?name=datastore_search", "success": true, "result": {"resource_id": "a6fb9294-f0d2-4851-8b18-1e90ce54f130", "fields": [{"type": "int4", "id": "_id"}, {"type": "numeric", "id": "year"}, {"type": "text", "id": "sector"}, {"type": "text", "id": "type_of_rnd_manpower"}, {"type": "numeric", "id": "headcount"}], "records": [{"sector": "Private Sector", "headcount": "1845", "_id": 1, "type_of_rnd_manpower": "PhD", "year": "2018"}, {"sector": "Private Sector", "headcount": "5268", "_id": 2, "type_of_rnd_manpower": "Masters", "year": "2018"}, {"sector": "Private Sector", "headcount": "12273", "_id": 3, "type_of_rnd_manpower": "Bachelors", "year": "2018"}, {"sector": "Private Sector", "headcount": "1774", "_id": 4, "type_of_rnd_manpower": "Non Degree", "year": "2018"}, {"sector": "Private Sector", "headcount": "1315", "_id": 5, "type_of_rnd_manpower": "Technicians", "year": "2018"}], "_links": {"start": "/api/action/datastore_search?limit=5&resource_id=a6fb9294-f0d2-4851-8b18-1e90ce54f130", "next": "/api/action/datastore_search?offset=5&limit=5&resource_id=a6fb9294-f0d2-4851-8b18-1e90ce54f130"}, "limit": 5, "total": 225}}