{"help": "https://data.gov.sg/api/3/action/help_show?name=datastore_search", "success": true, "result": {"resource_id": "8c815c48-30cf-479c-afb0-96ac5ca00f0e", "fields": [{"type": "int4", "id": "_id"}, {"type": "text", "id": "quarter"}, {"type": "text", "id": "level_1"}, {"type": "text", "id": "value"}], "records": [{"quarter": "1995-Q4", "_id": 1, "level_1": "Weighted Percentages Of Same - Information & Communications", "value": "na"}, {"quarter": "1995-Q4", "_id": 2, "level_1": "Weighted Percentages Of Down - Information & Communications", "value": "na"}, {"quarter": "1995-Q4", "_id": 3, "level_1": "Net Weighted Balance - Financial & Insurance", "value": "na"}, {"quarter": "1995-Q4", "_id": 4, "level_1": "Weighted Percentages Of Up - Financial & Insurance", "value": "na"}, {"quarter": "1995-Q4", "_id": 5, "level_1": "Weighted Percentages Of Same - Financial & Insurance", "value": "na"}], "_links": {"start": "/api/action/datastore_search?limit=5&resource_id=8c815c48-30cf-479c-afb0-96ac5ca00f0e", "next": "/api/action/datastore_search?offset=5&limit=5&resource_id=8c815c48-30cf-479c-afb0-96ac5ca00f0e"}, "limit": 5, "total": 14582}}