{"help": "https://data.gov.sg/api/3/action/help_show?name=datastore_search", "success": true, "result": {"resource_id": "9c1abc15-1a87-4e88-8de5-ffee1c6ed390", "fields": [{"type": "int4", "id": "_id"}, {"type": "text", "id": "bus_operator"}, {"type": "text", "id": "bus_service_no"}], "records": [{"_id": 1, "bus_operator": "SBST", "bus_service_no": "2"}, {"_id": 2, "bus_operator": "SBST", "bus_service_no": "3"}, {"_id": 3, "bus_operator": "SBST", "bus_service_no": "4"}, {"_id": 4, "bus_operator": "SBST", "bus_service_no": "5"}, {"_id": 5, "bus_operator": "SBST", "bus_service_no": "6"}], "_links": {"start": "/api/action/datastore_search?limit=5&resource_id=9c1abc15-1a87-4e88-8de5-ffee1c6ed390", "next": "/api/action/datastore_search?offset=5&limit=5&resource_id=9c1abc15-1a87-4e88-8de5-ffee1c6ed390"}, "limit": 5, "total": 224}}