{"help": "https://data.gov.sg/api/3/action/help_show?name=datastore_search", "success": true, "result": {"resource_id": "7f513bcc-1a28-469c-a891-e198e306364c", "fields": [{"type": "int4", "id": "_id"}, {"type": "numeric", "id": "year"}, {"type": "text", "id": "race"}, {"type": "numeric", "id": "percentage_pass_eng"}], "records": [{"_id": 1, "percentage_pass_eng": "77.3", "race": "Malay", "year": "2008"}, {"_id": 2, "percentage_pass_eng": "75", "race": "Chinese", "year": "2008"}, {"_id": 3, "percentage_pass_eng": "83.2", "race": "Indian", "year": "2008"}, {"_id": 4, "percentage_pass_eng": "90.2", "race": "Others", "year": "2008"}, {"_id": 5, "percentage_pass_eng": "77.1", "race": "Overall", "year": "2008"}], "_links": {"start": "/api/action/datastore_search?limit=5&resource_id=7f513bcc-1a28-469c-a891-e198e306364c", "next": "/api/action/datastore_search?offset=5&limit=5&resource_id=7f513bcc-1a28-469c-a891-e198e306364c"}, "limit": 5, "total": 60}}