{"help": "https://data.gov.sg/api/3/action/help_show?name=datastore_search", "success": true, "result": {"resource_id": "5d68d9b1-59d3-4133-a29f-3c301e73e1db", "fields": [{"type": "int4", "id": "_id"}, {"type": "numeric", "id": "year"}, {"type": "text", "id": "mode"}, {"type": "numeric", "id": "ave_distance_per_trip"}], "records": [{"ave_distance_per_trip": "11.5", "_id": 1, "mode": "MRT", "year": "2004"}, {"ave_distance_per_trip": "0", "_id": 2, "mode": "LRT", "year": "2004"}, {"ave_distance_per_trip": "5.2", "_id": 3, "mode": "Bus", "year": "2004"}, {"ave_distance_per_trip": "8.5", "_id": 4, "mode": "Taxi", "year": "2004"}, {"ave_distance_per_trip": "11.5", "_id": 5, "mode": "MRT", "year": "2005"}], "_links": {"start": "/api/action/datastore_search?limit=5&resource_id=5d68d9b1-59d3-4133-a29f-3c301e73e1db", "next": "/api/action/datastore_search?offset=5&limit=5&resource_id=5d68d9b1-59d3-4133-a29f-3c301e73e1db"}, "limit": 5, "total": 88}}