{"help": "https://data.gov.sg/api/3/action/help_show?name=datastore_search", "success": true, "result": {"resource_id": "6523a290-370f-4ffd-b279-5985d5af01ef", "fields": [{"type": "int4", "id": "_id"}, {"type": "text", "id": "quarter"}, {"type": "text", "id": "level_1"}, {"type": "text", "id": "value"}], "records": [{"quarter": "1995-Q1", "_id": 1, "level_1": "Total", "value": "76.2"}, {"quarter": "1995-Q1", "_id": 2, "level_1": "Total (Excluding Petroleum)", "value": "75"}, {"quarter": "1995-Q1", "_id": 3, "level_1": "Food, Beverages And Tobacco", "value": "78.6"}, {"quarter": "1995-Q1", "_id": 4, "level_1": "Household Equipment And Furniture", "value": "98.3"}, {"quarter": "1995-Q1", "_id": 5, "level_1": "Petroleum And Petroleum Products", "value": "68.7"}], "_links": {"start": "/api/action/datastore_search?limit=5&resource_id=6523a290-370f-4ffd-b279-5985d5af01ef", "next": "/api/action/datastore_search?offset=5&limit=5&resource_id=6523a290-370f-4ffd-b279-5985d5af01ef"}, "limit": 5, "total": 1260}}