{"help": "https://data.gov.sg/api/3/action/help_show?name=datastore_search", "success": true, "result": {"resource_id": "1128e807-b450-436f-a7c7-8970b5273434", "fields": [{"type": "int4", "id": "_id"}, {"type": "text", "id": "month"}, {"type": "text", "id": "vessel_type"}, {"type": "numeric", "id": "number_of_vessels"}, {"type": "numeric", "id": "gross_tonnage"}], "records": [{"gross_tonnage": "10682.6", "_id": 1, "number_of_vessels": "372", "vessel_type": "Bulk Carrier", "month": "1997-08"}, {"gross_tonnage": "23161.27", "_id": 2, "number_of_vessels": "1433", "vessel_type": "Tanker", "month": "1997-08"}, {"gross_tonnage": "1972.86", "_id": 3, "number_of_vessels": "3180", "vessel_type": "Passenger", "month": "1997-08"}, {"gross_tonnage": "2058.06", "_id": 4, "number_of_vessels": "2040", "vessel_type": "Barges", "month": "1997-08"}, {"gross_tonnage": "215.23", "_id": 5, "number_of_vessels": "1433", "vessel_type": "Tug", "month": "1997-08"}], "_links": {"start": "/api/action/datastore_search?limit=5&resource_id=1128e807-b450-436f-a7c7-8970b5273434", "next": "/api/action/datastore_search?offset=5&limit=5&resource_id=1128e807-b450-436f-a7c7-8970b5273434"}, "limit": 5, "total": 4694}}