{"help": "https://data.gov.sg/api/3/action/help_show?name=datastore_search", "success": true, "result": {"resource_id": "0cf3d7a3-4b27-4fdb-8c33-8f73792d0d26", "fields": [{"type": "int4", "id": "_id"}, {"type": "text", "id": "year"}, {"type": "text", "id": "level_1"}, {"type": "numeric", "id": "value"}], "records": [{"_id": 1, "level_1": "Total Grooms", "value": "4032", "year": "1980"}, {"_id": 2, "level_1": "Malay Grooms", "value": "3431", "year": "1980"}, {"_id": 3, "level_1": "Indian Grooms", "value": "426", "year": "1980"}, {"_id": 4, "level_1": "Other Grooms", "value": "175", "year": "1980"}, {"_id": 5, "level_1": "Total Brides", "value": "4032", "year": "1980"}], "_links": {"start": "/api/action/datastore_search?limit=5&resource_id=0cf3d7a3-4b27-4fdb-8c33-8f73792d0d26", "next": "/api/action/datastore_search?offset=5&limit=5&resource_id=0cf3d7a3-4b27-4fdb-8c33-8f73792d0d26"}, "limit": 5, "total": 312}}