{"help": "https://data.gov.sg/api/3/action/help_show?name=datastore_search", "success": true, "result": {"resource_id": "f5d6dd23-f64a-4cbc-9460-26a52be9363b", "fields": [{"type": "int4", "id": "_id"}, {"type": "text", "id": "year"}, {"type": "text", "id": "level_1"}, {"type": "text", "id": "level_2"}, {"type": "text", "id": "level_3"}, {"type": "numeric", "id": "value"}], "records": [{"value": "2948.5", "year": "2015", "_id": 1, "level_1": "Total", "level_2": "Total", "level_3": "Total"}, {"value": "103.8", "year": "2015", "_id": 2, "level_1": "Total", "level_2": "Total", "level_3": "Not Literate"}, {"value": "2844.8", "year": "2015", "_id": 3, "level_1": "Total", "level_2": "Total", "level_3": "Literate"}, {"value": "811.3", "year": "2015", "_id": 4, "level_1": "Total", "level_2": "Total", "level_3": "One Language Only"}, {"value": "1872.4", "year": "2015", "_id": 5, "level_1": "Total", "level_2": "Total", "level_3": "Two Languages Only"}], "_links": {"start": "/api/action/datastore_search?limit=5&resource_id=f5d6dd23-f64a-4cbc-9460-26a52be9363b", "next": "/api/action/datastore_search?offset=5&limit=5&resource_id=f5d6dd23-f64a-4cbc-9460-26a52be9363b"}, "limit": 5, "total": 162}}