{"help": "https://data.gov.sg/api/3/action/help_show?name=datastore_search", "success": true, "result": {"resource_id": "8b6f2ae6-5091-460f-81a9-e3ccae402f50", "fields": [{"type": "int4", "id": "_id"}, {"type": "numeric", "id": "year_of_assessment"}, {"type": "text", "id": "chargeable_income_group"}, {"type": "numeric", "id": "no_of_companies"}, {"type": "numeric", "id": "chargeable_income"}, {"type": "numeric", "id": "net_tax_assessed"}], "records": [{"chargeable_income": "35165", "no_of_companies": "10514", "chargeable_income_group": "10,000 & below", "net_tax_assessed": "6303", "year_of_assessment": "2008", "_id": 1}, {"chargeable_income": "60962", "no_of_companies": "4173", "chargeable_income_group": "10,001 - 20,000", "net_tax_assessed": "10925", "year_of_assessment": "2008", "_id": 2}, {"chargeable_income": "74194", "no_of_companies": "2993", "chargeable_income_group": "20,001 - 30,000", "net_tax_assessed": "13262", "year_of_assessment": "2008", "_id": 3}, {"chargeable_income": "78529", "no_of_companies": "2256", "chargeable_income_group": "30,001 - 40,000", "net_tax_assessed": "14081", "year_of_assessment": "2008", "_id": 4}, {"chargeable_income": "172259", "no_of_companies": "3488", "chargeable_income_group": "40,001 - 60,000", "net_tax_assessed": "30782", "year_of_assessment": "2008", "_id": 5}], "_links": {"start": "/api/action/datastore_search?limit=5&resource_id=8b6f2ae6-5091-460f-81a9-e3ccae402f50", "next": "/api/action/datastore_search?offset=5&limit=5&resource_id=8b6f2ae6-5091-460f-81a9-e3ccae402f50"}, "limit": 5, "total": 216}}