{"help": "https://data.gov.sg/api/3/action/help_show?name=datastore_search", "success": true, "result": {"resource_id": "df4d391e-6950-4fc6-80cd-c9b9ef6354fe", "fields": [{"type": "int4", "id": "_id"}, {"type": "text", "id": "month"}, {"type": "numeric", "id": "maximum_rainfall_in_a_day"}], "records": [{"maximum_rainfall_in_a_day": "52", "_id": 1, "month": "1998-09"}, {"maximum_rainfall_in_a_day": "32.4", "_id": 2, "month": "1998-10"}, {"maximum_rainfall_in_a_day": "57.5", "_id": 3, "month": "1998-11"}, {"maximum_rainfall_in_a_day": "84.4", "_id": 4, "month": "1998-12"}, {"maximum_rainfall_in_a_day": "52.5", "_id": 5, "month": "1999-01"}], "_links": {"start": "/api/action/datastore_search?limit=5&resource_id=df4d391e-6950-4fc6-80cd-c9b9ef6354fe", "next": "/api/action/datastore_search?offset=5&limit=5&resource_id=df4d391e-6950-4fc6-80cd-c9b9ef6354fe"}, "limit": 5, "total": 730}}