{"help": "https://data.gov.sg/api/3/action/help_show?name=datastore_search", "success": true, "result": {"resource_id": "c408bc74-50e3-40ae-968f-217744965c5b", "fields": [{"type": "int4", "id": "_id"}, {"type": "text", "id": "year"}, {"type": "text", "id": "icd_main_category"}, {"type": "text", "id": "icd_detail_category"}, {"type": "numeric", "id": "death_count"}, {"type": "numeric", "id": "death_rate"}], "records": [{"death_rate": "0.813512648", "icd_detail_category": "1-003-Diarrhoea and gastroenteritis of presumed infectious origin(A09)", "death_count": "34", "year": "2016", "_id": 1, "icd_main_category": "1-001-Certain infection and parasitic diseases(A10-B99)"}, {"death_rate": "0.050844541", "icd_detail_category": "1-004-Other intestinal infectious diseases(A01-A08)", "death_count": "3", "year": "2016", "_id": 2, "icd_main_category": "1-001-Certain infection and parasitic diseases(A10-B99)"}, {"death_rate": "0.91520173", "icd_detail_category": "1-005-Respiratory tuberculosis(A15-A16)", "death_count": "38", "year": "2016", "_id": 3, "icd_main_category": "1-001-Certain infection and parasitic diseases(A10-B99)"}, {"death_rate": "0.076266811", "icd_detail_category": "1-006-Other tuberculosis(A17-A19)", "death_count": "3", "year": "2016", "_id": 4, "icd_main_category": "1-001-Certain infection and parasitic diseases(A10-B99)"}, {"death_rate": "0.711823567", "icd_detail_category": "1-012-Septicaemia(A40-A41)", "death_count": "29", "year": "2016", "_id": 5, "icd_main_category": "1-001-Certain infection and parasitic diseases(A10-B99)"}], "_links": {"start": "/api/action/datastore_search?limit=5&resource_id=c408bc74-50e3-40ae-968f-217744965c5b", "next": "/api/action/datastore_search?offset=5&limit=5&resource_id=c408bc74-50e3-40ae-968f-217744965c5b"}, "limit": 5, "total": 213}}