{"help": "https://data.gov.sg/api/3/action/help_show?name=datastore_search", "success": true, "result": {"resource_id": "250540ed-5648-49a6-b9ce-5068931a931b", "fields": [{"type": "int4", "id": "_id"}, {"type": "numeric", "id": "year"}, {"type": "text", "id": "title"}, {"type": "text", "id": "company_name"}, {"type": "text", "id": "language"}, {"type": "text", "id": "event_type"}, {"type": "text", "id": "performance_start_date"}, {"type": "text", "id": "performance_end_date"}, {"type": "text", "id": "venue_block_number"}, {"type": "text", "id": "venue_street_name"}, {"type": "text", "id": "venue_floor_number"}, {"type": "text", "id": "venue_unit_number"}, {"type": "text", "id": "venue_building_name"}, {"type": "text", "id": "ddress_firstline"}, {"type": "text", "id": "address_secondline"}, {"type": "text", "id": "address_thirdline"}, {"type": "text", "id": "synopsis"}, {"type": "text", "id": "rating_decision"}, {"type": "text", "id": "consumer_advice"}, {"type": "text", "id": "classification_info"}], "records": [{"consumer_advice": "Nudity", "venue_block_number": "10", "rating_decision": "R18", "event_type": "Dance", "language": "ENGLISH", "title": "CRAZY HORSE", "ddress_firstline": "na", "performance_end_date": "10/29/2017", "address_secondline": "na", "synopsis": "Indoor performance featuring a topless female revue from Paris.", "venue_unit_number": "na", "performance_start_date": "10/11/2017", "company_name": "BASE ENTERTAINMENT MARINA BAY SUB PTE. LTD.", "year": "2017", "venue_floor_number": "na", "address_thirdline": "na", "_id": 1, "venue_street_name": "BAYFRONT AVENUE", "classification_info": "The cabaret revue is rated \u201cRestricted 18\u201d with the consumer advice \u201cNudity\u201d as it features topless performances by female dancers.", "venue_building_name": "MARINA BAY SANDS"}, {"consumer_advice": "Some Mature Content", "venue_block_number": "1", "rating_decision": "Advisory 16", "event_type": "Dance", "language": "ENGLISH", "title": "AND SO YOU SEE ? OUR HONOURABLE BLUE SKY AND EVER ENDURING SUN ? CAN ONLY BE CONSUMED SLICE BY SLICE ?", "ddress_firstline": "na", "performance_end_date": "9/9/2017", "address_secondline": "na", "synopsis": "Staged as part of SIFA 2017, this is a contemporary dance performance by South African male dancer, Albert Khoza, who portrays the excesses of the Seven Deadly Sins (Envy, Gluttony, Greed, Lust, Pride, Sloth, Wrath).", "venue_unit_number": "na", "performance_start_date": "9/6/2017", "company_name": "ARTS HOUSE LTD.", "year": "2017", "venue_floor_number": "na", "address_thirdline": "na", "_id": 2, "venue_street_name": "ZUBIR SAID DRIVE", "classification_info": "The dance performance is rated Advisory 16 with the consumer advice \u201cSome Mature Content\u201d as it contains sexual references as well as simulated sexual gestures.", "venue_building_name": "na"}, {"consumer_advice": "na", "venue_block_number": "10", "rating_decision": "General", "event_type": "Dance", "language": "ENGLISH", "title": "MARK", "ddress_firstline": "na", "performance_end_date": "9/2/2017", "address_secondline": "na", "synopsis": "Indoor dance performance.", "venue_unit_number": "na", "performance_start_date": "8/31/2017", "company_name": "ARTS HOUSE LTD.", "year": "2017", "venue_floor_number": "na", "address_thirdline": "na", "_id": 3, "venue_street_name": "BAYFRONT AVENUE", "classification_info": "na", "venue_building_name": "MARINA BAY SANDS"}, {"consumer_advice": "na", "venue_block_number": "461", "rating_decision": "General", "event_type": "Dance", "language": "ENGLISH", "title": "SIM DANCE ART [ALL]TITUDE V", "ddress_firstline": "na", "performance_end_date": "9/9/2017", "address_secondline": "na", "synopsis": "An indoor modern and contemporary dance performance.", "venue_unit_number": "na", "performance_start_date": "9/9/2017", "company_name": "SINGAPORE INSTITUTE OF MANAGEMENT PTE. LTD.", "year": "2017", "venue_floor_number": "1", "address_thirdline": "na", "_id": 4, "venue_street_name": "CLEMENTI ROAD", "classification_info": "na", "venue_building_name": "na"}, {"consumer_advice": "na", "venue_block_number": "461", "rating_decision": "General", "event_type": "Dance", "language": "ENGLISH", "title": "SIM SALSA EN SOUL: DESCARGA X", "ddress_firstline": "na", "performance_end_date": "10/27/2017", "address_secondline": "na", "synopsis": "\"SIM Salsa En Soul: Descarga X\" is a 90 minute dance concert featuring students and alumni members of SIM Salsa En Soul.", "venue_unit_number": "na", "performance_start_date": "10/27/2017", "company_name": "SINGAPORE INSTITUTE OF MANAGEMENT PTE. LTD.", "year": "2017", "venue_floor_number": "1", "address_thirdline": "na", "_id": 5, "venue_street_name": "CLEMENTI ROAD", "classification_info": "na", "venue_building_name": "na"}], "_links": {"start": "/api/action/datastore_search?limit=5&resource_id=250540ed-5648-49a6-b9ce-5068931a931b", "next": "/api/action/datastore_search?offset=5&limit=5&resource_id=250540ed-5648-49a6-b9ce-5068931a931b"}, "limit": 5, "total": 2246}}