{"help": "https://data.gov.sg/api/3/action/help_show?name=datastore_search", "success": true, "result": {"resource_id": "3a210870-22d1-461c-b83d-0c011471ec8f", "fields": [{"type": "int4", "id": "_id"}, {"type": "numeric", "id": "year"}, {"type": "text", "id": "level_1"}, {"type": "numeric", "id": "value"}], "records": [{"_id": 1, "level_1": "Total", "value": "1046", "year": "1980"}, {"_id": 2, "level_1": "Chinese", "value": "926", "year": "1980"}, {"_id": 3, "level_1": "Indians", "value": "62", "year": "1980"}, {"_id": 4, "level_1": "Others", "value": "13", "year": "1980"}, {"_id": 5, "level_1": "Inter-ethnic", "value": "45", "year": "1980"}], "_links": {"start": "/api/action/datastore_search?limit=5&resource_id=3a210870-22d1-461c-b83d-0c011471ec8f", "next": "/api/action/datastore_search?offset=5&limit=5&resource_id=3a210870-22d1-461c-b83d-0c011471ec8f"}, "limit": 5, "total": 200}}