{"help": "https://data.gov.sg/api/3/action/help_show?name=datastore_search", "success": true, "result": {"resource_id": "96b8f07b-f011-4d45-bd4e-5dc4bca0a8fd", "fields": [{"type": "int4", "id": "_id"}, {"type": "numeric", "id": "year"}, {"type": "text", "id": "race"}, {"type": "numeric", "id": "percentage_pass_math"}], "records": [{"percentage_pass_math": "41.5", "_id": 1, "race": "Malay", "year": "2008"}, {"percentage_pass_math": "66.4", "_id": 2, "race": "Chinese", "year": "2008"}, {"percentage_pass_math": "49.1", "_id": 3, "race": "Indian", "year": "2008"}, {"percentage_pass_math": "60.6", "_id": 4, "race": "Others", "year": "2008"}, {"percentage_pass_math": "55.1", "_id": 5, "race": "Overall", "year": "2008"}], "_links": {"start": "/api/action/datastore_search?limit=5&resource_id=96b8f07b-f011-4d45-bd4e-5dc4bca0a8fd", "next": "/api/action/datastore_search?offset=5&limit=5&resource_id=96b8f07b-f011-4d45-bd4e-5dc4bca0a8fd"}, "limit": 5, "total": 60}}