{"help": "https://data.gov.sg/api/3/action/help_show?name=datastore_search", "success": true, "result": {"resource_id": "2060cfeb-83a7-48f5-96ac-367823032cdb", "fields": [{"type": "int4", "id": "_id"}, {"type": "text", "id": "month"}, {"type": "text", "id": "category"}, {"type": "numeric", "id": "number"}], "records": [{"category": "Category C", "_id": 1, "number": "1190", "month": "2018-11"}, {"category": "Category D", "_id": 2, "number": "1304", "month": "2018-11"}, {"category": "Taxis", "_id": 3, "number": "447", "month": "2018-11"}, {"category": "Vehicles Exempted from VQS", "_id": 4, "number": "100", "month": "2018-11"}, {"category": "Category A", "_id": 5, "number": "3465", "month": "2018-12"}], "_links": {"start": "/api/action/datastore_search?limit=5&resource_id=2060cfeb-83a7-48f5-96ac-367823032cdb", "next": "/api/action/datastore_search?offset=5&limit=5&resource_id=2060cfeb-83a7-48f5-96ac-367823032cdb"}, "limit": 5, "total": 106}}