{"help": "https://data.gov.sg/api/3/action/help_show?name=datastore_search", "success": true, "result": {"resource_id": "051f815e-326e-4973-b62f-61cad9ed3284", "fields": [{"type": "int4", "id": "_id"}, {"type": "numeric", "id": "year"}, {"type": "text", "id": "broad_cause_group"}, {"type": "numeric", "id": "percentage"}], "records": [{"broad_cause_group": "Chronic respiratory diseases", "percentage": "3", "_id": 1, "year": "2017"}, {"broad_cause_group": "Lower Respiratory Infections", "percentage": "4", "_id": 2, "year": "2017"}, {"broad_cause_group": "Skin and Subcutaneous Diseases", "percentage": "3", "_id": 3, "year": "2017"}, {"broad_cause_group": "Sense Organ Diseases", "percentage": "4", "_id": 4, "year": "2017"}, {"broad_cause_group": "Injuries", "percentage": "11", "_id": 5, "year": "2017"}], "_links": {"start": "/api/action/datastore_search?limit=5&resource_id=051f815e-326e-4973-b62f-61cad9ed3284", "next": "/api/action/datastore_search?offset=5&limit=5&resource_id=051f815e-326e-4973-b62f-61cad9ed3284"}, "limit": 5, "total": 12}}