{"help": "https://data.gov.sg/api/3/action/help_show?name=datastore_search", "success": true, "result": {"resource_id": "8e949628-941f-4b10-b5a2-e1ce27f0be7e", "fields": [{"type": "int4", "id": "_id"}, {"type": "numeric", "id": "year"}, {"type": "text", "id": "level_1"}, {"type": "numeric", "id": "value"}], "records": [{"_id": 1, "level_1": "Asia", "value": "15816.9", "year": "2000"}, {"_id": 2, "level_1": "Hong Kong", "value": "1860.6", "year": "2000"}, {"_id": 3, "level_1": "India", "value": "746.8", "year": "2000"}, {"_id": 4, "level_1": "Japan", "value": "3255.6", "year": "2000"}, {"_id": 5, "level_1": "Mainland China", "value": "1042.4", "year": "2000"}], "_links": {"start": "/api/action/datastore_search?limit=5&resource_id=8e949628-941f-4b10-b5a2-e1ce27f0be7e", "next": "/api/action/datastore_search?offset=5&limit=5&resource_id=8e949628-941f-4b10-b5a2-e1ce27f0be7e"}, "limit": 5, "total": 285}}