{"help": "https://data.gov.sg/api/3/action/help_show?name=datastore_search", "success": true, "result": {"resource_id": "9979d4ed-0da8-4c9c-a9c3-b999c152c3b4", "fields": [{"type": "int4", "id": "_id"}, {"type": "text", "id": "month"}, {"type": "text", "id": "mother_race"}, {"type": "text", "id": "place_of_birth"}, {"type": "numeric", "id": "birth_count"}], "records": [{"mother_race": "CHINESE", "place_of_birth": "Other Locations", "_id": 1, "birth_count": "1", "month": "2017-01"}, {"mother_race": "MALAYS", "place_of_birth": "Other Locations", "_id": 2, "birth_count": "1", "month": "2017-01"}, {"mother_race": "CHINESE", "place_of_birth": "Private Sector Hospitals", "_id": 3, "birth_count": "1367", "month": "2017-01"}, {"mother_race": "INDIANS", "place_of_birth": "Private Sector Hospitals", "_id": 4, "birth_count": "121", "month": "2017-01"}, {"mother_race": "MALAYS", "place_of_birth": "Private Sector Hospitals", "_id": 5, "birth_count": "137", "month": "2017-01"}], "_links": {"start": "/api/action/datastore_search?limit=5&resource_id=9979d4ed-0da8-4c9c-a9c3-b999c152c3b4", "next": "/api/action/datastore_search?offset=5&limit=5&resource_id=9979d4ed-0da8-4c9c-a9c3-b999c152c3b4"}, "limit": 5, "total": 492}}