{"help": "https://data.gov.sg/api/3/action/help_show?name=datastore_search", "success": true, "result": {"resource_id": "c6db5eb2-6daf-4d3b-b571-7bc16c8f03c4", "fields": [{"type": "int4", "id": "_id"}, {"type": "text", "id": "year"}, {"type": "numeric", "id": "eweek"}, {"type": "text", "id": "type_dengue"}, {"type": "text", "id": "number"}], "records": [{"eweek": "20", "type_dengue": "Dengue", "_id": 1, "number": "211", "year": "2016"}, {"eweek": "20", "type_dengue": "DHF", "_id": 2, "number": "0", "year": "2016"}, {"eweek": "21", "type_dengue": "Dengue", "_id": 3, "number": "198", "year": "2016"}, {"eweek": "21", "type_dengue": "DHF", "_id": 4, "number": "0", "year": "2016"}, {"eweek": "22", "type_dengue": "Dengue", "_id": 5, "number": "214", "year": "2016"}], "_links": {"start": "/api/action/datastore_search?limit=5&resource_id=c6db5eb2-6daf-4d3b-b571-7bc16c8f03c4", "next": "/api/action/datastore_search?offset=5&limit=5&resource_id=c6db5eb2-6daf-4d3b-b571-7bc16c8f03c4"}, "limit": 5, "total": 810}}