{"help": "https://data.gov.sg/api/3/action/help_show?name=datastore_search", "success": true, "result": {"resource_id": "0230819f-1c83-4980-b738-56136d6dc300", "fields": [{"type": "int4", "id": "_id"}, {"type": "text", "id": "month"}, {"type": "numeric", "id": "mean_sunshine_hrs"}], "records": [{"mean_sunshine_hrs": "4.1", "_id": 1, "month": "2007-01"}, {"mean_sunshine_hrs": "7.6", "_id": 2, "month": "2007-02"}, {"mean_sunshine_hrs": "5.8", "_id": 3, "month": "2007-03"}, {"mean_sunshine_hrs": "5.9", "_id": 4, "month": "2007-04"}, {"mean_sunshine_hrs": "5.5", "_id": 5, "month": "2007-05"}], "_links": {"start": "/api/action/datastore_search?limit=5&resource_id=0230819f-1c83-4980-b738-56136d6dc300", "next": "/api/action/datastore_search?offset=5&limit=5&resource_id=0230819f-1c83-4980-b738-56136d6dc300"}, "limit": 5, "total": 630}}