{"help": "https://data.gov.sg/api/3/action/help_show?name=datastore_search", "success": true, "result": {"resource_id": "f0956f18-7659-4f29-8de6-e3391864bedc", "fields": [{"type": "int4", "id": "_id"}, {"type": "text", "id": "year"}, {"type": "numeric", "id": "no._certified"}], "records": [{"_id": 1, "no._certified": "348", "year": "2005"}, {"_id": 2, "no._certified": "399", "year": "2006"}, {"_id": 3, "no._certified": "440", "year": "2007"}, {"_id": 4, "no._certified": "354", "year": "2008"}, {"_id": 5, "no._certified": "384", "year": "2009"}], "_links": {"start": "/api/action/datastore_search?limit=5&resource_id=f0956f18-7659-4f29-8de6-e3391864bedc", "next": "/api/action/datastore_search?offset=5&limit=5&resource_id=f0956f18-7659-4f29-8de6-e3391864bedc"}, "limit": 5, "total": 14}}