{"help": "https://data.gov.sg/api/3/action/help_show?name=datastore_search", "success": true, "result": {"resource_id": "6eff271a-5452-4992-b32c-97e25a8290c8", "fields": [{"type": "int4", "id": "_id"}, {"type": "numeric", "id": "year"}, {"type": "text", "id": "level_1"}, {"type": "text", "id": "level_2"}, {"type": "numeric", "id": "value"}], "records": [{"value": "432.8", "_id": 1, "level_1": "GDP At Current Market Prices", "level_2": "Goods Producing Industries", "year": "1960"}, {"value": "1538.7", "_id": 2, "level_1": "GDP At Current Market Prices", "level_2": "Services Producing Industries", "year": "1960"}, {"value": "68.9", "_id": 3, "level_1": "GDP At Current Market Prices", "level_2": "Ownership Of Dwellings", "year": "1960"}, {"value": "2040.4", "_id": 4, "level_1": "GDP At Current Market Prices", "level_2": "Gross Value Added At Basic Prices", "year": "1960"}, {"value": "117", "_id": 5, "level_1": "GDP At Current Market Prices", "level_2": "Add: Taxes On Products", "year": "1960"}], "_links": {"start": "/api/action/datastore_search?limit=5&resource_id=6eff271a-5452-4992-b32c-97e25a8290c8", "next": "/api/action/datastore_search?offset=5&limit=5&resource_id=6eff271a-5452-4992-b32c-97e25a8290c8"}, "limit": 5, "total": 295}}