{"help": "https://data.gov.sg/api/3/action/help_show?name=datastore_search", "success": true, "result": {"resource_id": "a252963a-e3b5-4dfc-8f84-3c307a6968d6", "fields": [{"type": "int4", "id": "_id"}, {"type": "text", "id": "24-hr_psi"}, {"type": "numeric", "id": "north"}, {"type": "numeric", "id": "south"}, {"type": "numeric", "id": "east"}, {"type": "numeric", "id": "west"}, {"type": "numeric", "id": "central"}], "records": [{"_id": 1, "north": "61", "west": "62", "24-hr_psi": "27/10/2018 21:00", "central": "61", "east": "62", "south": "64"}, {"_id": 2, "north": "61", "west": "61", "24-hr_psi": "27/10/2018 22:00", "central": "61", "east": "61", "south": "63"}, {"_id": 3, "north": "60", "west": "60", "24-hr_psi": "27/10/2018 23:00", "central": "60", "east": "60", "south": "62"}, {"_id": 4, "north": "60", "west": "59", "24-hr_psi": "28/10/2018 0:00", "central": "60", "east": "60", "south": "62"}, {"_id": 5, "north": "59", "west": "57", "24-hr_psi": "28/10/2018 1:00", "central": "60", "east": "59", "south": "62"}], "_links": {"start": "/api/action/datastore_search?limit=5&resource_id=a252963a-e3b5-4dfc-8f84-3c307a6968d6", "next": "/api/action/datastore_search?offset=5&limit=5&resource_id=a252963a-e3b5-4dfc-8f84-3c307a6968d6"}, "limit": 5, "total": 60748}}