{"help": "https://data.gov.sg/api/3/action/help_show?name=datastore_search", "success": true, "result": {"resource_id": "34b7e3fe-b3b9-4f08-a5ca-c8574f13ccbd", "fields": [{"type": "int4", "id": "_id"}, {"type": "numeric", "id": "financial_year"}, {"type": "text", "id": "town_or_estate"}, {"type": "text", "id": "flat_type"}, {"type": "text", "id": "sold_or_rental"}, {"type": "numeric", "id": "no_of_dwelling_units"}], "records": [{"town_or_estate": "Punggol", "flat_type": "Studio Apartment", "financial_year": "2008", "sold_or_rental": "Sold Units", "no_of_dwelling_units": "0", "_id": 1}, {"town_or_estate": "Punggol", "flat_type": "HUDC", "financial_year": "2008", "sold_or_rental": "Sold Units", "no_of_dwelling_units": "0", "_id": 2}, {"town_or_estate": "Queenstown", "flat_type": "1-room", "financial_year": "2008", "sold_or_rental": "Rental Units", "no_of_dwelling_units": "575", "_id": 3}, {"town_or_estate": "Queenstown", "flat_type": "1-room", "financial_year": "2008", "sold_or_rental": "Sold Units", "no_of_dwelling_units": "0", "_id": 4}, {"town_or_estate": "Queenstown", "flat_type": "2-room", "financial_year": "2008", "sold_or_rental": "Rental Units", "no_of_dwelling_units": "1699", "_id": 5}], "_links": {"start": "/api/action/datastore_search?limit=5&resource_id=34b7e3fe-b3b9-4f08-a5ca-c8574f13ccbd", "next": "/api/action/datastore_search?offset=5&limit=5&resource_id=34b7e3fe-b3b9-4f08-a5ca-c8574f13ccbd"}, "limit": 5, "total": 7524}}