{"help": "https://data.gov.sg/api/3/action/help_show?name=datastore_search", "success": true, "result": {"resource_id": "272985da-e2d7-4720-8783-37d47feaa635", "fields": [{"type": "int4", "id": "_id"}, {"type": "text", "id": "month"}, {"type": "text", "id": "mother_race"}, {"type": "text", "id": "child_gender"}, {"type": "numeric", "id": "still_births_count"}], "records": [{"mother_race": "CHINESE", "child_gender": "M", "_id": 1, "still_births_count": "1", "month": "2017-01"}, {"mother_race": "CHINESE", "child_gender": "F", "_id": 2, "still_births_count": "2", "month": "2017-01"}, {"mother_race": "MALAYS", "child_gender": "F", "_id": 3, "still_births_count": "2", "month": "2017-01"}, {"mother_race": "MALAYS", "child_gender": "M", "_id": 4, "still_births_count": "1", "month": "2017-01"}, {"mother_race": "OTHERS", "child_gender": "M", "_id": 5, "still_births_count": "1", "month": "2017-01"}], "_links": {"start": "/api/action/datastore_search?limit=5&resource_id=272985da-e2d7-4720-8783-37d47feaa635", "next": "/api/action/datastore_search?offset=5&limit=5&resource_id=272985da-e2d7-4720-8783-37d47feaa635"}, "limit": 5, "total": 150}}