{"help": "https://data.gov.sg/api/3/action/help_show?name=datastore_search", "success": true, "result": {"resource_id": "d5d35678-cd15-4f43-b347-d671d1870655", "fields": [{"type": "int4", "id": "_id"}, {"type": "numeric", "id": "year"}, {"type": "text", "id": "level_1"}, {"type": "text", "id": "level_2"}, {"type": "text", "id": "value"}], "records": [{"value": "na", "_id": 1, "level_1": "Total Male Malays", "level_2": "70 - 74 Years", "year": "1971"}, {"value": "na", "_id": 2, "level_1": "Total Male Malays", "level_2": "75 - 79 Years", "year": "1971"}, {"value": "na", "_id": 3, "level_1": "Total Male Malays", "level_2": "80 - 84 Years", "year": "1971"}, {"value": "na", "_id": 4, "level_1": "Total Male Malays", "level_2": "85 - 89 Years", "year": "1971"}, {"value": "2900", "_id": 5, "level_1": "Total Male Malays", "level_2": "65 Years & Over", "year": "1971"}], "_links": {"start": "/api/action/datastore_search?limit=5&resource_id=d5d35678-cd15-4f43-b347-d671d1870655", "next": "/api/action/datastore_search?offset=5&limit=5&resource_id=d5d35678-cd15-4f43-b347-d671d1870655"}, "limit": 5, "total": 40210}}