{"help": "https://data.gov.sg/api/3/action/help_show?name=datastore_search", "success": true, "result": {"resource_id": "ce5c82e1-35b5-4409-86dd-77a5c60bb584", "fields": [{"type": "int4", "id": "_id"}, {"type": "numeric", "id": "year"}, {"type": "text", "id": "employment_size"}, {"type": "numeric", "id": "broadband_usage"}], "records": [{"_id": 1, "employment_size": "Below 10 employees", "broadband_usage": "77", "year": "2012"}, {"_id": 2, "employment_size": "Between 10 to 199 employees", "broadband_usage": "90", "year": "2012"}, {"_id": 3, "employment_size": "200 or more employees", "broadband_usage": "100", "year": "2012"}, {"_id": 4, "employment_size": "Below 10 employees", "broadband_usage": "82", "year": "2013"}, {"_id": 5, "employment_size": "Between 10 to 199 employees", "broadband_usage": "95", "year": "2013"}], "_links": {"start": "/api/action/datastore_search?limit=5&resource_id=ce5c82e1-35b5-4409-86dd-77a5c60bb584", "next": "/api/action/datastore_search?offset=5&limit=5&resource_id=ce5c82e1-35b5-4409-86dd-77a5c60bb584"}, "limit": 5, "total": 15}}