{"help": "https://data.gov.sg/api/3/action/help_show?name=datastore_search", "success": true, "result": {"resource_id": "c9f714db-cc3b-49ad-bb0f-302ba33505ee", "fields": [{"type": "int4", "id": "_id"}, {"type": "text", "id": "month"}, {"type": "text", "id": "telco"}, {"type": "numeric", "id": "success_rate"}], "records": [{"telco": "singtel", "_id": 1, "success_rate": "99.74", "month": "2013-04"}, {"telco": "m1", "_id": 2, "success_rate": "99.87", "month": "2013-04"}, {"telco": "starhub", "_id": 3, "success_rate": "99.93", "month": "2013-04"}, {"telco": "singtel", "_id": 4, "success_rate": "99.79", "month": "2013-05"}, {"telco": "m1", "_id": 5, "success_rate": "99.93", "month": "2013-05"}], "_links": {"start": "/api/action/datastore_search?limit=5&resource_id=c9f714db-cc3b-49ad-bb0f-302ba33505ee", "next": "/api/action/datastore_search?offset=5&limit=5&resource_id=c9f714db-cc3b-49ad-bb0f-302ba33505ee"}, "limit": 5, "total": 117}}