{"help": "https://data.gov.sg/api/3/action/help_show?name=datastore_search", "success": true, "result": {"resource_id": "63c2f7d0-c661-464d-a460-0e1b5ab3383f", "fields": [{"type": "int4", "id": "_id"}, {"type": "text", "id": "quarter"}, {"type": "text", "id": "occupation1"}, {"type": "numeric", "id": "reentry_rate"}], "records": [{"quarter": "2000-Q1", "_id": 1, "occupation1": "Professionals, Managers, Executives & Technicians", "reentry_rate": "77.6"}, {"quarter": "2000-Q1", "_id": 2, "occupation1": "Clerical, Sales & Service Workers", "reentry_rate": "82.1"}, {"quarter": "2000-Q1", "_id": 3, "occupation1": "Production & Transport Operators, Cleaners & Labourers", "reentry_rate": "72.1"}, {"quarter": "2000-Q2", "_id": 4, "occupation1": "Professionals, Managers, Executives & Technicians", "reentry_rate": "80.1"}, {"quarter": "2000-Q2", "_id": 5, "occupation1": "Clerical, Sales & Service Workers", "reentry_rate": "84.5"}], "_links": {"start": "/api/action/datastore_search?limit=5&resource_id=63c2f7d0-c661-464d-a460-0e1b5ab3383f", "next": "/api/action/datastore_search?offset=5&limit=5&resource_id=63c2f7d0-c661-464d-a460-0e1b5ab3383f"}, "limit": 5, "total": 246}}