{"help": "https://data.gov.sg/api/3/action/help_show?name=datastore_search", "success": true, "result": {"resource_id": "c5b7de95-61df-4072-8ef1-44ed1f8cbd5d", "fields": [{"type": "int4", "id": "_id"}, {"type": "text", "id": "year"}, {"type": "text", "id": "level_1"}, {"type": "numeric", "id": "value"}], "records": [{"_id": 1, "level_1": "Operating Receipts, SSIC 86 - Total Health Services", "value": "3614.5", "year": "2000"}, {"_id": 2, "level_1": "Operating Expenditure, SSIC 86 - Total Health Services", "value": "3349.9", "year": "2000"}, {"_id": 3, "level_1": "Operating Surplus, SSIC 86 - Total Health Services", "value": "587.4", "year": "2000"}, {"_id": 4, "level_1": "Value Added, SSIC 86 - Total Health Services", "value": "2146.6", "year": "2000"}, {"_id": 5, "level_1": "Operating Receipts, SSIC 86 - Total Health Services", "value": "4618.7", "year": "2001"}], "_links": {"start": "/api/action/datastore_search?limit=5&resource_id=c5b7de95-61df-4072-8ef1-44ed1f8cbd5d", "next": "/api/action/datastore_search?offset=5&limit=5&resource_id=c5b7de95-61df-4072-8ef1-44ed1f8cbd5d"}, "limit": 5, "total": 72}}