{"help": "https://data.gov.sg/api/3/action/help_show?name=datastore_search", "success": true, "result": {"resource_id": "2ca92ba2-b781-400f-b0de-3f19481a07ef", "fields": [{"type": "int4", "id": "_id"}, {"type": "text", "id": "month"}, {"type": "text", "id": "level_1"}, {"type": "numeric", "id": "value"}], "records": [{"_id": 1, "level_1": "Total", "value": "7", "month": "1970-01"}, {"_id": 2, "level_1": "Total", "value": "10", "month": "1970-02"}, {"_id": 3, "level_1": "Total", "value": "6", "month": "1970-03"}, {"_id": 4, "level_1": "Total", "value": "8", "month": "1970-04"}, {"_id": 5, "level_1": "Total", "value": "20", "month": "1970-05"}], "_links": {"start": "/api/action/datastore_search?limit=5&resource_id=2ca92ba2-b781-400f-b0de-3f19481a07ef", "next": "/api/action/datastore_search?offset=5&limit=5&resource_id=2ca92ba2-b781-400f-b0de-3f19481a07ef"}, "limit": 5, "total": 594}}