{"help": "https://data.gov.sg/api/3/action/help_show?name=datastore_search", "success": true, "result": {"resource_id": "b07a4065-d690-493a-8cd9-6bb2bb14755b", "fields": [{"type": "int4", "id": "_id"}, {"type": "text", "id": "quarter"}, {"type": "numeric", "id": "limits_granted"}, {"type": "numeric", "id": "utilised"}, {"type": "numeric", "id": "non-performing_percentage"}], "records": [{"quarter": "2011-Q1", "_id": 1, "limits_granted": "97277.2", "non-performing_percentage": "0.4", "utilised": "84162"}, {"quarter": "2011-Q2", "_id": 2, "limits_granted": "101637.6", "non-performing_percentage": "0.4", "utilised": "87554.7"}, {"quarter": "2011-Q3", "_id": 3, "limits_granted": "105572.1", "non-performing_percentage": "0.3", "utilised": "91283.4"}, {"quarter": "2011-Q4", "_id": 4, "limits_granted": "109727.7", "non-performing_percentage": "0.3", "utilised": "94749.8"}, {"quarter": "2012-Q1", "_id": 5, "limits_granted": "113945.3", "non-performing_percentage": "0.3", "utilised": "97667.9"}], "_links": {"start": "/api/action/datastore_search?limit=5&resource_id=b07a4065-d690-493a-8cd9-6bb2bb14755b", "next": "/api/action/datastore_search?offset=5&limit=5&resource_id=b07a4065-d690-493a-8cd9-6bb2bb14755b"}, "limit": 5, "total": 19}}