{"help": "https://data.gov.sg/api/3/action/help_show?name=datastore_search", "success": true, "result": {"resource_id": "7152faf5-c6db-44f7-92ec-9b4874b24d6f", "fields": [{"type": "int4", "id": "_id"}, {"type": "numeric", "id": "financial_year"}, {"type": "text", "id": "town_or_estate"}, {"type": "text", "id": "hdb_or_dbss"}, {"type": "text", "id": "status"}, {"type": "numeric", "id": "no_of_units"}], "records": [{"status": "Under Construction", "town_or_estate": "Toa Payoh", "hdb_or_dbss": "DBSS", "no_of_units": "1203", "financial_year": "2011", "_id": 1}, {"status": "Completed", "town_or_estate": "Toa Payoh", "hdb_or_dbss": "DBSS", "no_of_units": "0", "financial_year": "2011", "_id": 2}, {"status": "Under Construction", "town_or_estate": "Woodlands", "hdb_or_dbss": "HDB", "no_of_units": "3864", "financial_year": "2011", "_id": 3}, {"status": "Completed", "town_or_estate": "Woodlands", "hdb_or_dbss": "HDB", "no_of_units": "500", "financial_year": "2011", "_id": 4}, {"status": "Under Construction", "town_or_estate": "Woodlands", "hdb_or_dbss": "DBSS", "no_of_units": "0", "financial_year": "2011", "_id": 5}], "_links": {"start": "/api/action/datastore_search?limit=5&resource_id=7152faf5-c6db-44f7-92ec-9b4874b24d6f", "next": "/api/action/datastore_search?offset=5&limit=5&resource_id=7152faf5-c6db-44f7-92ec-9b4874b24d6f"}, "limit": 5, "total": 1734}}