{"help": "https://data.gov.sg/api/3/action/help_show?name=datastore_search", "success": true, "result": {"resource_id": "f0128cd6-f894-4f87-9fed-adfdf1070410", "fields": [{"type": "int4", "id": "_id"}, {"type": "numeric", "id": "year_of_assessment"}, {"type": "text", "id": "resident_type"}, {"type": "numeric", "id": "no_of_companies"}, {"type": "numeric", "id": "chargeable_income"}, {"type": "numeric", "id": "net_tax_assessed"}], "records": [{"resident_type": "Non-Tax Resident", "chargeable_income": "5213", "no_of_companies": "1351", "net_tax_assessed": "731", "year_of_assessment": "2005", "_id": 1}, {"resident_type": "Tax Resident", "chargeable_income": "34574", "no_of_companies": "26023", "net_tax_assessed": "6108", "year_of_assessment": "2005", "_id": 2}, {"resident_type": "Non-Tax Resident", "chargeable_income": "5916", "no_of_companies": "1449", "net_tax_assessed": "893", "year_of_assessment": "2006", "_id": 3}, {"resident_type": "Tax Resident", "chargeable_income": "40517", "no_of_companies": "29392", "net_tax_assessed": "6928", "year_of_assessment": "2006", "_id": 4}, {"resident_type": "Non-Tax Resident", "chargeable_income": "6640", "no_of_companies": "1566", "net_tax_assessed": "948", "year_of_assessment": "2007", "_id": 5}], "_links": {"start": "/api/action/datastore_search?limit=5&resource_id=f0128cd6-f894-4f87-9fed-adfdf1070410", "next": "/api/action/datastore_search?offset=5&limit=5&resource_id=f0128cd6-f894-4f87-9fed-adfdf1070410"}, "limit": 5, "total": 30}}