{"help": "https://data.gov.sg/api/3/action/help_show?name=datastore_search", "success": true, "result": {"resource_id": "3ad61bcb-2bd3-4290-b167-a278e372e544", "fields": [{"type": "int4", "id": "_id"}, {"type": "text", "id": "grant_call"}, {"type": "text", "id": "closing_date"}, {"type": "numeric", "id": "total_grants_awarded"}], "records": [{"closing_date": "2015-03-27", "_id": 1, "total_grants_awarded": "10556000", "grant_call": "2nd Thematic Call for Proposals on Satellite Technologies"}, {"closing_date": "2014-09-10", "_id": 2, "total_grants_awarded": "11379014", "grant_call": "Directed Call for Proposals on Smart Grid"}, {"closing_date": "2014-09-08", "_id": 3, "total_grants_awarded": "15784569", "grant_call": "Directed Call for Proposals on Gas/LNG Technologies"}, {"closing_date": "2015-08-31", "_id": 4, "total_grants_awarded": "3600900", "grant_call": "Directed Call for Research Proposals in Increasing Energy Recovery of Advanced Thermal Treatment Technologies for Municipal Solid Waste (MSW) Management"}, {"closing_date": "2015-09-18", "_id": 5, "total_grants_awarded": "0", "grant_call": "National Cybersecurity R&D Laboratory (NCL)"}], "_links": {"start": "/api/action/datastore_search?limit=5&resource_id=3ad61bcb-2bd3-4290-b167-a278e372e544", "next": "/api/action/datastore_search?offset=5&limit=5&resource_id=3ad61bcb-2bd3-4290-b167-a278e372e544"}, "limit": 5, "total": 142}}