{"help": "https://data.gov.sg/api/3/action/help_show?name=datastore_search", "success": true, "result": {"resource_id": "e62a59fd-ee9f-43ec-ac69-58dc5c8045be", "fields": [{"type": "int4", "id": "_id"}, {"type": "text", "id": "month"}, {"type": "text", "id": "type"}, {"type": "text", "id": "category"}, {"type": "numeric", "id": "number"}], "records": [{"category": "Category C", "_id": 1, "type": "5 Year", "number": "1114", "month": "2017-08"}, {"category": "Category D", "_id": 2, "type": "5 Year", "number": "222", "month": "2017-08"}, {"category": "Category A", "_id": 3, "type": "10 Year", "number": "228", "month": "2017-08"}, {"category": "Category B", "_id": 4, "type": "10 Year", "number": "481", "month": "2017-08"}, {"category": "Category C", "_id": 5, "type": "10 Year", "number": "112", "month": "2017-08"}], "_links": {"start": "/api/action/datastore_search?limit=5&resource_id=e62a59fd-ee9f-43ec-ac69-58dc5c8045be", "next": "/api/action/datastore_search?offset=5&limit=5&resource_id=e62a59fd-ee9f-43ec-ac69-58dc5c8045be"}, "limit": 5, "total": 342}}