{"help": "https://data.gov.sg/api/3/action/help_show?name=datastore_search", "success": true, "result": {"resource_id": "139a3035-e624-4f56-b63f-89ae28d4ae4c", "fields": [{"type": "int4", "id": "_id"}, {"type": "text", "id": "car_park_no"}, {"type": "text", "id": "address"}, {"type": "numeric", "id": "x_coord"}, {"type": "numeric", "id": "y_coord"}, {"type": "text", "id": "car_park_type"}, {"type": "text", "id": "type_of_parking_system"}, {"type": "text", "id": "short_term_parking"}, {"type": "text", "id": "free_parking"}, {"type": "text", "id": "night_parking"}, {"type": "numeric", "id": "car_park_decks"}, {"type": "numeric", "id": "gantry_height"}, {"type": "text", "id": "car_park_basement"}], "records": [{"short_term_parking": "WHOLE DAY", "car_park_type": "SURFACE CAR PARK", "y_coord": "39632.2729", "x_coord": "28564.0295", "free_parking": "SUN & PH FR 7AM-10.30PM", "gantry_height": "4.50", "car_park_basement": "N", "night_parking": "YES", "address": "BLK 157/163 ANG MO KIO AVE 4", "car_park_decks": "0", "_id": 1, "car_park_no": "A78", "type_of_parking_system": "ELECTRONIC PARKING"}, {"short_term_parking": "WHOLE DAY", "car_park_type": "SURFACE CAR PARK", "y_coord": "38975.6100", "x_coord": "29111.6700", "free_parking": "SUN & PH FR 7AM-10.30PM", "gantry_height": "4.50", "car_park_basement": "N", "night_parking": "YES", "address": "BLK 209/210 ANG MO KIO STREET 22", "car_park_decks": "0", "_id": 2, "car_park_no": "A8", "type_of_parking_system": "ELECTRONIC PARKING"}, {"short_term_parking": "WHOLE DAY", "car_park_type": "SURFACE CAR PARK", "y_coord": "39594.7701", "x_coord": "28351.6931", "free_parking": "SUN & PH FR 7AM-10.30PM", "gantry_height": "9.99", "car_park_basement": "N", "night_parking": "YES", "address": "BLK 170/172 ANG MO KIO ST 13", "car_park_decks": "0", "_id": 3, "car_park_no": "A81", "type_of_parking_system": "ELECTRONIC PARKING"}, {"short_term_parking": "WHOLE DAY", "car_park_type": "SURFACE CAR PARK", "y_coord": "39740.6593", "x_coord": "28342.7741", "free_parking": "SUN & PH FR 7AM-10.30PM", "gantry_height": "0.00", "car_park_basement": "N", "night_parking": "YES", "address": "BLK 173/176 ANG MO KIO AVE 4", "car_park_decks": "0", "_id": 4, "car_park_no": "A82", "type_of_parking_system": "ELECTRONIC PARKING"}, {"short_term_parking": "WHOLE DAY", "car_park_type": "SURFACE CAR PARK", "y_coord": "39589.4805", "x_coord": "31046.8301", "free_parking": "SUN & PH FR 7AM-10.30PM", "gantry_height": "0.00", "car_park_basement": "N", "night_parking": "YES", "address": "BLK 5022 TO 5095 ANG MO KIO IND PARK 2", "car_park_decks": "0", "_id": 5, "car_park_no": "A83", "type_of_parking_system": "COUPON PARKING"}], "_links": {"start": "/api/action/datastore_search?limit=5&resource_id=139a3035-e624-4f56-b63f-89ae28d4ae4c", "next": "/api/action/datastore_search?offset=5&limit=5&resource_id=139a3035-e624-4f56-b63f-89ae28d4ae4c"}, "limit": 5, "total": 4180}}