{"help": "https://data.gov.sg/api/3/action/help_show?name=datastore_search", "success": true, "result": {"resource_id": "1aa5afaf-2512-4797-a2f7-7d97bf3b5f38", "fields": [{"type": "int4", "id": "_id"}, {"type": "text", "id": "month"}, {"type": "text", "id": "car_prefix"}], "records": [{"_id": 1, "car_prefix": "EA", "month": "1972-08"}, {"_id": 2, "car_prefix": "EC", "month": "1973-10"}, {"_id": 3, "car_prefix": "EB", "month": "1973-03"}, {"_id": 4, "car_prefix": "ED", "month": "1974-03"}, {"_id": 5, "car_prefix": "EE", "month": "1975-02"}], "_links": {"start": "/api/action/datastore_search?limit=5&resource_id=1aa5afaf-2512-4797-a2f7-7d97bf3b5f38", "next": "/api/action/datastore_search?offset=5&limit=5&resource_id=1aa5afaf-2512-4797-a2f7-7d97bf3b5f38"}, "limit": 5, "total": 206}}