{"help": "https://data.gov.sg/api/3/action/help_show?name=datastore_search", "success": true, "result": {"resource_id": "46314199-1a00-43e1-8ecd-af567415b611", "fields": [{"type": "int4", "id": "_id"}, {"type": "numeric", "id": "year"}, {"type": "text", "id": "sector"}, {"type": "text", "id": "type_of_rnd_manpower"}, {"type": "numeric", "id": "fte"}], "records": [{"sector": "Private Sector", "fte": "1766.2", "_id": 1, "type_of_rnd_manpower": "PhD", "year": "2018"}, {"sector": "Private Sector", "fte": "5069.7", "_id": 2, "type_of_rnd_manpower": "Masters", "year": "2018"}, {"sector": "Private Sector", "fte": "11731.2", "_id": 3, "type_of_rnd_manpower": "Bachelors", "year": "2018"}, {"sector": "Private Sector", "fte": "1639.6", "_id": 4, "type_of_rnd_manpower": "Non Degree", "year": "2018"}, {"sector": "Private Sector", "fte": "1128.9", "_id": 5, "type_of_rnd_manpower": "Technicians", "year": "2018"}], "_links": {"start": "/api/action/datastore_search?limit=5&resource_id=46314199-1a00-43e1-8ecd-af567415b611", "next": "/api/action/datastore_search?offset=5&limit=5&resource_id=46314199-1a00-43e1-8ecd-af567415b611"}, "limit": 5, "total": 225}}