{"help": "https://data.gov.sg/api/3/action/help_show?name=datastore_search", "success": true, "result": {"resource_id": "85207289-6ae7-4a56-9066-e6090a3684a5", "fields": [{"type": "int4", "id": "_id"}, {"type": "text", "id": "carpark"}, {"type": "text", "id": "category"}, {"type": "text", "id": "weekdays_rate_1"}, {"type": "text", "id": "weekdays_rate_2"}, {"type": "text", "id": "saturday_rate"}, {"type": "text", "id": "sunday_publicholiday_rate"}], "records": [{"category": "Central, North & North East", "saturday_rate": "-", "sunday_publicholiday_rate": "-", "carpark": "25 Toa Payoh Lorong 8", "weekdays_rate_1": "Daily: $1.30 / 30 Mins", "weekdays_rate_2": "-", "_id": 1}, {"category": "Central, North & North East", "saturday_rate": "$0.018 /min", "sunday_publicholiday_rate": "$0.018 /min", "carpark": "45 Burghley Drive", "weekdays_rate_1": "$0.018 /min", "weekdays_rate_2": "$0.018 /min", "_id": 2}, {"category": "Central, North & North East", "saturday_rate": "Sat, Sun / Ph: $1.30 for 1st hr; $0.65 for sub. \u00bd hr or part thereof.", "sunday_publicholiday_rate": "Same as Saturday", "carpark": "Ang Mo Kio Hub", "weekdays_rate_1": "Mon-Fri: $1.20 for 1st hr; $0.60 for sub. \u00bd hr or part thereof.", "weekdays_rate_2": "-", "_id": 3}, {"category": "Central, North & North East", "saturday_rate": "-", "sunday_publicholiday_rate": "-", "carpark": "Balestier Plaza", "weekdays_rate_1": "Daily: $1.12 per hr", "weekdays_rate_2": "-", "_id": 4}, {"category": "Central, North & North East", "saturday_rate": "Same as wkdays", "sunday_publicholiday_rate": "$2 per entry", "carpark": "Balestier Point", "weekdays_rate_1": "8am-10pm: $1.20 per hr", "weekdays_rate_2": "Aft 10pm: $2 per entry", "_id": 5}], "_links": {"start": "/api/action/datastore_search?limit=5&resource_id=85207289-6ae7-4a56-9066-e6090a3684a5", "next": "/api/action/datastore_search?offset=5&limit=5&resource_id=85207289-6ae7-4a56-9066-e6090a3684a5"}, "limit": 5, "total": 357}}