{"help": "https://data.gov.sg/api/3/action/help_show?name=datastore_search", "success": true, "result": {"resource_id": "9292f182-5d4f-4cd9-80cd-9147b0a1c6f7", "fields": [{"type": "int4", "id": "_id"}, {"type": "numeric", "id": "year"}, {"type": "numeric", "id": "chickens_slaughtered"}], "records": [{"_id": 1, "chickens_slaughtered": "44857801", "year": "1999"}, {"_id": 2, "chickens_slaughtered": "42727453", "year": "2000"}, {"_id": 3, "chickens_slaughtered": "43483719", "year": "2001"}, {"_id": 4, "chickens_slaughtered": "44768274", "year": "2002"}, {"_id": 5, "chickens_slaughtered": "42838308", "year": "2003"}], "_links": {"start": "/api/action/datastore_search?limit=5&resource_id=9292f182-5d4f-4cd9-80cd-9147b0a1c6f7", "next": "/api/action/datastore_search?offset=5&limit=5&resource_id=9292f182-5d4f-4cd9-80cd-9147b0a1c6f7"}, "limit": 5, "total": 21}}