{"help": "https://data.gov.sg/api/3/action/help_show?name=datastore_search", "success": true, "result": {"resource_id": "07654ce7-f97f-49c9-81c6-bd41beba4e96", "fields": [{"type": "int4", "id": "_id"}, {"type": "text", "id": "month"}, {"type": "numeric", "id": "mean_temp"}], "records": [{"mean_temp": "27.9", "_id": 1, "month": "1998-09"}, {"mean_temp": "28", "_id": 2, "month": "1998-10"}, {"mean_temp": "27.9", "_id": 3, "month": "1998-11"}, {"mean_temp": "26.6", "_id": 4, "month": "1998-12"}, {"mean_temp": "26.6", "_id": 5, "month": "1999-01"}], "_links": {"start": "/api/action/datastore_search?limit=5&resource_id=07654ce7-f97f-49c9-81c6-bd41beba4e96", "next": "/api/action/datastore_search?offset=5&limit=5&resource_id=07654ce7-f97f-49c9-81c6-bd41beba4e96"}, "limit": 5, "total": 730}}