{"help": "https://data.gov.sg/api/3/action/help_show?name=datastore_search", "success": true, "result": {"resource_id": "bbfc1f9c-efea-4dab-a0cb-560d980079cc", "fields": [{"type": "int4", "id": "_id"}, {"type": "numeric", "id": "year"}, {"type": "text", "id": "level_1"}, {"type": "numeric", "id": "value"}], "records": [{"_id": 1, "level_1": "Female Arrested For Snatch Theft", "value": "5", "year": "2017"}, {"_id": 2, "level_1": "Total Persons Arrested For Rioting", "value": "439", "year": "2017"}, {"_id": 3, "level_1": "Male Arrested For Rioting", "value": "417", "year": "2017"}, {"_id": 4, "level_1": "Female Arrested For Rioting", "value": "22", "year": "2017"}, {"_id": 5, "level_1": "Total Persons Arrested For Serious Hurt", "value": "394", "year": "2017"}], "_links": {"start": "/api/action/datastore_search?limit=5&resource_id=bbfc1f9c-efea-4dab-a0cb-560d980079cc", "next": "/api/action/datastore_search?offset=5&limit=5&resource_id=bbfc1f9c-efea-4dab-a0cb-560d980079cc"}, "limit": 5, "total": 340}}