{"help": "https://data.gov.sg/api/3/action/help_show?name=datastore_search", "success": true, "result": {"resource_id": "876eedf5-4f78-4e61-aa0a-2a322e277922", "fields": [{"type": "int4", "id": "_id"}, {"type": "text", "id": "month"}, {"type": "text", "id": "purpose_type"}, {"type": "numeric", "id": "number_of_vessel_calls"}, {"type": "numeric", "id": "gross_tonnage"}], "records": [{"gross_tonnage": "39681", "_id": 1, "purpose_type": "Cargo", "number_of_vessel_calls": "4854", "month": "1997-03"}, {"gross_tonnage": "2531", "_id": 2, "purpose_type": "Repairs", "number_of_vessel_calls": "429", "month": "1997-03"}, {"gross_tonnage": "37101", "_id": 3, "purpose_type": "Bunkers", "number_of_vessel_calls": "1676", "month": "1997-03"}, {"gross_tonnage": "18346", "_id": 4, "purpose_type": "Supplies", "number_of_vessel_calls": "1480", "month": "1997-03"}, {"gross_tonnage": "16213", "_id": 5, "purpose_type": "Others", "number_of_vessel_calls": "5660", "month": "1997-03"}], "_links": {"start": "/api/action/datastore_search?limit=5&resource_id=876eedf5-4f78-4e61-aa0a-2a322e277922", "next": "/api/action/datastore_search?offset=5&limit=5&resource_id=876eedf5-4f78-4e61-aa0a-2a322e277922"}, "limit": 5, "total": 3080}}