{"help": "https://data.gov.sg/api/3/action/help_show?name=datastore_search", "success": true, "result": {"resource_id": "fb781ab7-8e69-434e-b273-3afcc70e41fe", "fields": [{"type": "int4", "id": "_id"}, {"type": "numeric", "id": "year"}, {"type": "text", "id": "type"}, {"type": "numeric", "id": "count"}], "records": [{"count": "676763", "_id": 1, "type": "A&E", "year": "2006"}, {"count": "3624976", "_id": 2, "type": "Specialist Outpatient Clinics", "year": "2006"}, {"count": "3769989", "_id": 3, "type": "Polyclinics", "year": "2006"}, {"count": "838466", "_id": 4, "type": "Public Sector Dental Clinics", "year": "2006"}, {"count": "752122", "_id": 5, "type": "A&E", "year": "2007"}], "_links": {"start": "/api/action/datastore_search?limit=5&resource_id=fb781ab7-8e69-434e-b273-3afcc70e41fe", "next": "/api/action/datastore_search?offset=5&limit=5&resource_id=fb781ab7-8e69-434e-b273-3afcc70e41fe"}, "limit": 5, "total": 56}}