{"help": "https://data.gov.sg/api/3/action/help_show?name=datastore_search", "success": true, "result": {"resource_id": "1088f9c4-83ee-42ff-b43d-c11d5524b94f", "fields": [{"type": "int4", "id": "_id"}, {"type": "numeric", "id": "year"}, {"type": "numeric", "id": "number_of_vessels"}, {"type": "numeric", "id": "gross_tonnage"}], "records": [{"gross_tonnage": "14963.985", "_id": 1, "number_of_vessels": "2910", "year": "1995"}, {"gross_tonnage": "18238.813", "_id": 2, "number_of_vessels": "3157", "year": "1996"}, {"gross_tonnage": "20774.197", "_id": 3, "number_of_vessels": "3380", "year": "1997"}, {"gross_tonnage": "22025.106", "_id": 4, "number_of_vessels": "3412", "year": "1998"}, {"gross_tonnage": "23748", "_id": 5, "number_of_vessels": "3360", "year": "1999"}], "_links": {"start": "/api/action/datastore_search?limit=5&resource_id=1088f9c4-83ee-42ff-b43d-c11d5524b94f", "next": "/api/action/datastore_search?offset=5&limit=5&resource_id=1088f9c4-83ee-42ff-b43d-c11d5524b94f"}, "limit": 5, "total": 25}}