{"help": "https://data.gov.sg/api/3/action/help_show?name=datastore_search", "success": true, "result": {"resource_id": "fe32facb-699d-407f-9708-53ea2dc96799", "fields": [{"type": "int4", "id": "_id"}, {"type": "text", "id": "quarter"}, {"type": "text", "id": "level_1"}, {"type": "numeric", "id": "value"}], "records": [{"quarter": "1980-Q1", "_id": 1, "level_1": "Unit Labour Cost Of Overall Economy", "value": "56.5"}, {"quarter": "1980-Q2", "_id": 2, "level_1": "Unit Labour Cost Of Overall Economy", "value": "51.7"}, {"quarter": "1980-Q3", "_id": 3, "level_1": "Unit Labour Cost Of Overall Economy", "value": "53.4"}, {"quarter": "1980-Q4", "_id": 4, "level_1": "Unit Labour Cost Of Overall Economy", "value": "59.8"}, {"quarter": "1981-Q1", "_id": 5, "level_1": "Unit Labour Cost Of Overall Economy", "value": "61.2"}], "_links": {"start": "/api/action/datastore_search?limit=5&resource_id=fe32facb-699d-407f-9708-53ea2dc96799", "next": "/api/action/datastore_search?offset=5&limit=5&resource_id=fe32facb-699d-407f-9708-53ea2dc96799"}, "limit": 5, "total": 158}}