{"help": "https://data.gov.sg/api/3/action/help_show?name=datastore_search", "success": true, "result": {"resource_id": "d45263d4-ca60-4ece-9666-c23381ad70da", "fields": [{"type": "int4", "id": "_id"}, {"type": "text", "id": "month"}, {"type": "text", "id": "weight"}, {"type": "text", "id": "mother_age"}, {"type": "text", "id": "gender"}, {"type": "numeric", "id": "birth_count"}], "records": [{"weight": "4000 - 4499", "gender": "F", "month": "2018-06", "mother_age": "25  -  29", "birth_count": "3", "_id": 1}, {"weight": "4000 - 4499", "gender": "M", "month": "2018-06", "mother_age": "25  -  29", "birth_count": "6", "_id": 2}, {"weight": "4000 - 4499", "gender": "F", "month": "2018-06", "mother_age": "30  -  34", "birth_count": "6", "_id": 3}, {"weight": "4000 - 4499", "gender": "M", "month": "2018-06", "mother_age": "30  -  34", "birth_count": "13", "_id": 4}, {"weight": "4000 - 4499", "gender": "F", "month": "2018-06", "mother_age": "35  -  39", "birth_count": "5", "_id": 5}], "_links": {"start": "/api/action/datastore_search?limit=5&resource_id=d45263d4-ca60-4ece-9666-c23381ad70da", "next": "/api/action/datastore_search?offset=5&limit=5&resource_id=d45263d4-ca60-4ece-9666-c23381ad70da"}, "limit": 5, "total": 536}}