{"help": "https://data.gov.sg/api/3/action/help_show?name=datastore_search", "success": true, "result": {"resource_id": "2198da0e-e7fd-43f9-8b66-749255f430bf", "fields": [{"type": "int4", "id": "_id"}, {"type": "numeric", "id": "year"}, {"type": "text", "id": "facility"}, {"type": "numeric", "id": "number"}], "records": [{"facility": "Bus Interchanges", "_id": 1, "number": "22", "year": "2002"}, {"facility": "Bus Terminals", "_id": 2, "number": "21", "year": "2002"}, {"facility": "Bus Stops", "_id": 3, "number": "4509", "year": "2002"}, {"facility": "Taxi Stands/Stops", "_id": 4, "number": "133", "year": "2002"}, {"facility": "Bus Interchanges", "_id": 5, "number": "22", "year": "2003"}], "_links": {"start": "/api/action/datastore_search?limit=5&resource_id=2198da0e-e7fd-43f9-8b66-749255f430bf", "next": "/api/action/datastore_search?offset=5&limit=5&resource_id=2198da0e-e7fd-43f9-8b66-749255f430bf"}, "limit": 5, "total": 48}}