{"help": "https://data.gov.sg/api/3/action/help_show?name=datastore_search", "success": true, "result": {"resource_id": "79f55383-33a6-463a-8d79-4bdd467ee766", "fields": [{"type": "int4", "id": "_id"}, {"type": "numeric", "id": "year"}, {"type": "text", "id": "status"}, {"type": "text", "id": "gender"}, {"type": "numeric", "id": "no_of_inhalant_abusers_arrested"}], "records": [{"status": "Total", "gender": "Male", "_id": 1, "no_of_inhalant_abusers_arrested": "111", "year": "2003"}, {"status": "Total", "gender": "Male", "_id": 2, "no_of_inhalant_abusers_arrested": "155", "year": "2004"}, {"status": "Total", "gender": "Male", "_id": 3, "no_of_inhalant_abusers_arrested": "102", "year": "2005"}, {"status": "Total", "gender": "Male", "_id": 4, "no_of_inhalant_abusers_arrested": "313", "year": "2006"}, {"status": "Total", "gender": "Male", "_id": 5, "no_of_inhalant_abusers_arrested": "525", "year": "2007"}], "_links": {"start": "/api/action/datastore_search?limit=5&resource_id=79f55383-33a6-463a-8d79-4bdd467ee766", "next": "/api/action/datastore_search?offset=5&limit=5&resource_id=79f55383-33a6-463a-8d79-4bdd467ee766"}, "limit": 5, "total": 68}}