{"help": "https://data.gov.sg/api/3/action/help_show?name=datastore_search", "success": true, "result": {"resource_id": "3bb9a74b-00d2-4be9-82c9-d348f4cbee2d", "fields": [{"type": "int4", "id": "_id"}, {"type": "numeric", "id": "year"}, {"type": "text", "id": "make"}, {"type": "numeric", "id": "number"}], "records": [{"make": "Yamaha", "_id": 1, "number": "3063", "year": "2005"}, {"make": "Honda", "_id": 2, "number": "5405", "year": "2005"}, {"make": "Sym", "_id": 3, "number": "589", "year": "2005"}, {"make": "B.M.W.", "_id": 4, "number": "34", "year": "2005"}, {"make": "K.T.M.", "_id": 5, "number": "28", "year": "2005"}], "_links": {"start": "/api/action/datastore_search?limit=5&resource_id=3bb9a74b-00d2-4be9-82c9-d348f4cbee2d", "next": "/api/action/datastore_search?offset=5&limit=5&resource_id=3bb9a74b-00d2-4be9-82c9-d348f4cbee2d"}, "limit": 5, "total": 1034}}