{"help": "https://data.gov.sg/api/3/action/help_show?name=datastore_search", "success": true, "result": {"resource_id": "ad0d8a97-9321-42e9-ac6f-46bf12845d44", "fields": [{"type": "int4", "id": "_id"}, {"type": "text", "id": "month"}, {"type": "numeric", "id": "temp_mean_daily_min"}], "records": [{"_id": 1, "temp_mean_daily_min": "23.9", "month": "2011-03"}, {"_id": 2, "temp_mean_daily_min": "24.6", "month": "2011-04"}, {"_id": 3, "temp_mean_daily_min": "25.2", "month": "2011-05"}, {"_id": 4, "temp_mean_daily_min": "25.2", "month": "2011-06"}, {"_id": 5, "temp_mean_daily_min": "25.5", "month": "2011-07"}], "_links": {"start": "/api/action/datastore_search?limit=5&resource_id=ad0d8a97-9321-42e9-ac6f-46bf12845d44", "next": "/api/action/datastore_search?offset=5&limit=5&resource_id=ad0d8a97-9321-42e9-ac6f-46bf12845d44"}, "limit": 5, "total": 580}}