{"help": "https://data.gov.sg/api/3/action/help_show?name=datastore_search", "success": true, "result": {"resource_id": "206f2c8c-1f07-4ea4-905c-2fa8e38c7242", "fields": [{"type": "int4", "id": "_id"}, {"type": "text", "id": "year"}, {"type": "text", "id": "level_1"}, {"type": "numeric", "id": "value"}], "records": [{"_id": 1, "level_1": "First Marriages For Grooms", "value": "27", "year": "1984"}, {"_id": 2, "level_1": "First Marriages For Brides", "value": "24.2", "year": "1984"}, {"_id": 3, "level_1": "First Marriages For Grooms", "value": "27.1", "year": "1985"}, {"_id": 4, "level_1": "First Marriages For Brides", "value": "24.3", "year": "1985"}, {"_id": 5, "level_1": "First Marriages For Grooms", "value": "27.2", "year": "1986"}], "_links": {"start": "/api/action/datastore_search?limit=5&resource_id=206f2c8c-1f07-4ea4-905c-2fa8e38c7242", "next": "/api/action/datastore_search?offset=5&limit=5&resource_id=206f2c8c-1f07-4ea4-905c-2fa8e38c7242"}, "limit": 5, "total": 70}}