{"help": "https://data.gov.sg/api/3/action/help_show?name=datastore_search", "success": true, "result": {"resource_id": "1672a467-2e06-44b6-b79d-9b7559ae5999", "fields": [{"type": "int4", "id": "_id"}, {"type": "text", "id": "month"}, {"type": "text", "id": "level_1"}, {"type": "text", "id": "value"}], "records": [{"_id": 1, "level_1": "Total Merchandise Trade, (At Current Prices)", "value": "7858012.9", "month": "1980-09"}, {"_id": 2, "level_1": "Total Merchandise Imports, (At Current Prices)", "value": "4441078", "month": "1980-09"}, {"_id": 3, "level_1": "Total Merchandise Exports, (At Current Prices)", "value": "3416934.9", "month": "1980-09"}, {"_id": 4, "level_1": "Total Domestic Exports, (At Current Prices)", "value": "2082419.2", "month": "1980-09"}, {"_id": 5, "level_1": "Total Re-exports, (At Current Prices)", "value": "1334515.7", "month": "1980-09"}], "_links": {"start": "/api/action/datastore_search?limit=5&resource_id=1672a467-2e06-44b6-b79d-9b7559ae5999", "next": "/api/action/datastore_search?offset=5&limit=5&resource_id=1672a467-2e06-44b6-b79d-9b7559ae5999"}, "limit": 5, "total": 5690}}