{"help": "https://data.gov.sg/api/3/action/help_show?name=datastore_search", "success": true, "result": {"resource_id": "5ab68aac-91f6-4f39-9b21-698610bdf3f7", "fields": [{"type": "int4", "id": "_id"}, {"type": "text", "id": "uen"}, {"type": "text", "id": "issuance_agency_id"}, {"type": "text", "id": "uen_status"}, {"type": "text", "id": "entity_name"}, {"type": "text", "id": "entity_type"}, {"type": "text", "id": "uen_issue_date"}, {"type": "text", "id": "reg_street_name"}, {"type": "text", "id": "reg_postal_code"}], "records": [{"uen": "T09CC0004J", "reg_street_name": "Cashew Road", "entity_name": "ASSUMPTION PATHWAY SCHOOL", "entity_type": "CC", "reg_postal_code": "679697", "issuance_agency_id": "MCCY", "uen_issue_date": "2009-07-18", "uen_status": "R", "_id": 1}, {"uen": "S71MC0077C", "reg_street_name": "ANN SIANG ROAD", "entity_name": "The Management Corporation - Strata Title Plan No. 77", "entity_type": "MC", "reg_postal_code": "069720", "issuance_agency_id": "SLA", "uen_issue_date": "2008-08-28", "uen_status": "R", "_id": 2}, {"uen": "S71MC0080C", "reg_street_name": "TANJONG KATONG ROAD", "entity_name": "The Management Corporation - Strata Title Plan No. 80", "entity_type": "MC", "reg_postal_code": "436969", "issuance_agency_id": "SLA", "uen_issue_date": "2008-08-28", "uen_status": "R", "_id": 3}, {"uen": "S75SS0029B", "reg_street_name": "East Coast Road Merlin Mansion", "entity_name": "Merlin Mansion Flat Owners/Residents Association", "entity_type": "SS", "reg_postal_code": "428939", "issuance_agency_id": "ROS", "uen_issue_date": "2008-08-28", "uen_status": "R", "_id": 4}, {"uen": "S97SS0164E", "reg_street_name": "RIVER VALLEY ROAD", "entity_name": "EMCC", "entity_type": "SS", "reg_postal_code": "179030", "issuance_agency_id": "ROS", "uen_issue_date": "2008-08-28", "uen_status": "R", "_id": 5}], "_links": {"start": "/api/action/datastore_search?limit=5&resource_id=5ab68aac-91f6-4f39-9b21-698610bdf3f7", "next": "/api/action/datastore_search?offset=5&limit=5&resource_id=5ab68aac-91f6-4f39-9b21-698610bdf3f7"}, "limit": 5, "total": 19872}}