{"help": "https://data.gov.sg/api/3/action/help_show?name=datastore_search", "success": true, "result": {"resource_id": "648bde4d-546b-48a6-bae2-666c93ff82b8", "fields": [{"type": "int4", "id": "_id"}, {"type": "text", "id": "month"}, {"type": "numeric", "id": "count"}], "records": [{"count": "732500", "_id": 1, "month": "2015-12"}, {"count": "745700", "_id": 2, "month": "2016-12"}, {"count": "760600", "_id": 3, "month": "2017-12"}, {"count": "776500", "_id": 4, "month": "2018-12"}, {"count": "795600", "_id": 5, "month": "2019-12"}], "_links": {"start": "/api/action/datastore_search?limit=5&resource_id=648bde4d-546b-48a6-bae2-666c93ff82b8", "next": "/api/action/datastore_search?offset=5&limit=5&resource_id=648bde4d-546b-48a6-bae2-666c93ff82b8"}, "limit": 5, "total": 6}}