{"help": "https://data.gov.sg/api/3/action/help_show?name=datastore_search", "success": true, "result": {"resource_id": "c6c08a39-e9de-4e07-b6f9-18a2d303a796", "fields": [{"type": "int4", "id": "_id"}, {"type": "numeric", "id": "year_of_assessment"}, {"type": "text", "id": "economic_sector"}, {"type": "numeric", "id": "no_of_companies"}, {"type": "text", "id": "assessable_income"}, {"type": "text", "id": "chargeable_income"}, {"type": "text", "id": "net_tax_assessed"}], "records": [{"economic_sector": "Agriculture & Fishing", "chargeable_income": "na", "no_of_companies": "83", "assessable_income": "23368", "net_tax_assessed": "na", "year_of_assessment": "2004", "_id": 1}, {"economic_sector": "Mining & Quarrying", "chargeable_income": "na", "no_of_companies": "8", "assessable_income": "3157", "net_tax_assessed": "na", "year_of_assessment": "2004", "_id": 2}, {"economic_sector": "Manufacturing", "chargeable_income": "na", "no_of_companies": "2985", "assessable_income": "5759079", "net_tax_assessed": "na", "year_of_assessment": "2004", "_id": 3}, {"economic_sector": "Utilities", "chargeable_income": "na", "no_of_companies": "18", "assessable_income": "227498", "net_tax_assessed": "na", "year_of_assessment": "2004", "_id": 4}, {"economic_sector": "Construction", "chargeable_income": "na", "no_of_companies": "1770", "assessable_income": "609634", "net_tax_assessed": "na", "year_of_assessment": "2004", "_id": 5}], "_links": {"start": "/api/action/datastore_search?limit=5&resource_id=c6c08a39-e9de-4e07-b6f9-18a2d303a796", "next": "/api/action/datastore_search?offset=5&limit=5&resource_id=c6c08a39-e9de-4e07-b6f9-18a2d303a796"}, "limit": 5, "total": 176}}