{"help": "https://data.gov.sg/api/3/action/help_show?name=datastore_search", "success": true, "result": {"resource_id": "a5ddfc4d-0e43-4bfe-8f51-e504e1365e27", "fields": [{"type": "int4", "id": "_id"}, {"type": "text", "id": "quarter"}, {"type": "text", "id": "town"}, {"type": "text", "id": "flat_type"}, {"type": "text", "id": "price"}], "records": [{"town": "Woodlands", "flat_type": "1-room", "quarter": "2007-Q3", "_id": 1, "price": "na"}, {"town": "Woodlands", "flat_type": "2-room", "quarter": "2007-Q3", "_id": 2, "price": "-"}, {"town": "Woodlands", "flat_type": "3-room", "quarter": "2007-Q3", "_id": 3, "price": "158000"}, {"town": "Woodlands", "flat_type": "4-room", "quarter": "2007-Q3", "_id": 4, "price": "238000"}, {"town": "Woodlands", "flat_type": "5-room", "quarter": "2007-Q3", "_id": 5, "price": "285000"}], "_links": {"start": "/api/action/datastore_search?limit=5&resource_id=a5ddfc4d-0e43-4bfe-8f51-e504e1365e27", "next": "/api/action/datastore_search?offset=5&limit=5&resource_id=a5ddfc4d-0e43-4bfe-8f51-e504e1365e27"}, "limit": 5, "total": 16236}}