{"help": "https://data.gov.sg/api/3/action/help_show?name=datastore_search", "success": true, "result": {"resource_id": "375d9a9c-9039-4ed5-830a-dcec60f36b88", "fields": [{"type": "int4", "id": "_id"}, {"type": "text", "id": "registration_no"}, {"type": "text", "id": "name"}, {"type": "text", "id": "business_address"}, {"type": "text", "id": "home_economy_or_jurisdiction_in_which_registered"}, {"type": "text", "id": "any_other_economy_in_which_registered"}, {"type": "text", "id": "offers_of_professional_alliance"}], "records": [{"_id": 1, "name": "Soh Siow Lan", "registration_no": "SG/00001", "business_address": "RDC Architects Pte Ltd 152 Beach Road #01-01/03 Gateway East Singapore 189721", "offers_of_professional_alliance": "Yes", "home_economy_or_jurisdiction_in_which_registered": "Singapore", "any_other_economy_in_which_registered": "No"}, {"_id": 2, "name": "Lim Kim Ngiap, Charles", "registration_no": "SG/00003", "business_address": "CLKN Architects 120 Lower Delta Road #07-02/03 Cendex Centre Singapore 169208", "offers_of_professional_alliance": "Yes", "home_economy_or_jurisdiction_in_which_registered": "Singapore", "any_other_economy_in_which_registered": "No"}, {"_id": 3, "name": "Chu Yang Keng", "registration_no": "SG/00004", "business_address": "iX Architects Pte. Ltd. 8 Burn Road #13-13 Trivex Singapore 369977", "offers_of_professional_alliance": "Yes", "home_economy_or_jurisdiction_in_which_registered": "Singapore", "any_other_economy_in_which_registered": "No"}, {"_id": 4, "name": "Yong Kwan Wah, Andy", "registration_no": "SG/00005", "business_address": "ZAY Associates 24 Lorong Paya Laber Singapore 536322", "offers_of_professional_alliance": "Yes", "home_economy_or_jurisdiction_in_which_registered": "Singapore", "any_other_economy_in_which_registered": "No"}, {"_id": 5, "name": "Siti Suriah Binti Taib", "registration_no": "SG/00006", "business_address": "Architects 61 Pte Ltd 150 Beach Road #23-01 Gateway West Singapore 189720", "offers_of_professional_alliance": "Yes", "home_economy_or_jurisdiction_in_which_registered": "Singapore", "any_other_economy_in_which_registered": "No"}], "_links": {"start": "/api/action/datastore_search?limit=5&resource_id=375d9a9c-9039-4ed5-830a-dcec60f36b88", "next": "/api/action/datastore_search?offset=5&limit=5&resource_id=375d9a9c-9039-4ed5-830a-dcec60f36b88"}, "limit": 5, "total": 77}}