{"help": "https://data.gov.sg/api/3/action/help_show?name=datastore_search", "success": true, "result": {"resource_id": "ec8b68a5-ef76-45a0-b555-e4a50116fc46", "fields": [{"type": "int4", "id": "_id"}, {"type": "numeric", "id": "year"}, {"type": "text", "id": "status"}, {"type": "text", "id": "age_group"}, {"type": "numeric", "id": "no_of_inhalant_abusers_arrested"}], "records": [{"status": "Total", "_id": 1, "age_group": "Below 20", "no_of_inhalant_abusers_arrested": "117", "year": "2003"}, {"status": "Total", "_id": 2, "age_group": "Below 20", "no_of_inhalant_abusers_arrested": "121", "year": "2004"}, {"status": "Total", "_id": 3, "age_group": "Below 20", "no_of_inhalant_abusers_arrested": "65", "year": "2005"}, {"status": "Total", "_id": 4, "age_group": "Below 20", "no_of_inhalant_abusers_arrested": "309", "year": "2006"}, {"status": "Total", "_id": 5, "age_group": "Below 20", "no_of_inhalant_abusers_arrested": "443", "year": "2007"}], "_links": {"start": "/api/action/datastore_search?limit=5&resource_id=ec8b68a5-ef76-45a0-b555-e4a50116fc46", "next": "/api/action/datastore_search?offset=5&limit=5&resource_id=ec8b68a5-ef76-45a0-b555-e4a50116fc46"}, "limit": 5, "total": 204}}