{"help": "https://data.gov.sg/api/3/action/help_show?name=datastore_search", "success": true, "result": {"resource_id": "97cd048c-88e4-45d6-8c45-bc323950d851", "fields": [{"type": "int4", "id": "_id"}, {"type": "numeric", "id": "year"}, {"type": "numeric", "id": "persons_moc_count"}], "records": [{"_id": 1, "persons_moc_count": "284", "year": "2013"}, {"_id": 2, "persons_moc_count": "170", "year": "2014"}, {"_id": 3, "persons_moc_count": "64", "year": "2015"}, {"_id": 4, "persons_moc_count": "43", "year": "2016"}, {"_id": 5, "persons_moc_count": "53", "year": "2017"}], "_links": {"start": "/api/action/datastore_search?limit=5&resource_id=97cd048c-88e4-45d6-8c45-bc323950d851", "next": "/api/action/datastore_search?offset=5&limit=5&resource_id=97cd048c-88e4-45d6-8c45-bc323950d851"}, "limit": 5, "total": 7}}