{"help": "https://data.gov.sg/api/3/action/help_show?name=datastore_search", "success": true, "result": {"resource_id": "31c215a9-f22d-4cfa-a8e9-fc624c50fedd", "fields": [{"type": "int4", "id": "_id"}, {"type": "numeric", "id": "start_year"}, {"type": "numeric", "id": "end_year"}, {"type": "text", "id": "flat_type"}, {"type": "numeric", "id": "demand_for_flats"}], "records": [{"demand_for_flats": "52408", "end_year": "1965", "start_year": "1960", "_id": 1, "flat_type": "rental_flats"}, {"demand_for_flats": "2967", "end_year": "1965", "start_year": "1960", "_id": 2, "flat_type": "home_ownership_flats"}, {"demand_for_flats": "66005", "end_year": "1970", "start_year": "1966", "_id": 3, "flat_type": "rental_flats"}, {"demand_for_flats": "40013", "end_year": "1970", "start_year": "1966", "_id": 4, "flat_type": "home_ownership_flats"}, {"demand_for_flats": "57034", "end_year": "1975", "start_year": "1971", "_id": 5, "flat_type": "rental_flats"}], "_links": {"start": "/api/action/datastore_search?limit=5&resource_id=31c215a9-f22d-4cfa-a8e9-fc624c50fedd", "next": "/api/action/datastore_search?offset=5&limit=5&resource_id=31c215a9-f22d-4cfa-a8e9-fc624c50fedd"}, "limit": 5, "total": 26}}