{"help": "https://data.gov.sg/api/3/action/help_show?name=datastore_search", "success": true, "result": {"resource_id": "e431b044-9256-42bc-bc0b-dda93e3ad2fa", "fields": [{"type": "int4", "id": "_id"}, {"type": "text", "id": "half_year"}, {"type": "text", "id": "level_1"}, {"type": "numeric", "id": "value"}], "records": [{"_id": 1, "half_year": "1993-H1", "level_1": "All Items - Lowest 20%", "value": "62.594"}, {"_id": 2, "half_year": "1993-H1", "level_1": "All Items - Middle 60%", "value": "67.942"}, {"_id": 3, "half_year": "1993-H1", "level_1": "All Items - Highest 20%", "value": "72.359"}, {"_id": 4, "half_year": "1993-H2", "level_1": "All Items - Lowest 20%", "value": "63.016"}, {"_id": 5, "half_year": "1993-H2", "level_1": "All Items - Middle 60%", "value": "68.445"}], "_links": {"start": "/api/action/datastore_search?limit=5&resource_id=e431b044-9256-42bc-bc0b-dda93e3ad2fa", "next": "/api/action/datastore_search?offset=5&limit=5&resource_id=e431b044-9256-42bc-bc0b-dda93e3ad2fa"}, "limit": 5, "total": 162}}