{"help": "https://data.gov.sg/api/3/action/help_show?name=datastore_search", "success": true, "result": {"resource_id": "1641ea38-12e1-41e0-abfe-7662f81028a0", "fields": [{"type": "int4", "id": "_id"}, {"type": "numeric", "id": "yr"}, {"type": "text", "id": "housing_schm_type"}, {"type": "numeric", "id": "no_of_mbrs"}], "records": [{"no_of_mbrs": "740000", "yr": "2010", "_id": 1, "housing_schm_type": "Public Housing Scheme"}, {"no_of_mbrs": "148000", "yr": "2010", "_id": 2, "housing_schm_type": "Residential Properties Scheme"}, {"no_of_mbrs": "750000", "yr": "2011", "_id": 3, "housing_schm_type": "Public Housing Scheme"}, {"no_of_mbrs": "154000", "yr": "2011", "_id": 4, "housing_schm_type": "Residential Properties Scheme"}, {"no_of_mbrs": "753000", "yr": "2012", "_id": 5, "housing_schm_type": "Public Housing Scheme"}], "_links": {"start": "/api/action/datastore_search?limit=5&resource_id=1641ea38-12e1-41e0-abfe-7662f81028a0", "next": "/api/action/datastore_search?offset=5&limit=5&resource_id=1641ea38-12e1-41e0-abfe-7662f81028a0"}, "limit": 5, "total": 14}}