{"help": "https://data.gov.sg/api/3/action/help_show?name=datastore_search", "success": true, "result": {"resource_id": "f7d42648-da17-4ca4-b77c-9b4b4c9877c7", "fields": [{"type": "int4", "id": "_id"}, {"type": "numeric", "id": "financial_year"}, {"type": "numeric", "id": "no_of_approvals"}], "records": [{"_id": 1, "financial_year": "2008", "no_of_approvals": "5326"}, {"_id": 2, "financial_year": "2009", "no_of_approvals": "6340"}, {"_id": 3, "financial_year": "2010", "no_of_approvals": "4407"}, {"_id": 4, "financial_year": "2011", "no_of_approvals": "3262"}, {"_id": 5, "financial_year": "2012", "no_of_approvals": "4115"}], "_links": {"start": "/api/action/datastore_search?limit=5&resource_id=f7d42648-da17-4ca4-b77c-9b4b4c9877c7", "next": "/api/action/datastore_search?offset=5&limit=5&resource_id=f7d42648-da17-4ca4-b77c-9b4b4c9877c7"}, "limit": 5, "total": 11}}