{"help": "https://data.gov.sg/api/3/action/help_show?name=datastore_search", "success": true, "result": {"resource_id": "898d985a-0996-4efd-b2c2-7d9fab4138e9", "fields": [{"type": "int4", "id": "_id"}, {"type": "numeric", "id": "financial_year"}, {"type": "text", "id": "town"}, {"type": "text", "id": "total_land_area"}, {"type": "numeric", "id": "residential_land_area"}, {"type": "text", "id": "dwelling_units_under_management"}, {"type": "numeric", "id": "projected_ultimate_dwelling_units"}], "records": [{"town": "Ang Mo Kio", "total_land_area": "638", "residential_land_area": "283", "projected_ultimate_dwelling_units": "58000", "dwelling_units_under_management": "48069", "financial_year": "2008", "_id": 1}, {"town": "Bedok", "total_land_area": "937", "residential_land_area": "408", "projected_ultimate_dwelling_units": "74000", "dwelling_units_under_management": "59929", "financial_year": "2008", "_id": 2}, {"town": "Bishan", "total_land_area": "690", "residential_land_area": "172", "projected_ultimate_dwelling_units": "32000", "dwelling_units_under_management": "19367", "financial_year": "2008", "_id": 3}, {"town": "Bukit Batok", "total_land_area": "785", "residential_land_area": "291", "projected_ultimate_dwelling_units": "47000", "dwelling_units_under_management": "31731", "financial_year": "2008", "_id": 4}, {"town": "Bukit Merah", "total_land_area": "858", "residential_land_area": "312", "projected_ultimate_dwelling_units": "68000", "dwelling_units_under_management": "50247", "financial_year": "2008", "_id": 5}], "_links": {"start": "/api/action/datastore_search?limit=5&resource_id=898d985a-0996-4efd-b2c2-7d9fab4138e9", "next": "/api/action/datastore_search?offset=5&limit=5&resource_id=898d985a-0996-4efd-b2c2-7d9fab4138e9"}, "limit": 5, "total": 532}}