{"help": "https://data.gov.sg/api/3/action/help_show?name=datastore_search", "success": true, "result": {"resource_id": "aae7f304-f003-4c82-83e2-c0c05590f061", "fields": [{"type": "int4", "id": "_id"}, {"type": "numeric", "id": "year"}, {"type": "numeric", "id": "cards_main"}, {"type": "numeric", "id": "cards_supplementary"}, {"type": "numeric", "id": "total_billings"}, {"type": "numeric", "id": "rollover_balance"}, {"type": "numeric", "id": "bad_debts_written_off"}, {"type": "numeric", "id": "charge_off_rates"}], "records": [{"_id": 1, "cards_supplementary": "213103", "rollover_balance": "178.1", "bad_debts_written_off": "9.6", "year": "1989", "charge_off_rates": "10.6", "total_billings": "1971.4", "cards_main": "418634"}, {"_id": 2, "cards_supplementary": "276362", "rollover_balance": "294.9", "bad_debts_written_off": "11.5", "year": "1990", "charge_off_rates": "4.9", "total_billings": "2715.6", "cards_main": "534346"}, {"_id": 3, "cards_supplementary": "326186", "rollover_balance": "433", "bad_debts_written_off": "20.1", "year": "1991", "charge_off_rates": "5.7", "total_billings": "3381.6", "cards_main": "683620"}, {"_id": 4, "cards_supplementary": "346415", "rollover_balance": "537.8", "bad_debts_written_off": "24", "year": "1992", "charge_off_rates": "5", "total_billings": "3944.8", "cards_main": "716196"}, {"_id": 5, "cards_supplementary": "417613", "rollover_balance": "622.4", "bad_debts_written_off": "24.9", "year": "1993", "charge_off_rates": "4.3", "total_billings": "4605.9", "cards_main": "838029"}], "_links": {"start": "/api/action/datastore_search?limit=5&resource_id=aae7f304-f003-4c82-83e2-c0c05590f061", "next": "/api/action/datastore_search?offset=5&limit=5&resource_id=aae7f304-f003-4c82-83e2-c0c05590f061"}, "limit": 5, "total": 26}}