{"help": "https://data.gov.sg/api/3/action/help_show?name=datastore_search", "success": true, "result": {"resource_id": "b2d528ab-1e32-41a7-94f4-d63983d80fdb", "fields": [{"type": "int4", "id": "_id"}, {"type": "numeric", "id": "year"}, {"type": "text", "id": "level_1"}, {"type": "numeric", "id": "value"}], "records": [{"_id": 1, "level_1": "Total (Based On GDP In Chained (2015) Dollars)", "value": "46103.8365", "year": "1983"}, {"_id": 2, "level_1": "Total (Based On GDP In Chained (2015) Dollars)", "value": "49525.6878", "year": "1984"}, {"_id": 3, "level_1": "Total (Based On GDP In Chained (2015) Dollars)", "value": "51712.9959", "year": "1985"}, {"_id": 4, "level_1": "Total (Based On GDP In Chained (2015) Dollars)", "value": "54789.7475", "year": "1986"}, {"_id": 5, "level_1": "Total (Based On GDP In Chained (2015) Dollars)", "value": "58383.6581", "year": "1987"}], "_links": {"start": "/api/action/datastore_search?limit=5&resource_id=b2d528ab-1e32-41a7-94f4-d63983d80fdb", "next": "/api/action/datastore_search?offset=5&limit=5&resource_id=b2d528ab-1e32-41a7-94f4-d63983d80fdb"}, "limit": 5, "total": 37}}