{"help": "https://data.gov.sg/api/3/action/help_show?name=datastore_search", "success": true, "result": {"resource_id": "90333bcc-9541-468c-9a22-a97c3ead8519", "fields": [{"type": "int4", "id": "_id"}, {"type": "text", "id": "1hr_pm2.5"}, {"type": "numeric", "id": "north"}, {"type": "numeric", "id": "south"}, {"type": "numeric", "id": "east"}, {"type": "numeric", "id": "west"}, {"type": "numeric", "id": "central"}], "records": [{"east": "18", "north": "26", "1hr_pm2.5": "19/4/2014 19:00", "west": "21", "central": "25", "_id": 1, "south": "21"}, {"east": "23", "north": "25", "1hr_pm2.5": "19/4/2014 20:00", "west": "21", "central": "26", "_id": 2, "south": "20"}, {"east": "23", "north": "27", "1hr_pm2.5": "19/4/2014 21:00", "west": "18", "central": "23", "_id": 3, "south": "12"}, {"east": "16", "north": "11", "1hr_pm2.5": "19/4/2014 22:00", "west": "29", "central": "21", "_id": 4, "south": "13"}, {"east": "13", "north": "9", "1hr_pm2.5": "19/4/2014 23:00", "west": "25", "central": "14", "_id": 5, "south": "11"}], "_links": {"start": "/api/action/datastore_search?limit=5&resource_id=90333bcc-9541-468c-9a22-a97c3ead8519", "next": "/api/action/datastore_search?offset=5&limit=5&resource_id=90333bcc-9541-468c-9a22-a97c3ead8519"}, "limit": 5, "total": 100398}}