{"help": "https://data.gov.sg/api/3/action/help_show?name=datastore_search", "success": true, "result": {"resource_id": "7c7f7bee-ddab-4afa-886c-03ceea437df9", "fields": [{"type": "int4", "id": "_id"}, {"type": "text", "id": "year"}, {"type": "text", "id": "level_1"}, {"type": "numeric", "id": "value"}], "records": [{"_id": 1, "level_1": "Establishments, SSIC 86 - Total Health Services", "value": "2619", "year": "2000"}, {"_id": 2, "level_1": "Establishments, SSIC 86 - Total Health Services", "value": "2782", "year": "2001"}, {"_id": 3, "level_1": "Establishments, SSIC 86 - Total Health Services", "value": "3052", "year": "2002"}, {"_id": 4, "level_1": "Establishments, SSIC 86 - Total Health Services", "value": "3295", "year": "2003"}, {"_id": 5, "level_1": "Establishments, SSIC 86 - Total Health Services", "value": "3406", "year": "2004"}], "_links": {"start": "/api/action/datastore_search?limit=5&resource_id=7c7f7bee-ddab-4afa-886c-03ceea437df9", "next": "/api/action/datastore_search?offset=5&limit=5&resource_id=7c7f7bee-ddab-4afa-886c-03ceea437df9"}, "limit": 5, "total": 18}}