{"help": "https://data.gov.sg/api/3/action/help_show?name=datastore_search", "success": true, "result": {"resource_id": "7c16e409-5d0a-4232-993d-0bd18ecba12b", "fields": [{"type": "int4", "id": "_id"}, {"type": "numeric", "id": "year"}, {"type": "text", "id": "level_1"}, {"type": "numeric", "id": "value"}], "records": [{"_id": 1, "level_1": "Eurasian Brides", "value": "13", "year": "2012"}, {"_id": 2, "level_1": "Caucasian Brides", "value": "10", "year": "2012"}, {"_id": 3, "level_1": "Other Brides", "value": "486", "year": "2012"}, {"_id": 4, "level_1": "Total", "value": "1630", "year": "2013"}, {"_id": 5, "level_1": "Malay Brides", "value": "705", "year": "2013"}], "_links": {"start": "/api/action/datastore_search?limit=5&resource_id=7c16e409-5d0a-4232-993d-0bd18ecba12b", "next": "/api/action/datastore_search?offset=5&limit=5&resource_id=7c16e409-5d0a-4232-993d-0bd18ecba12b"}, "limit": 5, "total": 304}}