{"help": "https://data.gov.sg/api/3/action/help_show?name=datastore_search", "success": true, "result": {"resource_id": "e049cd9c-9c81-4e43-857c-e5b462b986d3", "fields": [{"type": "int4", "id": "_id"}, {"type": "text", "id": "month"}, {"type": "numeric", "id": "count"}], "records": [{"count": "1387300", "_id": 1, "month": "2015-12"}, {"count": "1393000", "_id": 2, "month": "2016-12"}, {"count": "1368000", "_id": 3, "month": "2017-12"}, {"count": "1386000", "_id": 4, "month": "2018-12"}, {"count": "1427500", "_id": 5, "month": "2019-12"}], "_links": {"start": "/api/action/datastore_search?limit=5&resource_id=e049cd9c-9c81-4e43-857c-e5b462b986d3", "next": "/api/action/datastore_search?offset=5&limit=5&resource_id=e049cd9c-9c81-4e43-857c-e5b462b986d3"}, "limit": 5, "total": 6}}