{"help": "https://data.gov.sg/api/3/action/help_show?name=datastore_search", "success": true, "result": {"resource_id": "c6a3b31f-0067-4e7d-b7fa-6a5078a808fd", "fields": [{"type": "int4", "id": "_id"}, {"type": "numeric", "id": "financial_year"}, {"type": "numeric", "id": "total_gov_operating_rev"}, {"type": "numeric", "id": "iras_collection"}], "records": [{"total_gov_operating_rev": "25468971", "_id": 1, "iras_collection": "16595970", "financial_year": "2002"}, {"total_gov_operating_rev": "25263227", "_id": 2, "iras_collection": "16527869", "financial_year": "2003"}, {"total_gov_operating_rev": "27469403", "_id": 3, "iras_collection": "17947938", "financial_year": "2004"}, {"total_gov_operating_rev": "28171038", "_id": 4, "iras_collection": "19861076", "financial_year": "2005"}, {"total_gov_operating_rev": "31288879", "_id": 5, "iras_collection": "22863337", "financial_year": "2006"}], "_links": {"start": "/api/action/datastore_search?limit=5&resource_id=c6a3b31f-0067-4e7d-b7fa-6a5078a808fd", "next": "/api/action/datastore_search?offset=5&limit=5&resource_id=c6a3b31f-0067-4e7d-b7fa-6a5078a808fd"}, "limit": 5, "total": 18}}