{"help": "https://data.gov.sg/api/3/action/help_show?name=datastore_search", "success": true, "result": {"resource_id": "0eb678c7-5f52-44c6-bb1b-d9b999423035", "fields": [{"type": "int4", "id": "_id"}, {"type": "text", "id": "month"}, {"type": "text", "id": "make"}, {"type": "numeric", "id": "number"}], "records": [{"make": "ALFA ROMEO", "_id": 1, "number": "14", "month": "2016-01"}, {"make": "ASTON MARTIN", "_id": 2, "number": "5", "month": "2016-01"}, {"make": "AUDI", "_id": 3, "number": "196", "month": "2016-01"}, {"make": "AUSTIN", "_id": 4, "number": "0", "month": "2016-01"}, {"make": "B.M.W.", "_id": 5, "number": "548", "month": "2016-01"}], "_links": {"start": "/api/action/datastore_search?limit=5&resource_id=0eb678c7-5f52-44c6-bb1b-d9b999423035", "next": "/api/action/datastore_search?offset=5&limit=5&resource_id=0eb678c7-5f52-44c6-bb1b-d9b999423035"}, "limit": 5, "total": 3498}}