{"help": "https://data.gov.sg/api/3/action/help_show?name=datastore_search", "success": true, "result": {"resource_id": "6e79c21e-2f3b-4bad-8e1b-9a84cc815458", "fields": [{"type": "int4", "id": "_id"}, {"type": "text", "id": "year"}, {"type": "numeric", "id": "local"}, {"type": "numeric", "id": "foreign"}, {"type": "numeric", "id": "total"}], "records": [{"total": "50035", "foreign": "39465", "_id": 1, "local": "10570", "year": "2017"}, {"total": "41386", "foreign": "31634", "_id": 2, "local": "9752", "year": "2016"}, {"total": "44203", "foreign": "35785", "_id": 3, "local": "8418", "year": "2015"}, {"total": "40540", "foreign": "31454", "_id": 4, "local": "9086", "year": "2014"}, {"total": "39671", "foreign": "32092", "_id": 5, "local": "7579", "year": "2013"}], "_links": {"start": "/api/action/datastore_search?limit=5&resource_id=6e79c21e-2f3b-4bad-8e1b-9a84cc815458", "next": "/api/action/datastore_search?offset=5&limit=5&resource_id=6e79c21e-2f3b-4bad-8e1b-9a84cc815458"}, "limit": 5, "total": 5}}