{"help": "https://data.gov.sg/api/3/action/help_show?name=datastore_search", "success": true, "result": {"resource_id": "3038ccbd-a78e-4fbe-a9a4-fde9230f480a", "fields": [{"type": "int4", "id": "_id"}, {"type": "text", "id": "year"}, {"type": "numeric", "id": "percentage"}], "records": [{"percentage": "18", "_id": 1, "year": "2002"}, {"percentage": "17", "_id": 2, "year": "2003"}, {"percentage": "27", "_id": 3, "year": "2004"}, {"percentage": "27", "_id": 4, "year": "2005"}, {"percentage": "30", "_id": 5, "year": "2006"}], "_links": {"start": "/api/action/datastore_search?limit=5&resource_id=3038ccbd-a78e-4fbe-a9a4-fde9230f480a", "next": "/api/action/datastore_search?offset=5&limit=5&resource_id=3038ccbd-a78e-4fbe-a9a4-fde9230f480a"}, "limit": 5, "total": 17}}