{"help": "https://data.gov.sg/api/3/action/help_show?name=datastore_search", "success": true, "result": {"resource_id": "96e66346-68bb-4ca9-b001-58bbf39e36a7", "fields": [{"type": "int4", "id": "_id"}, {"type": "text", "id": "month"}, {"type": "numeric", "id": "max_temperature"}], "records": [{"max_temperature": "32.7", "_id": 1, "month": "2007-01"}, {"max_temperature": "33.3", "_id": 2, "month": "2007-02"}, {"max_temperature": "33.5", "_id": 3, "month": "2007-03"}, {"max_temperature": "33.7", "_id": 4, "month": "2007-04"}, {"max_temperature": "33.4", "_id": 5, "month": "2007-05"}], "_links": {"start": "/api/action/datastore_search?limit=5&resource_id=96e66346-68bb-4ca9-b001-58bbf39e36a7", "next": "/api/action/datastore_search?offset=5&limit=5&resource_id=96e66346-68bb-4ca9-b001-58bbf39e36a7"}, "limit": 5, "total": 630}}