{"help": "https://data.gov.sg/api/3/action/help_show?name=datastore_search", "success": true, "result": {"resource_id": "19eb72c4-5bb1-4484-a64c-3516a84cf1b0", "fields": [{"type": "int4", "id": "_id"}, {"type": "numeric", "id": "year"}, {"type": "numeric", "id": "retrench"}, {"type": "numeric", "id": "retrench_permanent"}, {"type": "numeric", "id": "retrench_term_contract"}], "records": [{"retrench_term_contract": "3720", "retrench": "32800", "_id": 1, "retrench_permanent": "29090", "year": "1998"}, {"retrench_term_contract": "910", "retrench": "15530", "_id": 2, "retrench_permanent": "14620", "year": "1999"}, {"retrench_term_contract": "330", "retrench": "11950", "_id": 3, "retrench_permanent": "11620", "year": "2000"}, {"retrench_term_contract": "1730", "retrench": "27570", "_id": 4, "retrench_permanent": "25840", "year": "2001"}, {"retrench_term_contract": "1040", "retrench": "20130", "_id": 5, "retrench_permanent": "19090", "year": "2002"}], "_links": {"start": "/api/action/datastore_search?limit=5&resource_id=19eb72c4-5bb1-4484-a64c-3516a84cf1b0", "next": "/api/action/datastore_search?offset=5&limit=5&resource_id=19eb72c4-5bb1-4484-a64c-3516a84cf1b0"}, "limit": 5, "total": 22}}