{"help": "https://data.gov.sg/api/3/action/help_show?name=datastore_search", "success": true, "result": {"resource_id": "9c28a8fa-9f14-4985-aadc-cff5a49c496a", "fields": [{"type": "int4", "id": "_id"}, {"type": "numeric", "id": "year"}, {"type": "numeric", "id": "co_max_8hour_mean"}], "records": [{"_id": 1, "co_max_8hour_mean": "3.7", "year": "2000"}, {"_id": 2, "co_max_8hour_mean": "4.2", "year": "2001"}, {"_id": 3, "co_max_8hour_mean": "2.7", "year": "2002"}, {"_id": 4, "co_max_8hour_mean": "3.2", "year": "2003"}, {"_id": 5, "co_max_8hour_mean": "2.8", "year": "2004"}], "_links": {"start": "/api/action/datastore_search?limit=5&resource_id=9c28a8fa-9f14-4985-aadc-cff5a49c496a", "next": "/api/action/datastore_search?offset=5&limit=5&resource_id=9c28a8fa-9f14-4985-aadc-cff5a49c496a"}, "limit": 5, "total": 20}}