{"help": "https://data.gov.sg/api/3/action/help_show?name=datastore_search", "success": true, "result": {"resource_id": "6018e7bc-1f36-4a29-bf89-4af57cfbd785", "fields": [{"type": "int4", "id": "_id"}, {"type": "text", "id": "month"}, {"type": "text", "id": "mother_race"}, {"type": "text", "id": "mother_education"}, {"type": "text", "id": "birth_order"}, {"type": "numeric", "id": "birth_count"}], "records": [{"mother_education": "\"A\" LEVEL/DIPLOMA", "month": "2016-01", "mother_race": "CHINESE", "birth_order": "1st", "birth_count": "232", "_id": 1}, {"mother_education": "\"A\" LEVEL/DIPLOMA", "month": "2016-01", "mother_race": "CHINESE", "birth_order": "2nd", "birth_count": "166", "_id": 2}, {"mother_education": "\"A\" LEVEL/DIPLOMA", "month": "2016-01", "mother_race": "CHINESE", "birth_order": "3rd", "birth_count": "52", "_id": 3}, {"mother_education": "\"A\" LEVEL/DIPLOMA", "month": "2016-01", "mother_race": "CHINESE", "birth_order": "4th", "birth_count": "5", "_id": 4}, {"mother_education": "\"N\" LEVEL/\"O\" LEVEL", "month": "2016-01", "mother_race": "CHINESE", "birth_order": "1st", "birth_count": "87", "_id": 5}], "_links": {"start": "/api/action/datastore_search?limit=5&resource_id=6018e7bc-1f36-4a29-bf89-4af57cfbd785", "next": "/api/action/datastore_search?offset=5&limit=5&resource_id=6018e7bc-1f36-4a29-bf89-4af57cfbd785"}, "limit": 5, "total": 3564}}