{"help": "https://data.gov.sg/api/3/action/help_show?name=datastore_search", "success": true, "result": {"resource_id": "4779dc47-673a-42a3-896f-7bfc90315c09", "fields": [{"type": "int4", "id": "_id"}, {"type": "text", "id": "quarter"}, {"type": "text", "id": "level_1"}, {"type": "text", "id": "level_2"}, {"type": "text", "id": "level_3"}, {"type": "text", "id": "value"}], "records": [{"_id": 1, "value": "17", "quarter": "1995-Q1", "level_1": "Total Services Sector", "level_2": "Wholesale & Retail Trade", "level_3": "Wholesale Trade"}, {"_id": 2, "value": "-18", "quarter": "1995-Q1", "level_1": "Total Services Sector", "level_2": "Wholesale & Retail Trade", "level_3": "Retail Trade"}, {"_id": 3, "value": "16", "quarter": "1995-Q1", "level_1": "Total Services Sector", "level_2": "Accommodation & Food Services", "level_3": "Accommodation"}, {"_id": 4, "value": "-19", "quarter": "1995-Q1", "level_1": "Total Services Sector", "level_2": "Accommodation & Food Services", "level_3": "Food & Beverage Services"}, {"_id": 5, "value": "22", "quarter": "1995-Q1", "level_1": "Total Services Sector", "level_2": "Financial & Insurance", "level_3": "Banks & Finance Companies"}], "_links": {"start": "/api/action/datastore_search?limit=5&resource_id=4779dc47-673a-42a3-896f-7bfc90315c09", "next": "/api/action/datastore_search?offset=5&limit=5&resource_id=4779dc47-673a-42a3-896f-7bfc90315c09"}, "limit": 5, "total": 900}}