{"help": "https://data.gov.sg/api/3/action/help_show?name=datastore_search", "success": true, "result": {"resource_id": "1b702208-44bf-4829-b620-4615ee19b57c", "fields": [{"type": "int4", "id": "_id"}, {"type": "text", "id": "month"}, {"type": "text", "id": "town"}, {"type": "text", "id": "flat_type"}, {"type": "text", "id": "block"}, {"type": "text", "id": "street_name"}, {"type": "text", "id": "storey_range"}, {"type": "numeric", "id": "floor_area_sqm"}, {"type": "text", "id": "flat_model"}, {"type": "numeric", "id": "lease_commence_date"}, {"type": "numeric", "id": "remaining_lease"}, {"type": "numeric", "id": "resale_price"}], "records": [{"town": "ANG MO KIO", "flat_type": "3 ROOM", "flat_model": "Improved", "floor_area_sqm": "60", "street_name": "ANG MO KIO AVE 4", "resale_price": "255000", "month": "2015-01", "remaining_lease": "70", "lease_commence_date": "1986", "storey_range": "07 TO 09", "_id": 1, "block": "174"}, {"town": "ANG MO KIO", "flat_type": "3 ROOM", "flat_model": "New Generation", "floor_area_sqm": "68", "street_name": "ANG MO KIO AVE 10", "resale_price": "275000", "month": "2015-01", "remaining_lease": "65", "lease_commence_date": "1981", "storey_range": "01 TO 03", "_id": 2, "block": "541"}, {"town": "ANG MO KIO", "flat_type": "3 ROOM", "flat_model": "New Generation", "floor_area_sqm": "69", "street_name": "ANG MO KIO AVE 4", "resale_price": "285000", "month": "2015-01", "remaining_lease": "64", "lease_commence_date": "1980", "storey_range": "01 TO 03", "_id": 3, "block": "163"}, {"town": "ANG MO KIO", "flat_type": "3 ROOM", "flat_model": "New Generation", "floor_area_sqm": "68", "street_name": "ANG MO KIO AVE 10", "resale_price": "290000", "month": "2015-01", "remaining_lease": "63", "lease_commence_date": "1979", "storey_range": "01 TO 03", "_id": 4, "block": "446"}, {"town": "ANG MO KIO", "flat_type": "3 ROOM", "flat_model": "New Generation", "floor_area_sqm": "68", "street_name": "ANG MO KIO AVE 10", "resale_price": "290000", "month": "2015-01", "remaining_lease": "64", "lease_commence_date": "1980", "storey_range": "07 TO 09", "_id": 5, "block": "557"}], "_links": {"start": "/api/action/datastore_search?limit=5&resource_id=1b702208-44bf-4829-b620-4615ee19b57c", "next": "/api/action/datastore_search?offset=5&limit=5&resource_id=1b702208-44bf-4829-b620-4615ee19b57c"}, "limit": 5, "total": 37153}}