{"help": "https://data.gov.sg/api/3/action/help_show?name=datastore_search", "success": true, "result": {"resource_id": "dea41bef-7116-43ba-9f2f-f13bfbf876d2", "fields": [{"type": "int4", "id": "_id"}, {"type": "numeric", "id": "financial_year"}, {"type": "text", "id": "type"}, {"type": "numeric", "id": "applications_registered"}], "records": [{"_id": 1, "type": "resale", "financial_year": "2007", "applications_registered": "29612"}, {"_id": 2, "type": "rental", "financial_year": "2007", "applications_registered": "5970"}, {"_id": 3, "type": "resale", "financial_year": "2008", "applications_registered": "28551"}, {"_id": 4, "type": "rental", "financial_year": "2008", "applications_registered": "3695"}, {"_id": 5, "type": "resale", "financial_year": "2009", "applications_registered": "39320"}], "_links": {"start": "/api/action/datastore_search?limit=5&resource_id=dea41bef-7116-43ba-9f2f-f13bfbf876d2", "next": "/api/action/datastore_search?offset=5&limit=5&resource_id=dea41bef-7116-43ba-9f2f-f13bfbf876d2"}, "limit": 5, "total": 24}}