{"help": "https://data.gov.sg/api/3/action/help_show?name=datastore_search", "success": true, "result": {"resource_id": "9f9ca3a2-0e0f-4e3c-bc23-a9b4533dabd2", "fields": [{"type": "int4", "id": "_id"}, {"type": "numeric", "id": "year"}, {"type": "text", "id": "facility_type_a"}, {"type": "text", "id": "sex"}, {"type": "numeric", "id": "rate"}], "records": [{"rate": "90.2", "_id": 1, "sex": "Male", "facility_type_a": "Acute", "year": "2009"}, {"rate": "96.4", "_id": 2, "sex": "Female", "facility_type_a": "Acute", "year": "2009"}, {"rate": "2.7", "_id": 3, "sex": "Male", "facility_type_a": "Psychiatric Hospitals", "year": "2009"}, {"rate": "1.6", "_id": 4, "sex": "Female", "facility_type_a": "Psychiatric Hospitals", "year": "2009"}, {"rate": "1.5", "_id": 5, "sex": "Male", "facility_type_a": "Community Hospitals", "year": "2009"}], "_links": {"start": "/api/action/datastore_search?limit=5&resource_id=9f9ca3a2-0e0f-4e3c-bc23-a9b4533dabd2", "next": "/api/action/datastore_search?offset=5&limit=5&resource_id=9f9ca3a2-0e0f-4e3c-bc23-a9b4533dabd2"}, "limit": 5, "total": 66}}