{"help": "https://data.gov.sg/api/3/action/help_show?name=datastore_search", "success": true, "result": {"resource_id": "2049e677-cb74-4aae-89fa-0d3bc9c41ad3", "fields": [{"type": "int4", "id": "_id"}, {"type": "numeric", "id": "year"}, {"type": "text", "id": "race"}, {"type": "numeric", "id": "percentage_pass_math"}], "records": [{"percentage_pass_math": "85.4", "_id": 1, "race": "Malay", "year": "2008"}, {"percentage_pass_math": "96.3", "_id": 2, "race": "Chinese", "year": "2008"}, {"percentage_pass_math": "89.6", "_id": 3, "race": "Indian", "year": "2008"}, {"percentage_pass_math": "92.3", "_id": 4, "race": "Others", "year": "2008"}, {"percentage_pass_math": "92.7", "_id": 5, "race": "Overall", "year": "2008"}], "_links": {"start": "/api/action/datastore_search?limit=5&resource_id=2049e677-cb74-4aae-89fa-0d3bc9c41ad3", "next": "/api/action/datastore_search?offset=5&limit=5&resource_id=2049e677-cb74-4aae-89fa-0d3bc9c41ad3"}, "limit": 5, "total": 60}}