{"help": "https://data.gov.sg/api/3/action/help_show?name=datastore_search", "success": true, "result": {"resource_id": "9516b864-1e3c-495e-8e92-4f48ed13334d", "fields": [{"type": "int4", "id": "_id"}, {"type": "text", "id": "name"}, {"type": "text", "id": "reg_no"}, {"type": "text", "id": "firm_name"}, {"type": "text", "id": "firm_address"}, {"type": "text", "id": "firm_phone"}], "records": [{"firm_address": "Blk 86 Marine Parade Central, #03-212, Singapore 440086", "name": "Chia Ho Kheng", "reg_no": "650", "firm_phone": "62201200", "firm_name": "K P Koh & Partners Pte Ltd", "_id": 1}, {"firm_address": "8 Burn Road, #17-07 Trivex, Singapore 369977", "name": "Chia Hui Teen", "reg_no": "1891", "firm_phone": "66342810", "firm_name": "Xcube Architects", "_id": 2}, {"firm_address": "158 Cecil Street, #06-01, Singapore 069545", "name": "Chia Hwee Boon, Rebecca", "reg_no": "2458", "firm_phone": "62229113", "firm_name": "Swan & Maclaren Architects Pte Ltd", "_id": 3}, {"firm_address": "25 Burgundy Crescent, Singapore 658738", "name": "Chia Jun Jie", "reg_no": "2807", "firm_phone": "98313084", "firm_name": "UP Architects", "_id": 4}, {"firm_address": "1 HarbourFront Avenue, #07-01 Keppel Bay Tower, Singapore 098632", "name": "Chia Lay Kuan", "reg_no": "1746", "firm_phone": "62255366", "firm_name": "DCA Architects Pte Ltd", "_id": 5}], "_links": {"start": "/api/action/datastore_search?limit=5&resource_id=9516b864-1e3c-495e-8e92-4f48ed13334d", "next": "/api/action/datastore_search?offset=5&limit=5&resource_id=9516b864-1e3c-495e-8e92-4f48ed13334d"}, "limit": 5, "total": 3344}}