{"help": "https://data.gov.sg/api/3/action/help_show?name=datastore_search", "success": true, "result": {"resource_id": "a0b68f3f-0705-4d6b-9940-8365d7d8eddd", "fields": [{"type": "int4", "id": "_id"}, {"type": "text", "id": "month"}, {"type": "text", "id": "level_1"}, {"type": "text", "id": "level_2"}, {"type": "text", "id": "value"}], "records": [{"value": "na", "_id": 1, "level_1": "Total Merchandise Trade, (At Current Prices)", "level_2": "Oil", "month": "1968-03"}, {"value": "na", "_id": 2, "level_1": "Total Merchandise Trade, (At Current Prices)", "level_2": "Non-oil", "month": "1968-03"}, {"value": "76800", "_id": 3, "level_1": "Total Merchandise Imports, (At Current Prices)", "level_2": "Oil", "month": "1968-03"}, {"value": "339877.3", "_id": 4, "level_1": "Total Merchandise Imports, (At Current Prices)", "level_2": "Non-oil", "month": "1968-03"}, {"value": "na", "_id": 5, "level_1": "Total Merchandise Exports, (At Current Prices)", "level_2": "Oil", "month": "1968-03"}], "_links": {"start": "/api/action/datastore_search?limit=5&resource_id=a0b68f3f-0705-4d6b-9940-8365d7d8eddd", "next": "/api/action/datastore_search?offset=5&limit=5&resource_id=a0b68f3f-0705-4d6b-9940-8365d7d8eddd"}, "limit": 5, "total": 6190}}