{"help": "https://data.gov.sg/api/3/action/help_show?name=datastore_search", "success": true, "result": {"resource_id": "2e47ab6d-e327-4eb0-824f-e3ab6a5984db", "fields": [{"type": "int4", "id": "_id"}, {"type": "numeric", "id": "year"}, {"type": "numeric", "id": "pm2.5_mean"}], "records": [{"_id": 1, "pm2.5_mean": "23", "year": "2002"}, {"_id": 2, "pm2.5_mean": "19", "year": "2003"}, {"_id": 3, "pm2.5_mean": "21", "year": "2004"}, {"_id": 4, "pm2.5_mean": "21", "year": "2005"}, {"_id": 5, "pm2.5_mean": "23", "year": "2006"}], "_links": {"start": "/api/action/datastore_search?limit=5&resource_id=2e47ab6d-e327-4eb0-824f-e3ab6a5984db", "next": "/api/action/datastore_search?offset=5&limit=5&resource_id=2e47ab6d-e327-4eb0-824f-e3ab6a5984db"}, "limit": 5, "total": 18}}