{"help": "https://data.gov.sg/api/3/action/help_show?name=datastore_search", "success": true, "result": {"resource_id": "cd37aed4-2d93-4e05-b6f9-4b249603f125", "fields": [{"type": "int4", "id": "_id"}, {"type": "numeric", "id": "financial_year"}, {"type": "text", "id": "type"}, {"type": "text", "id": "status"}, {"type": "numeric", "id": "no_of_units"}], "records": [{"status": "Completed", "no_of_units": "35", "_id": 1, "type": "Shops, Lock-Up Shops and Eating Houses", "financial_year": "2007"}, {"status": "Under Construction", "no_of_units": "49", "_id": 2, "type": "Shops, Lock-Up Shops and Eating Houses", "financial_year": "2007"}, {"status": "Awarded", "no_of_units": "32", "_id": 3, "type": "Shops, Lock-Up Shops and Eating Houses", "financial_year": "2007"}, {"status": "Completed", "no_of_units": "0", "_id": 4, "type": "Mini-markets", "financial_year": "2007"}, {"status": "Under Construction", "no_of_units": "0", "_id": 5, "type": "Mini-markets", "financial_year": "2007"}], "_links": {"start": "/api/action/datastore_search?limit=5&resource_id=cd37aed4-2d93-4e05-b6f9-4b249603f125", "next": "/api/action/datastore_search?offset=5&limit=5&resource_id=cd37aed4-2d93-4e05-b6f9-4b249603f125"}, "limit": 5, "total": 324}}