{"help": "https://data.gov.sg/api/3/action/help_show?name=datastore_search", "success": true, "result": {"resource_id": "37e9749e-3394-4606-b41e-f0256166987a", "fields": [{"type": "int4", "id": "_id"}, {"type": "text", "id": "app_no"}, {"type": "text", "id": "licence_no"}, {"type": "text", "id": "company_name"}, {"type": "text", "id": "valid_period"}, {"type": "text", "id": "company_address"}, {"type": "text", "id": "tobacco_type"}], "records": [{"_id": 1, "valid_period": "2019-07-01 -2020-06-30", "app_no": "17C0115H", "company_name": "TOBACCO NETWORK TRADERS PTE LTD", "company_address": "\"28, SENANG CRESCENT, #02-05, BIZHUB28, SINGAPORE(416601)\"", "tobacco_type": "Hand Rolling Tobacco Leaves", "licence_no": "TIW0300006"}, {"_id": 2, "valid_period": "2019-07-01 -2020-06-30", "app_no": "17C0115H", "company_name": "TOBACCO NETWORK TRADERS PTE LTD", "company_address": "\"28, SENANG CRESCENT, #02-05, BIZHUB28, SINGAPORE(416601)\"", "tobacco_type": "Cigarettes", "licence_no": "TIW0300006"}, {"_id": 3, "valid_period": "2019-07-01 -2020-06-30", "app_no": "17C0115H", "company_name": "TOBACCO NETWORK TRADERS PTE LTD", "company_address": "\"28, SENANG CRESCENT, #02-05, BIZHUB28, SINGAPORE(416601)\"", "tobacco_type": "Hand Rolling Tobacco Leaves", "licence_no": "TIW0300006"}, {"_id": 4, "valid_period": "2019-07-01 -2020-06-30", "app_no": "17C0115H", "company_name": "TOBACCO NETWORK TRADERS PTE LTD", "company_address": "\"28, SENANG CRESCENT, #02-05, BIZHUB28, SINGAPORE(416601)\"", "tobacco_type": "Hand Rolling Tobacco Leaves", "licence_no": "TIW0300006"}, {"_id": 5, "valid_period": "2019-07-01 -2020-06-30", "app_no": "1995291H", "company_name": "LUBRITRADE TRADING PTE LTD", "company_address": "\"408, NORTH BRIDGE ROAD, #04-01, LUBRITRADE BUILDLING, SINGAPORE(188725)\"", "tobacco_type": "Cigars", "licence_no": "TIW0300008"}], "_links": {"start": "/api/action/datastore_search?limit=5&resource_id=37e9749e-3394-4606-b41e-f0256166987a", "next": "/api/action/datastore_search?offset=5&limit=5&resource_id=37e9749e-3394-4606-b41e-f0256166987a"}, "limit": 5, "total": 104}}