{"help": "https://data.gov.sg/api/3/action/help_show?name=datastore_search", "success": true, "result": {"resource_id": "9c8d2f0f-af24-402d-83be-a14bdf5e201f", "fields": [{"type": "int4", "id": "_id"}, {"type": "numeric", "id": "year"}, {"type": "text", "id": "level_1"}, {"type": "text", "id": "level_2"}, {"type": "numeric", "id": "value"}], "records": [{"value": "2", "_id": 1, "level_1": "Caucasian Brides", "level_2": "Malay Grooms", "year": "1993"}, {"value": "0", "_id": 2, "level_1": "Caucasian Brides", "level_2": "Chinese Grooms", "year": "1993"}, {"value": "1", "_id": 3, "level_1": "Caucasian Brides", "level_2": "Indian Grooms", "year": "1993"}, {"value": "0", "_id": 4, "level_1": "Caucasian Brides", "level_2": "Eurasian Grooms", "year": "1993"}, {"value": "0", "_id": 5, "level_1": "Caucasian Brides", "level_2": "Other Grooms", "year": "1993"}], "_links": {"start": "/api/action/datastore_search?limit=5&resource_id=9c8d2f0f-af24-402d-83be-a14bdf5e201f", "next": "/api/action/datastore_search?offset=5&limit=5&resource_id=9c8d2f0f-af24-402d-83be-a14bdf5e201f"}, "limit": 5, "total": 2242}}