{"help": "https://data.gov.sg/api/3/action/help_show?name=datastore_search", "success": true, "result": {"resource_id": "adcf420f-4f4e-4995-9cdf-e910b45a3bc2", "fields": [{"type": "int4", "id": "_id"}, {"type": "numeric", "id": "year"}, {"type": "text", "id": "road_type"}, {"type": "numeric", "id": "road_length"}], "records": [{"road_type": "Expressway", "road_length": "150", "_id": 1, "year": "2005"}, {"road_type": "Arterial Road", "road_length": "594", "_id": 2, "year": "2005"}, {"road_type": "Collector Road", "road_length": "455", "_id": 3, "year": "2005"}, {"road_type": "Local Road", "road_length": "2036", "_id": 4, "year": "2005"}, {"road_type": "Expressway", "road_length": "150", "_id": 5, "year": "2006"}], "_links": {"start": "/api/action/datastore_search?limit=5&resource_id=adcf420f-4f4e-4995-9cdf-e910b45a3bc2", "next": "/api/action/datastore_search?offset=5&limit=5&resource_id=adcf420f-4f4e-4995-9cdf-e910b45a3bc2"}, "limit": 5, "total": 52}}