{"help": "https://data.gov.sg/api/3/action/help_show?name=datastore_search", "success": true, "result": {"resource_id": "53a18f6c-1032-44eb-af44-d9babb41d9ef", "fields": [{"type": "int4", "id": "_id"}, {"type": "text", "id": "centre_code"}, {"type": "text", "id": "centre_name"}, {"type": "text", "id": "class_of_licence"}, {"type": "text", "id": "type_of_service"}, {"type": "text", "id": "levels_offered"}, {"type": "numeric", "id": "fees"}, {"type": "text", "id": "type_of_citizenship"}, {"type": "text", "id": "last_updated"}, {"type": "text", "id": "remarks"}], "records": [{"centre_code": "ST0220", "levels_offered": "Playgroup (18 mths to 2 yrs old)", "last_updated": "2020-09-10", "centre_name": "PCF Sparkletots Preschool @ Kampong Glam Blk 462 (DS)", "remarks": "na", "type_of_service": "Full Day", "fees": "900", "type_of_citizenship": "SPR", "_id": 1, "class_of_licence": "Class B (Child Care)"}, {"centre_code": "ST0221", "levels_offered": "Infant (2 to 18 mths)", "last_updated": "2020-10-15", "centre_name": "PCF Sparkletots Preschool @ Moulmein - Cairnhill Blk 10 (DS)", "remarks": "na", "type_of_service": "Full Day", "fees": "1912.43", "type_of_citizenship": "Others", "_id": 2, "class_of_licence": "Class A (Infant Care)"}, {"centre_code": "ST0221", "levels_offered": "Infant (2 to 18 mths)", "last_updated": "2020-10-15", "centre_name": "PCF Sparkletots Preschool @ Moulmein - Cairnhill Blk 10 (DS)", "remarks": "na", "type_of_service": "Full Day", "fees": "1274.95", "type_of_citizenship": "SC", "_id": 3, "class_of_licence": "Class A (Infant Care)"}, {"centre_code": "ST0221", "levels_offered": "Infant (2 to 18 mths)", "last_updated": "2020-10-15", "centre_name": "PCF Sparkletots Preschool @ Moulmein - Cairnhill Blk 10 (DS)", "remarks": "na", "type_of_service": "Full Day", "fees": "1593.64", "type_of_citizenship": "SPR", "_id": 4, "class_of_licence": "Class A (Infant Care)"}, {"centre_code": "ST0221", "levels_offered": "Kindergarten 1 (5 yrs old)", "last_updated": "2020-10-15", "centre_name": "PCF Sparkletots Preschool @ Moulmein - Cairnhill Blk 10 (DS)", "remarks": "na", "type_of_service": "Full Day", "fees": "1054.02", "type_of_citizenship": "Others", "_id": 5, "class_of_licence": "Class B (Child Care)"}], "_links": {"start": "/api/action/datastore_search?limit=5&resource_id=53a18f6c-1032-44eb-af44-d9babb41d9ef", "next": "/api/action/datastore_search?offset=5&limit=5&resource_id=53a18f6c-1032-44eb-af44-d9babb41d9ef"}, "limit": 5, "total": 103470}}