{"help": "https://data.gov.sg/api/3/action/help_show?name=datastore_search", "success": true, "result": {"resource_id": "18a5ef70-dc13-4249-a8d1-b34823fec471", "fields": [{"type": "int4", "id": "_id"}, {"type": "text", "id": "date_issued"}, {"type": "text", "id": "top_number"}, {"type": "text", "id": "project_reference_number"}, {"type": "text", "id": "description"}, {"type": "text", "id": "achitect"}, {"type": "text", "id": "floor_area"}, {"type": "text", "id": "cost"}, {"type": "text", "id": "residential_units"}], "records": [{"residential_units": "0", "cost": "0.00", "description": "ADDITIONS AND ALTERATIONS TO EXISTING TOILET 3 OF BISHAN-ANG MO KIO PARK ON LOT 15469K MK18 FROM UPPER THOMSON ROAD TO BISHAN ROAD ( BISHAN PLANNING AREA)", "project_reference_number": "A0784-01597-2016-BP01", "floor_area": "0", "date_issued": "2017-03-01", "top_number": "201756016", "_id": 1, "achitect": "CHUA SEOW ANN"}, {"residential_units": "0", "cost": "0.00", "description": "ADDITIONS & ALTERATIONS TO EXISTING SINGLE-USER 2-STOREY GENERAL INDUSTRIAL DEVELOPMENT COMPRISING EXTENSION OF TEMPORARY ANCILLARY WORKERS' DORMITORY (FOR 300 WORKERS) ON LOT 00628C MK07 AT 76 JOO KOON CIRCLE (PIONEER PLANNING AREA)", "project_reference_number": "E3003-00009-2015-BP01", "floor_area": "0", "date_issued": "2017-03-01", "top_number": "201756019", "_id": 2, "achitect": "ROBIN CHIA KAY HUA"}, {"residential_units": "0", "cost": "0.00", "description": "PUBLIC HOUSING DEVELOPMENT COMPRISING 9 BLKS OF 13-STY RESIDENTIAL BLDG (TOTAL 1294 UNITS),1 BLK OF COMMERCIAL BLDG, 2 BLK OF MSCP / ESS / COMMUNAL FACILITIES & PRECINCT PAVILION AT YISHUN AVE 4 /YISHUN RING ROAD (YISHUN N6 C17 &18)[TEMPORARY OCCUPATION PERMIT FOR MSCP WITH ESS BLK 673, BLK 673A (RESIDENTIAL), LINKWAY TYPE 15 & LINKBRIDGE TYPE 5]", "project_reference_number": "A1578-00007-2013-BP01", "floor_area": "0", "date_issued": "2017-03-01", "top_number": "201756013", "_id": 3, "achitect": "ANG MAE-LI"}, {"residential_units": "0", "cost": "0.00", "description": "PROPOSED NEW ERECTION OF THOMSON LINE NAPIER UNDERGROUND MASS RAPID TRANSIT STATION WITH 3 BASEMENTS ON LOTS 01862XPT, 03185LPT, 03403XPT & 99276CPT MK02, 01473CPT, 01638PPT, 01722LPT & 01724MPT TS25 AT NAPIER ROAD", "project_reference_number": "A1852-00001-2012-ST161", "floor_area": "0", "date_issued": "2017-03-02", "top_number": "201756039", "_id": 4, "achitect": "Yong Deung Ming"}, {"residential_units": "0", "cost": "0.00", "description": "ADDITIONS & ALTERATIONS TO 1ST AND 2ND STOREY OF EXISTING 7-STOREY SINGLE USER CLEAN & LIGHT INDUSTRIAL BUILDING WITH BASEMENTS  AT 508 CHAI CHEE LANE ON LOT(S) 06084K  MK28 AT 508 CHAI CHEE LANE", "project_reference_number": "E3900-00069-2016-BP01", "floor_area": "0", "date_issued": "2017-03-02", "top_number": "201756031", "_id": 5, "achitect": "LIM KEAN TEONG"}], "_links": {"start": "/api/action/datastore_search?limit=5&resource_id=18a5ef70-dc13-4249-a8d1-b34823fec471", "next": "/api/action/datastore_search?offset=5&limit=5&resource_id=18a5ef70-dc13-4249-a8d1-b34823fec471"}, "limit": 5, "total": 5373}}