{"help": "https://data.gov.sg/api/3/action/help_show?name=datastore_search", "success": true, "result": {"resource_id": "ef182150-26b0-4e57-8385-3046012a295c", "fields": [{"type": "int4", "id": "_id"}, {"type": "numeric", "id": "year"}, {"type": "text", "id": "level_1"}, {"type": "text", "id": "level_2"}, {"type": "text", "id": "level_3"}, {"type": "text", "id": "level_4"}, {"type": "text", "id": "level_5"}, {"type": "numeric", "id": "value"}], "records": [{"value": "5.2", "year": "2015", "level_4": "Two Languages Only", "level_5": "English & Malay Only", "_id": 1, "level_1": "Chinese", "level_2": "45 - 54 Years", "level_3": "Females"}, {"value": "0", "year": "2015", "level_4": "Two Languages Only", "level_5": "English & Tamil Only", "_id": 2, "level_1": "Chinese", "level_2": "45 - 54 Years", "level_3": "Females"}, {"value": "0.6", "year": "2015", "level_4": "Two Languages Only", "level_5": "English & Non-Official Language Only", "_id": 3, "level_1": "Chinese", "level_2": "45 - 54 Years", "level_3": "Females"}, {"value": "2.1", "year": "2015", "level_4": "Two Languages Only", "level_5": "Other Two Languages Only", "_id": 4, "level_1": "Chinese", "level_2": "45 - 54 Years", "level_3": "Females"}, {"value": "9.3", "year": "2015", "level_4": "Three or More Languages", "level_5": "English, Chinese & Malay Only", "_id": 5, "level_1": "Chinese", "level_2": "45 - 54 Years", "level_3": "Females"}], "_links": {"start": "/api/action/datastore_search?limit=5&resource_id=ef182150-26b0-4e57-8385-3046012a295c", "next": "/api/action/datastore_search?offset=5&limit=5&resource_id=ef182150-26b0-4e57-8385-3046012a295c"}, "limit": 5, "total": 1060}}