{"help": "https://data.gov.sg/api/3/action/help_show?name=datastore_search", "success": true, "result": {"resource_id": "41ac7232-cf39-4ddb-bc56-9d1ce10642d5", "fields": [{"type": "int4", "id": "_id"}, {"type": "text", "id": "year"}, {"type": "text", "id": "level_1"}, {"type": "text", "id": "level_2"}, {"type": "numeric", "id": "value"}], "records": [{"value": "6216.4", "_id": 1, "level_1": "Operating Receipts, SSIC 47 - Total Retail Trade", "level_2": "SSIC 471 - General Merchandise", "year": "2000"}, {"value": "8034.6", "_id": 2, "level_1": "Operating Receipts, SSIC 47 - Total Retail Trade", "level_2": "SSIC 473 - Transport Equipment", "year": "2000"}, {"value": "5808", "_id": 3, "level_1": "Operating Receipts, SSIC 47 - Total Retail Trade", "level_2": "SSIC 4771/4772/4773/4775/476 - Personal Goods", "year": "2000"}, {"value": "3509.1", "_id": 4, "level_1": "Operating Receipts, SSIC 47 - Total Retail Trade", "level_2": "SSIC 4741/4742/4751/4753 - Household Equipment", "year": "2000"}, {"value": "1399.8", "_id": 5, "level_1": "Operating Receipts, SSIC 47 - Total Retail Trade", "level_2": "SSIC 472/4752/4774/4776/4777/479 - Others", "year": "2000"}], "_links": {"start": "/api/action/datastore_search?limit=5&resource_id=41ac7232-cf39-4ddb-bc56-9d1ce10642d5", "next": "/api/action/datastore_search?offset=5&limit=5&resource_id=41ac7232-cf39-4ddb-bc56-9d1ce10642d5"}, "limit": 5, "total": 360}}