{"help": "https://data.gov.sg/api/3/action/help_show?name=datastore_search", "success": true, "result": {"resource_id": "68f7398e-43ec-40fb-b1e1-61ec5c9de911", "fields": [{"type": "int4", "id": "_id"}, {"type": "text", "id": "year"}, {"type": "text", "id": "level_1"}, {"type": "numeric", "id": "value"}], "records": [{"_id": 1, "level_1": "All Items - Lowest 20%", "value": "2.4", "year": "1994"}, {"_id": 2, "level_1": "All Items - Middle 60%", "value": "2.5", "year": "1994"}, {"_id": 3, "level_1": "All Items - Highest 20%", "value": "6.4", "year": "1994"}, {"_id": 4, "level_1": "All Items - Lowest 20%", "value": "1.8", "year": "1995"}, {"_id": 5, "level_1": "All Items - Middle 60%", "value": "1.9", "year": "1995"}], "_links": {"start": "/api/action/datastore_search?limit=5&resource_id=68f7398e-43ec-40fb-b1e1-61ec5c9de911", "next": "/api/action/datastore_search?offset=5&limit=5&resource_id=68f7398e-43ec-40fb-b1e1-61ec5c9de911"}, "limit": 5, "total": 75}}