{"help": "https://data.gov.sg/api/3/action/help_show?name=datastore_search", "success": true, "result": {"resource_id": "db886998-77e6-4f18-871f-d8b9144fb2a1", "fields": [{"type": "int4", "id": "_id"}, {"type": "text", "id": "month"}, {"type": "numeric", "id": "count"}], "records": [{"count": "1155800", "_id": 1, "month": "2015-12"}, {"count": "1153200", "_id": 2, "month": "2016-12"}, {"count": "1121300", "_id": 3, "month": "2017-12"}, {"count": "1132200", "_id": 4, "month": "2018-12"}, {"count": "1165600", "_id": 5, "month": "2019-12"}], "_links": {"start": "/api/action/datastore_search?limit=5&resource_id=db886998-77e6-4f18-871f-d8b9144fb2a1", "next": "/api/action/datastore_search?offset=5&limit=5&resource_id=db886998-77e6-4f18-871f-d8b9144fb2a1"}, "limit": 5, "total": 6}}