{"help": "https://data.gov.sg/api/3/action/help_show?name=datastore_search", "success": true, "result": {"resource_id": "b1a9413e-78e1-450f-8ee3-2d291deef7e3", "fields": [{"type": "int4", "id": "_id"}, {"type": "text", "id": "month"}, {"type": "numeric", "id": "total_foreign_reserve_sgd"}, {"type": "numeric", "id": "special_drawing_rights"}, {"type": "numeric", "id": "imf_reserve_position"}, {"type": "numeric", "id": "gold_and_foreign_exchange"}, {"type": "numeric", "id": "total_foreign_reserve_usd"}], "records": [{"imf_reserve_position": "28.3", "gold_and_foreign_exchange": "4146.1", "month": "1972-01", "total_foreign_reserve_sgd": "4174.4", "special_drawing_rights": "0", "total_foreign_reserve_usd": "1459.6", "_id": 1}, {"imf_reserve_position": "28.3", "gold_and_foreign_exchange": "4165.2", "month": "1972-02", "total_foreign_reserve_sgd": "4193.5", "special_drawing_rights": "0", "total_foreign_reserve_usd": "1471.4", "_id": 2}, {"imf_reserve_position": "28.3", "gold_and_foreign_exchange": "4265.3", "month": "1972-03", "total_foreign_reserve_sgd": "4293.6", "special_drawing_rights": "0", "total_foreign_reserve_usd": "1523.3", "_id": 3}, {"imf_reserve_position": "28.3", "gold_and_foreign_exchange": "4175.5", "month": "1972-04", "total_foreign_reserve_sgd": "4203.8", "special_drawing_rights": "0", "total_foreign_reserve_usd": "1489.4", "_id": 4}, {"imf_reserve_position": "28.3", "gold_and_foreign_exchange": "4226.6", "month": "1972-05", "total_foreign_reserve_sgd": "4254.9", "special_drawing_rights": "0", "total_foreign_reserve_usd": "1512.9", "_id": 5}], "_links": {"start": "/api/action/datastore_search?limit=5&resource_id=b1a9413e-78e1-450f-8ee3-2d291deef7e3", "next": "/api/action/datastore_search?offset=5&limit=5&resource_id=b1a9413e-78e1-450f-8ee3-2d291deef7e3"}, "limit": 5, "total": 528}}