{"help": "https://data.gov.sg/api/3/action/help_show?name=datastore_search", "success": true, "result": {"resource_id": "7e9e07d5-1aa2-4c5d-8981-23cae27dc674", "fields": [{"type": "int4", "id": "_id"}, {"type": "numeric", "id": "financial_year"}, {"type": "text", "id": "economic_sector"}, {"type": "numeric", "id": "no_of_businesses"}, {"type": "text", "id": "percentage_of_businesses_in_net_gst_refund_position"}, {"type": "text", "id": "net_gst_contribution"}, {"type": "numeric", "id": "percentage_of_net_gst_contribution"}], "records": [{"percentage_of_businesses_in_net_gst_refund_position": "na", "percentage_of_net_gst_contribution": "0.3", "_id": 1, "no_of_businesses": "175", "financial_year": "2004", "net_gst_contribution": "na", "economic_sector": "Agriculture & Fishing"}, {"percentage_of_businesses_in_net_gst_refund_position": "na", "percentage_of_net_gst_contribution": "0", "_id": 2, "no_of_businesses": "23", "financial_year": "2004", "net_gst_contribution": "na", "economic_sector": "Mining & Quarrying"}, {"percentage_of_businesses_in_net_gst_refund_position": "na", "percentage_of_net_gst_contribution": "2.9", "_id": 3, "no_of_businesses": "7942", "financial_year": "2004", "net_gst_contribution": "na", "economic_sector": "Manufacturing"}, {"percentage_of_businesses_in_net_gst_refund_position": "na", "percentage_of_net_gst_contribution": "5.8", "_id": 4, "no_of_businesses": "45", "financial_year": "2004", "net_gst_contribution": "na", "economic_sector": "Utilities"}, {"percentage_of_businesses_in_net_gst_refund_position": "na", "percentage_of_net_gst_contribution": "9.2", "_id": 5, "no_of_businesses": "5745", "financial_year": "2004", "net_gst_contribution": "na", "economic_sector": "Construction"}], "_links": {"start": "/api/action/datastore_search?limit=5&resource_id=7e9e07d5-1aa2-4c5d-8981-23cae27dc674", "next": "/api/action/datastore_search?offset=5&limit=5&resource_id=7e9e07d5-1aa2-4c5d-8981-23cae27dc674"}, "limit": 5, "total": 176}}