{"help": "https://data.gov.sg/api/3/action/help_show?name=datastore_search", "success": true, "result": {"resource_id": "069ce233-1ae6-414e-bf8a-e8fe7779c34d", "fields": [{"type": "int4", "id": "_id"}, {"type": "numeric", "id": "year"}, {"type": "numeric", "id": "non_dom_waste_disposed"}], "records": [{"_id": 1, "non_dom_waste_disposed": "1.43", "year": "2000"}, {"_id": 2, "non_dom_waste_disposed": "1.42", "year": "2001"}, {"_id": 3, "non_dom_waste_disposed": "1.19", "year": "2002"}, {"_id": 4, "non_dom_waste_disposed": "1.07", "year": "2003"}, {"_id": 5, "non_dom_waste_disposed": "1.07", "year": "2004"}], "_links": {"start": "/api/action/datastore_search?limit=5&resource_id=069ce233-1ae6-414e-bf8a-e8fe7779c34d", "next": "/api/action/datastore_search?offset=5&limit=5&resource_id=069ce233-1ae6-414e-bf8a-e8fe7779c34d"}, "limit": 5, "total": 16}}