{"help": "https://data.gov.sg/api/3/action/help_show?name=datastore_search", "success": true, "result": {"resource_id": "0db9f5fb-7b87-43e1-9e5d-78404e57b79d", "fields": [{"type": "int4", "id": "_id"}, {"type": "numeric", "id": "year"}, {"type": "text", "id": "type_of_educational_institutions"}, {"type": "numeric", "id": "recurrent_expenditure"}], "records": [{"_id": 1, "recurrent_expenditure": "137080", "type_of_educational_institutions": "Junior Colleges / Centralised Institute", "year": "1995"}, {"_id": 2, "recurrent_expenditure": "109670", "type_of_educational_institutions": "Institute of Technical Education", "year": "1995"}, {"_id": 3, "recurrent_expenditure": "338960", "type_of_educational_institutions": "Polytechnics", "year": "1995"}, {"_id": 4, "recurrent_expenditure": "520289", "type_of_educational_institutions": "Universities", "year": "1995"}, {"_id": 5, "recurrent_expenditure": "187396", "type_of_educational_institutions": "Others", "year": "1995"}], "_links": {"start": "/api/action/datastore_search?limit=5&resource_id=0db9f5fb-7b87-43e1-9e5d-78404e57b79d", "next": "/api/action/datastore_search?offset=5&limit=5&resource_id=0db9f5fb-7b87-43e1-9e5d-78404e57b79d"}, "limit": 5, "total": 446}}