{"help": "https://data.gov.sg/api/3/action/help_show?name=datastore_search", "success": true, "result": {"resource_id": "d740b8db-d2b8-41fc-ab58-cbd2f3ac18bf", "fields": [{"type": "int4", "id": "_id"}, {"type": "text", "id": "month"}, {"type": "text", "id": "level_1"}, {"type": "numeric", "id": "value"}], "records": [{"_id": 1, "level_1": "Export Price Index - Overall Items", "value": "139.89", "month": "1978-01"}, {"_id": 2, "level_1": "Non-oil Export Price Index", "value": "206.7", "month": "1978-01"}, {"_id": 3, "level_1": "Export Price Index - Overall Items", "value": "139.89", "month": "1978-02"}, {"_id": 4, "level_1": "Non-oil Export Price Index", "value": "206.884", "month": "1978-02"}, {"_id": 5, "level_1": "Export Price Index - Overall Items", "value": "139.499", "month": "1978-03"}], "_links": {"start": "/api/action/datastore_search?limit=5&resource_id=d740b8db-d2b8-41fc-ab58-cbd2f3ac18bf", "next": "/api/action/datastore_search?offset=5&limit=5&resource_id=d740b8db-d2b8-41fc-ab58-cbd2f3ac18bf"}, "limit": 5, "total": 976}}