{"help": "https://data.gov.sg/api/3/action/help_show?name=datastore_search", "success": true, "result": {"resource_id": "bffa44c8-44e2-44be-a677-ec15bb03737b", "fields": [{"type": "int4", "id": "_id"}, {"type": "text", "id": "period"}, {"type": "text", "id": "category"}, {"type": "text", "id": "type"}, {"type": "numeric", "id": "cumulative_number"}], "records": [{"category": "Cars and Station-wagons", "_id": 1, "type": "Private", "period": "2016-Q1", "cumulative_number": "17188"}, {"category": "Cars and Station-wagons", "_id": 2, "type": "Company", "period": "2016-Q1", "cumulative_number": "838"}, {"category": "Cars and Station-wagons", "_id": 3, "type": "Tuition", "period": "2016-Q1", "cumulative_number": "18"}, {"category": "Cars and Station-wagons", "_id": 4, "type": "Private Hire (Rental)", "period": "2016-Q1", "cumulative_number": "1309"}, {"category": "Cars and Station-wagons", "_id": 5, "type": "Off peak/Weekend cars", "period": "2016-Q1", "cumulative_number": "450"}], "_links": {"start": "/api/action/datastore_search?limit=5&resource_id=bffa44c8-44e2-44be-a677-ec15bb03737b", "next": "/api/action/datastore_search?offset=5&limit=5&resource_id=bffa44c8-44e2-44be-a677-ec15bb03737b"}, "limit": 5, "total": 160}}