{"help": "https://data.gov.sg/api/3/action/help_show?name=datastore_search", "success": true, "result": {"resource_id": "567beb5d-9147-443c-8c1c-e377158f3eea", "fields": [{"type": "int4", "id": "_id"}, {"type": "numeric", "id": "year"}, {"type": "text", "id": "title"}, {"type": "text", "id": "aka"}, {"type": "text", "id": "romanised_title"}, {"type": "text", "id": "actor"}, {"type": "text", "id": "producer"}, {"type": "text", "id": "director"}, {"type": "text", "id": "language"}, {"type": "text", "id": "format"}, {"type": "text", "id": "region"}, {"type": "text", "id": "rating"}, {"type": "text", "id": "decision"}, {"type": "numeric", "id": "duration"}, {"type": "text", "id": "distributor"}, {"type": "text", "id": "consumer_advice"}, {"type": "text", "id": "more_info"}, {"type": "text", "id": "general_info"}, {"type": "text", "id": "decision_date"}, {"type": "text", "id": "episode_title"}, {"type": "text", "id": "episode"}], "records": [{"consumer_advice": "na", "rating": "PG", "general_info": "\u201cKampai: For The Love Of Sake\u201d is a film that documents the efforts by a British sake brewer, an American journalist and a young president of a century-old sake brewery in Japan to explore the world of sake and the challenges that the industry faces. \r\n\r\nThe film is rated \u201cPG\u201d mainly due to the focus on appreciation of an alcoholic beverage.\r\n", "episode": "na", "language": "JAPANESE", "producer": "na", "title": "\"KAMPAI: FOR THE LOVE OF SAKE", "romanised_title": "na", "region": "NA", "format": "DVD", "actor": "CHIZURU DOI,CAT FORD COATES  ", "episode_title": "na", "director": "MIRAI KONISHI", "distributor": "SYNCA", "decision_date": "31/1/2017", "year": "2017", "duration": "104", "aka": "na", "_id": 1, "decision": "Passed Clean", "more_info": "na"}, {"consumer_advice": "na", "rating": "PG", "general_info": "na", "episode": "na", "language": "CHINESE", "producer": "LOU MEI JUN", "title": "#12-99", "romanised_title": "na", "region": "NA", "format": "DVD-R", "actor": "KONG XIANG CHI,LIEW POH YIN  ", "episode_title": "na", "director": "JETH HENG", "distributor": "NA", "decision_date": "3/7/2017", "year": "2017", "duration": "3", "aka": "na", "_id": 2, "decision": "Passed Clean", "more_info": "na"}, {"consumer_advice": "na", "rating": "PG", "general_info": "na", "episode": "na", "language": "CHINESE", "producer": "LOU MEI JUN", "title": "#12-99", "romanised_title": "na", "region": "na", "format": "DVD-R", "actor": "KONG XIANG CHI,LIEW POH YIN  ", "episode_title": "na", "director": "JETH HENG", "distributor": "N/A ", "decision_date": "23/5/2017", "year": "2017", "duration": "3", "aka": "na", "_id": 3, "decision": "Passed Clean", "more_info": "na"}, {"consumer_advice": "Violence", "rating": "M18", "general_info": "\u201c#66\u201d is an Indonesian action film about a hired killer who wants to turn over a new leaf, but gets embroiled in the dealings of a criminal organisation for the sake of protecting his family.  \r\n\r\nThe film is rated M18 with consumer advice of \u201cViolence\u201d.\r\n\r\nThe film contains some violent sequences involving the use of weapons such as guns and knives, with bloodletting seen. In one sequence, a man enters a drug den and begins shooting some men in the head. Blood spurts are seen as the men get shot. There is also a prolonged sequence where the protagonist is seen fending off several men by shooting them or stabbing them. One of the stronger depictions shows the protagonist stabbing a man repeatedly in the stomach before slitting the latter\u2019s neck, with blood spurts shown.  Under the M18 Classification Guidelines,   \u201crealistic depiction of violence and gore with strong impact is allowed if justified by context.\u201d\r\n", "episode": "na", "language": "INDONESIAN", "producer": "na", "title": "#66 (2016)", "romanised_title": "na", "region": "NA", "format": "Film", "actor": "ASUN MAWARDI,DONITA,ERWIN ST BAGINDO,RICARDO SILENZA", "episode_title": "na", "director": "ASUN MAWARDI", "distributor": "NA", "decision_date": "6/2/2017", "year": "2017", "duration": "96", "aka": "na", "_id": 4, "decision": "Passed Clean", "more_info": "na"}, {"consumer_advice": "na", "rating": "PG", "general_info": "na", "episode": "na", "language": "ENGLISH", "producer": "CHRIS MELEDANDRI, JANET HEALY, BRETT HOFFMAN, KYLE BALDA", "title": "10 MINION MINI-MOVIES", "romanised_title": "na", "region": "na", "format": "DVD", "actor": "PIERRE COFFIN (VOICE),MIRANDA COSGROVE (VOICE),CHRIS RENAUD (VOICE),DANA GAIER (VOICE)", "episode_title": "na", "director": "ERIC FAVELA, REGIS SCHULLER, DIDIER AH-KOON, KYLE BALDA", "distributor": "UNIVERSAL PICTURES HOME ENTERTAINMENT", "decision_date": "30/11/2017", "year": "2017", "duration": "42", "aka": "na", "_id": 5, "decision": "Passed Clean", "more_info": "na"}], "_links": {"start": "/api/action/datastore_search?limit=5&resource_id=567beb5d-9147-443c-8c1c-e377158f3eea", "next": "/api/action/datastore_search?offset=5&limit=5&resource_id=567beb5d-9147-443c-8c1c-e377158f3eea"}, "limit": 5, "total": 9001}}