{"help": "https://data.gov.sg/api/3/action/help_show?name=datastore_search", "success": true, "result": {"resource_id": "a9356363-4f88-42ac-8e9d-14092fa7c387", "fields": [{"type": "int4", "id": "_id"}, {"type": "text", "id": "year"}, {"type": "text", "id": "level_1"}, {"type": "numeric", "id": "value"}], "records": [{"_id": 1, "level_1": "Operating Receipts, SSIC 47 - Total Retail Trade", "value": "24968.1", "year": "2000"}, {"_id": 2, "level_1": "Operating Expenditure, SSIC 47 - Total Retail Trade", "value": "23627.2", "year": "2000"}, {"_id": 3, "level_1": "Operating Surplus, SSIC 47 - Total Retail Trade", "value": "1565.7", "year": "2000"}, {"_id": 4, "level_1": "Value Added, SSIC 47 - Total Retail Trade", "value": "3321.6", "year": "2000"}, {"_id": 5, "level_1": "Operating Receipts, SSIC 47 - Total Retail Trade", "value": "23584.9", "year": "2001"}], "_links": {"start": "/api/action/datastore_search?limit=5&resource_id=a9356363-4f88-42ac-8e9d-14092fa7c387", "next": "/api/action/datastore_search?offset=5&limit=5&resource_id=a9356363-4f88-42ac-8e9d-14092fa7c387"}, "limit": 5, "total": 72}}