{"help": "https://data.gov.sg/api/3/action/help_show?name=datastore_search", "success": true, "result": {"resource_id": "4b9846f9-f629-4e29-b493-f5d02df92d72", "fields": [{"type": "int4", "id": "_id"}, {"type": "numeric", "id": "financial_year"}, {"type": "text", "id": "actual_revised_estimated"}, {"type": "text", "id": "ministry"}, {"type": "numeric", "id": "number"}], "records": [{"number": "185", "_id": 1, "actual_revised_estimated": "Actual", "financial_year": "1997", "ministry": "Attorney-General's Chambers"}, {"number": "212", "_id": 2, "actual_revised_estimated": "Actual", "financial_year": "1998", "ministry": "Attorney-General's Chambers"}, {"number": "209", "_id": 3, "actual_revised_estimated": "Actual", "financial_year": "1999", "ministry": "Attorney-General's Chambers"}, {"number": "212", "_id": 4, "actual_revised_estimated": "Actual", "financial_year": "2000", "ministry": "Attorney-General's Chambers"}, {"number": "255", "_id": 5, "actual_revised_estimated": "Actual", "financial_year": "2001", "ministry": "Attorney-General's Chambers"}], "_links": {"start": "/api/action/datastore_search?limit=5&resource_id=4b9846f9-f629-4e29-b493-f5d02df92d72", "next": "/api/action/datastore_search?offset=5&limit=5&resource_id=4b9846f9-f629-4e29-b493-f5d02df92d72"}, "limit": 5, "total": 576}}