{"help": "https://data.gov.sg/api/3/action/help_show?name=datastore_search", "success": true, "result": {"resource_id": "3964db39-5a05-48a7-b38c-f7160c756728", "fields": [{"type": "int4", "id": "_id"}, {"type": "text", "id": "year"}, {"type": "text", "id": "institution_type"}, {"type": "numeric", "id": "no_of_visits"}], "records": [{"_id": 1, "institution_type": "Dental Clinics", "no_of_visits": "838815", "year": "2009"}, {"_id": 2, "institution_type": "Dental Clinics", "no_of_visits": "862874", "year": "2010"}, {"_id": 3, "institution_type": "Dental Clinics", "no_of_visits": "875802", "year": "2011"}, {"_id": 4, "institution_type": "Dental Clinics", "no_of_visits": "893058", "year": "2012"}, {"_id": 5, "institution_type": "Dental Clinics", "no_of_visits": "943971", "year": "2013"}], "_links": {"start": "/api/action/datastore_search?limit=5&resource_id=3964db39-5a05-48a7-b38c-f7160c756728", "next": "/api/action/datastore_search?offset=5&limit=5&resource_id=3964db39-5a05-48a7-b38c-f7160c756728"}, "limit": 5, "total": 9}}