{"help": "https://data.gov.sg/api/3/action/help_show?name=datastore_search", "success": true, "result": {"resource_id": "6a56bb26-5940-4c78-830f-ca845094f1ea", "fields": [{"type": "int4", "id": "_id"}, {"type": "text", "id": "post_secondary_course"}, {"type": "numeric", "id": "year"}, {"type": "numeric", "id": "percentage"}], "records": [{"percentage": "22.1", "_id": 1, "post_secondary_course": "Nitec/Higher Nitec Course [full-time]", "year": "2003"}, {"percentage": "21.6", "_id": 2, "post_secondary_course": "Nitec/Higher Nitec Course [full-time]", "year": "2004"}, {"percentage": "21", "_id": 3, "post_secondary_course": "Nitec/Higher Nitec Course [full-time]", "year": "2005"}, {"percentage": "21.5", "_id": 4, "post_secondary_course": "Nitec/Higher Nitec Course [full-time]", "year": "2006"}, {"percentage": "20.6", "_id": 5, "post_secondary_course": "Nitec/Higher Nitec Course [full-time]", "year": "2007"}], "_links": {"start": "/api/action/datastore_search?limit=5&resource_id=6a56bb26-5940-4c78-830f-ca845094f1ea", "next": "/api/action/datastore_search?offset=5&limit=5&resource_id=6a56bb26-5940-4c78-830f-ca845094f1ea"}, "limit": 5, "total": 64}}