{"help": "https://data.gov.sg/api/3/action/help_show?name=datastore_search", "success": true, "result": {"resource_id": "94aba21d-b7b5-40ec-b6ab-2dde780b20e1", "fields": [{"type": "int4", "id": "_id"}, {"type": "text", "id": "month"}, {"type": "text", "id": "make"}, {"type": "numeric", "id": "number"}], "records": [{"make": "ADIVA", "_id": 1, "number": "39", "month": "2016-01"}, {"make": "APRILIA", "_id": 2, "number": "3", "month": "2016-01"}, {"make": "B.M.W.", "_id": 3, "number": "37", "month": "2016-01"}, {"make": "BAJAJ", "_id": 4, "number": "15", "month": "2016-01"}, {"make": "DAELIM", "_id": 5, "number": "4", "month": "2016-01"}], "_links": {"start": "/api/action/datastore_search?limit=5&resource_id=94aba21d-b7b5-40ec-b6ab-2dde780b20e1", "next": "/api/action/datastore_search?offset=5&limit=5&resource_id=94aba21d-b7b5-40ec-b6ab-2dde780b20e1"}, "limit": 5, "total": 1110}}