{"help": "https://data.gov.sg/api/3/action/help_show?name=datastore_search", "success": true, "result": {"resource_id": "2b14a0cf-203c-4b0f-8432-62be3971f9b6", "fields": [{"type": "int4", "id": "_id"}, {"type": "numeric", "id": "year"}, {"type": "text", "id": "lead_mean"}], "records": [{"_id": 1, "lead_mean": "<0.1", "year": "2006"}, {"_id": 2, "lead_mean": "<0.1", "year": "2007"}, {"_id": 3, "lead_mean": "<0.1", "year": "2008"}, {"_id": 4, "lead_mean": "<0.1", "year": "2009"}, {"_id": 5, "lead_mean": "<0.1", "year": "2010"}], "_links": {"start": "/api/action/datastore_search?limit=5&resource_id=2b14a0cf-203c-4b0f-8432-62be3971f9b6", "next": "/api/action/datastore_search?offset=5&limit=5&resource_id=2b14a0cf-203c-4b0f-8432-62be3971f9b6"}, "limit": 5, "total": 14}}