{"help": "https://data.gov.sg/api/3/action/help_show?name=datastore_search", "success": true, "result": {"resource_id": "94462659-2ed2-4f02-9512-886df41ccdbd", "fields": [{"type": "int4", "id": "_id"}, {"type": "text", "id": "quarter"}, {"type": "text", "id": "level_1"}, {"type": "numeric", "id": "value"}], "records": [{"quarter": "1975-Q2", "_id": 1, "level_1": "GDP In Chained (2015) Dollars", "value": "7.4"}, {"quarter": "1975-Q3", "_id": 2, "level_1": "GDP In Chained (2015) Dollars", "value": "8.3"}, {"quarter": "1975-Q4", "_id": 3, "level_1": "GDP In Chained (2015) Dollars", "value": "5.8"}, {"quarter": "1976-Q1", "_id": 4, "level_1": "GDP In Chained (2015) Dollars", "value": "11.7"}, {"quarter": "1976-Q2", "_id": 5, "level_1": "GDP In Chained (2015) Dollars", "value": "3.8"}], "_links": {"start": "/api/action/datastore_search?limit=5&resource_id=94462659-2ed2-4f02-9512-886df41ccdbd", "next": "/api/action/datastore_search?offset=5&limit=5&resource_id=94462659-2ed2-4f02-9512-886df41ccdbd"}, "limit": 5, "total": 177}}