{"help": "https://data.gov.sg/api/3/action/help_show?name=datastore_search", "success": true, "result": {"resource_id": "7f1d15bd-b0b6-4045-8e57-120efceb2891", "fields": [{"type": "int4", "id": "_id"}, {"type": "text", "id": "quarter"}, {"type": "numeric", "id": "number_of_subscriptions"}], "records": [{"number_of_subscriptions": "1864800", "quarter": "2008-Q3", "_id": 1}, {"number_of_subscriptions": "1872000", "quarter": "2008-Q4", "_id": 2}, {"number_of_subscriptions": "1876000", "quarter": "2009-Q1", "_id": 3}, {"number_of_subscriptions": "1884200", "quarter": "2009-Q2", "_id": 4}, {"number_of_subscriptions": "1886900", "quarter": "2009-Q3", "_id": 5}], "_links": {"start": "/api/action/datastore_search?limit=5&resource_id=7f1d15bd-b0b6-4045-8e57-120efceb2891", "next": "/api/action/datastore_search?offset=5&limit=5&resource_id=7f1d15bd-b0b6-4045-8e57-120efceb2891"}, "limit": 5, "total": 43}}