{"help": "https://data.gov.sg/api/3/action/help_show?name=datastore_search", "success": true, "result": {"resource_id": "65913425-8a0d-47ca-b9f7-569bca3ac688", "fields": [{"type": "int4", "id": "_id"}, {"type": "numeric", "id": "year_of_assessment"}, {"type": "text", "id": "assessed_income_group"}, {"type": "text", "id": "resident_type"}, {"type": "numeric", "id": "number_of_taxpayers"}, {"type": "numeric", "id": "assessable_income"}, {"type": "text", "id": "chargeable_income"}, {"type": "numeric", "id": "net_tax_assessed"}], "records": [{"resident_type": "Tax Resident", "assessed_income_group": "20,000 & below", "chargeable_income": "na", "assessable_income": "0", "number_of_taxpayers": "0", "net_tax_assessed": "0", "year_of_assessment": "2004", "_id": 1}, {"resident_type": "Tax Resident", "assessed_income_group": "20,001 - 25,000", "chargeable_income": "na", "assessable_income": "547350", "number_of_taxpayers": "23642", "net_tax_assessed": "1647", "year_of_assessment": "2004", "_id": 2}, {"resident_type": "Tax Resident", "assessed_income_group": "25,001 - 30,000", "chargeable_income": "na", "assessable_income": "1644865", "number_of_taxpayers": "58949", "net_tax_assessed": "7253", "year_of_assessment": "2004", "_id": 3}, {"resident_type": "Tax Resident", "assessed_income_group": "30,001 - 40,000", "chargeable_income": "na", "assessable_income": "5660830", "number_of_taxpayers": "162886", "net_tax_assessed": "40228", "year_of_assessment": "2004", "_id": 4}, {"resident_type": "Tax Resident", "assessed_income_group": "40,001 - 50,000", "chargeable_income": "na", "assessable_income": "5303048", "number_of_taxpayers": "118787", "net_tax_assessed": "63227", "year_of_assessment": "2004", "_id": 5}], "_links": {"start": "/api/action/datastore_search?limit=5&resource_id=65913425-8a0d-47ca-b9f7-569bca3ac688", "next": "/api/action/datastore_search?offset=5&limit=5&resource_id=65913425-8a0d-47ca-b9f7-569bca3ac688"}, "limit": 5, "total": 512}}