{"help": "https://data.gov.sg/api/3/action/help_show?name=datastore_search", "success": true, "result": {"resource_id": "08f7cf29-60aa-4da0-9e79-8c139a70c91e", "fields": [{"type": "int4", "id": "_id"}, {"type": "text", "id": "year"}, {"type": "text", "id": "make"}, {"type": "numeric", "id": "number"}], "records": [{"make": "ALFA ROMEO", "_id": 1, "number": "914", "year": "2005"}, {"make": "ALPINA", "_id": 2, "number": "0", "year": "2005"}, {"make": "ASTON MARTIN", "_id": 3, "number": "23", "year": "2005"}, {"make": "AUDI", "_id": 4, "number": "2025", "year": "2005"}, {"make": "AUSTIN", "_id": 5, "number": "137", "year": "2005"}], "_links": {"start": "/api/action/datastore_search?limit=5&resource_id=08f7cf29-60aa-4da0-9e79-8c139a70c91e", "next": "/api/action/datastore_search?offset=5&limit=5&resource_id=08f7cf29-60aa-4da0-9e79-8c139a70c91e"}, "limit": 5, "total": 1074}}