{"help": "https://data.gov.sg/api/3/action/help_show?name=datastore_search", "success": true, "result": {"resource_id": "ebdad545-cd65-4b74-9877-47ba7f3d4a14", "fields": [{"type": "int4", "id": "_id"}, {"type": "numeric", "id": "year"}, {"type": "text", "id": "max_laden_wt"}, {"type": "text", "id": "type"}, {"type": "numeric", "id": "number"}], "records": [{"max_laden_wt": "7001 - 11000kg", "_id": 1, "type": "Recovery Vehicles", "number": "98", "year": "2006"}, {"max_laden_wt": "7001 - 11000kg", "_id": 2, "type": "Refrigerated Vehicles", "number": "148", "year": "2006"}, {"max_laden_wt": "7001 - 11000kg", "_id": 3, "type": "Others", "number": "49", "year": "2006"}, {"max_laden_wt": "11001-16000kg", "_id": 4, "type": "Lorries", "number": "1736", "year": "2006"}, {"max_laden_wt": "11001-16000kg", "_id": 5, "type": "Tippers", "number": "187", "year": "2006"}], "_links": {"start": "/api/action/datastore_search?limit=5&resource_id=ebdad545-cd65-4b74-9877-47ba7f3d4a14", "next": "/api/action/datastore_search?offset=5&limit=5&resource_id=ebdad545-cd65-4b74-9877-47ba7f3d4a14"}, "limit": 5, "total": 1320}}