{"help": "https://data.gov.sg/api/3/action/help_show?name=datastore_search", "success": true, "result": {"resource_id": "b9d25ddf-289f-4501-8ad3-c16d7de6e19a", "fields": [{"type": "int4", "id": "_id"}, {"type": "numeric", "id": "year"}, {"type": "text", "id": "level_1"}, {"type": "text", "id": "level_2"}, {"type": "text", "id": "level_3"}, {"type": "numeric", "id": "value"}], "records": [{"value": "1225.3", "year": "2015", "_id": 1, "level_1": "Total", "level_2": "Total", "level_3": "Total"}, {"value": "981.1", "year": "2015", "_id": 2, "level_1": "Total", "level_2": "Total", "level_3": "HDB Dwellings"}, {"value": "170.8", "year": "2015", "_id": 3, "level_1": "Total", "level_2": "Total", "level_3": "Condominiums And Other Apartments"}, {"value": "69.2", "year": "2015", "_id": 4, "level_1": "Total", "level_2": "Total", "level_3": "Landed Properties"}, {"value": "4.2", "year": "2015", "_id": 5, "level_1": "Total", "level_2": "Total", "level_3": "Others"}], "_links": {"start": "/api/action/datastore_search?limit=5&resource_id=b9d25ddf-289f-4501-8ad3-c16d7de6e19a", "next": "/api/action/datastore_search?offset=5&limit=5&resource_id=b9d25ddf-289f-4501-8ad3-c16d7de6e19a"}, "limit": 5, "total": 105}}