{"help": "https://data.gov.sg/api/3/action/help_show?name=datastore_search", "success": true, "result": {"resource_id": "85be5dcc-93f6-4d36-ae10-c85b0907948c", "fields": [{"type": "int4", "id": "_id"}, {"type": "text", "id": "organisation"}, {"type": "text", "id": "dataset_id"}, {"type": "text", "id": "dataset_name"}, {"type": "text", "id": "date_created"}, {"type": "text", "id": "last_updated"}, {"type": "text", "id": "description"}, {"type": "text", "id": "frequency"}, {"type": "text", "id": "coverage_start"}, {"type": "text", "id": "coverage_end"}, {"type": "text", "id": "resource_id"}, {"type": "text", "id": "resource_name"}, {"type": "text", "id": "resource_description"}, {"type": "text", "id": "resource_format"}], "records": [{"resource_name": "2nd Hand Goods Collection Points (KML)", "last_updated": "2017-12-19", "description": "Collection points for 2nd hand goods", "resource_id": "04cf94e2-e550-435d-9d4a-f28a04302f62", "coverage_start": "na", "organisation": "National Environment Agency", "frequency": "Annual", "resource_format": "KML", "coverage_end": "na", "date_created": "2015-10-20", "dataset_id": "0d1ace9a-baa2-46ed-b5e3-09b9dcdc60e1", "_id": 1, "resource_description": "na", "dataset_name": "2nd Hand Goods Collection Points"}, {"resource_name": "Call Success Rate 2013-2016", "last_updated": "2017-03-28", "description": "Cellular mobile call success rates from 2007 - 2016", "resource_id": "c9f714db-cc3b-49ad-bb0f-302ba33505ee", "coverage_start": "2013-04-01", "organisation": "Infocomm Media Development Authority", "frequency": "Monthly", "resource_format": "CSV", "coverage_end": "2016-12-31", "date_created": "2015-09-15", "dataset_id": "6ed1bad5-0051-45e1-8619-0eab2a241e1a", "_id": 2, "resource_description": "For period 2013 - 2016, frequency of data collected was on a monthly basis", "dataset_name": "3G Public Cellular Mobile Telephone Services - Average Success Rate Across All Cells"}, {"resource_name": "Call Success Rate 2009 - 2011", "last_updated": "2017-03-28", "description": "Cellular mobile call success rates from 2007 - 2016", "resource_id": "e9ec02c5-f3fe-49ec-960c-f7c05acf536c", "coverage_start": "2013-04-01", "organisation": "Infocomm Media Development Authority", "frequency": "Monthly", "resource_format": "CSV", "coverage_end": "2016-12-31", "date_created": "2015-09-15", "dataset_id": "6ed1bad5-0051-45e1-8619-0eab2a241e1a", "_id": 3, "resource_description": "For period 2009 - 2011, frequency of data collected was on a semi-annual basis", "dataset_name": "3G Public Cellular Mobile Telephone Services - Average Success Rate Across All Cells"}, {"resource_name": "Call Success Rate 2007 - 2008", "last_updated": "2017-03-28", "description": "Cellular mobile call success rates from 2007 - 2016", "resource_id": "c195d04f-22d8-474f-83b8-8c2c3cb6131a", "coverage_start": "2013-04-01", "organisation": "Infocomm Media Development Authority", "frequency": "Monthly", "resource_format": "CSV", "coverage_end": "2016-12-31", "date_created": "2015-09-15", "dataset_id": "6ed1bad5-0051-45e1-8619-0eab2a241e1a", "_id": 4, "resource_description": "For period 2007 - 08, frequency of data collected was on a semi-annual basis", "dataset_name": "3G Public Cellular Mobile Telephone Services - Average Success Rate Across All Cells"}, {"resource_name": "3G Public Cellular Mobile Telephone Services - Average Drop Call Rate", "last_updated": "2017-03-28", "description": "This indicator measures the percentage of unintended disconnection of 3G mobile calls by the cellular network during a 100 second call. Under IDA's 3G PCMTS QoS framework, mobile operators are required to achieve <1% drop call rate (average across the entire month).", "resource_id": "b0f5648c-af96-4fee-a8fb-de7f9580d050", "coverage_start": "2013-04-01", "organisation": "Infocomm Media Development Authority", "frequency": "Monthly", "resource_format": "CSV", "coverage_end": "2016-06-30", "date_created": "2016-04-12", "dataset_id": "e32d6a83-e791-4103-8601-3be37b2ae7e4", "_id": 5, "resource_description": "na", "dataset_name": "3G Public Cellular Mobile Telephone Services - Average Drop Call Rate"}], "_links": {"start": "/api/action/datastore_search?limit=5&resource_id=85be5dcc-93f6-4d36-ae10-c85b0907948c", "next": "/api/action/datastore_search?offset=5&limit=5&resource_id=85be5dcc-93f6-4d36-ae10-c85b0907948c"}, "limit": 5, "total": 6294}}