{"help": "https://data.gov.sg/api/3/action/help_show?name=datastore_search", "success": true, "result": {"resource_id": "6228c3c5-03bd-4747-bb10-85140f87168b", "fields": [{"type": "int4", "id": "_id"}, {"type": "text", "id": "date"}, {"type": "text", "id": "day"}, {"type": "text", "id": "holiday"}], "records": [{"date": "2020-01-01", "holiday": "New Year's Day", "_id": 1, "day": "Wednesday"}, {"date": "2020-01-25", "holiday": "Chinese New Year\n", "_id": 2, "day": "Saturday\n "}, {"date": "2020-01-26", "holiday": "Chinese New Year\n", "_id": 3, "day": "Sunday"}, {"date": "2020-04-10", "holiday": "Good Friday", "_id": 4, "day": "Friday"}, {"date": "2020-05-01", "holiday": "Labour Day", "_id": 5, "day": "Friday"}], "_links": {"start": "/api/action/datastore_search?limit=5&resource_id=6228c3c5-03bd-4747-bb10-85140f87168b", "next": "/api/action/datastore_search?offset=5&limit=5&resource_id=6228c3c5-03bd-4747-bb10-85140f87168b"}, "limit": 5, "total": 12}}