{"help": "https://data.gov.sg/api/3/action/help_show?name=datastore_search", "success": true, "result": {"resource_id": "fd66384c-10d8-4e08-ae11-adeba09834ba", "fields": [{"type": "int4", "id": "_id"}, {"type": "text", "id": "year"}, {"type": "text", "id": "level_1"}, {"type": "text", "id": "level_2"}, {"type": "numeric", "id": "value"}], "records": [{"value": "5.62", "_id": 1, "level_1": "Total Fertility Rate", "level_2": "Chinese", "year": "1960"}, {"value": "6.42", "_id": 2, "level_1": "Total Fertility Rate", "level_2": "Malays", "year": "1960"}, {"value": "7.37", "_id": 3, "level_1": "Total Fertility Rate", "level_2": "Indians", "year": "1960"}, {"value": "5.2", "_id": 4, "level_1": "Total Fertility Rate", "level_2": "Chinese", "year": "1961"}, {"value": "6.42", "_id": 5, "level_1": "Total Fertility Rate", "level_2": "Malays", "year": "1961"}], "_links": {"start": "/api/action/datastore_search?limit=5&resource_id=fd66384c-10d8-4e08-ae11-adeba09834ba", "next": "/api/action/datastore_search?offset=5&limit=5&resource_id=fd66384c-10d8-4e08-ae11-adeba09834ba"}, "limit": 5, "total": 177}}