{"help": "https://data.gov.sg/api/3/action/help_show?name=datastore_search", "success": true, "result": {"resource_id": "b4e18b7c-98fa-4c3b-a525-8139de1debeb", "fields": [{"type": "int4", "id": "_id"}, {"type": "numeric", "id": "year"}, {"type": "text", "id": "cc_rating"}, {"type": "numeric", "id": "number"}], "records": [{"cc_rating": "100cc and below", "_id": 1, "number": "3049", "year": "2005"}, {"cc_rating": "101-200cc", "_id": 2, "number": "104528", "year": "2005"}, {"cc_rating": "201-300cc", "_id": 3, "number": "3268", "year": "2005"}, {"cc_rating": "301-400cc", "_id": 4, "number": "18375", "year": "2005"}, {"cc_rating": "401-500cc", "_id": 5, "number": "209", "year": "2005"}], "_links": {"start": "/api/action/datastore_search?limit=5&resource_id=b4e18b7c-98fa-4c3b-a525-8139de1debeb", "next": "/api/action/datastore_search?offset=5&limit=5&resource_id=b4e18b7c-98fa-4c3b-a525-8139de1debeb"}, "limit": 5, "total": 91}}