{"help": "https://data.gov.sg/api/3/action/help_show?name=datastore_search", "success": true, "result": {"resource_id": "1a333dd6-c2e9-43a4-9b98-4d9c2705dc23", "fields": [{"type": "int4", "id": "_id"}, {"type": "numeric", "id": "year"}, {"type": "numeric", "id": "pm10_24hour_mean_99th_per"}], "records": [{"pm10_24hour_mean_99th_per": "64", "_id": 1, "year": "2000"}, {"pm10_24hour_mean_99th_per": "56", "_id": 2, "year": "2001"}, {"pm10_24hour_mean_99th_per": "72", "_id": 3, "year": "2002"}, {"pm10_24hour_mean_99th_per": "52", "_id": 4, "year": "2003"}, {"pm10_24hour_mean_99th_per": "60", "_id": 5, "year": "2004"}], "_links": {"start": "/api/action/datastore_search?limit=5&resource_id=1a333dd6-c2e9-43a4-9b98-4d9c2705dc23", "next": "/api/action/datastore_search?offset=5&limit=5&resource_id=1a333dd6-c2e9-43a4-9b98-4d9c2705dc23"}, "limit": 5, "total": 20}}