{"help": "https://data.gov.sg/api/3/action/help_show?name=datastore_search", "success": true, "result": {"resource_id": "5901cf9f-8c69-461e-8c26-3f00b9ddbaf6", "fields": [{"type": "int4", "id": "_id"}, {"type": "text", "id": "year"}, {"type": "numeric", "id": "local"}, {"type": "numeric", "id": "foreign"}, {"type": "numeric", "id": "total"}], "records": [{"total": "9722", "foreign": "8579", "_id": 1, "local": "1143", "year": "2013"}, {"total": "10312", "foreign": "9009", "_id": 2, "local": "1303", "year": "2014"}, {"total": "10814", "foreign": "9345", "_id": 3, "local": "1469", "year": "2015"}, {"total": "10980", "foreign": "9379", "_id": 4, "local": "1601", "year": "2016"}, {"total": "10930", "foreign": "9321", "_id": 5, "local": "1609", "year": "2017"}], "_links": {"start": "/api/action/datastore_search?limit=5&resource_id=5901cf9f-8c69-461e-8c26-3f00b9ddbaf6", "next": "/api/action/datastore_search?offset=5&limit=5&resource_id=5901cf9f-8c69-461e-8c26-3f00b9ddbaf6"}, "limit": 5, "total": 5}}