{"help": "https://data.gov.sg/api/3/action/help_show?name=datastore_search", "success": true, "result": {"resource_id": "dc6d85ca-d5d5-4e12-90f5-7d2d7fe96a16", "fields": [{"type": "int4", "id": "_id"}, {"type": "numeric", "id": "year"}, {"type": "text", "id": "school_type"}, {"type": "numeric", "id": "number_of_mixed_level_school"}], "records": [{"school_type": "Government", "_id": 1, "number_of_mixed_level_school": "0", "year": "1999"}, {"school_type": "Govt-Aided", "_id": 2, "number_of_mixed_level_school": "4", "year": "1999"}, {"school_type": "Independent", "_id": 3, "number_of_mixed_level_school": "2", "year": "1999"}, {"school_type": "Specialised Independent", "_id": 4, "number_of_mixed_level_school": "0", "year": "1999"}, {"school_type": "Government", "_id": 5, "number_of_mixed_level_school": "0", "year": "2000"}], "_links": {"start": "/api/action/datastore_search?limit=5&resource_id=dc6d85ca-d5d5-4e12-90f5-7d2d7fe96a16", "next": "/api/action/datastore_search?offset=5&limit=5&resource_id=dc6d85ca-d5d5-4e12-90f5-7d2d7fe96a16"}, "limit": 5, "total": 84}}