{"help": "https://data.gov.sg/api/3/action/help_show?name=datastore_search", "success": true, "result": {"resource_id": "31b9aa99-c8ff-4e5c-9568-bdf3c6863bef", "fields": [{"type": "int4", "id": "_id"}, {"type": "text", "id": "month"}, {"type": "text", "id": "category"}, {"type": "numeric", "id": "number"}], "records": [{"category": "Category A", "_id": 1, "number": "341519", "month": "2014-01"}, {"category": "Category B", "_id": 2, "number": "279902", "month": "2014-01"}, {"category": "Category C", "_id": 3, "number": "154144", "month": "2014-01"}, {"category": "Category D", "_id": 4, "number": "144631", "month": "2014-01"}, {"category": "Taxis", "_id": 5, "number": "27779", "month": "2014-01"}], "_links": {"start": "/api/action/datastore_search?limit=5&resource_id=31b9aa99-c8ff-4e5c-9568-bdf3c6863bef", "next": "/api/action/datastore_search?offset=5&limit=5&resource_id=31b9aa99-c8ff-4e5c-9568-bdf3c6863bef"}, "limit": 5, "total": 300}}