{"help": "https://data.gov.sg/api/3/action/help_show?name=datastore_search", "success": true, "result": {"resource_id": "0a9edafa-37a9-400c-af10-53af79a71ab9", "fields": [{"type": "int4", "id": "_id"}, {"type": "numeric", "id": "year"}, {"type": "numeric", "id": "parcels_count"}], "records": [{"_id": 1, "parcels_count": "1175900", "year": "2004"}, {"_id": 2, "parcels_count": "1148900", "year": "2005"}, {"_id": 3, "parcels_count": "1190384", "year": "2006"}, {"_id": 4, "parcels_count": "1346800", "year": "2007"}, {"_id": 5, "parcels_count": "1432700", "year": "2008"}], "_links": {"start": "/api/action/datastore_search?limit=5&resource_id=0a9edafa-37a9-400c-af10-53af79a71ab9", "next": "/api/action/datastore_search?offset=5&limit=5&resource_id=0a9edafa-37a9-400c-af10-53af79a71ab9"}, "limit": 5, "total": 16}}