{"help": "https://data.gov.sg/api/3/action/help_show?name=datastore_search", "success": true, "result": {"resource_id": "01069d36-207b-4a41-980a-12b7735b66d4", "fields": [{"type": "int4", "id": "_id"}, {"type": "numeric", "id": "year"}, {"type": "numeric", "id": "contraband_cases_count"}], "records": [{"_id": 1, "contraband_cases_count": "80800", "year": "2011"}, {"_id": 2, "contraband_cases_count": "80200", "year": "2012"}, {"_id": 3, "contraband_cases_count": "99700", "year": "2013"}, {"_id": 4, "contraband_cases_count": "93380", "year": "2014"}, {"_id": 5, "contraband_cases_count": "95677", "year": "2015"}], "_links": {"start": "/api/action/datastore_search?limit=5&resource_id=01069d36-207b-4a41-980a-12b7735b66d4", "next": "/api/action/datastore_search?offset=5&limit=5&resource_id=01069d36-207b-4a41-980a-12b7735b66d4"}, "limit": 5, "total": 9}}