{"help": "https://data.gov.sg/api/3/action/help_show?name=datastore_search", "success": true, "result": {"resource_id": "0ee05708-7ba3-49db-9b24-769fd923e8d4", "fields": [{"type": "int4", "id": "_id"}, {"type": "numeric", "id": "financial_year"}, {"type": "numeric", "id": "no_of_households"}], "records": [{"no_of_households": "41032", "_id": 1, "financial_year": "2012"}, {"no_of_households": "47610", "_id": 2, "financial_year": "2013"}, {"no_of_households": "35716", "_id": 3, "financial_year": "2014"}, {"no_of_households": "10992", "_id": 4, "financial_year": "2015"}, {"no_of_households": "64487", "_id": 5, "financial_year": "2016"}], "_links": {"start": "/api/action/datastore_search?limit=5&resource_id=0ee05708-7ba3-49db-9b24-769fd923e8d4", "next": "/api/action/datastore_search?offset=5&limit=5&resource_id=0ee05708-7ba3-49db-9b24-769fd923e8d4"}, "limit": 5, "total": 7}}