{"help": "https://data.gov.sg/api/3/action/help_show?name=datastore_search", "success": true, "result": {"resource_id": "12dd93ba-1d2e-4593-9cc0-9aac83885e9f", "fields": [{"type": "int4", "id": "_id"}, {"type": "numeric", "id": "year"}, {"type": "numeric", "id": "total_waste_generated"}], "records": [{"total_waste_generated": "4.64", "_id": 1, "year": "2000"}, {"total_waste_generated": "5.04", "_id": 2, "year": "2001"}, {"total_waste_generated": "4.81", "_id": 3, "year": "2002"}, {"total_waste_generated": "4.73", "_id": 4, "year": "2003"}, {"total_waste_generated": "4.79", "_id": 5, "year": "2004"}], "_links": {"start": "/api/action/datastore_search?limit=5&resource_id=12dd93ba-1d2e-4593-9cc0-9aac83885e9f", "next": "/api/action/datastore_search?offset=5&limit=5&resource_id=12dd93ba-1d2e-4593-9cc0-9aac83885e9f"}, "limit": 5, "total": 16}}