{"help": "https://data.gov.sg/api/3/action/help_show?name=datastore_search", "success": true, "result": {"resource_id": "10220af3-94d3-44eb-8eca-2bfb73307d16", "fields": [{"type": "int4", "id": "_id"}, {"type": "numeric", "id": "year"}, {"type": "numeric", "id": "employers_count"}], "records": [{"_id": 1, "employers_count": "23", "year": "2011"}, {"_id": 2, "employers_count": "41", "year": "2012"}, {"_id": 3, "employers_count": "97", "year": "2013"}, {"_id": 4, "employers_count": "69", "year": "2014"}, {"_id": 5, "employers_count": "91", "year": "2015"}], "_links": {"start": "/api/action/datastore_search?limit=5&resource_id=10220af3-94d3-44eb-8eca-2bfb73307d16", "next": "/api/action/datastore_search?offset=5&limit=5&resource_id=10220af3-94d3-44eb-8eca-2bfb73307d16"}, "limit": 5, "total": 9}}