{"help": "https://data.gov.sg/api/3/action/help_show?name=datastore_search", "success": true, "result": {"resource_id": "1a8eadc6-9532-4a89-990f-b8da4b36ba7e", "fields": [{"type": "int4", "id": "_id"}, {"type": "text", "id": "year"}, {"type": "text", "id": "ethnic_group"}, {"type": "text", "id": "gender"}, {"type": "text", "id": "death_age"}, {"type": "text", "id": "infant_indicator"}, {"type": "text", "id": "infant_death_age"}, {"type": "numeric", "id": "death_count"}], "records": [{"death_count": "1", "infant_death_age": "na", "gender": "F", "infant_indicator": "Non-Infant Death", "ethnic_group": "MALAYS", "death_age": "05 - 09", "year": "2018", "_id": 1}, {"death_count": "4", "infant_death_age": "na", "gender": "M", "infant_indicator": "Non-Infant Death", "ethnic_group": "MALAYS", "death_age": "05 - 09", "year": "2018", "_id": 2}, {"death_count": "1", "infant_death_age": "na", "gender": "F", "infant_indicator": "Non-Infant Death", "ethnic_group": "OTHERS", "death_age": "05 - 09", "year": "2018", "_id": 3}, {"death_count": "1", "infant_death_age": "na", "gender": "M", "infant_indicator": "Non-Infant Death", "ethnic_group": "OTHERS", "death_age": "05 - 09", "year": "2018", "_id": 4}, {"death_count": "5", "infant_death_age": "na", "gender": "F", "infant_indicator": "Non-Infant Death", "ethnic_group": "CHINESE", "death_age": "10 - 14", "year": "2018", "_id": 5}], "_links": {"start": "/api/action/datastore_search?limit=5&resource_id=1a8eadc6-9532-4a89-990f-b8da4b36ba7e", "next": "/api/action/datastore_search?offset=5&limit=5&resource_id=1a8eadc6-9532-4a89-990f-b8da4b36ba7e"}, "limit": 5, "total": 131}}