{"help": "https://data.gov.sg/api/3/action/help_show?name=datastore_search", "success": true, "result": {"resource_id": "b0f5648c-af96-4fee-a8fb-de7f9580d050", "fields": [{"type": "int4", "id": "_id"}, {"type": "text", "id": "month"}, {"type": "text", "id": "telco"}, {"type": "numeric", "id": "drop_call_rate"}], "records": [{"telco": "Singtel", "drop_call_rate": "0.5", "_id": 1, "month": "2013-04"}, {"telco": "M1", "drop_call_rate": "0.25", "_id": 2, "month": "2013-04"}, {"telco": "Starhub", "drop_call_rate": "0.25", "_id": 3, "month": "2013-04"}, {"telco": "Singtel", "drop_call_rate": "0.46", "_id": 4, "month": "2013-05"}, {"telco": "M1", "drop_call_rate": "0.26", "_id": 5, "month": "2013-05"}], "_links": {"start": "/api/action/datastore_search?limit=5&resource_id=b0f5648c-af96-4fee-a8fb-de7f9580d050", "next": "/api/action/datastore_search?offset=5&limit=5&resource_id=b0f5648c-af96-4fee-a8fb-de7f9580d050"}, "limit": 5, "total": 117}}