{"help": "https://data.gov.sg/api/3/action/help_show?name=datastore_search", "success": true, "result": {"resource_id": "340310ee-b90d-4154-8e20-6b05a1d9fa22", "fields": [{"type": "int4", "id": "_id"}, {"type": "numeric", "id": "year"}, {"type": "numeric", "id": "jv_to_ue"}], "records": [{"jv_to_ue": "0.36", "_id": 1, "year": "2002"}, {"jv_to_ue": "0.27", "_id": 2, "year": "2003"}, {"jv_to_ue": "0.4", "_id": 3, "year": "2004"}, {"jv_to_ue": "0.47", "_id": 4, "year": "2005"}, {"jv_to_ue": "0.66", "_id": 5, "year": "2006"}], "_links": {"start": "/api/action/datastore_search?limit=5&resource_id=340310ee-b90d-4154-8e20-6b05a1d9fa22", "next": "/api/action/datastore_search?offset=5&limit=5&resource_id=340310ee-b90d-4154-8e20-6b05a1d9fa22"}, "limit": 5, "total": 18}}