{"help": "https://data.gov.sg/api/3/action/help_show?name=datastore_search", "success": true, "result": {"resource_id": "a38f6758-e204-4896-8e98-368ef4cadfc1", "fields": [{"type": "int4", "id": "_id"}, {"type": "text", "id": "product_name"}, {"type": "text", "id": "dosage_form"}, {"type": "text", "id": "dosage_form_colour"}, {"type": "text", "id": "dosage_form_shape"}, {"type": "text", "id": "dosage_form_marking"}, {"type": "text", "id": "adulterant_type"}, {"type": "text", "id": "manufacturer_name"}, {"type": "text", "id": "manufacturer_country"}], "records": [{"manufacturer_name": "Nil", "dosage_form_marking": "No", "adulterant_type": "Sibutramine", "dosage_form_colour": "Grey;White", "manufacturer_country": "Malaysia", "dosage_form_shape": "Oblong", "_id": 1, "product_name": "MM Malia Mellia XXS xtraxtrasmall", "dosage_form": "Capsule"}, {"manufacturer_name": "Nil", "dosage_form_marking": "No", "adulterant_type": "Sibutramine;Spironolactone", "dosage_form_colour": "Black;Maroon", "manufacturer_country": "Malaysia", "dosage_form_shape": "Oblong", "_id": 2, "product_name": "GS Gorgeousleem Advanced", "dosage_form": "Capsule"}, {"manufacturer_name": "Nil", "dosage_form_marking": "No", "adulterant_type": "Sibutramine", "dosage_form_colour": "Red;Light Pink", "manufacturer_country": "United States", "dosage_form_shape": "Oblong", "_id": 3, "product_name": "D' Trim Obesity Solution", "dosage_form": "Capsule"}, {"manufacturer_name": "Nil", "dosage_form_marking": "No", "adulterant_type": "Sibutramine", "dosage_form_colour": "Pink", "manufacturer_country": "Nil", "dosage_form_shape": "Oblong", "_id": 4, "product_name": "Beautea Slim Fat Burner for Weight Loss 10 Days Program", "dosage_form": "Capsule"}, {"manufacturer_name": "Not Available", "dosage_form_marking": "No", "adulterant_type": "Chlorpheniramine;Frusemide;Piroxicam", "dosage_form_colour": "Red", "manufacturer_country": "Malaysia", "dosage_form_shape": "Oblong", "_id": 5, "product_name": "Bao Ling Capsules (\u4fdd\u7075\u4e38) Advance Finger Press Therapy", "dosage_form": "Capsule"}], "_links": {"start": "/api/action/datastore_search?limit=5&resource_id=a38f6758-e204-4896-8e98-368ef4cadfc1", "next": "/api/action/datastore_search?offset=5&limit=5&resource_id=a38f6758-e204-4896-8e98-368ef4cadfc1"}, "limit": 5, "total": 240}}