{"help": "https://data.gov.sg/api/3/action/help_show?name=datastore_search", "success": true, "result": {"resource_id": "f628333e-00b1-4e21-bfe7-845570fa052d", "fields": [{"type": "int4", "id": "_id"}, {"type": "text", "id": "year"}, {"type": "text", "id": "level_1"}, {"type": "numeric", "id": "value"}], "records": [{"_id": 1, "level_1": "First Marriages For Grooms", "value": "27.3", "year": "1984"}, {"_id": 2, "level_1": "First Marriages For Brides", "value": "24.6", "year": "1984"}, {"_id": 3, "level_1": "First Marriages For Grooms", "value": "27.4", "year": "1985"}, {"_id": 4, "level_1": "First Marriages For Brides", "value": "24.6", "year": "1985"}, {"_id": 5, "level_1": "First Marriages For Grooms", "value": "27.6", "year": "1986"}], "_links": {"start": "/api/action/datastore_search?limit=5&resource_id=f628333e-00b1-4e21-bfe7-845570fa052d", "next": "/api/action/datastore_search?offset=5&limit=5&resource_id=f628333e-00b1-4e21-bfe7-845570fa052d"}, "limit": 5, "total": 70}}