{"help": "https://data.gov.sg/api/3/action/help_show?name=datastore_search", "success": true, "result": {"resource_id": "4384e22c-234f-4196-9df8-1941cd41c667", "fields": [{"type": "int4", "id": "_id"}, {"type": "text", "id": "qtr"}, {"type": "text", "id": "project_name"}, {"type": "text", "id": "postal_district"}, {"type": "numeric", "id": "25th_percentile"}, {"type": "numeric", "id": "median"}, {"type": "numeric", "id": "75th_percentile"}, {"type": "numeric", "id": "number"}], "records": [{"project_name": "RIVEREDGE", "qtr": "2020-Q2", "75th_percentile": "41.76", "median": "39.01", "number": "13", "25th_percentile": "36.96", "postal_district": "15", "_id": 1}, {"project_name": "RIVERGATE", "qtr": "2020-Q2", "75th_percentile": "53.56", "median": "50.71", "number": "36", "25th_percentile": "46.33", "postal_district": "9", "_id": 2}, {"project_name": "RIVERSAILS", "qtr": "2020-Q2", "75th_percentile": "28.97", "median": "27.13", "number": "28", "25th_percentile": "25", "postal_district": "19", "_id": 3}, {"project_name": "RIVERSOUND RESIDENCE", "qtr": "2020-Q2", "75th_percentile": "29.72", "median": "28.41", "number": "13", "25th_percentile": "25.25", "postal_district": "19", "_id": 4}, {"project_name": "RIVERTREES RESIDENCES", "qtr": "2020-Q2", "75th_percentile": "34.72", "median": "30.3", "number": "11", "25th_percentile": "25.28", "postal_district": "28", "_id": 5}], "_links": {"start": "/api/action/datastore_search?limit=5&resource_id=4384e22c-234f-4196-9df8-1941cd41c667", "next": "/api/action/datastore_search?offset=5&limit=5&resource_id=4384e22c-234f-4196-9df8-1941cd41c667"}, "limit": 5, "total": 780}}