{"help": "https://data.gov.sg/api/3/action/help_show?name=datastore_search", "success": true, "result": {"resource_id": "cc262140-316d-4a6d-8730-ec9f88c691da", "fields": [{"type": "int4", "id": "_id"}, {"type": "text", "id": "date_of_occurrence"}, {"type": "text", "id": "accident_incident"}, {"type": "text", "id": "type_of_aircraft"}, {"type": "text", "id": "description"}, {"type": "text", "id": "url"}], "records": [{"accident_incident": "Accident", "date_of_occurrence": "19/10/2000", "url": "https://www.mot.gov.sg/uploadedFiles/Ministry_of_Transport/Content_Blocks/About_MOT/Air_Transport/AAIB/19%20Oct%202000.pdf", "type_of_aircraft": "Beech Super King Air 300", "_id": 1, "description": "Landing accident"}, {"accident_incident": "Accident", "date_of_occurrence": "28/2/2002", "url": "https://www.mot.gov.sg/uploadedFiles/Ministry_of_Transport/Content_Blocks/About_MOT/Air_Transport/AAIB/28%20Feb%202002.PDF", "type_of_aircraft": "Arrow Air DC8-62", "_id": 2, "description": "Taxiing into drain"}, {"accident_incident": "Incident", "date_of_occurrence": "24/7/2002", "url": "https://www.mot.gov.sg/uploadedFiles/Ministry_of_Transport/Content_Blocks/About_MOT/Air_Transport/AAIB/24%20July%202002.pdf", "type_of_aircraft": "Boeing 747-200F", "_id": 3, "description": "In-flight engine fire incident"}, {"accident_incident": "Incident", "date_of_occurrence": "12/12/2002", "url": "https://www.mot.gov.sg/uploadedFiles/Ministry_of_Transport/Content_Blocks/About_MOT/Air_Transport/AAIB/12%20Dec%202002.pdf", "type_of_aircraft": "Boeing 737-300", "_id": 4, "description": "Collision with maintenance jeep"}, {"accident_incident": "Accident", "date_of_occurrence": "13/12/2002", "url": "https://www.mot.gov.sg/uploadedFiles/Ministry_of_Transport/Content_Blocks/About_MOT/Air_Transport/AAIB/13%20Dec%202002.pdf", "type_of_aircraft": "DC8-62", "_id": 5, "description": "Runway overrun"}], "_links": {"start": "/api/action/datastore_search?limit=5&resource_id=cc262140-316d-4a6d-8730-ec9f88c691da", "next": "/api/action/datastore_search?offset=5&limit=5&resource_id=cc262140-316d-4a6d-8730-ec9f88c691da"}, "limit": 5, "total": 52}}