{"help": "https://data.gov.sg/api/3/action/help_show?name=datastore_search", "success": true, "result": {"resource_id": "ebcc3773-353d-430f-90f0-132614bba37e", "fields": [{"type": "int4", "id": "_id"}, {"type": "text", "id": "year"}, {"type": "text", "id": "level_1"}, {"type": "numeric", "id": "value"}], "records": [{"_id": 1, "level_1": "Total", "value": "1560", "year": "1961"}, {"_id": 2, "level_1": "Malays", "value": "1256", "year": "1961"}, {"_id": 3, "level_1": "Indians", "value": "117", "year": "1961"}, {"_id": 4, "level_1": "Others", "value": "17", "year": "1961"}, {"_id": 5, "level_1": "Inter-ethnic", "value": "170", "year": "1961"}], "_links": {"start": "/api/action/datastore_search?limit=5&resource_id=ebcc3773-353d-430f-90f0-132614bba37e", "next": "/api/action/datastore_search?offset=5&limit=5&resource_id=ebcc3773-353d-430f-90f0-132614bba37e"}, "limit": 5, "total": 290}}