{"help": "https://data.gov.sg/api/3/action/help_show?name=datastore_search", "success": true, "result": {"resource_id": "00fe011e-e4fb-45c5-b23d-a62143048eba", "fields": [{"type": "int4", "id": "_id"}, {"type": "numeric", "id": "year"}, {"type": "numeric", "id": "total_waste_recycled"}], "records": [{"total_waste_recycled": "1.86", "_id": 1, "year": "2000"}, {"total_waste_recycled": "2.23", "_id": 2, "year": "2001"}, {"total_waste_recycled": "2.18", "_id": 3, "year": "2002"}, {"total_waste_recycled": "2.22", "_id": 4, "year": "2003"}, {"total_waste_recycled": "2.31", "_id": 5, "year": "2004"}], "_links": {"start": "/api/action/datastore_search?limit=5&resource_id=00fe011e-e4fb-45c5-b23d-a62143048eba", "next": "/api/action/datastore_search?offset=5&limit=5&resource_id=00fe011e-e4fb-45c5-b23d-a62143048eba"}, "limit": 5, "total": 16}}