{"help": "https://data.gov.sg/api/3/action/help_show?name=datastore_search", "success": true, "result": {"resource_id": "7a913480-0de4-45b8-b922-18166d10d7db", "fields": [{"type": "int4", "id": "_id"}, {"type": "numeric", "id": "year"}, {"type": "text", "id": "vehicle_type"}, {"type": "numeric", "id": "average_annual_mileage"}], "records": [{"average_annual_mileage": "20603", "_id": 1, "vehicle_type": "Cars", "year": "2005"}, {"average_annual_mileage": "47540", "_id": 2, "vehicle_type": "Private Hire Buses", "year": "2005"}, {"average_annual_mileage": "46269", "_id": 3, "vehicle_type": "School Buses", "year": "2005"}, {"average_annual_mileage": "29248", "_id": 4, "vehicle_type": "Light Goods Vehicle", "year": "2005"}, {"average_annual_mileage": "38768", "_id": 5, "vehicle_type": "Heavy Goods Vehicle", "year": "2005"}], "_links": {"start": "/api/action/datastore_search?limit=5&resource_id=7a913480-0de4-45b8-b922-18166d10d7db", "next": "/api/action/datastore_search?offset=5&limit=5&resource_id=7a913480-0de4-45b8-b922-18166d10d7db"}, "limit": 5, "total": 84}}