{"help": "https://data.gov.sg/api/3/action/help_show?name=datastore_search", "success": true, "result": {"resource_id": "b1818689-dcde-430b-9fed-04ee59e5159a", "fields": [{"type": "int4", "id": "_id"}, {"type": "numeric", "id": "year"}, {"type": "numeric", "id": "reentry_rate"}], "records": [{"reentry_rate": "75.1", "_id": 1, "year": "2000"}, {"reentry_rate": "72.2", "_id": 2, "year": "2001"}, {"reentry_rate": "71.5", "_id": 3, "year": "2002"}, {"reentry_rate": "73.4", "_id": 4, "year": "2003"}, {"reentry_rate": "71", "_id": 5, "year": "2004"}], "_links": {"start": "/api/action/datastore_search?limit=5&resource_id=b1818689-dcde-430b-9fed-04ee59e5159a", "next": "/api/action/datastore_search?offset=5&limit=5&resource_id=b1818689-dcde-430b-9fed-04ee59e5159a"}, "limit": 5, "total": 20}}