{"help": "https://data.gov.sg/api/3/action/help_show?name=datastore_search", "success": true, "result": {"resource_id": "8361418d-8735-47e6-97e3-7e8f3b4f0a06", "fields": [{"type": "int4", "id": "_id"}, {"type": "text", "id": "year"}, {"type": "text", "id": "trademark_class"}, {"type": "numeric", "id": "trademark_filings"}, {"type": "text", "id": "rank"}], "records": [{"trademark_class": "Scientific, nautical, surveying, photographic, cinematographic etc", "trademark_filings": "3907", "_id": 1, "rank": "1", "year": "2013"}, {"trademark_class": "Advertising; business management; business administration; office functions", "trademark_filings": "3192", "_id": 2, "rank": "2", "year": "2013"}, {"trademark_class": "Education; providing of training; entertainment; sporting and cultural activities", "trademark_filings": "2207", "_id": 3, "rank": "3", "year": "2013"}, {"trademark_class": "Cleaning preparations, soaps, perfumery, essential oils, cosmetics etc", "trademark_filings": "2172", "_id": 4, "rank": "4", "year": "2013"}, {"trademark_class": "Scientific and technological services and research and design relating thereto etc", "trademark_filings": "2078", "_id": 5, "rank": "5", "year": "2013"}], "_links": {"start": "/api/action/datastore_search?limit=5&resource_id=8361418d-8735-47e6-97e3-7e8f3b4f0a06", "next": "/api/action/datastore_search?offset=5&limit=5&resource_id=8361418d-8735-47e6-97e3-7e8f3b4f0a06"}, "limit": 5, "total": 225}}