{"help": "https://data.gov.sg/api/3/action/help_show?name=datastore_search", "success": true, "result": {"resource_id": "4631174f-9858-463d-8a88-f3cb21588c67", "fields": [{"type": "int4", "id": "_id"}, {"type": "text", "id": "month"}, {"type": "numeric", "id": "mean_rh"}], "records": [{"mean_rh": "85.8", "_id": 1, "month": "2002-11"}, {"mean_rh": "88.7", "_id": 2, "month": "2002-12"}, {"mean_rh": "86.9", "_id": 3, "month": "2003-01"}, {"mean_rh": "85", "_id": 4, "month": "2003-02"}, {"mean_rh": "83.8", "_id": 5, "month": "2003-03"}], "_links": {"start": "/api/action/datastore_search?limit=5&resource_id=4631174f-9858-463d-8a88-f3cb21588c67", "next": "/api/action/datastore_search?offset=5&limit=5&resource_id=4631174f-9858-463d-8a88-f3cb21588c67"}, "limit": 5, "total": 215}}