{"help": "https://data.gov.sg/api/3/action/help_show?name=datastore_search", "success": true, "result": {"resource_id": "192653f2-189e-4f00-95bb-f63bde5b7476", "fields": [{"type": "int4", "id": "_id"}, {"type": "numeric", "id": "yr"}, {"type": "numeric", "id": "net_wdl_amt"}], "records": [{"net_wdl_amt": "1236100000", "yr": "2010", "_id": 1}, {"net_wdl_amt": "1362300000", "yr": "2011", "_id": 2}, {"net_wdl_amt": "1393800000", "yr": "2012", "_id": 3}, {"net_wdl_amt": "1563500000", "yr": "2013", "_id": 4}, {"net_wdl_amt": "1735200000", "yr": "2014", "_id": 5}], "_links": {"start": "/api/action/datastore_search?limit=5&resource_id=192653f2-189e-4f00-95bb-f63bde5b7476", "next": "/api/action/datastore_search?offset=5&limit=5&resource_id=192653f2-189e-4f00-95bb-f63bde5b7476"}, "limit": 5, "total": 7}}