{"help": "https://data.gov.sg/api/3/action/help_show?name=datastore_search", "success": true, "result": {"resource_id": "605ba28d-7873-404b-8629-94eefcb5ce31", "fields": [{"type": "int4", "id": "_id"}, {"type": "numeric", "id": "year"}, {"type": "text", "id": "race"}, {"type": "numeric", "id": "percentage_pass_gpki"}], "records": [{"_id": 1, "percentage_pass_gpki": "81.2", "race": "Malay", "year": "1997"}, {"_id": 2, "percentage_pass_gpki": "86.5", "race": "Chinese", "year": "1997"}, {"_id": 3, "percentage_pass_gpki": "90.4", "race": "Indian", "year": "1997"}, {"_id": 4, "percentage_pass_gpki": "97.5", "race": "Others", "year": "1997"}, {"_id": 5, "percentage_pass_gpki": "86.6", "race": "Overall", "year": "1997"}], "_links": {"start": "/api/action/datastore_search?limit=5&resource_id=605ba28d-7873-404b-8629-94eefcb5ce31", "next": "/api/action/datastore_search?offset=5&limit=5&resource_id=605ba28d-7873-404b-8629-94eefcb5ce31"}, "limit": 5, "total": 115}}