{"help": "https://data.gov.sg/api/3/action/help_show?name=datastore_search", "success": true, "result": {"resource_id": "998d5584-b15c-4a12-9976-0a5548df5820", "fields": [{"type": "int4", "id": "_id"}, {"type": "text", "id": "quarter"}, {"type": "text", "id": "level_1"}, {"type": "text", "id": "value"}], "records": [{"quarter": "2017-Q2", "_id": 1, "level_1": "Petroleum And Petroleum Products", "value": "131.4"}, {"quarter": "2017-Q2", "_id": 2, "level_1": "Chemicals And Chemical Products", "value": "110.1"}, {"quarter": "2017-Q2", "_id": 3, "level_1": "Electronic Components", "value": "105.3"}, {"quarter": "2017-Q2", "_id": 4, "level_1": "Industrial And Construction Machinery", "value": "83.1"}, {"quarter": "2017-Q2", "_id": 5, "level_1": "Telecommunications And Computers", "value": "117.7"}], "_links": {"start": "/api/action/datastore_search?limit=5&resource_id=998d5584-b15c-4a12-9976-0a5548df5820", "next": "/api/action/datastore_search?offset=5&limit=5&resource_id=998d5584-b15c-4a12-9976-0a5548df5820"}, "limit": 5, "total": 1270}}