{"help": "https://data.gov.sg/api/3/action/help_show?name=datastore_search", "success": true, "result": {"resource_id": "d8d67702-f88f-4373-90de-3b9b42f37d8a", "fields": [{"type": "int4", "id": "_id"}, {"type": "text", "id": "half_year"}, {"type": "text", "id": "level_1"}, {"type": "numeric", "id": "value"}], "records": [{"_id": 1, "half_year": "1994-H1", "level_1": "All Items - Lowest 20%", "value": "2.1"}, {"_id": 2, "half_year": "1994-H1", "level_1": "All Items - Middle 60%", "value": "2.3"}, {"_id": 3, "half_year": "1994-H1", "level_1": "All Items - Highest 20%", "value": "6.1"}, {"_id": 4, "half_year": "1994-H2", "level_1": "All Items - Lowest 20%", "value": "2.6"}, {"_id": 5, "half_year": "1994-H2", "level_1": "All Items - Middle 60%", "value": "2.8"}], "_links": {"start": "/api/action/datastore_search?limit=5&resource_id=d8d67702-f88f-4373-90de-3b9b42f37d8a", "next": "/api/action/datastore_search?offset=5&limit=5&resource_id=d8d67702-f88f-4373-90de-3b9b42f37d8a"}, "limit": 5, "total": 153}}