{"help": "https://data.gov.sg/api/3/action/help_show?name=datastore_search", "success": true, "result": {"resource_id": "dd4dcaac-aa8d-49de-a96a-b809f8d3ae0d", "fields": [{"type": "int4", "id": "_id"}, {"type": "text", "id": "epi_week"}, {"type": "text", "id": "disease"}, {"type": "numeric", "id": "no._of_cases"}], "records": [{"epi_week": "2012-W51", "_id": 1, "disease": "Acute Upper Respiratory Tract infections", "no._of_cases": "2497"}, {"epi_week": "2012-W51", "_id": 2, "disease": "Acute Conjunctivitis", "no._of_cases": "103"}, {"epi_week": "2012-W51", "_id": 3, "disease": "Acute Diarrhoea", "no._of_cases": "419"}, {"epi_week": "2012-W51", "_id": 4, "disease": "Chickenpox", "no._of_cases": "12"}, {"epi_week": "2012-W52", "_id": 5, "disease": "Acute Upper Respiratory Tract infections", "no._of_cases": "2812"}], "_links": {"start": "/api/action/datastore_search?limit=5&resource_id=dd4dcaac-aa8d-49de-a96a-b809f8d3ae0d", "next": "/api/action/datastore_search?offset=5&limit=5&resource_id=dd4dcaac-aa8d-49de-a96a-b809f8d3ae0d"}, "limit": 5, "total": 3704}}