{"help": "https://data.gov.sg/api/3/action/help_show?name=datastore_search", "success": true, "result": {"resource_id": "823cad5b-8200-48af-ad9d-684a02149f5d", "fields": [{"type": "int4", "id": "_id"}, {"type": "text", "id": "year"}, {"type": "text", "id": "segment"}, {"type": "numeric", "id": "export_revenue"}], "records": [{"_id": 1, "segment": "hardware", "export_revenue": "8.49", "year": "2001"}, {"_id": 2, "segment": "software", "export_revenue": "6.71", "year": "2001"}, {"_id": 3, "segment": "it services", "export_revenue": "0.59", "year": "2001"}, {"_id": 4, "segment": "telecommunication services", "export_revenue": "0.3", "year": "2001"}, {"_id": 5, "segment": "content services", "export_revenue": "0.31", "year": "2001"}], "_links": {"start": "/api/action/datastore_search?limit=5&resource_id=823cad5b-8200-48af-ad9d-684a02149f5d", "next": "/api/action/datastore_search?offset=5&limit=5&resource_id=823cad5b-8200-48af-ad9d-684a02149f5d"}, "limit": 5, "total": 85}}