{"help": "https://data.gov.sg/api/3/action/help_show?name=datastore_search", "success": true, "result": {"resource_id": "c5f8b675-4702-45fb-ac0f-f1745d5a6be4", "fields": [{"type": "int4", "id": "_id"}, {"type": "text", "id": "quarter"}, {"type": "text", "id": "level_1"}, {"type": "text", "id": "value"}], "records": [{"quarter": "1999-Q2", "_id": 1, "level_1": "Transport Equipment", "value": "na"}, {"quarter": "1999-Q2", "_id": 2, "level_1": "Other Wholesale Trade", "value": "41.545"}, {"quarter": "1999-Q3", "_id": 3, "level_1": "Total", "value": "59.175"}, {"quarter": "1999-Q3", "_id": 4, "level_1": "Total (Excluding Petroleum)", "value": "77.198"}, {"quarter": "1999-Q3", "_id": 5, "level_1": "Food, Beverages And Tobacco", "value": "48.971"}], "_links": {"start": "/api/action/datastore_search?limit=5&resource_id=c5f8b675-4702-45fb-ac0f-f1745d5a6be4", "next": "/api/action/datastore_search?offset=5&limit=5&resource_id=c5f8b675-4702-45fb-ac0f-f1745d5a6be4"}, "limit": 5, "total": 2606}}