{"help": "https://data.gov.sg/api/3/action/help_show?name=datastore_search", "success": true, "result": {"resource_id": "8f6bba57-19fc-4f36-8dcf-c0bda382364d", "fields": [{"type": "int4", "id": "_id"}, {"type": "text", "id": "name_of_centre"}, {"type": "text", "id": "location_of_centre"}, {"type": "text", "id": "type_of_centre"}, {"type": "text", "id": "owner"}, {"type": "numeric", "id": "no_of_stalls"}, {"type": "numeric", "id": "no_of_cooked_food_stalls"}, {"type": "numeric", "id": "no_of_mkt_produce_stalls"}], "records": [{"location_of_centre": "2, Adam Road, S(289876)", "no_of_cooked_food_stalls": "32", "no_of_mkt_produce_stalls": "0", "name_of_centre": "Adam Road Food Centre", "type_of_centre": "HC", "no_of_stalls": "32", "owner": "Government", "_id": 1}, {"location_of_centre": "National Development Building, Annex B, Telok Ayer Street, S(069111)", "no_of_cooked_food_stalls": "134", "no_of_mkt_produce_stalls": "1", "name_of_centre": "Amoy Street Food Centre", "type_of_centre": "HC", "no_of_stalls": "135", "owner": "Government", "_id": 2}, {"location_of_centre": "1, Bedok Road, S(469572)", "no_of_cooked_food_stalls": "32", "no_of_mkt_produce_stalls": "0", "name_of_centre": "Bedok Food Centre", "type_of_centre": "HC", "no_of_stalls": "32", "owner": "Government", "_id": 3}, {"location_of_centre": "38A, Beo Crescent, S(169982)", "no_of_cooked_food_stalls": "32", "no_of_mkt_produce_stalls": "62", "name_of_centre": "Beo Crescent Market", "type_of_centre": "MHC", "no_of_stalls": "94", "owner": "Government", "_id": 4}, {"location_of_centre": "166, Jalan Besar, S(208877)", "no_of_cooked_food_stalls": "66", "no_of_mkt_produce_stalls": "0", "name_of_centre": "Berseh Food Centre", "type_of_centre": "HC", "no_of_stalls": "66", "owner": "Government", "_id": 5}], "_links": {"start": "/api/action/datastore_search?limit=5&resource_id=8f6bba57-19fc-4f36-8dcf-c0bda382364d", "next": "/api/action/datastore_search?offset=5&limit=5&resource_id=8f6bba57-19fc-4f36-8dcf-c0bda382364d"}, "limit": 5, "total": 107}}