{"help": "https://data.gov.sg/api/3/action/help_show?name=datastore_search", "success": true, "result": {"resource_id": "42707edf-aca4-417d-903b-a720645c11e1", "fields": [{"type": "int4", "id": "_id"}, {"type": "text", "id": "month"}, {"type": "numeric", "id": "number_of_vessels"}, {"type": "numeric", "id": "gross_tonnage"}], "records": [{"gross_tonnage": "86631.44", "_id": 1, "number_of_vessels": "4743", "month": "2015-11"}, {"gross_tonnage": "86299.512", "_id": 2, "number_of_vessels": "4739", "month": "2015-12"}, {"gross_tonnage": "86851.384", "_id": 3, "number_of_vessels": "4767", "month": "2016-01"}, {"gross_tonnage": "87057.591", "_id": 4, "number_of_vessels": "4790", "month": "2016-02"}, {"gross_tonnage": "87098.935", "_id": 5, "number_of_vessels": "4781", "month": "2016-03"}], "_links": {"start": "/api/action/datastore_search?limit=5&resource_id=42707edf-aca4-417d-903b-a720645c11e1", "next": "/api/action/datastore_search?offset=5&limit=5&resource_id=42707edf-aca4-417d-903b-a720645c11e1"}, "limit": 5, "total": 368}}