{"help": "https://data.gov.sg/api/3/action/help_show?name=datastore_search", "success": true, "result": {"resource_id": "4c09f4cc-f6ac-47d8-9239-93bdaf57fc13", "fields": [{"type": "int4", "id": "_id"}, {"type": "numeric", "id": "year"}, {"type": "text", "id": "school"}, {"type": "text", "id": "course_type"}, {"type": "text", "id": "course_name"}, {"type": "text", "id": "gender"}, {"type": "numeric", "id": "no_of_students"}], "records": [{"school": "School of Business & Accountancy", "course_name": "Diploma in Accountancy", "gender": "Female", "course_type": "Full-time", "no_of_students": "468", "year": "2017", "_id": 1}, {"school": "School of Business & Accountancy", "course_name": "Diploma in Accountancy", "gender": "Male", "course_type": "Full-time", "no_of_students": "404", "year": "2017", "_id": 2}, {"school": "School of Business & Accountancy", "course_name": "Diploma in Banking & Financial Services", "gender": "Female", "course_type": "Full-time", "no_of_students": "126", "year": "2017", "_id": 3}, {"school": "School of Business & Accountancy", "course_name": "Diploma in Banking & Financial Services", "gender": "Male", "course_type": "Full-time", "no_of_students": "180", "year": "2017", "_id": 4}, {"school": "School of Business & Accountancy", "course_name": "Diploma in Business Information Technology", "gender": "Female", "course_type": "Full-time", "no_of_students": "68", "year": "2017", "_id": 5}], "_links": {"start": "/api/action/datastore_search?limit=5&resource_id=4c09f4cc-f6ac-47d8-9239-93bdaf57fc13", "next": "/api/action/datastore_search?offset=5&limit=5&resource_id=4c09f4cc-f6ac-47d8-9239-93bdaf57fc13"}, "limit": 5, "total": 166}}