{"help": "https://data.gov.sg/api/3/action/help_show?name=datastore_search", "success": true, "result": {"resource_id": "2d47541d-132e-4910-906c-44cb19aebdce", "fields": [{"type": "int4", "id": "_id"}, {"type": "numeric", "id": "financial_year"}, {"type": "text", "id": "instrument_type"}, {"type": "numeric", "id": "no_of_instrument"}, {"type": "numeric", "id": "stamp_duty_assessed"}], "records": [{"instrument_type": "Sale & Purchase Agreement", "_id": 1, "stamp_duty_assessed": "1738252", "financial_year": "2006", "no_of_instrument": "138060"}, {"instrument_type": "Lease Agreement", "_id": 2, "stamp_duty_assessed": "234897", "financial_year": "2006", "no_of_instrument": "141683"}, {"instrument_type": "Mortgage Agreement", "_id": 3, "stamp_duty_assessed": "30737", "financial_year": "2006", "no_of_instrument": "85170"}, {"instrument_type": "Share Transfer", "_id": 4, "stamp_duty_assessed": "39781", "financial_year": "2006", "no_of_instrument": "33008"}, {"instrument_type": "Others", "_id": 5, "stamp_duty_assessed": "2821", "financial_year": "2006", "no_of_instrument": "172588"}], "_links": {"start": "/api/action/datastore_search?limit=5&resource_id=2d47541d-132e-4910-906c-44cb19aebdce", "next": "/api/action/datastore_search?offset=5&limit=5&resource_id=2d47541d-132e-4910-906c-44cb19aebdce"}, "limit": 5, "total": 70}}