{"help": "https://data.gov.sg/api/3/action/help_show?name=datastore_search", "success": true, "result": {"resource_id": "44da3191-6c57-4d4a-8268-8e2c418d4b43", "fields": [{"type": "int4", "id": "_id"}, {"type": "text", "id": "month"}, {"type": "text", "id": "bunker_type"}, {"type": "numeric", "id": "bunker_sales"}], "records": [{"bunker_type": "Marine Gas Oil", "bunker_sales": "135.4", "_id": 1, "month": "1995-01"}, {"bunker_type": "Marine Diesel Oil", "bunker_sales": "67.9", "_id": 2, "month": "1995-01"}, {"bunker_type": "Marine Fuel Oil 180 cst", "bunker_sales": "412.9", "_id": 3, "month": "1995-01"}, {"bunker_type": "Marine Fuel Oil 380 cst", "bunker_sales": "820.3", "_id": 4, "month": "1995-01"}, {"bunker_type": "Marine Fuel Oil 500 cst +", "bunker_sales": "0", "_id": 5, "month": "1995-01"}], "_links": {"start": "/api/action/datastore_search?limit=5&resource_id=44da3191-6c57-4d4a-8268-8e2c418d4b43", "next": "/api/action/datastore_search?offset=5&limit=5&resource_id=44da3191-6c57-4d4a-8268-8e2c418d4b43"}, "limit": 5, "total": 3708}}