{"help": "https://data.gov.sg/api/3/action/help_show?name=datastore_search", "success": true, "result": {"resource_id": "577d6006-9923-44f5-8e5e-2d12354c9550", "fields": [{"type": "int4", "id": "_id"}, {"type": "numeric", "id": "financial_year"}, {"type": "text", "id": "flat_type"}, {"type": "numeric", "id": "resale_transactions"}], "records": [{"flat_type": "1 room", "_id": 1, "financial_year": "2006", "resale_transactions": "22"}, {"flat_type": "2 room", "_id": 2, "financial_year": "2006", "resale_transactions": "314"}, {"flat_type": "3 room", "_id": 3, "financial_year": "2006", "resale_transactions": "9230"}, {"flat_type": "4 room", "_id": 4, "financial_year": "2006", "resale_transactions": "10851"}, {"flat_type": "5 room", "_id": 5, "financial_year": "2006", "resale_transactions": "6314"}], "_links": {"start": "/api/action/datastore_search?limit=5&resource_id=577d6006-9923-44f5-8e5e-2d12354c9550", "next": "/api/action/datastore_search?offset=5&limit=5&resource_id=577d6006-9923-44f5-8e5e-2d12354c9550"}, "limit": 5, "total": 87}}