{"help": "https://data.gov.sg/api/3/action/help_show?name=datastore_search", "success": true, "result": {"resource_id": "cf1218e3-a811-4326-ba92-be77759ea129", "fields": [{"type": "int4", "id": "_id"}, {"type": "numeric", "id": "year"}, {"type": "text", "id": "type"}, {"type": "text", "id": "sector"}, {"type": "numeric", "id": "count"}], "records": [{"sector": "Public Sector", "count": "47", "_id": 1, "type": "Dental Specialists", "year": "2008"}, {"sector": "Private Sector", "count": "116", "_id": 2, "type": "Dental Specialists", "year": "2008"}, {"sector": "Not in Active Practice", "count": "2", "_id": 3, "type": "Dental Specialists", "year": "2008"}, {"sector": "Public Sector", "count": "268", "_id": 4, "type": "General Dental Practitioners", "year": "2008"}, {"sector": "Private Sector", "count": "864", "_id": 5, "type": "General Dental Practitioners", "year": "2008"}], "_links": {"start": "/api/action/datastore_search?limit=5&resource_id=cf1218e3-a811-4326-ba92-be77759ea129", "next": "/api/action/datastore_search?offset=5&limit=5&resource_id=cf1218e3-a811-4326-ba92-be77759ea129"}, "limit": 5, "total": 72}}