{"help": "https://data.gov.sg/api/3/action/help_show?name=datastore_search", "success": true, "result": {"resource_id": "4d4e1688-fc99-48a0-b3e4-342ccbb6a543", "fields": [{"type": "int4", "id": "_id"}, {"type": "text", "id": "month"}, {"type": "text", "id": "make"}, {"type": "text", "id": "fuel_type"}, {"type": "text", "id": "vehicle_type"}, {"type": "numeric", "id": "number"}], "records": [{"vehicle_type": "Hatchback", "make": "TRIUMPH", "number": "0", "month": "2017-04", "_id": 1, "fuel_type": "Petrol"}, {"vehicle_type": "Hatchback", "make": "VOLKSWAGEN", "number": "0", "month": "2017-04", "_id": 2, "fuel_type": "Diesel"}, {"vehicle_type": "Hatchback", "make": "VOLVO", "number": "0", "month": "2017-04", "_id": 3, "fuel_type": "Diesel"}, {"vehicle_type": "Sedan", "make": "ALFA ROMEO", "number": "0", "month": "2017-04", "_id": 4, "fuel_type": "Petrol"}, {"vehicle_type": "Sedan", "make": "ALPINA", "number": "0", "month": "2017-04", "_id": 5, "fuel_type": "Petrol"}], "_links": {"start": "/api/action/datastore_search?limit=5&resource_id=4d4e1688-fc99-48a0-b3e4-342ccbb6a543", "next": "/api/action/datastore_search?offset=5&limit=5&resource_id=4d4e1688-fc99-48a0-b3e4-342ccbb6a543"}, "limit": 5, "total": 7815}}