{"help": "https://data.gov.sg/api/3/action/help_show?name=datastore_search", "success": true, "result": {"resource_id": "3d5d0b11-59d1-4579-a0f0-530b248902f0", "fields": [{"type": "int4", "id": "_id"}, {"type": "numeric", "id": "shs_year"}, {"type": "text", "id": "ethnic_group"}, {"type": "numeric", "id": "resident_population"}], "records": [{"ethnic_group": "Chinese", "_id": 1, "shs_year": "2008", "resident_population": "2158000"}, {"ethnic_group": "Malay", "_id": 2, "shs_year": "2008", "resident_population": "478000"}, {"ethnic_group": "Indian", "_id": 3, "shs_year": "2008", "resident_population": "240000"}, {"ethnic_group": "Others", "_id": 4, "shs_year": "2008", "resident_population": "47000"}, {"ethnic_group": "Chinese", "_id": 5, "shs_year": "2013", "resident_population": "2248000"}], "_links": {"start": "/api/action/datastore_search?limit=5&resource_id=3d5d0b11-59d1-4579-a0f0-530b248902f0", "next": "/api/action/datastore_search?offset=5&limit=5&resource_id=3d5d0b11-59d1-4579-a0f0-530b248902f0"}, "limit": 5, "total": 8}}