{"help": "https://data.gov.sg/api/3/action/help_show?name=datastore_search", "success": true, "result": {"resource_id": "faa37766-d7ca-4eb4-a298-01708c9bc993", "fields": [{"type": "int4", "id": "_id"}, {"type": "text", "id": "year"}, {"type": "text", "id": "size_of_trade_union"}, {"type": "numeric", "id": "no_of_members"}], "records": [{"size_of_trade_union": "Under 50", "no_of_members": "23", "_id": 1, "year": "2009"}, {"size_of_trade_union": "50 to 249", "no_of_members": "130", "_id": 2, "year": "2009"}, {"size_of_trade_union": "250 & Over", "no_of_members": "2418", "_id": 3, "year": "2009"}, {"size_of_trade_union": "Under 50", "no_of_members": "22", "_id": 4, "year": "2010"}, {"size_of_trade_union": "50 to 249", "no_of_members": "140", "_id": 5, "year": "2010"}], "_links": {"start": "/api/action/datastore_search?limit=5&resource_id=faa37766-d7ca-4eb4-a298-01708c9bc993", "next": "/api/action/datastore_search?offset=5&limit=5&resource_id=faa37766-d7ca-4eb4-a298-01708c9bc993"}, "limit": 5, "total": 30}}