{"help": "https://data.gov.sg/api/3/action/help_show?name=datastore_search", "success": true, "result": {"resource_id": "84e80c49-8049-4398-b031-ada5f007cccf", "fields": [{"type": "int4", "id": "_id"}, {"type": "text", "id": "year"}, {"type": "text", "id": "level_1"}, {"type": "numeric", "id": "value"}], "records": [{"_id": 1, "level_1": "Total Husbands", "value": "170", "year": "1980"}, {"_id": 2, "level_1": "Husbands With Under 1 Year Duration Of Marriage", "value": "3", "year": "1980"}, {"_id": 3, "level_1": "Husbands With 1 Year Duration Of Marriage", "value": "27", "year": "1980"}, {"_id": 4, "level_1": "Husbands With 2 Years Duration Of Marriage", "value": "47", "year": "1980"}, {"_id": 5, "level_1": "Husbands With 3 Years Duration Of Marriage", "value": "40", "year": "1980"}], "_links": {"start": "/api/action/datastore_search?limit=5&resource_id=84e80c49-8049-4398-b031-ada5f007cccf", "next": "/api/action/datastore_search?offset=5&limit=5&resource_id=84e80c49-8049-4398-b031-ada5f007cccf"}, "limit": 5, "total": 546}}