{"help": "https://data.gov.sg/api/3/action/help_show?name=datastore_search", "success": true, "result": {"resource_id": "57bed499-17a8-4994-b18f-71f774525a61", "fields": [{"type": "int4", "id": "_id"}, {"type": "numeric", "id": "year"}, {"type": "text", "id": "level_1"}, {"type": "text", "id": "level_2"}, {"type": "numeric", "id": "value"}], "records": [{"value": "37", "_id": 1, "level_1": "Female Arrested For Rioting", "level_2": "21 Years Old And Below", "year": "2013"}, {"value": "33", "_id": 2, "level_1": "Female Arrested For Rioting", "level_2": "Youths (7 To 19 Years Old)", "year": "2013"}, {"value": "350", "_id": 3, "level_1": "Total Persons Arrested For Serious Hurt", "level_2": "Above 21 Years Old", "year": "2013"}, {"value": "56", "_id": 4, "level_1": "Total Persons Arrested For Serious Hurt", "level_2": "21 Years Old And Below", "year": "2013"}, {"value": "32", "_id": 5, "level_1": "Total Persons Arrested For Serious Hurt", "level_2": "Youths (7 To 19 Years Old)", "year": "2013"}], "_links": {"start": "/api/action/datastore_search?limit=5&resource_id=57bed499-17a8-4994-b18f-71f774525a61", "next": "/api/action/datastore_search?offset=5&limit=5&resource_id=57bed499-17a8-4994-b18f-71f774525a61"}, "limit": 5, "total": 1370}}