{"help": "https://data.gov.sg/api/3/action/help_show?name=datastore_search", "success": true, "result": {"resource_id": "018c0542-2021-4623-9df5-a2c3ab8545b4", "fields": [{"type": "int4", "id": "_id"}, {"type": "text", "id": "month"}, {"type": "text", "id": "category"}, {"type": "numeric", "id": "number_of_tankers"}, {"type": "numeric", "id": "gross_tonnage"}], "records": [{"category": "Oil Tankers", "number_of_tankers": "1264", "_id": 1, "gross_tonnage": "38662.55", "month": "2010-05"}, {"category": "Chemical Tankers", "number_of_tankers": "383", "_id": 2, "gross_tonnage": "4091.22", "month": "2010-05"}, {"category": "LNG & LPG Tankers", "number_of_tankers": "127", "_id": 3, "gross_tonnage": "4188.89", "month": "2010-05"}, {"category": "Oil Tankers", "number_of_tankers": "1252", "_id": 4, "gross_tonnage": "38233.95", "month": "2010-06"}, {"category": "Chemical Tankers", "number_of_tankers": "398", "_id": 5, "gross_tonnage": "4361.2", "month": "2010-06"}], "_links": {"start": "/api/action/datastore_search?limit=5&resource_id=018c0542-2021-4623-9df5-a2c3ab8545b4", "next": "/api/action/datastore_search?offset=5&limit=5&resource_id=018c0542-2021-4623-9df5-a2c3ab8545b4"}, "limit": 5, "total": 1050}}