{"help": "https://data.gov.sg/api/3/action/help_show?name=datastore_search", "success": true, "result": {"resource_id": "39201285-b73e-487a-a971-3a12d34ab8d9", "fields": [{"type": "int4", "id": "_id"}, {"type": "text", "id": "uen"}, {"type": "text", "id": "issuance_agency_id"}, {"type": "text", "id": "uen_status"}, {"type": "text", "id": "entity_name"}, {"type": "text", "id": "entity_type"}, {"type": "text", "id": "uen_issue_date"}, {"type": "text", "id": "reg_street_name"}, {"type": "text", "id": "reg_postal_code"}, {"type": "int8", "id": "_full_count"}, {"type": "float4", "id": "rank"}], "q": "jones", "records": [{"uen": "53286443C", "reg_street_name": "LORONG K TELOK KURAU", "entity_name": "JONES RE CONSULTING", "entity_type": "BN", "reg_postal_code": "425710", "issuance_agency_id": "ACRA", "rank": 0.0, "uen_issue_date": "2014-12-24", "_full_count": "115", "uen_status": "R", "_id": 57388}, {"uen": "S83FC3322E", "reg_street_name": "TEMASEK BOULEVARD", "entity_name": "ROBERT TRENT JONES II INTERNATIONAL LIMITED", "entity_type": "FC", "reg_postal_code": "038986", "issuance_agency_id": "ACRA", "rank": 0.0, "uen_issue_date": "2008-09-09", "_full_count": "115", "uen_status": "D", "_id": 81246}, {"uen": "52975255K", "reg_street_name": "BUKIT BATOK WEST AVENUE 7", "entity_name": "RICK JONES GOLF ACADEMY", "entity_type": "BN", "reg_postal_code": "659003", "issuance_agency_id": "ACRA", "rank": 0.0, "uen_issue_date": "2008-09-12", "_full_count": "115", "uen_status": "D", "_id": 89714}, {"uen": "28917300X", "reg_street_name": "na", "entity_name": "WILSON JONES BUSINESS PRODUCTS", "entity_type": "BN", "reg_postal_code": "na", "issuance_agency_id": "ACRA", "rank": 0.0, "uen_issue_date": "2008-09-09", "_full_count": "115", "uen_status": "D", "_id": 104315}, {"uen": "47948000A", "reg_street_name": "ANSON ROAD", "entity_name": "JACK AND JONES MARKETING SERVICES", "entity_type": "BN", "reg_postal_code": "079903", "issuance_agency_id": "ACRA", "rank": 0.0, "uen_issue_date": "2008-09-10", "_full_count": "115", "uen_status": "D", "_id": 104511}, {"uen": "199400883H", "reg_street_name": "BEACH ROAD", "entity_name": "CHINO JONES TRADERS PTE LTD", "entity_type": "LC", "reg_postal_code": "199588", "issuance_agency_id": "ACRA", "rank": 0.0, "uen_issue_date": "2008-09-10", "_full_count": "115", "uen_status": "D", "_id": 167069}, {"uen": "200003532Z", "reg_street_name": "LORONG 23 GEYLANG", "entity_name": "JC & JONES PTE LTD", "entity_type": "LC", "reg_postal_code": "388371", "issuance_agency_id": "ACRA", "rank": 0.0, "uen_issue_date": "2008-09-12", "_full_count": "115", "uen_status": "D", "_id": 180098}, {"uen": "43915500B", "reg_street_name": "na", "entity_name": "JONES LIM TRADING", "entity_type": "BN", "reg_postal_code": "na", "issuance_agency_id": "ACRA", "rank": 0.0, "uen_issue_date": "2008-09-10", "_full_count": "115", "uen_status": "D", "_id": 184896}, {"uen": "199705858W", "reg_street_name": "CECIL STREET", "entity_name": "ROBINSON JONES ASSOCIATES PTE LTD", "entity_type": "LC", "reg_postal_code": "069545", "issuance_agency_id": "ACRA", "rank": 0.0, "uen_issue_date": "2008-09-11", "_full_count": "115", "uen_status": "R", "_id": 191404}, {"uen": "199804826E", "reg_street_name": "ANSON ROAD", "entity_name": "D G JONES & PARTNERS (CONSTRUCTION CONSULTANTS) PTE LTD", "entity_type": "LC", "reg_postal_code": "079909", "issuance_agency_id": "ACRA", "rank": 0.0, "uen_issue_date": "2008-09-11", "_full_count": "115", "uen_status": "D", "_id": 201095}, {"uen": "201311869Z", "reg_street_name": "ROBINSON ROAD", "entity_name": "HUDDLESTON JONES PTE. LTD.", "entity_type": "LC", "reg_postal_code": "048543", "issuance_agency_id": "ACRA", "rank": 0.0, "uen_issue_date": "2013-05-03", "_full_count": "115", "uen_status": "R", "_id": 212919}, {"uen": "42920400X", "reg_street_name": "SCOTTS ROAD", "entity_name": "JONES CUT", "entity_type": "BN", "reg_postal_code": "228213", "issuance_agency_id": "ACRA", "rank": 0.0, "uen_issue_date": "2008-09-10", "_full_count": "115", "uen_status": "D", "_id": 220313}, {"uen": "200908478R", "reg_street_name": "RAFFLES PLACE", "entity_name": "JONES LANG LASALLE PROPERTY SERVICES PTE. LTD.", "entity_type": "LC", "reg_postal_code": "048619", "issuance_agency_id": "ACRA", "rank": 0.0, "uen_issue_date": "2009-05-14", "_full_count": "115", "uen_status": "D", "_id": 265864}, {"uen": "199701634N", "reg_street_name": "ROBINSON ROAD", "entity_name": "J.A. JONES CONSTRUCTION PTE LTD", "entity_type": "LC", "reg_postal_code": "068906", "issuance_agency_id": "ACRA", "rank": 0.0, "uen_issue_date": "2008-09-11", "_full_count": "115", "uen_status": "D", "_id": 272264}, {"uen": "200004993C", "reg_street_name": "JALAN BESAR", "entity_name": "JONES INTERNATIONAL PTE LTD", "entity_type": "LC", "reg_postal_code": "208787", "issuance_agency_id": "ACRA", "rank": 0.0, "uen_issue_date": "2008-09-12", "_full_count": "115", "uen_status": "D", "_id": 320399}, {"uen": "53012838A", "reg_street_name": "na", "entity_name": "MACK JONES", "entity_type": "BN", "reg_postal_code": "na", "issuance_agency_id": "ACRA", "rank": 0.0, "uen_issue_date": "2008-09-12", "_full_count": "115", "uen_status": "D", "_id": 334904}, {"uen": "53124242X", "reg_street_name": "BUKIT TIMAH ROAD", "entity_name": "F.R. JONES", "entity_type": "BN", "reg_postal_code": "259703", "issuance_agency_id": "ACRA", "rank": 0.0, "uen_issue_date": "2008-09-13", "_full_count": "115", "uen_status": "R", "_id": 341044}, {"uen": "53085850M", "reg_street_name": "DEFU LANE 10", "entity_name": "TEQUILA JONES", "entity_type": "BN", "reg_postal_code": "539232", "issuance_agency_id": "ACRA", "rank": 0.0, "uen_issue_date": "2008-09-13", "_full_count": "115", "uen_status": "D", "_id": 346298}, {"uen": "32573600J", "reg_street_name": "BEACH ROAD", "entity_name": "JONES, YEO AGENCIES", "entity_type": "BN", "reg_postal_code": "189702", "issuance_agency_id": "ACRA", "rank": 0.0, "uen_issue_date": "2008-09-09", "_full_count": "115", "uen_status": "D", "_id": 394798}, {"uen": "53161215E", "reg_street_name": "ANG MO KIO AVENUE 5", "entity_name": "J.K. JONES TRADING", "entity_type": "BN", "reg_postal_code": "569880", "issuance_agency_id": "ACRA", "rank": 0.0, "uen_issue_date": "2010-02-09", "_full_count": "115", "uen_status": "R", "_id": 423055}, {"uen": "51855700J", "reg_street_name": "na", "entity_name": "WORDSMITH AND JONES", "entity_type": "BN", "reg_postal_code": "na", "issuance_agency_id": "ACRA", "rank": 0.0, "uen_issue_date": "2008-09-10", "_full_count": "115", "uen_status": "D", "_id": 439999}, {"uen": "27410600X", "reg_street_name": "na", "entity_name": "JONES AND PANNU", "entity_type": "BN", "reg_postal_code": "na", "issuance_agency_id": "ACRA", "rank": 0.0, "uen_issue_date": "2008-09-09", "_full_count": "115", "uen_status": "D", "_id": 444972}, {"uen": "39353100K", "reg_street_name": "na", "entity_name": "JACK & JONES COLLECTIONS", "entity_type": "BN", "reg_postal_code": "na", "issuance_agency_id": "ACRA", "rank": 0.0, "uen_issue_date": "2008-09-10", "_full_count": "115", "uen_status": "D", "_id": 451943}, {"uen": "28566500J", "reg_street_name": "na", "entity_name": "ALFRED JONES CASMAN TRADING COMPANY", "entity_type": "BN", "reg_postal_code": "na", "issuance_agency_id": "ACRA", "rank": 0.0, "uen_issue_date": "2008-09-09", "_full_count": "115", "uen_status": "D", "_id": 493368}, {"uen": "T10LL8019F", "reg_street_name": "SEGAR ROAD", "entity_name": "GWYNN JONES & KHOR CONSULTING LLP", "entity_type": "LL", "reg_postal_code": "677722", "issuance_agency_id": "ACRA", "rank": 0.0, "uen_issue_date": "2010-10-31", "_full_count": "115", "uen_status": "R", "_id": 508680}, {"uen": "201013772D", "reg_street_name": "TELOK BLANGAH CRESCENT", "entity_name": "JONES & LYNN INDUSTRIAL PTE. LTD.", "entity_type": "LC", "reg_postal_code": "090014", "issuance_agency_id": "ACRA", "rank": 0.0, "uen_issue_date": "2010-07-01", "_full_count": "115", "uen_status": "D", "_id": 509681}, {"uen": "50037300X", "reg_street_name": "GOLDHILL PLAZA", "entity_name": "DUNBAR-JONES AND ASSOCIATES", "entity_type": "BN", "reg_postal_code": "308899", "issuance_agency_id": "ACRA", "rank": 0.0, "uen_issue_date": "2008-09-10", "_full_count": "115", "uen_status": "R", "_id": 536705}, {"uen": "199501478M", "reg_street_name": "UPPER CIRCULAR ROAD", "entity_name": "JONATHAN JONES PTE LTD", "entity_type": "LC", "reg_postal_code": "058416", "issuance_agency_id": "ACRA", "rank": 0.0, "uen_issue_date": "2008-09-10", "_full_count": "115", "uen_status": "D", "_id": 542788}, {"uen": "199902603H", "reg_street_name": "MARKET STREET", "entity_name": "DOW JONES & COMPANY (SINGAPORE) PTE LTD", "entity_type": "LC", "reg_postal_code": "048946", "issuance_agency_id": "ACRA", "rank": 0.0, "uen_issue_date": "2008-09-11", "_full_count": "115", "uen_status": "R", "_id": 543777}, {"uen": "53288964M", "reg_street_name": "ANG MO KIO AVENUE 3", "entity_name": "PAPA JONES BAR. B.Q AND GRILL", "entity_type": "BN", "reg_postal_code": "560122", "issuance_agency_id": "ACRA", "rank": 0.0, "uen_issue_date": "2015-01-27", "_full_count": "115", "uen_status": "R", "_id": 557324}, {"uen": "53122472D", "reg_street_name": "na", "entity_name": "SARA JONES", "entity_type": "BN", "reg_postal_code": "na", "issuance_agency_id": "ACRA", "rank": 0.0, "uen_issue_date": "2008-09-13", "_full_count": "115", "uen_status": "D", "_id": 561432}, {"uen": "201310174Z", "reg_street_name": "GENTING ROAD", "entity_name": "JONES COLLECTION PTE. LTD.", "entity_type": "LC", "reg_postal_code": "349471", "issuance_agency_id": "ACRA", "rank": 0.0, "uen_issue_date": "2013-04-18", "_full_count": "115", "uen_status": "R", "_id": 584901}, {"uen": "200914071N", "reg_street_name": "STEVENS DRIVE", "entity_name": "DUNBAR JONES PTE. LTD.", "entity_type": "LC", "reg_postal_code": "257902", "issuance_agency_id": "ACRA", "rank": 0.0, "uen_issue_date": "2009-08-02", "_full_count": "115", "uen_status": "R", "_id": 586136}, {"uen": "53081948A", "reg_street_name": "DEFU LANE 10", "entity_name": "SPAGHETTI JONES", "entity_type": "BN", "reg_postal_code": "539232", "issuance_agency_id": "ACRA", "rank": 0.0, "uen_issue_date": "2008-09-13", "_full_count": "115", "uen_status": "D", "_id": 595855}, {"uen": "53141622D", "reg_street_name": "HINDHEDE WALK", "entity_name": "NICOLA KATIE PENNY KNILL-JONES", "entity_type": "BN", "reg_postal_code": "587972", "issuance_agency_id": "ACRA", "rank": 0.0, "uen_issue_date": "2009-05-05", "_full_count": "115", "uen_status": "D", "_id": 603748}, {"uen": "S26FC0730F", "reg_street_name": "na", "entity_name": "TOPHAM JONES & RATTAN LTD", "entity_type": "FC", "reg_postal_code": "na", "issuance_agency_id": "ACRA", "rank": 0.0, "uen_issue_date": "2008-12-16", "_full_count": "115", "uen_status": "D", "_id": 609289}, {"uen": "52840787B", "reg_street_name": "na", "entity_name": "ROBINSON JONES ASSOCIATES", "entity_type": "BN", "reg_postal_code": "na", "issuance_agency_id": "ACRA", "rank": 0.0, "uen_issue_date": "2008-09-11", "_full_count": "115", "uen_status": "D", "_id": 638223}, {"uen": "53149347D", "reg_street_name": "YISHUN STREET 72", "entity_name": "INDIANA JONES", "entity_type": "BN", "reg_postal_code": "760761", "issuance_agency_id": "ACRA", "rank": 0.0, "uen_issue_date": "2009-08-14", "_full_count": "115", "uen_status": "D", "_id": 642355}, {"uen": "200202143R", "reg_street_name": "RAFFLES PLACE", "entity_name": "JONES LANG LASALLE REAL ESTATE (SINGAPORE) PTE. LTD.", "entity_type": "LC", "reg_postal_code": "048619", "issuance_agency_id": "ACRA", "rank": 0.0, "uen_issue_date": "2008-09-12", "_full_count": "115", "uen_status": "D", "_id": 645326}, {"uen": "S83FC3237K", "reg_street_name": "BATTERY ROAD", "entity_name": "JONES GROUP, INC.", "entity_type": "FC", "reg_postal_code": "049909", "issuance_agency_id": "ACRA", "rank": 0.0, "uen_issue_date": "2008-09-09", "_full_count": "115", "uen_status": "D", "_id": 646278}, {"uen": "201110978M", "reg_street_name": "DRAYCOTT DRIVE", "entity_name": "CHRISTOPHER JONES OSTEOPATHY PTE. LTD.", "entity_type": "LC", "reg_postal_code": "259420", "issuance_agency_id": "ACRA", "rank": 0.0, "uen_issue_date": "2011-05-10", "_full_count": "115", "uen_status": "D", "_id": 648404}, {"uen": "52817936E", "reg_street_name": "GENTING ROAD", "entity_name": "JONES COLLECTION", "entity_type": "BN", "reg_postal_code": "349471", "issuance_agency_id": "ACRA", "rank": 0.0, "uen_issue_date": "2008-09-10", "_full_count": "115", "uen_status": "D", "_id": 661212}, {"uen": "200706760Z", "reg_street_name": "DEMPSEY ROAD", "entity_name": "JONES THE GROCER INTERNATIONAL PTE. LTD.", "entity_type": "LC", "reg_postal_code": "249672", "issuance_agency_id": "ACRA", "rank": 0.0, "uen_issue_date": "2008-09-13", "_full_count": "115", "uen_status": "R", "_id": 670741}, {"uen": "200719295G", "reg_street_name": "RAFFLES PLACE", "entity_name": "JONES LANG LASALLE TECHNOLOGY SERVICES PTE. LTD.", "entity_type": "LC", "reg_postal_code": "048619", "issuance_agency_id": "ACRA", "rank": 0.0, "uen_issue_date": "2008-09-13", "_full_count": "115", "uen_status": "R", "_id": 683260}, {"uen": "34216300X", "reg_street_name": "na", "entity_name": "F.GRANT JONES INTERIOR DESIGN AND CONSULTANT", "entity_type": "BN", "reg_postal_code": "na", "issuance_agency_id": "ACRA", "rank": 0.0, "uen_issue_date": "2008-09-09", "_full_count": "115", "uen_status": "D", "_id": 693273}, {"uen": "53217229M", "reg_street_name": "HINDHEDE WALK", "entity_name": "JONES MH SERVICES", "entity_type": "BN", "reg_postal_code": "587971", "issuance_agency_id": "ACRA", "rank": 0.0, "uen_issue_date": "2012-06-22", "_full_count": "115", "uen_status": "R", "_id": 705652}, {"uen": "197600508N", "reg_street_name": "RAFFLES PLACE", "entity_name": "JONES LANG LASALLE PROPERTY MANAGEMENT PTE LTD", "entity_type": "LC", "reg_postal_code": "048619", "issuance_agency_id": "ACRA", "rank": 0.0, "uen_issue_date": "2008-09-09", "_full_count": "115", "uen_status": "R", "_id": 711738}, {"uen": "35767000X", "reg_street_name": "na", "entity_name": "JAMESON AND JONES HEALTH PRODUCTS", "entity_type": "BN", "reg_postal_code": "na", "issuance_agency_id": "ACRA", "rank": 0.0, "uen_issue_date": "2008-09-10", "_full_count": "115", "uen_status": "D", "_id": 727246}, {"uen": "09160400A", "reg_street_name": "na", "entity_name": "JONES REAL ESTATE AGENCY", "entity_type": "BN", "reg_postal_code": "na", "issuance_agency_id": "ACRA", "rank": 0.0, "uen_issue_date": "2008-09-09", "_full_count": "115", "uen_status": "D", "_id": 730446}, {"uen": "201116846R", "reg_street_name": "YISHUN STREET 22", "entity_name": "JONES TAILORING PTE. LTD.", "entity_type": "LC", "reg_postal_code": "760291", "issuance_agency_id": "ACRA", "rank": 0.0, "uen_issue_date": "2011-07-15", "_full_count": "115", "uen_status": "D", "_id": 731456}, {"uen": "199600287M", "reg_street_name": "SELEGIE ROAD", "entity_name": "SAMPOERNA JONES DESIGNS PTE LTD", "entity_type": "LC", "reg_postal_code": "188307", "issuance_agency_id": "ACRA", "rank": 0.0, "uen_issue_date": "2008-09-10", "_full_count": "115", "uen_status": "D", "_id": 748850}, {"uen": "45920600A", "reg_street_name": "na", "entity_name": "JONATHAN JONES MARKETING", "entity_type": "BN", "reg_postal_code": "na", "issuance_agency_id": "ACRA", "rank": 0.0, "uen_issue_date": "2008-09-10", "_full_count": "115", "uen_status": "D", "_id": 750050}, {"uen": "199507932G", "reg_street_name": "RAFFLES PLACE", "entity_name": "JONES LANG LASALLE PLANT AND MACHINERY PTE LTD", "entity_type": "LC", "reg_postal_code": "048619", "issuance_agency_id": "ACRA", "rank": 0.0, "uen_issue_date": "2008-09-10", "_full_count": "115", "uen_status": "D", "_id": 767169}, {"uen": "201110182D", "reg_street_name": "JURONG EAST STREET 21", "entity_name": "FIN JONES PTE. LTD.", "entity_type": "LC", "reg_postal_code": "609601", "issuance_agency_id": "ACRA", "rank": 0.0, "uen_issue_date": "2011-04-29", "_full_count": "115", "uen_status": "D", "_id": 772809}, {"uen": "S94FC4845A", "reg_street_name": "MARKET STREET", "entity_name": "DOW JONES AER COMPANY, INC. (SINGAPORE BRANCH)", "entity_type": "FC", "reg_postal_code": "048946", "issuance_agency_id": "ACRA", "rank": 0.0, "uen_issue_date": "2008-09-10", "_full_count": "115", "uen_status": "R", "_id": 785739}, {"uen": "201228528D", "reg_street_name": "BATTERY ROAD", "entity_name": "WILLIAMS-JONES PTE. LTD.", "entity_type": "LC", "reg_postal_code": "049908", "issuance_agency_id": "ACRA", "rank": 0.0, "uen_issue_date": "2012-11-22", "_full_count": "115", "uen_status": "D", "_id": 802716}, {"uen": "52939636W", "reg_street_name": "DEFU LANE 10", "entity_name": "BOTAK JONES", "entity_type": "BN", "reg_postal_code": "539232", "issuance_agency_id": "ACRA", "rank": 0.0, "uen_issue_date": "2008-09-12", "_full_count": "115", "uen_status": "R", "_id": 809390}, {"uen": "201319799N", "reg_street_name": "WOODLANDS AVENUE 3", "entity_name": "JONES GROUP OF COMPANY SINGAPORE PTE. LTD.", "entity_type": "LC", "reg_postal_code": "730349", "issuance_agency_id": "ACRA", "rank": 0.0, "uen_issue_date": "2013-07-23", "_full_count": "115", "uen_status": "D", "_id": 820173}, {"uen": "22446000E", "reg_street_name": "na", "entity_name": "JONES MCCULLOCH COMPANY", "entity_type": "BN", "reg_postal_code": "na", "issuance_agency_id": "ACRA", "rank": 0.0, "uen_issue_date": "2008-09-09", "_full_count": "115", "uen_status": "D", "_id": 841635}, {"uen": "50119900D", "reg_street_name": "TRAS STREET", "entity_name": "JONES EQUIPMENTS", "entity_type": "BN", "reg_postal_code": "079025", "issuance_agency_id": "ACRA", "rank": 0.0, "uen_issue_date": "2008-09-10", "_full_count": "115", "uen_status": "D", "_id": 846426}, {"uen": "200707404Z", "reg_street_name": "NEW BRIDGE ROAD", "entity_name": "JONES THE GROCER SINGAPORE PTE. LTD.", "entity_type": "LC", "reg_postal_code": "059413", "issuance_agency_id": "ACRA", "rank": 0.0, "uen_issue_date": "2008-09-13", "_full_count": "115", "uen_status": "D", "_id": 848159}, {"uen": "200805263G", "reg_street_name": "RAFFLES PLACE", "entity_name": "JONES LANG LASALLE RESIDENTIAL PTE. LTD.", "entity_type": "LC", "reg_postal_code": "048619", "issuance_agency_id": "ACRA", "rank": 0.0, "uen_issue_date": "2008-09-13", "_full_count": "115", "uen_status": "R", "_id": 861539}, {"uen": "53172927C", "reg_street_name": "CECIL STREET", "entity_name": "FRAZER JONES", "entity_type": "BN", "reg_postal_code": "049712", "issuance_agency_id": "ACRA", "rank": 0.0, "uen_issue_date": "2010-08-03", "_full_count": "115", "uen_status": "R", "_id": 867083}, {"uen": "201120149G", "reg_street_name": "NORTH BRIDGE ROAD", "entity_name": "JONES KNOWLES RITCHIE (S.E.A) PTE. LTD.", "entity_type": "LC", "reg_postal_code": "188778", "issuance_agency_id": "ACRA", "rank": 0.0, "uen_issue_date": "2011-08-26", "_full_count": "115", "uen_status": "R", "_id": 867910}, {"uen": "53185293L", "reg_street_name": "OCEAN DRIVE", "entity_name": "ROBERT STEVEN JONES", "entity_type": "BN", "reg_postal_code": "098625", "issuance_agency_id": "ACRA", "rank": 0.0, "uen_issue_date": "2011-02-16", "_full_count": "115", "uen_status": "R", "_id": 882070}, {"uen": "201022837D", "reg_street_name": "NOVENA RISE", "entity_name": "DIANNE JONES CONSULTING PTE. LTD.", "entity_type": "LC", "reg_postal_code": "307510", "issuance_agency_id": "ACRA", "rank": 0.0, "uen_issue_date": "2010-10-27", "_full_count": "115", "uen_status": "D", "_id": 882291}, {"uen": "200806069Z", "reg_street_name": "MIDDLE ROAD", "entity_name": "J.K. JONES ASIA PTE. LTD.", "entity_type": "LC", "reg_postal_code": "188979", "issuance_agency_id": "ACRA", "rank": 0.0, "uen_issue_date": "2008-09-13", "_full_count": "115", "uen_status": "D", "_id": 911349}, {"uen": "52821846L", "reg_street_name": "na", "entity_name": "GROS-JONES", "entity_type": "BN", "reg_postal_code": "na", "issuance_agency_id": "ACRA", "rank": 0.0, "uen_issue_date": "2008-09-10", "_full_count": "115", "uen_status": "D", "_id": 915417}, {"uen": "201818768G", "reg_street_name": "MARINA BOULEVARD", "entity_name": "DARCY JONES PTE. LTD.", "entity_type": "LC", "reg_postal_code": "018983", "issuance_agency_id": "ACRA", "rank": 0.0, "uen_issue_date": "2018-06-01", "_full_count": "115", "uen_status": "R", "_id": 922723}, {"uen": "194700019M", "reg_street_name": "RAFFLES PLACE", "entity_name": "J. L. MORISON, SON & JONES (FAR EAST) PTE. LIMITED", "entity_type": "LC", "reg_postal_code": "048624", "issuance_agency_id": "ACRA", "rank": 0.0, "uen_issue_date": "2008-09-09", "_full_count": "115", "uen_status": "D", "_id": 961403}, {"uen": "53225491X", "reg_street_name": "DEFU LANE 10", "entity_name": "BOTAK JONES AMERICAN CAFE", "entity_type": "BN", "reg_postal_code": "539232", "issuance_agency_id": "ACRA", "rank": 0.0, "uen_issue_date": "2012-11-01", "_full_count": "115", "uen_status": "D", "_id": 966445}, {"uen": "197700818N", "reg_street_name": "MIDDLE ROAD", "entity_name": "JONES BARDELMEIER & CO. PTE. L TD.", "entity_type": "LC", "reg_postal_code": "188972", "issuance_agency_id": "ACRA", "rank": 0.0, "uen_issue_date": "2008-09-09", "_full_count": "115", "uen_status": "D", "_id": 971044}, {"uen": "201213407M", "reg_street_name": "SHENTON WAY", "entity_name": "JONES THE GROCER GROUP HOLDINGS PTE. LTD.", "entity_type": "LC", "reg_postal_code": "068811", "issuance_agency_id": "ACRA", "rank": 0.0, "uen_issue_date": "2012-05-31", "_full_count": "115", "uen_status": "D", "_id": 998654}, {"uen": "201301240K", "reg_street_name": "NORTH BRIDGE ROAD", "entity_name": "JONES KNOWLES RITCHIE (SINGAPORE) PTE. LIMITED", "entity_type": "LC", "reg_postal_code": "188778", "issuance_agency_id": "ACRA", "rank": 0.0, "uen_issue_date": "2013-01-12", "_full_count": "115", "uen_status": "R", "_id": 1011125}, {"uen": "201808183M", "reg_street_name": "AYER RAJAH CRESCENT", "entity_name": "LISA S JONES PRIVATE LIMITED", "entity_type": "LC", "reg_postal_code": "139951", "issuance_agency_id": "ACRA", "rank": 0.0, "uen_issue_date": "2018-03-08", "_full_count": "115", "uen_status": "R", "_id": 1020809}, {"uen": "53323401L", "reg_street_name": "TELOK BLANGAH HEIGHTS", "entity_name": "JOE TO JONES", "entity_type": "BN", "reg_postal_code": "102070", "issuance_agency_id": "ACRA", "rank": 0.0, "uen_issue_date": "2015-11-26", "_full_count": "115", "uen_status": "R", "_id": 1038463}, {"uen": "198303497G", "reg_street_name": "CECIL STREET", "entity_name": "JONES HILLS INVESTMENTS PTE LTD", "entity_type": "LC", "reg_postal_code": "069542", "issuance_agency_id": "ACRA", "rank": 0.0, "uen_issue_date": "2008-09-09", "_full_count": "115", "uen_status": "D", "_id": 1050376}, {"uen": "201414290E", "reg_street_name": "ANSON ROAD", "entity_name": "SIAN JONES PTE. LTD.", "entity_type": "LC", "reg_postal_code": "079903", "issuance_agency_id": "ACRA", "rank": 0.0, "uen_issue_date": "2014-05-20", "_full_count": "115", "uen_status": "R", "_id": 1054217}, {"uen": "53153004C", "reg_street_name": "GOODWOOD HILL", "entity_name": "ME AND MRS JONES", "entity_type": "BN", "reg_postal_code": "258896", "issuance_agency_id": "ACRA", "rank": 0.0, "uen_issue_date": "2009-10-06", "_full_count": "115", "uen_status": "D", "_id": 1095685}, {"uen": "198000164M", "reg_street_name": "RAFFLES PLACE", "entity_name": "MURRAY CLARKE AND JONES (SINGAPORE) PTE. LTD.", "entity_type": "LC", "reg_postal_code": "048621", "issuance_agency_id": "ACRA", "rank": 0.0, "uen_issue_date": "2008-09-09", "_full_count": "115", "uen_status": "D", "_id": 1124699}, {"uen": "52856151X", "reg_street_name": "na", "entity_name": "QUIN JONES MANAGEMENT SERVICES", "entity_type": "BN", "reg_postal_code": "na", "issuance_agency_id": "ACRA", "rank": 0.0, "uen_issue_date": "2008-09-11", "_full_count": "115", "uen_status": "D", "_id": 1135016}, {"uen": "199800866K", "reg_street_name": "ROBINSON ROAD", "entity_name": "GETHIN-JONES MEDICAL PRACTICE PTE LTD", "entity_type": "LC", "reg_postal_code": "068900", "issuance_agency_id": "ACRA", "rank": 0.0, "uen_issue_date": "2008-09-11", "_full_count": "115", "uen_status": "R", "_id": 1151335}, {"uen": "201523678K", "reg_street_name": "JURONG WEST STREET 81", "entity_name": "JONES TRADER PTE. LTD.", "entity_type": "LC", "reg_postal_code": "640818", "issuance_agency_id": "ACRA", "rank": 0.0, "uen_issue_date": "2015-05-21", "_full_count": "115", "uen_status": "D", "_id": 1160757}, {"uen": "201903653H", "reg_street_name": "CRAWFORD LANE", "entity_name": "HAINAN JONES PTE. LTD.", "entity_type": "LC", "reg_postal_code": "190462", "issuance_agency_id": "ACRA", "rank": 0.0, "uen_issue_date": "2019-01-30", "_full_count": "115", "uen_status": "R", "_id": 1161978}, {"uen": "53277786K", "reg_street_name": "ANG MO KIO AVENUE 3", "entity_name": "JONES REPUBLIC", "entity_type": "BN", "reg_postal_code": "560564", "issuance_agency_id": "ACRA", "rank": 0.0, "uen_issue_date": "2014-10-07", "_full_count": "115", "uen_status": "D", "_id": 1165821}, {"uen": "S80FC2875L", "reg_street_name": "na", "entity_name": "MURRAY-CLARKE AND JONES LTD", "entity_type": "FC", "reg_postal_code": "na", "issuance_agency_id": "ACRA", "rank": 0.0, "uen_issue_date": "2008-09-09", "_full_count": "115", "uen_status": "D", "_id": 1173558}, {"uen": "198004794D", "reg_street_name": "RAFFLES PLACE", "entity_name": "JONES LANG LASALLE PROPERTY CONSULTANTS PTE LTD", "entity_type": "LC", "reg_postal_code": "048619", "issuance_agency_id": "ACRA", "rank": 0.0, "uen_issue_date": "2008-09-09", "_full_count": "115", "uen_status": "R", "_id": 1179964}, {"uen": "52857627E", "reg_street_name": "JALAN BESAR", "entity_name": "JONES PROCUREMENT INTERNATIONAL", "entity_type": "BN", "reg_postal_code": "208882", "issuance_agency_id": "ACRA", "rank": 0.0, "uen_issue_date": "2008-09-11", "_full_count": "115", "uen_status": "D", "_id": 1191469}, {"uen": "198205104E", "reg_street_name": "RAFFLES PLACE", "entity_name": "D. G. JONES & PARTNERS (QUANTI TY SURVEYORS) PTE. LTD.", "entity_type": "LC", "reg_postal_code": "048616", "issuance_agency_id": "ACRA", "rank": 0.0, "uen_issue_date": "2008-09-09", "_full_count": "115", "uen_status": "D", "_id": 1201457}, {"uen": "201604284E", "reg_street_name": "HOLLAND ROAD", "entity_name": "SOLO JONES PTE. LTD.", "entity_type": "LC", "reg_postal_code": "258887", "issuance_agency_id": "ACRA", "rank": 0.0, "uen_issue_date": "2016-02-20", "_full_count": "115", "uen_status": "R", "_id": 1203762}, {"uen": "53081946E", "reg_street_name": "DEFU LANE 10", "entity_name": "SAWADEE JONES", "entity_type": "BN", "reg_postal_code": "539232", "issuance_agency_id": "ACRA", "rank": 0.0, "uen_issue_date": "2008-09-13", "_full_count": "115", "uen_status": "D", "_id": 1211573}, {"uen": "T12LL2126A", "reg_street_name": "MAXWELL ROAD", "entity_name": "JONES HOLDINGS LLP", "entity_type": "LL", "reg_postal_code": "069113", "issuance_agency_id": "ACRA", "rank": 0.0, "uen_issue_date": "2012-12-12", "_full_count": "115", "uen_status": "R", "_id": 1214322}, {"uen": "53110437X", "reg_street_name": "KAKI BUKIT AVENUE 1", "entity_name": "JACK & JONES", "entity_type": "BN", "reg_postal_code": "417943", "issuance_agency_id": "ACRA", "rank": 0.0, "uen_issue_date": "2008-09-13", "_full_count": "115", "uen_status": "D", "_id": 1249416}, {"uen": "46945800C", "reg_street_name": "COLEMAN STREET", "entity_name": "CHINO JONES TRADERS", "entity_type": "BN", "reg_postal_code": "179804", "issuance_agency_id": "ACRA", "rank": 0.0, "uen_issue_date": "2008-09-10", "_full_count": "115", "uen_status": "D", "_id": 1288081}, {"uen": "199100838H", "reg_street_name": "RAFFLES PLACE", "entity_name": "JONES LANG LASALLE HOTELS PTE LTD", "entity_type": "LC", "reg_postal_code": "048619", "issuance_agency_id": "ACRA", "rank": 0.0, "uen_issue_date": "2008-09-10", "_full_count": "115", "uen_status": "D", "_id": 1293620}, {"uen": "52936913C", "reg_street_name": "ANSON ROAD", "entity_name": "JONES & JAMES TUTORS", "entity_type": "BN", "reg_postal_code": "079903", "issuance_agency_id": "ACRA", "rank": 0.0, "uen_issue_date": "2008-09-12", "_full_count": "115", "uen_status": "D", "_id": 1302949}, {"uen": "27717500C", "reg_street_name": "RAFFLES PLACE", "entity_name": "JONES LANG WOOTTON", "entity_type": "BN", "reg_postal_code": "048619", "issuance_agency_id": "ACRA", "rank": 0.0, "uen_issue_date": "2008-09-09", "_full_count": "115", "uen_status": "D", "_id": 1311211}, {"uen": "200615781N", "reg_street_name": "EU TONG SEN STREET", "entity_name": "CAREY JONES CONSULTING PTE. LTD.", "entity_type": "LC", "reg_postal_code": "059818", "issuance_agency_id": "ACRA", "rank": 0.0, "uen_issue_date": "2008-09-13", "_full_count": "115", "uen_status": "D", "_id": 1313687}, {"uen": "198702970R", "reg_street_name": "HANDY ROAD", "entity_name": "JONES & ASSOCIATES PTE LTD", "entity_type": "LC", "reg_postal_code": "229233", "issuance_agency_id": "ACRA", "rank": 0.0, "uen_issue_date": "2008-09-10", "_full_count": "115", "uen_status": "D", "_id": 1327838}, {"uen": "23052200M", "reg_street_name": "MARINE PARADE ROAD", "entity_name": "JONES ELECTRONICS", "entity_type": "BN", "reg_postal_code": "449269", "issuance_agency_id": "ACRA", "rank": 0.0, "uen_issue_date": "2008-09-09", "_full_count": "115", "uen_status": "D", "_id": 1371582}], "_links": {"start": "/api/action/datastore_search?q=jones&resource_id=39201285-b73e-487a-a971-3a12d34ab8d9", "next": "/api/action/datastore_search?q=jones&offset=100&resource_id=39201285-b73e-487a-a971-3a12d34ab8d9"}, "total": 115}}