{"help": "https://data.gov.sg/api/3/action/help_show?name=datastore_search", "success": true, "result": {"resource_id": "fd704f93-a820-40c3-b44d-379fe6e816a9", "fields": [{"type": "int4", "id": "_id"}, {"type": "text", "id": "year"}, {"type": "text", "id": "size_of_trade_union"}, {"type": "numeric", "id": "no_of_trade_unions"}], "records": [{"size_of_trade_union": "50 to 249", "_id": 1, "no_of_trade_unions": "6", "year": "2009"}, {"size_of_trade_union": "250 to 999", "_id": 2, "no_of_trade_unions": "18", "year": "2009"}, {"size_of_trade_union": "1000 to 4999", "_id": 3, "no_of_trade_unions": "19", "year": "2009"}, {"size_of_trade_union": "5000 to 9999", "_id": 4, "no_of_trade_unions": "5", "year": "2009"}, {"size_of_trade_union": "10000 & Over", "_id": 5, "no_of_trade_unions": "17", "year": "2009"}], "_links": {"start": "/api/action/datastore_search?limit=5&resource_id=fd704f93-a820-40c3-b44d-379fe6e816a9", "next": "/api/action/datastore_search?offset=5&limit=5&resource_id=fd704f93-a820-40c3-b44d-379fe6e816a9"}, "limit": 5, "total": 59}}