{"help": "https://data.gov.sg/api/3/action/help_show?name=datastore_search", "success": true, "result": {"resource_id": "1b84f2f7-b11e-4705-af17-82b67f050b85", "fields": [{"type": "int4", "id": "_id"}, {"type": "numeric", "id": "year"}, {"type": "text", "id": "type_of_educational_institution"}, {"type": "numeric", "id": "expenditure_per_student"}], "records": [{"type_of_educational_institution": "Primary Schools", "expenditure_per_student": "1404", "_id": 1, "year": "1986"}, {"type_of_educational_institution": "Secondary Schools", "expenditure_per_student": "1931", "_id": 2, "year": "1986"}, {"type_of_educational_institution": "Junior Colleges/Centralised Institutes", "expenditure_per_student": "2606", "_id": 3, "year": "1986"}, {"type_of_educational_institution": "Polytechnics", "expenditure_per_student": "4143", "_id": 4, "year": "1986"}, {"type_of_educational_institution": "Institute of Technical Education", "expenditure_per_student": "3924", "_id": 5, "year": "1986"}], "_links": {"start": "/api/action/datastore_search?limit=5&resource_id=1b84f2f7-b11e-4705-af17-82b67f050b85", "next": "/api/action/datastore_search?offset=5&limit=5&resource_id=1b84f2f7-b11e-4705-af17-82b67f050b85"}, "limit": 5, "total": 204}}