{"help": "https://data.gov.sg/api/3/action/help_show?name=datastore_search", "success": true, "result": {"resource_id": "1a08ce4d-aafc-4fee-afb7-e8f4c3a41d80", "fields": [{"type": "int4", "id": "_id"}, {"type": "text", "id": "month"}, {"type": "text", "id": "level_1"}, {"type": "numeric", "id": "value"}], "records": [{"_id": 1, "level_1": "Total Aircraft Arrivals And Departures", "value": "6501", "month": "1980-01"}, {"_id": 2, "level_1": "Total Passengers", "value": "566879", "month": "1980-01"}, {"_id": 3, "level_1": "Total Aircraft Arrivals And Departures", "value": "6112", "month": "1980-02"}, {"_id": 4, "level_1": "Total Passengers", "value": "552263", "month": "1980-02"}, {"_id": 5, "level_1": "Total Aircraft Arrivals And Departures", "value": "6391", "month": "1980-03"}], "_links": {"start": "/api/action/datastore_search?limit=5&resource_id=1a08ce4d-aafc-4fee-afb7-e8f4c3a41d80", "next": "/api/action/datastore_search?offset=5&limit=5&resource_id=1a08ce4d-aafc-4fee-afb7-e8f4c3a41d80"}, "limit": 5, "total": 974}}