{"help": "https://data.gov.sg/api/3/action/help_show?name=datastore_search", "success": true, "result": {"resource_id": "f8060108-f102-41e2-be12-fe264a34bba4", "fields": [{"type": "int4", "id": "_id"}, {"type": "numeric", "id": "year"}, {"type": "numeric", "id": "nitrogen_dioxide_mean"}], "records": [{"_id": 1, "nitrogen_dioxide_mean": "30", "year": "2000"}, {"_id": 2, "nitrogen_dioxide_mean": "26", "year": "2001"}, {"_id": 3, "nitrogen_dioxide_mean": "27", "year": "2002"}, {"_id": 4, "nitrogen_dioxide_mean": "24", "year": "2003"}, {"_id": 5, "nitrogen_dioxide_mean": "26", "year": "2004"}], "_links": {"start": "/api/action/datastore_search?limit=5&resource_id=f8060108-f102-41e2-be12-fe264a34bba4", "next": "/api/action/datastore_search?offset=5&limit=5&resource_id=f8060108-f102-41e2-be12-fe264a34bba4"}, "limit": 5, "total": 20}}