{"help": "https://data.gov.sg/api/3/action/help_show?name=datastore_search", "success": true, "result": {"resource_id": "3561a136-4ee4-4029-a5cd-ddf591cce643", "fields": [{"type": "int4", "id": "_id"}, {"type": "text", "id": "licence_num"}, {"type": "text", "id": "licensee_name"}, {"type": "text", "id": "building_name"}, {"type": "text", "id": "block_house_num"}, {"type": "text", "id": "level_num"}, {"type": "text", "id": "unit_num"}, {"type": "text", "id": "street_name"}, {"type": "text", "id": "postal_code"}], "records": [{"licensee_name": "COLD STORAGE SINGAPORE (1983) PTE LTD", "unit_num": "34", "licence_num": "B02012N000", "level_num": "1", "block_house_num": "768", "postal_code": "730768", "_id": 1, "street_name": "WOODLANDS AVENUE 6", "building_name": "WOODLANDS MART"}, {"licensee_name": "PHAN NEE TRADING LLP", "unit_num": "5", "licence_num": "NW15489B000", "level_num": "1", "block_house_num": "2", "postal_code": "737723", "_id": 2, "street_name": "WOODLANDS SECTOR 2", "building_name": "WESTLITE WOODLANDS DORMITORY"}, {"licensee_name": "FORTUNE SUPERMARKET PTE. LTD.", "unit_num": "1", "licence_num": "NW15220L000", "level_num": "1", "block_house_num": "780", "postal_code": "730780", "_id": 3, "street_name": "WOODLANDS CRESCENT", "building_name": "MULTI STOREY CAR PARK"}, {"licensee_name": "MM SUNDRY SHOP PTE.LTD.", "unit_num": "70", "licence_num": "NW07726J000", "level_num": "1", "block_house_num": "27", "postal_code": "738252", "_id": 4, "street_name": "WOODLANDS SECTOR 1", "building_name": "WOODLANDS DORMITORY"}, {"licensee_name": "SONG FISH DEALER PTE LTD", "unit_num": "8", "licence_num": "NW15484L000", "level_num": "B1", "block_house_num": "604", "postal_code": "758459", "_id": 5, "street_name": "SEMBAWANG ROAD", "building_name": "SEMBAWANG SHOPPING CENTRE"}], "_links": {"start": "/api/action/datastore_search?limit=5&resource_id=3561a136-4ee4-4029-a5cd-ddf591cce643", "next": "/api/action/datastore_search?offset=5&limit=5&resource_id=3561a136-4ee4-4029-a5cd-ddf591cce643"}, "limit": 5, "total": 228}}