{"help": "https://data.gov.sg/api/3/action/help_show?name=datastore_search", "success": true, "result": {"resource_id": "b1f52bb9-6d74-42b6-aae9-60e15a6b725f", "fields": [{"type": "int4", "id": "_id"}, {"type": "numeric", "id": "year"}, {"type": "numeric", "id": "sulphur_dioxide_mean"}], "records": [{"sulphur_dioxide_mean": "22", "_id": 1, "year": "2000"}, {"sulphur_dioxide_mean": "22", "_id": 2, "year": "2001"}, {"sulphur_dioxide_mean": "18", "_id": 3, "year": "2002"}, {"sulphur_dioxide_mean": "15", "_id": 4, "year": "2003"}, {"sulphur_dioxide_mean": "14", "_id": 5, "year": "2004"}], "_links": {"start": "/api/action/datastore_search?limit=5&resource_id=b1f52bb9-6d74-42b6-aae9-60e15a6b725f", "next": "/api/action/datastore_search?offset=5&limit=5&resource_id=b1f52bb9-6d74-42b6-aae9-60e15a6b725f"}, "limit": 5, "total": 20}}