{"help": "https://data.gov.sg/api/3/action/help_show?name=datastore_search", "success": true, "result": {"resource_id": "ee29618e-ab00-4b41-9e05-dd35772b6a9a", "fields": [{"type": "int4", "id": "_id"}, {"type": "numeric", "id": "year"}, {"type": "text", "id": "race"}, {"type": "numeric", "id": "percentage_pass_mtl"}], "records": [{"_id": 1, "percentage_pass_mtl": "98.6", "race": "Malay", "year": "2008"}, {"_id": 2, "percentage_pass_mtl": "96.3", "race": "Chinese", "year": "2008"}, {"_id": 3, "percentage_pass_mtl": "92.7", "race": "Indian", "year": "2008"}, {"_id": 4, "percentage_pass_mtl": "72.4", "race": "Others", "year": "2008"}, {"_id": 5, "percentage_pass_mtl": "96.5", "race": "Overall", "year": "2008"}], "_links": {"start": "/api/action/datastore_search?limit=5&resource_id=ee29618e-ab00-4b41-9e05-dd35772b6a9a", "next": "/api/action/datastore_search?offset=5&limit=5&resource_id=ee29618e-ab00-4b41-9e05-dd35772b6a9a"}, "limit": 5, "total": 60}}