{"help": "https://data.gov.sg/api/3/action/help_show?name=datastore_search", "success": true, "result": {"resource_id": "e2cd37e6-8243-4f3f-8d3e-ce1d50086d44", "fields": [{"type": "int4", "id": "_id"}, {"type": "text", "id": "registration_no"}, {"type": "text", "id": "name"}], "records": [{"_id": 1, "registration_no": "AA/SG1", "name": "Soh Siow Lan"}, {"_id": 2, "registration_no": "AA/SG2", "name": "Tai Lee Siang"}, {"_id": 3, "registration_no": "AA/SG3", "name": "Chan Kok Way"}, {"_id": 4, "registration_no": "AA/SG4", "name": "Ashvinkumar s/o Kantilal"}, {"_id": 5, "registration_no": "AA/SG5", "name": "Ko Shiou Hee"}], "_links": {"start": "/api/action/datastore_search?limit=5&resource_id=e2cd37e6-8243-4f3f-8d3e-ce1d50086d44", "next": "/api/action/datastore_search?offset=5&limit=5&resource_id=e2cd37e6-8243-4f3f-8d3e-ce1d50086d44"}, "limit": 5, "total": 111}}