{"help": "https://data.gov.sg/api/3/action/help_show?name=datastore_search", "success": true, "result": {"resource_id": "5b2dfb3a-01a5-47fe-9a76-97e9451de040", "fields": [{"type": "int4", "id": "_id"}, {"type": "text", "id": "mth"}, {"type": "numeric", "id": "interest_amt"}], "records": [{"mth": "2002-01", "_id": 1, "interest_amt": "238000000"}, {"mth": "2002-02", "_id": 2, "interest_amt": "239600000"}, {"mth": "2002-03", "_id": 3, "interest_amt": "240000000"}, {"mth": "2002-04", "_id": 4, "interest_amt": "240600000"}, {"mth": "2002-05", "_id": 5, "interest_amt": "241300000"}], "_links": {"start": "/api/action/datastore_search?limit=5&resource_id=5b2dfb3a-01a5-47fe-9a76-97e9451de040", "next": "/api/action/datastore_search?offset=5&limit=5&resource_id=5b2dfb3a-01a5-47fe-9a76-97e9451de040"}, "limit": 5, "total": 205}}