{"help": "https://data.gov.sg/api/3/action/help_show?name=datastore_search", "success": true, "result": {"resource_id": "e597c192-92a4-4436-b4c0-6c4b2980db59", "fields": [{"type": "int4", "id": "_id"}, {"type": "text", "id": "id"}, {"type": "text", "id": "bldg_name"}, {"type": "text", "id": "street_name_orig"}, {"type": "text", "id": "street_chinese_name"}, {"type": "text", "id": "building_chinese_name"}, {"type": "text", "id": "attraction"}], "records": [{"bldg_name": "S'PORE ZOO", "street_name_orig": "Mandai Lake Rd", "attraction": "Singapore Zoo", "street_chinese_name": "\u4e07\u793c\u6e56\u8def", "building_chinese_name": "\u65b0\u52a0\u5761\u52a8\u7269\u56ed", "_id": 1, "id": "48131"}, {"bldg_name": "BEF MANDAI RD", "street_name_orig": "Mandai Lake Rd", "attraction": "Singapore Zoo", "street_chinese_name": "\u4e07\u793c\u6e56\u8def", "building_chinese_name": "\u4e07\u793c\u8def\u524d", "_id": 2, "id": "48119"}, {"bldg_name": "AFT MANDAI RD", "street_name_orig": "Mandai Lake Rd", "attraction": "Singapore Zoo", "street_chinese_name": "\u4e07\u793c\u6e56\u8def", "building_chinese_name": "\u4e07\u793c\u8def\u540e", "_id": 3, "id": "48111"}, {"bldg_name": "BEF S'PORE ZOO", "street_name_orig": "Mandai Lake Rd", "attraction": "Singapore Zoo", "street_chinese_name": "\u4e07\u793c\u6e56\u8def", "building_chinese_name": "\u65b0\u52a0\u5761\u52a8\u7269\u56ed\u524d", "_id": 4, "id": "48121"}, {"bldg_name": "AFT S'PORE ZOO", "street_name_orig": "Mandai Lake Rd", "attraction": "Singapore Zoo", "street_chinese_name": "\u4e07\u793c\u6e56\u8def", "building_chinese_name": "\u65b0\u52a0\u5761\u52a8\u7269\u56ed\u540e", "_id": 5, "id": "48129"}], "_links": {"start": "/api/action/datastore_search?limit=5&resource_id=e597c192-92a4-4436-b4c0-6c4b2980db59", "next": "/api/action/datastore_search?offset=5&limit=5&resource_id=e597c192-92a4-4436-b4c0-6c4b2980db59"}, "limit": 5, "total": 163}}