{"help": "https://data.gov.sg/api/3/action/help_show?name=datastore_search", "success": true, "result": {"resource_id": "c8f71283-c5b2-43ca-80d3-f08bea210ebc", "fields": [{"type": "int4", "id": "_id"}, {"type": "numeric", "id": "year"}, {"type": "text", "id": "level_1"}, {"type": "text", "id": "level_2"}, {"type": "text", "id": "value"}], "records": [{"value": "40", "_id": 1, "level_1": "Clementi Police Division - Clementi NPC", "level_2": "Unlicensed Moneylending", "year": "2014"}, {"value": "115", "_id": 2, "level_1": "Clementi Police Division - Clementi NPC", "level_2": "Harassment", "year": "2014"}, {"value": "11", "_id": 3, "level_1": "Clementi Police Division - Jurong East NPC", "level_2": "Unlicensed Moneylending", "year": "2014"}, {"value": "160", "_id": 4, "level_1": "Clementi Police Division - Jurong East NPC", "level_2": "Harassment", "year": "2014"}, {"value": "9", "_id": 5, "level_1": "Clementi Police Division - Queenstown NPC", "level_2": "Unlicensed Moneylending", "year": "2014"}], "_links": {"start": "/api/action/datastore_search?limit=5&resource_id=c8f71283-c5b2-43ca-80d3-f08bea210ebc", "next": "/api/action/datastore_search?offset=5&limit=5&resource_id=c8f71283-c5b2-43ca-80d3-f08bea210ebc"}, "limit": 5, "total": 1428}}