{"help": "https://data.gov.sg/api/3/action/help_show?name=datastore_search", "success": true, "result": {"resource_id": "fe9354b9-58a4-4d2e-bf51-9927112f2194", "fields": [{"type": "int4", "id": "_id"}, {"type": "numeric", "id": "year_of_assessment"}, {"type": "numeric", "id": "assessable_income"}, {"type": "numeric", "id": "reliefs"}, {"type": "numeric", "id": "chargeable_income"}, {"type": "numeric", "id": "gross_tax"}, {"type": "numeric", "id": "tax_set_offs"}, {"type": "numeric", "id": "net_tax_assessed"}], "records": [{"gross_tax": "3543655", "reliefs": "9901932", "chargeable_income": "43427885", "assessable_income": "53329817", "net_tax_assessed": "3127351", "year_of_assessment": "2004", "_id": 1, "tax_set_offs": "416304"}, {"gross_tax": "3878743", "reliefs": "10072914", "chargeable_income": "45772491", "assessable_income": "55845405", "net_tax_assessed": "3512212", "year_of_assessment": "2005", "_id": 2, "tax_set_offs": "366531"}, {"gross_tax": "4266575", "reliefs": "10517604", "chargeable_income": "50493667", "assessable_income": "61011271", "net_tax_assessed": "3919261", "year_of_assessment": "2006", "_id": 3, "tax_set_offs": "347314"}, {"gross_tax": "4918228", "reliefs": "11516014", "chargeable_income": "58469800", "assessable_income": "69985814", "net_tax_assessed": "4578324", "year_of_assessment": "2007", "_id": 4, "tax_set_offs": "339904"}, {"gross_tax": "6294871", "reliefs": "12990937", "chargeable_income": "70971347", "assessable_income": "83962284", "net_tax_assessed": "5482196", "year_of_assessment": "2008", "_id": 5, "tax_set_offs": "812675"}], "_links": {"start": "/api/action/datastore_search?limit=5&resource_id=fe9354b9-58a4-4d2e-bf51-9927112f2194", "next": "/api/action/datastore_search?offset=5&limit=5&resource_id=fe9354b9-58a4-4d2e-bf51-9927112f2194"}, "limit": 5, "total": 16}}