{"help": "https://data.gov.sg/api/3/action/help_show?name=datastore_search", "success": true, "result": {"resource_id": "a5bd2f7c-ca40-4b4a-a928-d6c1afc9ea7b", "fields": [{"type": "int4", "id": "_id"}, {"type": "text", "id": "quarter"}, {"type": "text", "id": "sex1"}, {"type": "numeric", "id": "reentry_rate"}], "records": [{"sex1": "Males", "quarter": "2000-Q1", "_id": 1, "reentry_rate": "78.4"}, {"sex1": "Females", "quarter": "2000-Q1", "_id": 2, "reentry_rate": "76.1"}, {"sex1": "Males", "quarter": "2000-Q2", "_id": 3, "reentry_rate": "86.1"}, {"sex1": "Females", "quarter": "2000-Q2", "_id": 4, "reentry_rate": "68.4"}, {"sex1": "Males", "quarter": "2000-Q3", "_id": 5, "reentry_rate": "80.6"}], "_links": {"start": "/api/action/datastore_search?limit=5&resource_id=a5bd2f7c-ca40-4b4a-a928-d6c1afc9ea7b", "next": "/api/action/datastore_search?offset=5&limit=5&resource_id=a5bd2f7c-ca40-4b4a-a928-d6c1afc9ea7b"}, "limit": 5, "total": 164}}