{"help": "https://data.gov.sg/api/3/action/help_show?name=datastore_search", "success": true, "result": {"resource_id": "0984979d-7ec4-42a1-8fb4-876da2b01870", "fields": [{"type": "int4", "id": "_id"}, {"type": "text", "id": "year"}, {"type": "text", "id": "level_1"}, {"type": "text", "id": "level_2"}, {"type": "numeric", "id": "value"}], "records": [{"value": "1811.9", "_id": 1, "level_1": "Operating Receipts, SSIC 86 - Total Health Services", "level_2": "SSIC 861 - Hospitals", "year": "2000"}, {"value": "1377.5", "_id": 2, "level_1": "Operating Receipts, SSIC 86 - Total Health Services", "level_2": "SSIC 86201/3 - Western Clinics", "year": "2000"}, {"value": "53.7", "_id": 3, "level_1": "Operating Receipts, SSIC 86 - Total Health Services", "level_2": "SSIC 86202 - Non Western Clinics", "year": "2000"}, {"value": "371.4", "_id": 4, "level_1": "Operating Receipts, SSIC 86 - Total Health Services", "level_2": "SSIC 86204/8690 - Dental & Other Medical Services", "year": "2000"}, {"value": "1770.4", "_id": 5, "level_1": "Operating Expenditure, SSIC 86 - Total Health Services", "level_2": "SSIC 861 - Hospitals", "year": "2000"}], "_links": {"start": "/api/action/datastore_search?limit=5&resource_id=0984979d-7ec4-42a1-8fb4-876da2b01870", "next": "/api/action/datastore_search?offset=5&limit=5&resource_id=0984979d-7ec4-42a1-8fb4-876da2b01870"}, "limit": 5, "total": 288}}