{"help": "https://data.gov.sg/api/3/action/help_show?name=datastore_search", "success": true, "result": {"resource_id": "76a8852a-093a-4e8a-ad24-598f5e82c213", "fields": [{"type": "int4", "id": "_id"}, {"type": "numeric", "id": "year"}, {"type": "text", "id": "ethnic_group"}, {"type": "numeric", "id": "live_births"}, {"type": "numeric", "id": "deaths"}, {"type": "numeric", "id": "natural_increase"}], "records": [{"deaths": "8787", "ethnic_group": "Chinese", "live_births": "35608", "natural_increase": "26821", "year": "1971", "_id": 1}, {"deaths": "1464", "ethnic_group": "Malays", "live_births": "7246", "natural_increase": "5782", "year": "1971", "_id": 2}, {"deaths": "859", "ethnic_group": "Indians", "live_births": "3090", "natural_increase": "2231", "year": "1971", "_id": 3}, {"deaths": "219", "ethnic_group": "Others", "live_births": "1144", "natural_increase": "925", "year": "1971", "_id": 4}, {"deaths": "8905", "ethnic_group": "Chinese", "live_births": "37797", "natural_increase": "28892", "year": "1972", "_id": 5}], "_links": {"start": "/api/action/datastore_search?limit=5&resource_id=76a8852a-093a-4e8a-ad24-598f5e82c213", "next": "/api/action/datastore_search?offset=5&limit=5&resource_id=76a8852a-093a-4e8a-ad24-598f5e82c213"}, "limit": 5, "total": 196}}