{"help": "https://data.gov.sg/api/3/action/help_show?name=datastore_search", "success": true, "result": {"resource_id": "82d70348-7318-442f-b667-154ebf581d09", "fields": [{"type": "int4", "id": "_id"}, {"type": "text", "id": "quarter"}, {"type": "numeric", "id": "job_vacancy_rate"}], "records": [{"job_vacancy_rate": "6.6", "quarter": "1990-Q1", "_id": 1}, {"job_vacancy_rate": "6.7", "quarter": "1990-Q2", "_id": 2}, {"job_vacancy_rate": "6.5", "quarter": "1990-Q3", "_id": 3}, {"job_vacancy_rate": "5", "quarter": "1990-Q4", "_id": 4}, {"job_vacancy_rate": "5.6", "quarter": "1991-Q1", "_id": 5}], "_links": {"start": "/api/action/datastore_search?limit=5&resource_id=82d70348-7318-442f-b667-154ebf581d09", "next": "/api/action/datastore_search?offset=5&limit=5&resource_id=82d70348-7318-442f-b667-154ebf581d09"}, "limit": 5, "total": 122}}