{"help": "https://data.gov.sg/api/3/action/help_show?name=datastore_search", "success": true, "result": {"resource_id": "e754e668-d555-4cc2-9830-c1218c087ce6", "fields": [{"type": "int4", "id": "_id"}, {"type": "numeric", "id": "year"}, {"type": "text", "id": "occ_desc"}, {"type": "text", "id": "ind1"}, {"type": "numeric", "id": "mthly_gross_wage_75_pctile"}, {"type": "numeric", "id": "mthly_gross_wage_50_pctile"}, {"type": "numeric", "id": "mthly_gross_wage_25_pctile"}, {"type": "numeric", "id": "mthly_basic_wage_75_pctile"}, {"type": "numeric", "id": "mthly_basic_wage_50_pctile"}, {"type": "numeric", "id": "mthly_basic_wage_25_pctile"}], "records": [{"mthly_basic_wage_25_pctile": "4500", "mthly_gross_wage_50_pctile": "8203", "ind1": "all", "occ_desc": "managing director/chief executive officer", "mthly_basic_wage_75_pctile": "15000", "mthly_gross_wage_25_pctile": "4500", "mthly_gross_wage_75_pctile": "15530", "year": "2019", "mthly_basic_wage_50_pctile": "8000", "_id": 1}, {"mthly_basic_wage_25_pctile": "7150", "mthly_gross_wage_50_pctile": "12258", "ind1": "all", "occ_desc": "chief operating officer/general manager", "mthly_basic_wage_75_pctile": "18500", "mthly_gross_wage_25_pctile": "7500", "mthly_gross_wage_75_pctile": "19988", "year": "2019", "mthly_basic_wage_50_pctile": "11400", "_id": 2}, {"mthly_basic_wage_25_pctile": "5800", "mthly_gross_wage_50_pctile": "7790", "ind1": "all", "occ_desc": "budgeting and financial accounting manager (including financial controller)", "mthly_basic_wage_75_pctile": "11000", "mthly_gross_wage_25_pctile": "5895", "mthly_gross_wage_75_pctile": "11231", "year": "2019", "mthly_basic_wage_50_pctile": "7659", "_id": 3}, {"mthly_basic_wage_25_pctile": "4783", "mthly_gross_wage_50_pctile": "6476", "ind1": "all", "occ_desc": "administration manager", "mthly_basic_wage_75_pctile": "9500", "mthly_gross_wage_25_pctile": "4862", "mthly_gross_wage_75_pctile": "9696", "year": "2019", "mthly_basic_wage_50_pctile": "6372", "_id": 4}, {"mthly_basic_wage_25_pctile": "5320", "mthly_gross_wage_50_pctile": "7548", "ind1": "all", "occ_desc": "human resource manager", "mthly_basic_wage_75_pctile": "10681", "mthly_gross_wage_25_pctile": "5436", "mthly_gross_wage_75_pctile": "10940", "year": "2019", "mthly_basic_wage_50_pctile": "7358", "_id": 5}], "_links": {"start": "/api/action/datastore_search?limit=5&resource_id=e754e668-d555-4cc2-9830-c1218c087ce6", "next": "/api/action/datastore_search?offset=5&limit=5&resource_id=e754e668-d555-4cc2-9830-c1218c087ce6"}, "limit": 5, "total": 305}}