{"help": "https://data.gov.sg/api/3/action/help_show?name=datastore_search", "success": true, "result": {"resource_id": "2ca3d23f-1139-4421-a806-48dd4ee9b6c4", "fields": [{"type": "int4", "id": "_id"}, {"type": "numeric", "id": "year_of_assessment"}, {"type": "text", "id": "chargeable_income_group"}, {"type": "text", "id": "resident_type"}, {"type": "numeric", "id": "number_of_taxpayers"}, {"type": "numeric", "id": "assessable_income"}, {"type": "numeric", "id": "chargeable_income"}, {"type": "numeric", "id": "net_tax_assessed"}], "records": [{"resident_type": "Tax Resident", "chargeable_income": "0", "assessable_income": "0", "chargeable_income_group": "20,000 & below", "number_of_taxpayers": "0", "net_tax_assessed": "0", "year_of_assessment": "2011", "_id": 1}, {"resident_type": "Tax Resident", "chargeable_income": "4858458", "assessable_income": "6812418", "chargeable_income_group": "20,001 - 25,000", "number_of_taxpayers": "216179", "net_tax_assessed": "14975", "year_of_assessment": "2011", "_id": 2}, {"resident_type": "Tax Resident", "chargeable_income": "4691532", "assessable_income": "6410750", "chargeable_income_group": "25,001 - 30,000", "number_of_taxpayers": "171214", "net_tax_assessed": "35467", "year_of_assessment": "2011", "_id": 3}, {"resident_type": "Tax Resident", "chargeable_income": "7714587", "assessable_income": "10463602", "chargeable_income_group": "30,001 - 40,000", "number_of_taxpayers": "223428", "net_tax_assessed": "106946", "year_of_assessment": "2011", "_id": 4}, {"resident_type": "Tax Resident", "chargeable_income": "5767798", "assessable_income": "7747023", "chargeable_income_group": "40,001 - 50,000", "number_of_taxpayers": "129280", "net_tax_assessed": "133087", "year_of_assessment": "2011", "_id": 5}], "_links": {"start": "/api/action/datastore_search?limit=5&resource_id=2ca3d23f-1139-4421-a806-48dd4ee9b6c4", "next": "/api/action/datastore_search?offset=5&limit=5&resource_id=2ca3d23f-1139-4421-a806-48dd4ee9b6c4"}, "limit": 5, "total": 288}}