{"help": "https://data.gov.sg/api/3/action/help_show?name=datastore_search", "success": true, "result": {"resource_id": "306dbdf7-f08e-445c-947f-eea0ac5b0ed1", "fields": [{"type": "int4", "id": "_id"}, {"type": "text", "id": "month"}, {"type": "text", "id": "mage"}, {"type": "text", "id": "child_gender"}, {"type": "text", "id": "mrace"}, {"type": "numeric", "id": "birth_count"}], "records": [{"child_gender": "F", "mrace": "CHINESE", "month": "2016-01", "birth_count": "4", "_id": 1, "mage": "15  -  19"}, {"child_gender": "M", "mrace": "CHINESE", "month": "2016-01", "birth_count": "3", "_id": 2, "mage": "15  -  19"}, {"child_gender": "F", "mrace": "INDIANS", "month": "2016-01", "birth_count": "3", "_id": 3, "mage": "15  -  19"}, {"child_gender": "M", "mrace": "INDIANS", "month": "2016-01", "birth_count": "1", "_id": 4, "mage": "15  -  19"}, {"child_gender": "F", "mrace": "MALAYS", "month": "2016-01", "birth_count": "7", "_id": 5, "mage": "15  -  19"}], "_links": {"start": "/api/action/datastore_search?limit=5&resource_id=306dbdf7-f08e-445c-947f-eea0ac5b0ed1", "next": "/api/action/datastore_search?offset=5&limit=5&resource_id=306dbdf7-f08e-445c-947f-eea0ac5b0ed1"}, "limit": 5, "total": 1846}}