{"help": "https://data.gov.sg/api/3/action/help_show?name=datastore_search", "success": true, "result": {"resource_id": "183c0896-4062-454a-9d80-22496d77531a", "fields": [{"type": "int4", "id": "_id"}, {"type": "text", "id": "year"}, {"type": "text", "id": "level_1"}, {"type": "text", "id": "level_2"}, {"type": "text", "id": "level_3"}, {"type": "text", "id": "level_4"}, {"type": "numeric", "id": "value"}], "records": [{"value": "2948.5", "year": "2015", "level_4": "Total", "_id": 1, "level_1": "Total", "level_2": "Total", "level_3": "Total"}, {"value": "1426.6", "year": "2015", "level_4": "Total", "_id": 2, "level_1": "Total", "level_2": "Total", "level_3": "Males"}, {"value": "1521.9", "year": "2015", "level_4": "Total", "_id": 3, "level_1": "Total", "level_2": "Total", "level_3": "Females"}, {"value": "368.1", "year": "2015", "level_4": "Total", "_id": 4, "level_1": "Total", "level_2": "No Qualification", "level_3": "Total"}, {"value": "132.3", "year": "2015", "level_4": "Total", "_id": 5, "level_1": "Total", "level_2": "No Qualification", "level_3": "Males"}], "_links": {"start": "/api/action/datastore_search?limit=5&resource_id=183c0896-4062-454a-9d80-22496d77531a", "next": "/api/action/datastore_search?offset=5&limit=5&resource_id=183c0896-4062-454a-9d80-22496d77531a"}, "limit": 5, "total": 135}}