{"help": "https://data.gov.sg/api/3/action/help_show?name=datastore_search", "success": true, "result": {"resource_id": "124af3cd-08d5-405a-9c83-02f0ad16cb5f", "fields": [{"type": "int4", "id": "_id"}, {"type": "numeric", "id": "year"}, {"type": "text", "id": "level_1"}, {"type": "numeric", "id": "value"}], "records": [{"_id": 1, "level_1": "Overall Crime Cases Recorded", "value": "37093", "year": "2005"}, {"_id": 2, "level_1": "Overall Crime Cases Recorded", "value": "33263", "year": "2006"}, {"_id": 3, "level_1": "Overall Crime Cases Recorded", "value": "32796", "year": "2007"}, {"_id": 4, "level_1": "Overall Crime Cases Recorded", "value": "33113", "year": "2008"}, {"_id": 5, "level_1": "Overall Crime Cases Recorded", "value": "33186", "year": "2009"}], "_links": {"start": "/api/action/datastore_search?limit=5&resource_id=124af3cd-08d5-405a-9c83-02f0ad16cb5f", "next": "/api/action/datastore_search?offset=5&limit=5&resource_id=124af3cd-08d5-405a-9c83-02f0ad16cb5f"}, "limit": 5, "total": 15}}