{"help": "https://data.gov.sg/api/3/action/help_show?name=datastore_search", "success": true, "result": {"resource_id": "ea3ae22f-a84f-4951-b86b-2ef6ccc3f541", "fields": [{"type": "int4", "id": "_id"}, {"type": "numeric", "id": "financial_year"}, {"type": "text", "id": "property_type"}, {"type": "numeric", "id": "no_of_cases"}, {"type": "text", "id": "annual_value"}, {"type": "text", "id": "median_annual_value"}, {"type": "numeric", "id": "property_tax_collection"}], "records": [{"_id": 1, "median_annual_value": "na", "no_of_cases": "780522", "annual_value": "na", "financial_year": "2002", "property_type": "HDB", "property_tax_collection": "33681"}, {"_id": 2, "median_annual_value": "na", "no_of_cases": "204943", "annual_value": "na", "financial_year": "2002", "property_type": "Private Residential", "property_tax_collection": "287656"}, {"_id": 3, "median_annual_value": "na", "no_of_cases": "63179", "annual_value": "na", "financial_year": "2002", "property_type": "Commercial", "property_tax_collection": "250178"}, {"_id": 4, "median_annual_value": "na", "no_of_cases": "23533", "annual_value": "na", "financial_year": "2002", "property_type": "Industrial", "property_tax_collection": "265690"}, {"_id": 5, "median_annual_value": "na", "no_of_cases": "4164", "annual_value": "na", "financial_year": "2002", "property_type": "Others", "property_tax_collection": "185015"}], "_links": {"start": "/api/action/datastore_search?limit=5&resource_id=ea3ae22f-a84f-4951-b86b-2ef6ccc3f541", "next": "/api/action/datastore_search?offset=5&limit=5&resource_id=ea3ae22f-a84f-4951-b86b-2ef6ccc3f541"}, "limit": 5, "total": 90}}