{"help": "https://data.gov.sg/api/3/action/help_show?name=datastore_search", "success": true, "result": {"resource_id": "a96fe6f9-8564-4fd3-9b55-1d0d9d3e87cb", "fields": [{"type": "int4", "id": "_id"}, {"type": "text", "id": "month"}, {"type": "numeric", "id": "number_of_tankers"}, {"type": "numeric", "id": "gross_tonnage"}], "records": [{"gross_tonnage": "26205.85", "number_of_tankers": "1384", "_id": 1, "month": "2002-01"}, {"gross_tonnage": "21853.82", "number_of_tankers": "1235", "_id": 2, "month": "2002-02"}, {"gross_tonnage": "28396.15", "number_of_tankers": "1452", "_id": 3, "month": "2002-03"}, {"gross_tonnage": "29214.33", "number_of_tankers": "1439", "_id": 4, "month": "2002-04"}, {"gross_tonnage": "25733.84", "number_of_tankers": "1474", "_id": 5, "month": "2002-05"}], "_links": {"start": "/api/action/datastore_search?limit=5&resource_id=a96fe6f9-8564-4fd3-9b55-1d0d9d3e87cb", "next": "/api/action/datastore_search?offset=5&limit=5&resource_id=a96fe6f9-8564-4fd3-9b55-1d0d9d3e87cb"}, "limit": 5, "total": 225}}