{"help": "https://data.gov.sg/api/3/action/help_show?name=datastore_search", "success": true, "result": {"resource_id": "cd119524-9f43-44df-a5f9-f6f6b207a72b", "fields": [{"type": "int4", "id": "_id"}, {"type": "text", "id": "month"}, {"type": "numeric", "id": "container_throughput"}], "records": [{"container_throughput": "3182.59925", "_id": 1, "month": "2020-01"}, {"container_throughput": "2898.68675", "_id": 2, "month": "2020-02"}, {"container_throughput": "3197.87925", "_id": 3, "month": "2020-03"}, {"container_throughput": "2843.48425", "_id": 4, "month": "2020-04"}, {"container_throughput": "2806.7205", "_id": 5, "month": "2020-05"}], "_links": {"start": "/api/action/datastore_search?limit=5&resource_id=cd119524-9f43-44df-a5f9-f6f6b207a72b", "next": "/api/action/datastore_search?offset=5&limit=5&resource_id=cd119524-9f43-44df-a5f9-f6f6b207a72b"}, "limit": 5, "total": 318}}