{"help": "https://data.gov.sg/api/3/action/help_show?name=datastore_search", "success": true, "result": {"resource_id": "0e005227-6e99-4a99-b608-d8f1c1606967", "fields": [{"type": "int4", "id": "_id"}, {"type": "numeric", "id": "year"}, {"type": "text", "id": "sex"}, {"type": "text", "id": "course"}, {"type": "numeric", "id": "intake"}, {"type": "numeric", "id": "enrolment"}, {"type": "numeric", "id": "graduates"}], "records": [{"intake": "967", "enrolment": "1862", "sex": "MF", "course": "Design & Media", "year": "2017", "_id": 1, "graduates": "889"}, {"intake": "486", "enrolment": "921", "sex": "F", "course": "Design & Media", "year": "2017", "_id": 2, "graduates": "440"}, {"intake": "4685", "enrolment": "8643", "sex": "MF", "course": "Engineering", "year": "2017", "_id": 3, "graduates": "3805"}, {"intake": "676", "enrolment": "1228", "sex": "F", "course": "Engineering", "year": "2017", "_id": 4, "graduates": "530"}, {"intake": "3570", "enrolment": "6531", "sex": "MF", "course": "Electronics & Infocomm Technology", "year": "2017", "_id": 5, "graduates": "3100"}], "_links": {"start": "/api/action/datastore_search?limit=5&resource_id=0e005227-6e99-4a99-b608-d8f1c1606967", "next": "/api/action/datastore_search?offset=5&limit=5&resource_id=0e005227-6e99-4a99-b608-d8f1c1606967"}, "limit": 5, "total": 164}}