{"help": "https://data.gov.sg/api/3/action/help_show?name=datastore_search", "success": true, "result": {"resource_id": "ff97dd96-6db5-4eb7-ba79-ad8d4840a3aa", "fields": [{"type": "int4", "id": "_id"}, {"type": "numeric", "id": "financial_year"}, {"type": "text", "id": "type"}, {"type": "text", "id": "status"}, {"type": "text", "id": "no_of_units"}], "records": [{"status": "Completed", "no_of_units": "6247", "_id": 1, "type": "HDB Flats", "financial_year": "2007"}, {"status": "Under Construction", "no_of_units": "18073", "_id": 2, "type": "HDB Flats", "financial_year": "2007"}, {"status": "Awarded", "no_of_units": "10108", "_id": 3, "type": "HDB Flats", "financial_year": "2007"}, {"status": "Completed", "no_of_units": "na", "_id": 4, "type": "DBSS", "financial_year": "2007"}, {"status": "Under Construction", "no_of_units": "na", "_id": 5, "type": "DBSS", "financial_year": "2007"}], "_links": {"start": "/api/action/datastore_search?limit=5&resource_id=ff97dd96-6db5-4eb7-ba79-ad8d4840a3aa", "next": "/api/action/datastore_search?offset=5&limit=5&resource_id=ff97dd96-6db5-4eb7-ba79-ad8d4840a3aa"}, "limit": 5, "total": 60}}