{"help": "https://data.gov.sg/api/3/action/help_show?name=datastore_search", "success": true, "result": {"resource_id": "4a5c702b-17f5-4d30-ad14-9c7ca7c6db4c", "fields": [{"type": "int4", "id": "_id"}, {"type": "text", "id": "quarter"}, {"type": "text", "id": "level_1"}, {"type": "text", "id": "level_2"}, {"type": "text", "id": "value"}], "records": [{"value": "9", "quarter": "1995-Q1", "_id": 1, "level_1": "Total Services Sector", "level_2": "Wholesale & Retail Trade"}, {"value": "3", "quarter": "1995-Q1", "_id": 2, "level_1": "Total Services Sector", "level_2": "Accommodation & Food Services"}, {"value": "16", "quarter": "1995-Q1", "_id": 3, "level_1": "Total Services Sector", "level_2": "Transport & Storage"}, {"value": "na", "quarter": "1995-Q1", "_id": 4, "level_1": "Total Services Sector", "level_2": "Information & Communications"}, {"value": "22", "quarter": "1995-Q1", "_id": 5, "level_1": "Total Services Sector", "level_2": "Financial & Insurance"}], "_links": {"start": "/api/action/datastore_search?limit=5&resource_id=4a5c702b-17f5-4d30-ad14-9c7ca7c6db4c", "next": "/api/action/datastore_search?offset=5&limit=5&resource_id=4a5c702b-17f5-4d30-ad14-9c7ca7c6db4c"}, "limit": 5, "total": 800}}