{"help": "https://data.gov.sg/api/3/action/help_show?name=datastore_search", "success": true, "result": {"resource_id": "ac328473-4131-4651-9b78-ab9270e1ea33", "fields": [{"type": "int4", "id": "_id"}, {"type": "text", "id": "year"}, {"type": "text", "id": "level_1"}, {"type": "numeric", "id": "value"}], "records": [{"_id": 1, "level_1": "Religious", "value": "1072", "year": "2018"}, {"_id": 2, "level_1": "Social & Welfare", "value": "402", "year": "2018"}, {"_id": 3, "level_1": "Arts & Heritage", "value": "151", "year": "2018"}, {"_id": 4, "level_1": "Health", "value": "141", "year": "2018"}, {"_id": 5, "level_1": "Education", "value": "127", "year": "2018"}], "_links": {"start": "/api/action/datastore_search?limit=5&resource_id=ac328473-4131-4651-9b78-ab9270e1ea33", "next": "/api/action/datastore_search?offset=5&limit=5&resource_id=ac328473-4131-4651-9b78-ab9270e1ea33"}, "limit": 5, "total": 40}}