{"help": "https://data.gov.sg/api/3/action/help_show?name=datastore_search", "success": true, "result": {"resource_id": "778814b8-1b96-404b-9ac9-68d6c00e637b", "fields": [{"type": "int4", "id": "_id"}, {"type": "text", "id": "month"}, {"type": "numeric", "id": "total_rainfall"}], "records": [{"_id": 1, "total_rainfall": "307.2", "month": "2002-11"}, {"_id": 2, "total_rainfall": "255", "month": "2002-12"}, {"_id": 3, "total_rainfall": "444.2", "month": "2003-01"}, {"_id": 4, "total_rainfall": "172.9", "month": "2003-02"}, {"_id": 5, "total_rainfall": "154.6", "month": "2003-03"}], "_links": {"start": "/api/action/datastore_search?limit=5&resource_id=778814b8-1b96-404b-9ac9-68d6c00e637b", "next": "/api/action/datastore_search?offset=5&limit=5&resource_id=778814b8-1b96-404b-9ac9-68d6c00e637b"}, "limit": 5, "total": 215}}