{"help": "https://data.gov.sg/api/3/action/help_show?name=datastore_search", "success": true, "result": {"resource_id": "223afc36-43b4-4dec-8ee0-a552eb1b8256", "fields": [{"type": "int4", "id": "_id"}, {"type": "numeric", "id": "year"}, {"type": "text", "id": "facility"}, {"type": "numeric", "id": "number"}], "records": [{"facility": "Pedestrian Overhead Bridges", "_id": 1, "number": "336", "year": "1994"}, {"facility": "Pedestrian Underpasses", "_id": 2, "number": "48", "year": "1994"}, {"facility": "Footbridges", "_id": 3, "number": "15", "year": "1994"}, {"facility": "Covered Linkways", "_id": 4, "number": "0", "year": "1994"}, {"facility": "Pedestrian Overhead Bridges", "_id": 5, "number": "350", "year": "1995"}], "_links": {"start": "/api/action/datastore_search?limit=5&resource_id=223afc36-43b4-4dec-8ee0-a552eb1b8256", "next": "/api/action/datastore_search?offset=5&limit=5&resource_id=223afc36-43b4-4dec-8ee0-a552eb1b8256"}, "limit": 5, "total": 92}}