{"help": "https://data.gov.sg/api/3/action/help_show?name=datastore_search", "success": true, "result": {"resource_id": "c2d5e504-d61c-4400-aa5c-aa93d9a8b6bb", "fields": [{"type": "int4", "id": "_id"}, {"type": "text", "id": "quarter"}, {"type": "text", "id": "level_1"}, {"type": "numeric", "id": "value"}], "records": [{"quarter": "1995-Q1", "_id": 1, "level_1": "Total Services Sector", "value": "32"}, {"quarter": "1995-Q2", "_id": 2, "level_1": "Total Services Sector", "value": "28"}, {"quarter": "1995-Q3", "_id": 3, "level_1": "Total Services Sector", "value": "31"}, {"quarter": "1995-Q4", "_id": 4, "level_1": "Total Services Sector", "value": "16"}, {"quarter": "1996-Q1", "_id": 5, "level_1": "Total Services Sector", "value": "19"}], "_links": {"start": "/api/action/datastore_search?limit=5&resource_id=c2d5e504-d61c-4400-aa5c-aa93d9a8b6bb", "next": "/api/action/datastore_search?offset=5&limit=5&resource_id=c2d5e504-d61c-4400-aa5c-aa93d9a8b6bb"}, "limit": 5, "total": 97}}