{"help": "https://data.gov.sg/api/3/action/help_show?name=datastore_search", "success": true, "result": {"resource_id": "05ebe68b-e003-42e0-a38f-e3a6837c5d16", "fields": [{"type": "int4", "id": "_id"}, {"type": "numeric", "id": "year"}, {"type": "text", "id": "institution_type"}, {"type": "text", "id": "sector"}, {"type": "text", "id": "facility_type_b"}, {"type": "numeric", "id": "no_of_facilities"}], "records": [{"sector": "Public", "no_of_facilities": "18", "facility_type_b": "Polyclinics", "institution_type": "Primary Care Facilities", "year": "2009", "_id": 1}, {"sector": "Private", "no_of_facilities": "1628", "facility_type_b": "General Practioner Clinics", "institution_type": "Primary Care Facilities", "year": "2009", "_id": 2}, {"sector": "Public", "no_of_facilities": "9", "facility_type_b": "Polyclinic Dental Clinics", "institution_type": "Dental Clinics", "year": "2009", "_id": 3}, {"sector": "Public", "no_of_facilities": "5", "facility_type_b": "Hospital/Institution Dental Clinic", "institution_type": "Dental Clinics", "year": "2009", "_id": 4}, {"sector": "Public", "no_of_facilities": "226", "facility_type_b": "School Dental Clinics", "institution_type": "Dental Clinics", "year": "2009", "_id": 5}], "_links": {"start": "/api/action/datastore_search?limit=5&resource_id=05ebe68b-e003-42e0-a38f-e3a6837c5d16", "next": "/api/action/datastore_search?offset=5&limit=5&resource_id=05ebe68b-e003-42e0-a38f-e3a6837c5d16"}, "limit": 5, "total": 88}}