{"help": "https://data.gov.sg/api/3/action/help_show?name=datastore_search", "success": true, "result": {"resource_id": "cbcc128f-081d-4a03-8970-9bac1be13a5d", "fields": [{"type": "int4", "id": "_id"}, {"type": "numeric", "id": "financial_year"}, {"type": "text", "id": "actual_revised_estimated"}, {"type": "text", "id": "ministry"}, {"type": "numeric", "id": "count"}], "records": [{"count": "44", "_id": 1, "actual_revised_estimated": "Actual", "financial_year": "1997", "ministry": "Civil List"}, {"count": "47", "_id": 2, "actual_revised_estimated": "Actual", "financial_year": "1998", "ministry": "Civil List"}, {"count": "45", "_id": 3, "actual_revised_estimated": "Actual", "financial_year": "1999", "ministry": "Civil List"}, {"count": "45", "_id": 4, "actual_revised_estimated": "Actual", "financial_year": "2000", "ministry": "Civil List"}, {"count": "50", "_id": 5, "actual_revised_estimated": "Actual", "financial_year": "2001", "ministry": "Civil List"}], "_links": {"start": "/api/action/datastore_search?limit=5&resource_id=cbcc128f-081d-4a03-8970-9bac1be13a5d", "next": "/api/action/datastore_search?offset=5&limit=5&resource_id=cbcc128f-081d-4a03-8970-9bac1be13a5d"}, "limit": 5, "total": 504}}