{"help": "https://data.gov.sg/api/3/action/help_show?name=datastore_search", "success": true, "result": {"resource_id": "e7a6e471-6edf-4e8d-95b5-1698764d39e1", "fields": [{"type": "int4", "id": "_id"}, {"type": "numeric", "id": "year"}, {"type": "text", "id": "hiv_aids_knowledge"}, {"type": "numeric", "id": "proportion"}], "records": [{"_id": 1, "proportion": "0.752", "hiv_aids_knowledge": "Abstaining from casual sex (A)", "year": "2007"}, {"_id": 2, "proportion": "0.816", "hiv_aids_knowledge": "Being faithful to uninfected sexual partner (B)", "year": "2007"}, {"_id": 3, "proportion": "0.544", "hiv_aids_knowledge": "Using a condom correctly every time having sex ( C )", "year": "2007"}, {"_id": 4, "proportion": "0.804", "hiv_aids_knowledge": "At least 2 out of 3 ways of ABC prevention", "year": "2007"}, {"_id": 5, "proportion": "0.651", "hiv_aids_knowledge": "Abstaining from casual sex (A)", "year": "2012"}], "_links": {"start": "/api/action/datastore_search?limit=5&resource_id=e7a6e471-6edf-4e8d-95b5-1698764d39e1", "next": "/api/action/datastore_search?offset=5&limit=5&resource_id=e7a6e471-6edf-4e8d-95b5-1698764d39e1"}, "limit": 5, "total": 8}}