{"help": "https://data.gov.sg/api/3/action/help_show?name=datastore_search", "success": true, "result": {"resource_id": "8bedf080-b76b-4966-8559-50d48561f337", "fields": [{"type": "int4", "id": "_id"}, {"type": "text", "id": "financial_quarter"}, {"type": "text", "id": "usages"}, {"type": "numeric", "id": "estimated_gfa"}], "records": [{"usages": "Residential", "_id": 1, "financial_quarter": "2011-Q1", "estimated_gfa": "807134.5"}, {"usages": "Commercial", "_id": 2, "financial_quarter": "2011-Q1", "estimated_gfa": "778141.7"}, {"usages": "Industrial", "_id": 3, "financial_quarter": "2011-Q1", "estimated_gfa": "160111.3"}, {"usages": "Social / Civic Institution (includes others, open space and recreation)", "_id": 4, "financial_quarter": "2011-Q1", "estimated_gfa": "1955946.7"}, {"usages": "Vacant Properties (reserved, pending approval and others)", "_id": 5, "financial_quarter": "2011-Q1", "estimated_gfa": "328061.8"}], "_links": {"start": "/api/action/datastore_search?limit=5&resource_id=8bedf080-b76b-4966-8559-50d48561f337", "next": "/api/action/datastore_search?offset=5&limit=5&resource_id=8bedf080-b76b-4966-8559-50d48561f337"}, "limit": 5, "total": 160}}