{"help": "https://data.gov.sg/api/3/action/help_show?name=datastore_search", "success": true, "result": {"resource_id": "dcf81859-2a92-4ff6-a499-5356a0b82011", "fields": [{"type": "int4", "id": "_id"}, {"type": "numeric", "id": "year"}, {"type": "numeric", "id": "container_throughput"}], "records": [{"container_throughput": "11846.01", "_id": 1, "year": "1995"}, {"container_throughput": "12944.48", "_id": 2, "year": "1996"}, {"container_throughput": "14135.87", "_id": 3, "year": "1997"}, {"container_throughput": "15135.56", "_id": 4, "year": "1998"}, {"container_throughput": "15944.8", "_id": 5, "year": "1999"}], "_links": {"start": "/api/action/datastore_search?limit=5&resource_id=dcf81859-2a92-4ff6-a499-5356a0b82011", "next": "/api/action/datastore_search?offset=5&limit=5&resource_id=dcf81859-2a92-4ff6-a499-5356a0b82011"}, "limit": 5, "total": 25}}