{"help": "https://data.gov.sg/api/3/action/help_show?name=datastore_search", "success": true, "result": {"resource_id": "193c2acb-43cc-4b97-97e8-916b6aa9adc7", "fields": [{"type": "int4", "id": "_id"}, {"type": "text", "id": "mth"}, {"type": "text", "id": "net_bal_amt"}], "records": [{"mth": "2002-09", "_id": 1, "net_bal_amt": "95376600000"}, {"mth": "2002-10", "_id": 2, "net_bal_amt": "95385200000"}, {"mth": "2002-11", "_id": 3, "net_bal_amt": "95753900000"}, {"mth": "2002-12", "_id": 4, "net_bal_amt": "96422600000"}, {"mth": "2003-01", "_id": 5, "net_bal_amt": "97423500000"}], "_links": {"start": "/api/action/datastore_search?limit=5&resource_id=193c2acb-43cc-4b97-97e8-916b6aa9adc7", "next": "/api/action/datastore_search?offset=5&limit=5&resource_id=193c2acb-43cc-4b97-97e8-916b6aa9adc7"}, "limit": 5, "total": 197}}