{"help": "https://data.gov.sg/api/3/action/help_show?name=datastore_search", "success": true, "result": {"resource_id": "19b8d388-7011-4c15-83c6-c7e71760cf5d", "fields": [{"type": "int4", "id": "_id"}, {"type": "text", "id": "year"}, {"type": "text", "id": "level_1"}, {"type": "numeric", "id": "value"}], "records": [{"_id": 1, "level_1": "GDP", "value": "26.3", "year": "1960"}, {"_id": 2, "level_1": "GDP", "value": "26.4", "year": "1961"}, {"_id": 3, "level_1": "GDP", "value": "26.6", "year": "1962"}, {"_id": 4, "level_1": "GDP", "value": "26.8", "year": "1963"}, {"_id": 5, "level_1": "GDP", "value": "27", "year": "1964"}], "_links": {"start": "/api/action/datastore_search?limit=5&resource_id=19b8d388-7011-4c15-83c6-c7e71760cf5d", "next": "/api/action/datastore_search?offset=5&limit=5&resource_id=19b8d388-7011-4c15-83c6-c7e71760cf5d"}, "limit": 5, "total": 59}}