{"help": "https://data.gov.sg/api/3/action/help_show?name=datastore_search", "success": true, "result": {"resource_id": "512cd399-f6f9-49d6-b92f-09414ba1b0ac", "fields": [{"type": "int4", "id": "_id"}, {"type": "text", "id": "agency"}, {"type": "text", "id": "title"}, {"type": "text", "id": "description"}], "records": [{"description": "<a href=\"https://eservices.scdf.gov.sg/fisops/SCDF-ESERVICES.action?app=FMIBAPP\">Any person who wishes to import petroleum and flammable materials is required to obtain an import license from SCDF.</a>", "_id": 1, "agency": "<a href=\"https://eservices.scdf.gov.sg/fisops/SCDF-ESERVICES.action?app=FMIBAPP\">SCDF</a>", "title": "<a href=\"https://eservices.scdf.gov.sg/fisops/SCDF-ESERVICES.action?app=FMIBAPP\">Petroleum & Flammable Material Import Licence</a>"}, {"description": "<a href=\"https://eservices1.scdf.gov.sg/fisops/SCDF-ESERVICES.action?app=FMPBAPP\">The Fire Safety Act (FSA) regulates the conveyance of Petroleum and Flammable Materials (P&FM) in pipelines. Anyone who intends to convey P&FM in pipeline running outside premises boundaries is required to obtain a licence from SCDF. </a>", "_id": 2, "agency": "<a href=\"https://eservices1.scdf.gov.sg/fisops/SCDF-ESERVICES.action?app=FMPBAPP\">SCDF</a>", "title": "<a href=\"https://eservices1.scdf.gov.sg/fisops/SCDF-ESERVICES.action?app=FMPBAPP\">Petroleum & Flammable Material Pipeline Licence</a>"}, {"description": "<a href=\"https://licence1.business.gov.sg\">Any person who wishes to transport petroleum and flammable materials is required to obtain an import license from SCDF.</a>", "_id": 3, "agency": "<a href=\"https://licence1.business.gov.sg\">SCDF</a>", "title": "<a href=\"https://licence1.business.gov.sg\">Petroleum & Flammable Material Storage Licence</a>"}, {"description": "<a href=\"https://licence1.business.gov.sg\">Any person who wishes to store petroleum and flammable materials is required to obtain an import license from SCDF.</a>", "_id": 4, "agency": "<a href=\"https://licence1.business.gov.sg\">SCDF</a>", "title": "<a href=\"https://licence1.business.gov.sg\">Petroleum & Flammable Material Transport Licence</a>"}, {"description": "<a href=\"https://eservices1.scdf.gov.sg/sod/ems-report-application/form.html\">Purchase your Ambulance Report here</a>", "_id": 5, "agency": "<a href=\"https://eservices1.scdf.gov.sg/sod/ems-report-application/form.html\">SCDF</a>", "title": "<a href=\"https://eservices1.scdf.gov.sg/sod/ems-report-application/form.html\">Sale of Documents - Ambulance Report </a>"}], "_links": {"start": "/api/action/datastore_search?limit=5&resource_id=512cd399-f6f9-49d6-b92f-09414ba1b0ac", "next": "/api/action/datastore_search?offset=5&limit=5&resource_id=512cd399-f6f9-49d6-b92f-09414ba1b0ac"}, "limit": 5, "total": 496}}