{"help": "https://data.gov.sg/api/3/action/help_show?name=datastore_search", "success": true, "result": {"resource_id": "7e238b3e-0730-4a6e-9746-2c235570ccee", "fields": [{"type": "int4", "id": "_id"}, {"type": "text", "id": "month"}, {"type": "text", "id": "level_1"}, {"type": "numeric", "id": "value"}], "records": [{"_id": 1, "level_1": "Total Non-oil Retained Imports Of Intermediate Goods", "value": "4331634", "month": "1995-01"}, {"_id": 2, "level_1": "Total Non-oil Retained Imports Of Intermediate Goods", "value": "4788219.7", "month": "1995-02"}, {"_id": 3, "level_1": "Total Non-oil Retained Imports Of Intermediate Goods", "value": "5005879.4", "month": "1995-03"}, {"_id": 4, "level_1": "Total Non-oil Retained Imports Of Intermediate Goods", "value": "5186353.5", "month": "1995-04"}, {"_id": 5, "level_1": "Total Non-oil Retained Imports Of Intermediate Goods", "value": "5514493.6", "month": "1995-05"}], "_links": {"start": "/api/action/datastore_search?limit=5&resource_id=7e238b3e-0730-4a6e-9746-2c235570ccee", "next": "/api/action/datastore_search?offset=5&limit=5&resource_id=7e238b3e-0730-4a6e-9746-2c235570ccee"}, "limit": 5, "total": 294}}