{"help": "https://data.gov.sg/api/3/action/help_show?name=datastore_search", "success": true, "result": {"resource_id": "8607dc44-6eb7-43c8-a666-240b186d3eeb", "fields": [{"type": "int4", "id": "_id"}, {"type": "numeric", "id": "year"}, {"type": "text", "id": "type"}, {"type": "text", "id": "category"}, {"type": "numeric", "id": "number"}], "records": [{"category": "Category A", "_id": 1, "type": "5 Year", "number": "273", "year": "2006"}, {"category": "Category B", "_id": 2, "type": "5 Year", "number": "38", "year": "2006"}, {"category": "Category C", "_id": 3, "type": "5 Year", "number": "750", "year": "2006"}, {"category": "Category D", "_id": 4, "type": "5 Year", "number": "526", "year": "2006"}, {"category": "Category A", "_id": 5, "type": "10 Year", "number": "751", "year": "2006"}], "_links": {"start": "/api/action/datastore_search?limit=5&resource_id=8607dc44-6eb7-43c8-a666-240b186d3eeb", "next": "/api/action/datastore_search?offset=5&limit=5&resource_id=8607dc44-6eb7-43c8-a666-240b186d3eeb"}, "limit": 5, "total": 96}}