{"help": "https://data.gov.sg/api/3/action/help_show?name=datastore_search", "success": true, "result": {"resource_id": "93430d5e-903c-4402-8343-8a260f4f4354", "fields": [{"type": "int4", "id": "_id"}, {"type": "numeric", "id": "year"}, {"type": "text", "id": "category"}, {"type": "numeric", "id": "number"}], "records": [{"category": "Category A", "_id": 1, "number": "267872", "year": "2005"}, {"category": "Category B", "_id": 2, "number": "170449", "year": "2005"}, {"category": "Category C", "_id": 3, "number": "135633", "year": "2005"}, {"category": "Category D", "_id": 4, "number": "138662", "year": "2005"}, {"category": "Taxis", "_id": 5, "number": "22383", "year": "2005"}], "_links": {"start": "/api/action/datastore_search?limit=5&resource_id=93430d5e-903c-4402-8343-8a260f4f4354", "next": "/api/action/datastore_search?offset=5&limit=5&resource_id=93430d5e-903c-4402-8343-8a260f4f4354"}, "limit": 5, "total": 78}}