{"help": "https://data.gov.sg/api/3/action/help_show?name=datastore_search", "success": true, "result": {"resource_id": "f9099e25-72b3-4cc3-8a04-9ed2ce81efc0", "fields": [{"type": "int4", "id": "_id"}, {"type": "text", "id": "year"}, {"type": "text", "id": "level_1"}, {"type": "numeric", "id": "value"}], "records": [{"_id": 1, "level_1": "Establishments, SSIC 47 - Total Retail Trade", "value": "19830", "year": "2000"}, {"_id": 2, "level_1": "Establishments, SSIC 47 - Total Retail Trade", "value": "19503", "year": "2001"}, {"_id": 3, "level_1": "Establishments, SSIC 47 - Total Retail Trade", "value": "19896", "year": "2002"}, {"_id": 4, "level_1": "Establishments, SSIC 47 - Total Retail Trade", "value": "20564", "year": "2003"}, {"_id": 5, "level_1": "Establishments, SSIC 47 - Total Retail Trade", "value": "20327", "year": "2004"}], "_links": {"start": "/api/action/datastore_search?limit=5&resource_id=f9099e25-72b3-4cc3-8a04-9ed2ce81efc0", "next": "/api/action/datastore_search?offset=5&limit=5&resource_id=f9099e25-72b3-4cc3-8a04-9ed2ce81efc0"}, "limit": 5, "total": 18}}