{"help": "https://data.gov.sg/api/3/action/help_show?name=datastore_search", "success": true, "result": {"resource_id": "7df335f2-a205-4165-8507-ea2ca43b72d9", "fields": [{"type": "int4", "id": "_id"}, {"type": "text", "id": "quarter"}, {"type": "numeric", "id": "total"}, {"type": "numeric", "id": "short_work_week"}, {"type": "text", "id": "temporary_layoff"}], "records": [{"total": "1800", "quarter": "1998-Q1", "_id": 1, "short_work_week": "1610", "temporary_layoff": "190"}, {"total": "6550", "quarter": "1998-Q2", "_id": 2, "short_work_week": "5730", "temporary_layoff": "810"}, {"total": "4650", "quarter": "1998-Q3", "_id": 3, "short_work_week": "4050", "temporary_layoff": "600"}, {"total": "4810", "quarter": "1998-Q4", "_id": 4, "short_work_week": "3370", "temporary_layoff": "1450"}, {"total": "680", "quarter": "1999-Q1", "_id": 5, "short_work_week": "580", "temporary_layoff": "110"}], "_links": {"start": "/api/action/datastore_search?limit=5&resource_id=7df335f2-a205-4165-8507-ea2ca43b72d9", "next": "/api/action/datastore_search?offset=5&limit=5&resource_id=7df335f2-a205-4165-8507-ea2ca43b72d9"}, "limit": 5, "total": 90}}