{"help": "https://data.gov.sg/api/3/action/help_show?name=datastore_search", "success": true, "result": {"resource_id": "66051d19-45d7-4d0f-a418-ba98e96ac19b", "fields": [{"type": "int4", "id": "_id"}, {"type": "text", "id": "year"}, {"type": "text", "id": "level_1"}, {"type": "numeric", "id": "value"}], "records": [{"_id": 1, "level_1": "Total", "value": "607", "year": "1980"}, {"_id": 2, "level_1": "Chinese Brides", "value": "315", "year": "1980"}, {"_id": 3, "level_1": "Indian Brides", "value": "58", "year": "1980"}, {"_id": 4, "level_1": "Eurasian Brides", "value": "73", "year": "1980"}, {"_id": 5, "level_1": "Caucasian Brides", "value": "30", "year": "1980"}], "_links": {"start": "/api/action/datastore_search?limit=5&resource_id=66051d19-45d7-4d0f-a418-ba98e96ac19b", "next": "/api/action/datastore_search?offset=5&limit=5&resource_id=66051d19-45d7-4d0f-a418-ba98e96ac19b"}, "limit": 5, "total": 273}}