{"help": "https://data.gov.sg/api/3/action/help_show?name=datastore_search", "success": true, "result": {"resource_id": "835e630b-a03f-4f77-baa6-9c69c91883f2", "fields": [{"type": "int4", "id": "_id"}, {"type": "text", "id": "uid"}, {"type": "text", "id": "book_title"}, {"type": "text", "id": "subject"}, {"type": "text", "id": "summary"}, {"type": "text", "id": "original_publisher"}, {"type": "text", "id": "digital_publisher"}, {"type": "text", "id": "format"}, {"type": "text", "id": "language"}, {"type": "text", "id": "copyright"}, {"type": "text", "id": "author_name"}, {"type": "numeric", "id": "published"}, {"type": "text", "id": "resource_url"}, {"type": "text", "id": "cover"}, {"type": "text", "id": "thumbnail"}], "records": [{"book_title": "Tales from East Asia/ Kisah-kisah dari Asia Timur", "uid": "9d8f4a3a-172c-451d-9730-c0a0420a70d8", "language": "may", "format": "application/epub+zip :. 11136 KB.", "cover": "http://eservice.nlb.gov.sg/bookcoverwrapper/cover/9d8f4a3a-172c-451d-9730-c0a0420a70d8?s=MD", "author_name": "various authors", "summary": "Selected by the Youth Book Selection Committee, the stories reflect the social values such as being grateful, of giving and having love in our lives. Having showcased tales from other parts of the Asian continent in the previous 2 years\u00e2\u20ac\u2122 publications, 2014 sees us featuring stories from East Asia. The first story, Kaza Jizo, tells of the delight and timelessness of unconditional giving. The second story, The Ungrateful Tiger, is a Korean folktale that teaches us the dire consequences of greed and ingratitude. Finally, The Weaving Maid and the Cowherd is a tale of enduring love from China.", "thumbnail": "http://eservice.nlb.gov.sg/bookcoverwrapper/cover/9d8f4a3a-172c-451d-9730-c0a0420a70d8?s=SM", "copyright": "All rights reserved.  National Library Board Singapore 2014", "published": "2014", "original_publisher": "National Library Board", "_id": 1, "digital_publisher": "National Library Board", "resource_url": "http://eresources.nlb.gov.sg/eReads/MobileReads/details?uuid=9d8f4a3a-172c-451d-9730-c0a0420a70d8", "subject": "Tales from East Asia/ Kisah-kisah dari Asia Timur"}, {"book_title": "Tales from East Asia/ \u00e0\u00ae\u2022\u00e0\u00ae\u00bf\u00e0\u00ae\u00b4\u00e0\u00ae\u2022\u00e0\u00af\u00e0\u00ae\u2022\u00e0\u00af \u00e0\u00ae\u2020\u00e0\u00ae\u0161\u00e0\u00ae\u00bf\u00e0\u00ae\u00af \u00e0\u00ae\u00aa\u00e0\u00ae\u00b4\u00e0\u00ae\u2122\u00e0\u00af\u00e0\u00ae\u2022\u00e0\u00ae\u00a4\u00e0\u00af\u02c6\u00e0\u00ae\u2022\u00e0\u00ae\u00b3\u00e0\u00af", "uid": "aae6b2a3-6ceb-459f-ac20-df3ed5b57fcb", "language": "tam", "format": "application/epub+zip :. 11128 KB.", "cover": "http://eservice.nlb.gov.sg/bookcoverwrapper/cover/aae6b2a3-6ceb-459f-ac20-df3ed5b57fcb?s=MD", "author_name": "various authors", "summary": "Selected by the Youth Book Selection Committee, the stories reflect the social values such as being grateful, of giving and having love in our lives. Having showcased tales from other parts of the Asian continent in the previous 2 years\u00e2\u20ac\u2122 publications, 2014 sees us featuring stories from East Asia. The first story, Kaza Jizo, tells of the delight and timelessness of unconditional giving. The second story, The Ungrateful Tiger, is a Korean folktale that teaches us the dire consequences of greed and ingratitude. Finally, The Weaving Maid and the Cowherd is a tale of enduring love from China.", "thumbnail": "http://eservice.nlb.gov.sg/bookcoverwrapper/cover/aae6b2a3-6ceb-459f-ac20-df3ed5b57fcb?s=SM", "copyright": "All rights reserved.  National Library Board Singapore 2014", "published": "2014", "original_publisher": "National Library Board", "_id": 2, "digital_publisher": "National Library Board", "resource_url": "http://eresources.nlb.gov.sg/eReads/MobileReads/details?uuid=aae6b2a3-6ceb-459f-ac20-df3ed5b57fcb", "subject": "Tales from East Asia/ \u00e0\u00ae\u2022\u00e0\u00ae\u00bf\u00e0\u00ae\u00b4\u00e0\u00ae\u2022\u00e0\u00af\u00e0\u00ae\u2022\u00e0\u00af \u00e0\u00ae\u2020\u00e0\u00ae\u0161\u00e0\u00ae\u00bf\u00e0\u00ae\u00af \u00e0\u00ae\u00aa\u00e0\u00ae\u00b4\u00e0\u00ae\u2122\u00e0\u00af\u00e0\u00ae\u2022\u00e0\u00ae\u00a4\u00e0\u00af\u02c6\u00e0\u00ae\u2022\u00e0\u00ae\u00b3\u00e0\u00af"}, {"book_title": "Tales from East Asia/ \u00e4\u00b8\u0153\u00e4\u00ba\u0161\u00e6\u00b0\u2018\u00e9\u2014\u00b4\u00e6\u2022\u2026\u00e4\u00ba\u2039", "uid": "5cb52a53-d621-4e4e-ae0d-9c406b3ed86a", "language": "chi", "format": "application/epub+zip :. 22463 KB.", "cover": "http://eservice.nlb.gov.sg/bookcoverwrapper/cover/5cb52a53-d621-4e4e-ae0d-9c406b3ed86a?s=MD", "author_name": "various authors", "summary": "Selected by the Youth Book Selection Committee, the stories reflect the social values such as being grateful, of giving and having love in our lives. Having showcased tales from other parts of the Asian continent in the previous 2 years\u00e2\u20ac\u2122 publications, 2014 sees us featuring stories from East Asia. The first story, Kaza Jizo, tells of the delight and timelessness of unconditional giving. The second story, The Ungrateful Tiger, is a Korean folktale that teaches us the dire consequences of greed and ingratitude. Finally, The Weaving Maid and the Cowherd is a tale of enduring love from China.", "thumbnail": "http://eservice.nlb.gov.sg/bookcoverwrapper/cover/5cb52a53-d621-4e4e-ae0d-9c406b3ed86a?s=SM", "copyright": "All rights reserved.  National Library Board Singapore 2014", "published": "2014", "original_publisher": "National Library Board", "_id": 3, "digital_publisher": "National Library Board", "resource_url": "http://eresources.nlb.gov.sg/eReads/MobileReads/details?uuid=5cb52a53-d621-4e4e-ae0d-9c406b3ed86a", "subject": "Tales from East Asia/ \u00e4\u00b8\u0153\u00e4\u00ba\u0161\u00e6\u00b0\u2018\u00e9\u2014\u00b4\u00e6\u2022\u2026\u00e4\u00ba\u2039"}, {"book_title": "Tanjong Rhu", "uid": "9c657242-8467-4820-9a61-9bf4eaecd20f", "language": "eng", "format": "application/epub+zip :. 21 KB.", "cover": "http://eservice.nlb.gov.sg/bookcoverwrapper/cover/9c657242-8467-4820-9a61-9bf4eaecd20f?s=MD", "author_name": "Ho Minfong", "summary": "To Mr Li, Tanjong Rhu was a special place where he spent his childhood. Now a successful businessman in the shipping sector, he has to cope with the loss of his mother. Tanjong Rhu gives an insight into Chinese norms, values, religious beliefs and family practices as Mr Li recalls the time spent with his mother and the events that took place before her demise.", "thumbnail": "http://eservice.nlb.gov.sg/bookcoverwrapper/cover/9c657242-8467-4820-9a61-9bf4eaecd20f?s=SM", "copyright": "All Rights Reserved. National Library Board Singapore", "published": "2007", "original_publisher": "National Library Board", "_id": 4, "digital_publisher": "National Library Board", "resource_url": "http://eresources.nlb.gov.sg/eReads/MobileReads/details?uuid=9c657242-8467-4820-9a61-9bf4eaecd20f", "subject": "Ties That Bind"}, {"book_title": "Teenagers", "uid": "5e4e02be-c565-47f4-9112-60d070a25c77", "language": "eng", "format": "application/epub+zip :. 13 KB.", "cover": "http://eservice.nlb.gov.sg/bookcoverwrapper/cover/5e4e02be-c565-47f4-9112-60d070a25c77?s=MD", "author_name": "Kamariah Amat", "summary": "A mother faces the pressure of losing control over her children when she decides to re-join the work force. After many years of building up trust and solidifying her relationship with her children, her trust is somehow challenged by hearsays from neighbours, testifying that her children are going astray, particularly in the absence of their mother. Whom should she trust? Her teenage children whom she seldom now meets or the neighbours who keeps her update of her children\u00e2\u20ac\u2122s latest whereabouts?", "thumbnail": "http://eservice.nlb.gov.sg/bookcoverwrapper/cover/5e4e02be-c565-47f4-9112-60d070a25c77?s=SM", "copyright": "All Rights Reserved. National Library Board Singapore", "published": "2007", "original_publisher": "National Library Board", "_id": 5, "digital_publisher": "National Library Board", "resource_url": "http://eresources.nlb.gov.sg/eReads/MobileReads/details?uuid=5e4e02be-c565-47f4-9112-60d070a25c77", "subject": "Ties That Bind"}], "_links": {"start": "/api/action/datastore_search?limit=5&resource_id=835e630b-a03f-4f77-baa6-9c69c91883f2", "next": "/api/action/datastore_search?offset=5&limit=5&resource_id=835e630b-a03f-4f77-baa6-9c69c91883f2"}, "limit": 5, "total": 188}}