{"help": "https://data.gov.sg/api/3/action/help_show?name=datastore_search", "success": true, "result": {"resource_id": "26e9766b-a42d-468c-9c25-88d89b850823", "fields": [{"type": "int4", "id": "_id"}, {"type": "text", "id": "month"}, {"type": "numeric", "id": "mobile_penetration_rate"}], "records": [{"mobile_penetration_rate": "13.6", "_id": 1, "month": "1997-01"}, {"mobile_penetration_rate": "13.9", "_id": 2, "month": "1997-02"}, {"mobile_penetration_rate": "14.2", "_id": 3, "month": "1997-03"}, {"mobile_penetration_rate": "15.7", "_id": 4, "month": "1997-04"}, {"mobile_penetration_rate": "16.8", "_id": 5, "month": "1997-05"}], "_links": {"start": "/api/action/datastore_search?limit=5&resource_id=26e9766b-a42d-468c-9c25-88d89b850823", "next": "/api/action/datastore_search?offset=5&limit=5&resource_id=26e9766b-a42d-468c-9c25-88d89b850823"}, "limit": 5, "total": 269}}