{"help": "https://data.gov.sg/api/3/action/help_show?name=datastore_search", "success": true, "result": {"resource_id": "39201285-b73e-487a-a971-3a12d34ab8d9", "fields": [{"type": "int4", "id": "_id"}, {"type": "text", "id": "uen"}, {"type": "text", "id": "issuance_agency_id"}, {"type": "text", "id": "uen_status"}, {"type": "text", "id": "entity_name"}, {"type": "text", "id": "entity_type"}, {"type": "text", "id": "uen_issue_date"}, {"type": "text", "id": "reg_street_name"}, {"type": "text", "id": "reg_postal_code"}], "records": [{"uen": "52857704B", "reg_street_name": "ROBERTS LANE", "entity_name": "WONDERS MUSICAL SERVICES", "entity_type": "BN", "reg_postal_code": "218288", "issuance_agency_id": "ACRA", "uen_issue_date": "2008-09-11", "uen_status": "R", "_id": 1}, {"uen": "52979243E", "reg_street_name": "LORONG K TELOK KURAU", "entity_name": "MEGA-GS GENERAL SERVICES", "entity_type": "BN", "reg_postal_code": "425691", "issuance_agency_id": "ACRA", "uen_issue_date": "2008-09-12", "uen_status": "D", "_id": 2}, {"uen": "24774400W", "reg_street_name": "na", "entity_name": "KIAN ENG HARDWARE", "entity_type": "BN", "reg_postal_code": "na", "issuance_agency_id": "ACRA", "uen_issue_date": "2008-09-09", "uen_status": "D", "_id": 3}, {"uen": "200312398E", "reg_street_name": "TURF CLUB ROAD", "entity_name": "STAMFORD OVERSEAS STUDENT RESIDENCE PTE. LTD.", "entity_type": "LC", "reg_postal_code": "287988", "issuance_agency_id": "ACRA", "uen_issue_date": "2008-09-12", "uen_status": "D", "_id": 4}, {"uen": "200505476K", "reg_street_name": "CHANGI NORTH CRESCENT", "entity_name": "AEROSPACE COMPONENT ENGINEERING SERVICES PTE. LIMITED", "entity_type": "LC", "reg_postal_code": "499622", "issuance_agency_id": "ACRA", "uen_issue_date": "2008-09-13", "uen_status": "R", "_id": 5}], "_links": {"start": "/api/action/datastore_search?limit=5&resource_id=39201285-b73e-487a-a971-3a12d34ab8d9", "next": "/api/action/datastore_search?offset=5&limit=5&resource_id=39201285-b73e-487a-a971-3a12d34ab8d9"}, "limit": 5, "total": 1613261}}