{"help": "https://data.gov.sg/api/3/action/help_show?name=datastore_search", "success": true, "result": {"resource_id": "c7cea730-96be-4273-a76d-9e3401b87632", "fields": [{"type": "int4", "id": "_id"}, {"type": "text", "id": "quarter"}, {"type": "numeric", "id": "total_paid_hours"}], "records": [{"quarter": "1990-Q1", "_id": 1, "total_paid_hours": "46.5"}, {"quarter": "1990-Q2", "_id": 2, "total_paid_hours": "46.8"}, {"quarter": "1990-Q3", "_id": 3, "total_paid_hours": "46.5"}, {"quarter": "1990-Q4", "_id": 4, "total_paid_hours": "46.3"}, {"quarter": "1991-Q1", "_id": 5, "total_paid_hours": "46.4"}], "_links": {"start": "/api/action/datastore_search?limit=5&resource_id=c7cea730-96be-4273-a76d-9e3401b87632", "next": "/api/action/datastore_search?offset=5&limit=5&resource_id=c7cea730-96be-4273-a76d-9e3401b87632"}, "limit": 5, "total": 122}}