{"help": "https://data.gov.sg/api/3/action/help_show?name=datastore_search", "success": true, "result": {"resource_id": "acdc00fd-5aa4-467c-ad98-466e1d6f26d9", "fields": [{"type": "int4", "id": "_id"}, {"type": "numeric", "id": "year"}, {"type": "text", "id": "facility"}, {"type": "numeric", "id": "number"}], "records": [{"facility": "Traffic Lights", "_id": 1, "number": "1256", "year": "1994"}, {"facility": "ERP Gantries", "_id": 2, "number": "0", "year": "1994"}, {"facility": "Traffic Lights", "_id": 3, "number": "1308", "year": "1995"}, {"facility": "ERP Gantries", "_id": 4, "number": "0", "year": "1995"}, {"facility": "Traffic Lights", "_id": 5, "number": "1381", "year": "1996"}], "_links": {"start": "/api/action/datastore_search?limit=5&resource_id=acdc00fd-5aa4-467c-ad98-466e1d6f26d9", "next": "/api/action/datastore_search?offset=5&limit=5&resource_id=acdc00fd-5aa4-467c-ad98-466e1d6f26d9"}, "limit": 5, "total": 48}}