{"help": "https://data.gov.sg/api/3/action/help_show?name=datastore_search", "success": true, "result": {"resource_id": "e1970e77-c983-4bce-9cd8-8ce3e9e1ec63", "fields": [{"type": "int4", "id": "_id"}, {"type": "numeric", "id": "year"}, {"type": "text", "id": "size_of_trade_union"}, {"type": "numeric", "id": "no_of_trade_unions"}], "records": [{"size_of_trade_union": "Under 50", "_id": 1, "no_of_trade_unions": "1", "year": "2008"}, {"size_of_trade_union": "50 \u0096 249", "_id": 2, "no_of_trade_unions": "1", "year": "2008"}, {"size_of_trade_union": "250 & Over", "_id": 3, "no_of_trade_unions": "1", "year": "2008"}, {"size_of_trade_union": "Under 50", "_id": 4, "no_of_trade_unions": "1", "year": "2009"}, {"size_of_trade_union": "50 \u0096 249", "_id": 5, "no_of_trade_unions": "1", "year": "2009"}], "_links": {"start": "/api/action/datastore_search?limit=5&resource_id=e1970e77-c983-4bce-9cd8-8ce3e9e1ec63", "next": "/api/action/datastore_search?offset=5&limit=5&resource_id=e1970e77-c983-4bce-9cd8-8ce3e9e1ec63"}, "limit": 5, "total": 30}}