{"help": "https://data.gov.sg/api/3/action/help_show?name=datastore_search", "success": true, "result": {"resource_id": "abba3b56-31ab-46c6-b72a-f1fd3d49aec3", "fields": [{"type": "int4", "id": "_id"}, {"type": "text", "id": "zone"}, {"type": "text", "id": "y2021_school"}, {"type": "numeric", "id": "option_code"}, {"type": "text", "id": "hearing_loss"}, {"type": "text", "id": "visual_impairment"}, {"type": "text", "id": "barrier_free_facilities"}, {"type": "text", "id": "aed-learningnbehavl_suppt"}], "records": [{"barrier_free_facilities": "Yes", "hearing_loss": "No", "zone": "North", "visual_impairment": "No", "option_code": "3072", "y2021_school": "Admiralty Sec Sch", "_id": 1, "aed-learningnbehavl_suppt": "No"}, {"barrier_free_facilities": "No", "hearing_loss": "No", "zone": "North", "visual_impairment": "Yes", "option_code": "3201", "y2021_school": "Ahmad Ibrahim Sec Sch", "_id": 2, "aed-learningnbehavl_suppt": "Yes"}, {"barrier_free_facilities": "No", "hearing_loss": "No", "zone": "North", "visual_impairment": "No", "option_code": "3001", "y2021_school": "Anderson Sec Sch", "_id": 3, "aed-learningnbehavl_suppt": "Yes"}, {"barrier_free_facilities": "No", "hearing_loss": "No", "zone": "North", "visual_impairment": "No", "option_code": "3043", "y2021_school": "Bowen Sec Sch", "_id": 4, "aed-learningnbehavl_suppt": "Yes"}, {"barrier_free_facilities": "No", "hearing_loss": "No", "zone": "North", "visual_impairment": "No", "option_code": "3621", "y2021_school": "Canberra Sec Sch", "_id": 5, "aed-learningnbehavl_suppt": "Yes"}], "_links": {"start": "/api/action/datastore_search?limit=5&resource_id=abba3b56-31ab-46c6-b72a-f1fd3d49aec3", "next": "/api/action/datastore_search?offset=5&limit=5&resource_id=abba3b56-31ab-46c6-b72a-f1fd3d49aec3"}, "limit": 5, "total": 127}}