{"help": "https://data.gov.sg/api/3/action/help_show?name=datastore_search", "success": true, "result": {"resource_id": "6b2ae62e-42ee-40f6-b603-cf81c3b2118f", "fields": [{"type": "int4", "id": "_id"}, {"type": "numeric", "id": "year"}, {"type": "text", "id": "level_1"}, {"type": "numeric", "id": "value"}], "records": [{"_id": 1, "level_1": "Total (Based On GDP In Chained (2015) Dollars)", "value": "7.4", "year": "1984"}, {"_id": 2, "level_1": "Total (Based On GDP In Chained (2015) Dollars)", "value": "4.4", "year": "1985"}, {"_id": 3, "level_1": "Total (Based On GDP In Chained (2015) Dollars)", "value": "5.9", "year": "1986"}, {"_id": 4, "level_1": "Total (Based On GDP In Chained (2015) Dollars)", "value": "6.6", "year": "1987"}, {"_id": 5, "level_1": "Total (Based On GDP In Chained (2015) Dollars)", "value": "4.9", "year": "1988"}], "_links": {"start": "/api/action/datastore_search?limit=5&resource_id=6b2ae62e-42ee-40f6-b603-cf81c3b2118f", "next": "/api/action/datastore_search?offset=5&limit=5&resource_id=6b2ae62e-42ee-40f6-b603-cf81c3b2118f"}, "limit": 5, "total": 36}}