{"help": "https://data.gov.sg/api/3/action/help_show?name=datastore_search", "success": true, "result": {"resource_id": "482bfa14-2977-4035-9c61-c85f871daf4e", "fields": [{"type": "int4", "id": "_id"}, {"type": "text", "id": "blk_no"}, {"type": "text", "id": "street"}, {"type": "numeric", "id": "max_floor_lvl"}, {"type": "numeric", "id": "year_completed"}, {"type": "text", "id": "residential"}, {"type": "text", "id": "commercial"}, {"type": "text", "id": "market_hawker"}, {"type": "text", "id": "miscellaneous"}, {"type": "text", "id": "multistorey_carpark"}, {"type": "text", "id": "precinct_pavilion"}, {"type": "text", "id": "bldg_contract_town"}, {"type": "numeric", "id": "total_dwelling_units"}, {"type": "numeric", "id": "1room_sold"}, {"type": "numeric", "id": "2room_sold"}, {"type": "numeric", "id": "3room_sold"}, {"type": "numeric", "id": "4room_sold"}, {"type": "numeric", "id": "5room_sold"}, {"type": "numeric", "id": "exec_sold"}, {"type": "numeric", "id": "multigen_sold"}, {"type": "numeric", "id": "studio_apartment_sold"}, {"type": "numeric", "id": "1room_rental"}, {"type": "numeric", "id": "2room_rental"}, {"type": "numeric", "id": "3room_rental"}, {"type": "numeric", "id": "other_room_rental"}], "records": [{"year_completed": "1983", "multigen_sold": "0", "bldg_contract_town": "HG", "multistorey_carpark": "N", "street": "HOUGANG AVE 1", "total_dwelling_units": "90", "blk_no": "102", "exec_sold": "0", "max_floor_lvl": "13", "residential": "Y", "1room_sold": "0", "precinct_pavilion": "N", "other_room_rental": "0", "5room_sold": "0", "3room_sold": "19", "commercial": "Y", "4room_sold": "71", "miscellaneous": "N", "studio_apartment_sold": "0", "2room_rental": "0", "2room_sold": "0", "1room_rental": "0", "3room_rental": "0", "market_hawker": "N", "_id": 1}, {"year_completed": "1980", "multigen_sold": "0", "bldg_contract_town": "KWN", "multistorey_carpark": "N", "street": "JLN RAJAH", "total_dwelling_units": "198", "blk_no": "102", "exec_sold": "0", "max_floor_lvl": "12", "residential": "Y", "1room_sold": "0", "precinct_pavilion": "N", "other_room_rental": "0", "5room_sold": "0", "3room_sold": "0", "commercial": "Y", "4room_sold": "198", "miscellaneous": "N", "studio_apartment_sold": "0", "2room_rental": "0", "2room_sold": "0", "1room_rental": "0", "3room_rental": "0", "market_hawker": "N", "_id": 2}, {"year_completed": "1981", "multigen_sold": "0", "bldg_contract_town": "KWN", "multistorey_carpark": "N", "street": "JLN DUSUN", "total_dwelling_units": "96", "blk_no": "102", "exec_sold": "0", "max_floor_lvl": "25", "residential": "Y", "1room_sold": "0", "precinct_pavilion": "N", "other_room_rental": "0", "5room_sold": "96", "3room_sold": "0", "commercial": "N", "4room_sold": "0", "miscellaneous": "N", "studio_apartment_sold": "0", "2room_rental": "0", "2room_sold": "0", "1room_rental": "0", "3room_rental": "0", "market_hawker": "N", "_id": 3}, {"year_completed": "1981", "multigen_sold": "0", "bldg_contract_town": "JE", "multistorey_carpark": "N", "street": "JURONG EAST ST 13", "total_dwelling_units": "196", "blk_no": "102", "exec_sold": "0", "max_floor_lvl": "12", "residential": "Y", "1room_sold": "0", "precinct_pavilion": "N", "other_room_rental": "0", "5room_sold": "2", "3room_sold": "172", "commercial": "N", "4room_sold": "22", "miscellaneous": "N", "studio_apartment_sold": "0", "2room_rental": "0", "2room_sold": "0", "1room_rental": "0", "3room_rental": "0", "market_hawker": "N", "_id": 4}, {"year_completed": "1988", "multigen_sold": "0", "bldg_contract_town": "BD", "multistorey_carpark": "N", "street": "LENGKONG TIGA", "total_dwelling_units": "73", "blk_no": "102", "exec_sold": "0", "max_floor_lvl": "14", "residential": "Y", "1room_sold": "0", "precinct_pavilion": "N", "other_room_rental": "0", "5room_sold": "51", "3room_sold": "0", "commercial": "N", "4room_sold": "22", "miscellaneous": "N", "studio_apartment_sold": "0", "2room_rental": "0", "2room_sold": "0", "1room_rental": "0", "3room_rental": "0", "market_hawker": "N", "_id": 5}], "_links": {"start": "/api/action/datastore_search?limit=5&resource_id=482bfa14-2977-4035-9c61-c85f871daf4e", "next": "/api/action/datastore_search?offset=5&limit=5&resource_id=482bfa14-2977-4035-9c61-c85f871daf4e"}, "limit": 5, "total": 24410}}