{"help": "https://data.gov.sg/api/3/action/help_show?name=datastore_search", "success": true, "result": {"resource_id": "8fd4b431-43cb-4ac9-ae90-3f14bb388840", "fields": [{"type": "int4", "id": "_id"}, {"type": "text", "id": "quarter"}, {"type": "text", "id": "level_1"}, {"type": "text", "id": "value"}], "records": [{"quarter": "1970-Q1", "_id": 1, "level_1": "General Business Expectations (Forecast For Next 6 Months)", "value": "47"}, {"quarter": "1970-Q1", "_id": 2, "level_1": "Numbers Employed (Forecast For Next Quarter)", "value": "na"}, {"quarter": "1970-Q1", "_id": 3, "level_1": "Overtime (Forecast For Next Quarter)", "value": "na"}, {"quarter": "1970-Q1", "_id": 4, "level_1": "Output (Forecast For Next Quarter)", "value": "na"}, {"quarter": "1970-Q1", "_id": 5, "level_1": "Total New Orders Received (Forecast For Next Quarter)", "value": "na"}], "_links": {"start": "/api/action/datastore_search?limit=5&resource_id=8fd4b431-43cb-4ac9-ae90-3f14bb388840", "next": "/api/action/datastore_search?offset=5&limit=5&resource_id=8fd4b431-43cb-4ac9-ae90-3f14bb388840"}, "limit": 5, "total": 94514}}