{"help": "https://data.gov.sg/api/3/action/help_show?name=datastore_search", "success": true, "result": {"resource_id": "a7255682-4c18-49e5-b820-80f014be8b30", "fields": [{"type": "int4", "id": "_id"}, {"type": "numeric", "id": "shs_year"}, {"type": "text", "id": "ethnic_group"}, {"type": "numeric", "id": "average_size"}, {"type": "numeric", "id": "median_size"}], "records": [{"ethnic_group": "Chinese", "_id": 1, "shs_year": "2008", "median_size": "3", "average_size": "3.3"}, {"ethnic_group": "Malay", "_id": 2, "shs_year": "2008", "median_size": "4", "average_size": "4.1"}, {"ethnic_group": "Indian", "_id": 3, "shs_year": "2008", "median_size": "4", "average_size": "3.5"}, {"ethnic_group": "Others", "_id": 4, "shs_year": "2008", "median_size": "3", "average_size": "3.4"}, {"ethnic_group": "All", "_id": 5, "shs_year": "2008", "median_size": "3", "average_size": "3.4"}], "_links": {"start": "/api/action/datastore_search?limit=5&resource_id=a7255682-4c18-49e5-b820-80f014be8b30", "next": "/api/action/datastore_search?offset=5&limit=5&resource_id=a7255682-4c18-49e5-b820-80f014be8b30"}, "limit": 5, "total": 10}}