{"help": "https://data.gov.sg/api/3/action/help_show?name=datastore_search", "success": true, "result": {"resource_id": "66f3eec1-9e1e-4df6-9706-7b7e844e5377", "fields": [{"type": "int4", "id": "_id"}, {"type": "text", "id": "year"}, {"type": "text", "id": "level_1"}, {"type": "numeric", "id": "value"}], "records": [{"_id": 1, "level_1": "Male Age Specific Death Rate", "value": "7", "year": "1960"}, {"_id": 2, "level_1": "Female Age Specific Death Rate", "value": "5.4", "year": "1960"}, {"_id": 3, "level_1": "Total Age Specific Death Rate", "value": "6.2", "year": "1960"}, {"_id": 4, "level_1": "Male Age Specific Death Rate", "value": "6.7", "year": "1961"}, {"_id": 5, "level_1": "Female Age Specific Death Rate", "value": "5", "year": "1961"}], "_links": {"start": "/api/action/datastore_search?limit=5&resource_id=66f3eec1-9e1e-4df6-9706-7b7e844e5377", "next": "/api/action/datastore_search?offset=5&limit=5&resource_id=66f3eec1-9e1e-4df6-9706-7b7e844e5377"}, "limit": 5, "total": 177}}