{"help": "https://data.gov.sg/api/3/action/help_show?name=datastore_search", "success": true, "result": {"resource_id": "1ad07272-a900-428c-876e-7fb0226ba5b1", "fields": [{"type": "int4", "id": "_id"}, {"type": "numeric", "id": "year"}, {"type": "text", "id": "mother_ethnic_group"}, {"type": "text", "id": "place_of_occurrence"}, {"type": "text", "id": "attendant_at_birth"}, {"type": "text", "id": "child_gender"}, {"type": "numeric", "id": "still_births_count"}], "records": [{"place_of_occurrence": "Public Sector Hospitals", "attendant_at_birth": "Doctor in Public Sector Hospitals", "child_gender": "F", "still_births_count": "14", "mother_ethnic_group": "CHINESE", "year": "2017", "_id": 1}, {"place_of_occurrence": "Public Sector Hospitals", "attendant_at_birth": "Midwife or Nurse in Public Sector Hospitals", "child_gender": "F", "still_births_count": "2", "mother_ethnic_group": "CHINESE", "year": "2017", "_id": 2}, {"place_of_occurrence": "Public Sector Hospitals", "attendant_at_birth": "Midwife or Nurse in Public Sector Hospitals", "child_gender": "M", "still_births_count": "1", "mother_ethnic_group": "CHINESE", "year": "2017", "_id": 3}, {"place_of_occurrence": "Public Sector Hospitals", "attendant_at_birth": "Doctor in Public Sector Hospitals", "child_gender": "M", "still_births_count": "12", "mother_ethnic_group": "CHINESE", "year": "2017", "_id": 4}, {"place_of_occurrence": "Private Sector Hospitals", "attendant_at_birth": "Doctor in Private Sector Hospitals", "child_gender": "M", "still_births_count": "8", "mother_ethnic_group": "CHINESE", "year": "2017", "_id": 5}], "_links": {"start": "/api/action/datastore_search?limit=5&resource_id=1ad07272-a900-428c-876e-7fb0226ba5b1", "next": "/api/action/datastore_search?offset=5&limit=5&resource_id=1ad07272-a900-428c-876e-7fb0226ba5b1"}, "limit": 5, "total": 57}}