{"help": "https://data.gov.sg/api/3/action/help_show?name=datastore_search", "success": true, "result": {"resource_id": "531cda05-1f57-4e0a-9953-0c1f1d031fab", "fields": [{"type": "int4", "id": "_id"}, {"type": "text", "id": "year"}, {"type": "text", "id": "level_1"}, {"type": "text", "id": "level_2"}, {"type": "numeric", "id": "value"}], "records": [{"value": "19", "_id": 1, "level_1": "Establishments, SSIC 86 - Total Health Services", "level_2": "SSIC 861 - Hospitals", "year": "2000"}, {"value": "1645", "_id": 2, "level_1": "Establishments, SSIC 86 - Total Health Services", "level_2": "SSIC 86201/3 - Western Clinics", "year": "2000"}, {"value": "422", "_id": 3, "level_1": "Establishments, SSIC 86 - Total Health Services", "level_2": "SSIC 86202 - Non Western Clinics", "year": "2000"}, {"value": "534", "_id": 4, "level_1": "Establishments, SSIC 86 - Total Health Services", "level_2": "SSIC 86204/8690 - Dental & Other Medical Services", "year": "2000"}, {"value": "22", "_id": 5, "level_1": "Establishments, SSIC 86 - Total Health Services", "level_2": "SSIC 861 - Hospitals", "year": "2001"}], "_links": {"start": "/api/action/datastore_search?limit=5&resource_id=531cda05-1f57-4e0a-9953-0c1f1d031fab", "next": "/api/action/datastore_search?offset=5&limit=5&resource_id=531cda05-1f57-4e0a-9953-0c1f1d031fab"}, "limit": 5, "total": 72}}