{"help": "https://data.gov.sg/api/3/action/help_show?name=datastore_search", "success": true, "result": {"resource_id": "7b4af397-3e8f-40de-9208-90d168afc810", "fields": [{"type": "int4", "id": "_id"}, {"type": "numeric", "id": "financial_year"}, {"type": "text", "id": "actual_revised_estimated"}, {"type": "text", "id": "sector"}, {"type": "text", "id": "ministry"}, {"type": "text", "id": "type"}, {"type": "numeric", "id": "amount"}, {"type": "numeric", "id": "percent_of_gdp"}], "records": [{"sector": "Social Development", "percent_of_gdp": "0.022", "actual_revised_estimated": "Actual", "ministry": "Education", "amount": "3348", "financial_year": "1997", "_id": 1, "type": "Operating"}, {"sector": "Social Development", "percent_of_gdp": "0.022", "actual_revised_estimated": "Actual", "ministry": "Education", "amount": "3167", "financial_year": "1998", "_id": 2, "type": "Operating"}, {"sector": "Social Development", "percent_of_gdp": "0.022", "actual_revised_estimated": "Actual", "ministry": "Education", "amount": "3257", "financial_year": "1999", "_id": 3, "type": "Operating"}, {"sector": "Social Development", "percent_of_gdp": "0.025", "actual_revised_estimated": "Actual", "ministry": "Education", "amount": "4277", "financial_year": "2000", "_id": 4, "type": "Operating"}, {"sector": "Social Development", "percent_of_gdp": "0.03", "actual_revised_estimated": "Actual", "ministry": "Education", "amount": "4767", "financial_year": "2001", "_id": 5, "type": "Operating"}], "_links": {"start": "/api/action/datastore_search?limit=5&resource_id=7b4af397-3e8f-40de-9208-90d168afc810", "next": "/api/action/datastore_search?offset=5&limit=5&resource_id=7b4af397-3e8f-40de-9208-90d168afc810"}, "limit": 5, "total": 912}}