{"help": "https://data.gov.sg/api/3/action/help_show?name=datastore_search", "success": true, "result": {"resource_id": "3aea732b-b67e-40da-841d-c07c559597dc", "fields": [{"type": "int4", "id": "_id"}, {"type": "numeric", "id": "year"}, {"type": "numeric", "id": "mrt"}, {"type": "numeric", "id": "bus"}], "records": [{"mrt": "40700", "bus": "819400", "_id": 1, "year": "2004"}, {"mrt": "41400", "bus": "822200", "_id": 2, "year": "2005"}, {"mrt": "41200", "bus": "833000", "_id": 3, "year": "2006"}, {"mrt": "42200", "bus": "844200", "_id": 4, "year": "2007"}, {"mrt": "45200", "bus": "826800", "_id": 5, "year": "2008"}], "_links": {"start": "/api/action/datastore_search?limit=5&resource_id=3aea732b-b67e-40da-841d-c07c559597dc", "next": "/api/action/datastore_search?offset=5&limit=5&resource_id=3aea732b-b67e-40da-841d-c07c559597dc"}, "limit": 5, "total": 11}}