{"help": "https://data.gov.sg/api/3/action/help_show?name=datastore_search", "success": true, "result": {"resource_id": "2ba37efc-5411-4f1f-aecf-ea2455c9236d", "fields": [{"type": "int4", "id": "_id"}, {"type": "text", "id": "year"}, {"type": "text", "id": "level_1"}, {"type": "numeric", "id": "value"}], "records": [{"_id": 1, "level_1": "Crude Birth Rate", "value": "37.5", "year": "1960"}, {"_id": 2, "level_1": "Crude Birth Rate", "value": "35.2", "year": "1961"}, {"_id": 3, "level_1": "Crude Birth Rate", "value": "33.7", "year": "1962"}, {"_id": 4, "level_1": "Crude Birth Rate", "value": "33.2", "year": "1963"}, {"_id": 5, "level_1": "Crude Birth Rate", "value": "31.6", "year": "1964"}], "_links": {"start": "/api/action/datastore_search?limit=5&resource_id=2ba37efc-5411-4f1f-aecf-ea2455c9236d", "next": "/api/action/datastore_search?offset=5&limit=5&resource_id=2ba37efc-5411-4f1f-aecf-ea2455c9236d"}, "limit": 5, "total": 59}}