{"help": "https://data.gov.sg/api/3/action/help_show?name=datastore_search", "success": true, "result": {"resource_id": "4fab6bff-c962-4dbb-a2a3-1702257f1c33", "fields": [{"type": "int4", "id": "_id"}, {"type": "text", "id": "month"}, {"type": "text", "id": "category"}, {"type": "numeric", "id": "number"}], "records": [{"category": "Category D", "_id": 1, "number": "576", "month": "2014-04"}, {"category": "Taxis", "_id": 2, "number": "412", "month": "2014-04"}, {"category": "Vehicles Exempted From VQS", "_id": 3, "number": "201", "month": "2014-04"}, {"category": "Category A", "_id": 4, "number": "905", "month": "2014-05"}, {"category": "Category B", "_id": 5, "number": "1222", "month": "2014-05"}], "_links": {"start": "/api/action/datastore_search?limit=5&resource_id=4fab6bff-c962-4dbb-a2a3-1702257f1c33", "next": "/api/action/datastore_search?offset=5&limit=5&resource_id=4fab6bff-c962-4dbb-a2a3-1702257f1c33"}, "limit": 5, "total": 1039}}