{"help": "https://data.gov.sg/api/3/action/help_show?name=datastore_search", "success": true, "result": {"resource_id": "35d198d4-e9d5-4f2a-aa06-e8677c531373", "fields": [{"type": "int4", "id": "_id"}, {"type": "numeric", "id": "year"}, {"type": "numeric", "id": "energy_produced_from_inc"}], "records": [{"_id": 1, "energy_produced_from_inc": "1099961", "year": "2000"}, {"_id": 2, "energy_produced_from_inc": "1158698", "year": "2001"}, {"_id": 3, "energy_produced_from_inc": "1089251", "year": "2002"}, {"_id": 4, "energy_produced_from_inc": "981762", "year": "2003"}, {"_id": 5, "energy_produced_from_inc": "962601", "year": "2004"}], "_links": {"start": "/api/action/datastore_search?limit=5&resource_id=35d198d4-e9d5-4f2a-aa06-e8677c531373", "next": "/api/action/datastore_search?offset=5&limit=5&resource_id=35d198d4-e9d5-4f2a-aa06-e8677c531373"}, "limit": 5, "total": 16}}