{"help": "https://data.gov.sg/api/3/action/help_show?name=datastore_search", "success": true, "result": {"resource_id": "0c5b9752-2488-46cc-ae1c-42318d0f8865", "fields": [{"type": "int4", "id": "_id"}, {"type": "text", "id": "month"}, {"type": "numeric", "id": "temp_extremes_min"}], "records": [{"temp_extremes_min": "23.1", "_id": 1, "month": "2002-11"}, {"temp_extremes_min": "23", "_id": 2, "month": "2002-12"}, {"temp_extremes_min": "23.2", "_id": 3, "month": "2003-01"}, {"temp_extremes_min": "22.8", "_id": 4, "month": "2003-02"}, {"temp_extremes_min": "22.8", "_id": 5, "month": "2003-03"}], "_links": {"start": "/api/action/datastore_search?limit=5&resource_id=0c5b9752-2488-46cc-ae1c-42318d0f8865", "next": "/api/action/datastore_search?offset=5&limit=5&resource_id=0c5b9752-2488-46cc-ae1c-42318d0f8865"}, "limit": 5, "total": 680}}