{"help": "https://data.gov.sg/api/3/action/help_show?name=datastore_search", "success": true, "result": {"resource_id": "e40c42a9-5054-4fd1-bb1f-cfd73c18940e", "fields": [{"type": "int4", "id": "_id"}, {"type": "text", "id": "month"}, {"type": "text", "id": "level_1"}, {"type": "text", "id": "value"}], "records": [{"_id": 1, "level_1": "All Items", "value": "0.8", "month": "1981-12"}, {"_id": 2, "level_1": "All Items Less Imputed Rentals On Owner-occupied Accommodation", "value": "na", "month": "1981-12"}, {"_id": 3, "level_1": "All Items Less Accommodation", "value": "na", "month": "1981-12"}, {"_id": 4, "level_1": "All Items", "value": "0.5", "month": "1982-01"}, {"_id": 5, "level_1": "All Items Less Imputed Rentals On Owner-occupied Accommodation", "value": "na", "month": "1982-01"}], "_links": {"start": "/api/action/datastore_search?limit=5&resource_id=e40c42a9-5054-4fd1-bb1f-cfd73c18940e", "next": "/api/action/datastore_search?offset=5&limit=5&resource_id=e40c42a9-5054-4fd1-bb1f-cfd73c18940e"}, "limit": 5, "total": 1371}}