{"help": "https://data.gov.sg/api/3/action/help_show?name=datastore_search", "success": true, "result": {"resource_id": "56dbe160-cff5-4931-a8ed-3f97aa64255d", "fields": [{"type": "int4", "id": "_id"}, {"type": "text", "id": "year"}, {"type": "text", "id": "level_1"}, {"type": "numeric", "id": "value"}], "records": [{"_id": 1, "level_1": "Total", "value": "170", "year": "1980"}, {"_id": 2, "level_1": "Total", "value": "213", "year": "1981"}, {"_id": 3, "level_1": "Total", "value": "269", "year": "1982"}, {"_id": 4, "level_1": "Total", "value": "244", "year": "1983"}, {"_id": 5, "level_1": "Total", "value": "285", "year": "1984"}], "_links": {"start": "/api/action/datastore_search?limit=5&resource_id=56dbe160-cff5-4931-a8ed-3f97aa64255d", "next": "/api/action/datastore_search?offset=5&limit=5&resource_id=56dbe160-cff5-4931-a8ed-3f97aa64255d"}, "limit": 5, "total": 39}}