{"help": "https://data.gov.sg/api/3/action/help_show?name=datastore_search", "success": true, "result": {"resource_id": "60134974-a9bd-4016-bc80-a1dd615b52c6", "fields": [{"type": "int4", "id": "_id"}, {"type": "text", "id": "year"}, {"type": "numeric", "id": "number_of_vacancies"}], "records": [{"_id": 1, "number_of_vacancies": "3000", "year": "2002"}, {"_id": 2, "number_of_vacancies": "1000", "year": "2003"}, {"_id": 3, "number_of_vacancies": "2100", "year": "2004"}, {"_id": 4, "number_of_vacancies": "5700", "year": "2005"}, {"_id": 5, "number_of_vacancies": "2100", "year": "2006"}], "_links": {"start": "/api/action/datastore_search?limit=5&resource_id=60134974-a9bd-4016-bc80-a1dd615b52c6", "next": "/api/action/datastore_search?offset=5&limit=5&resource_id=60134974-a9bd-4016-bc80-a1dd615b52c6"}, "limit": 5, "total": 16}}