{"help": "https://data.gov.sg/api/3/action/help_show?name=datastore_search", "success": true, "result": {"resource_id": "8ef196f4-038e-454d-b2eb-cc08db1ba422", "fields": [{"type": "int4", "id": "_id"}, {"type": "text", "id": "month"}, {"type": "text", "id": "order"}, {"type": "text", "id": "mother_race"}, {"type": "text", "id": "mother_age"}, {"type": "numeric", "id": "birth_count"}], "records": [{"month": "2018-03", "mother_race": "INDIANS", "mother_age": "25  -  29", "birth_count": "15", "_id": 1, "order": "2nd"}, {"month": "2018-03", "mother_race": "INDIANS", "mother_age": "30  -  34", "birth_count": "57", "_id": 2, "order": "2nd"}, {"month": "2018-03", "mother_race": "INDIANS", "mother_age": "35  -  39", "birth_count": "33", "_id": 3, "order": "2nd"}, {"month": "2018-03", "mother_race": "INDIANS", "mother_age": "40  -  44", "birth_count": "3", "_id": 4, "order": "2nd"}, {"month": "2018-03", "mother_race": "MALAYS", "mother_age": "15  -  19", "birth_count": "6", "_id": 5, "order": "2nd"}], "_links": {"start": "/api/action/datastore_search?limit=5&resource_id=8ef196f4-038e-454d-b2eb-cc08db1ba422", "next": "/api/action/datastore_search?offset=5&limit=5&resource_id=8ef196f4-038e-454d-b2eb-cc08db1ba422"}, "limit": 5, "total": 1083}}