{"help": "https://data.gov.sg/api/3/action/help_show?name=datastore_search", "success": true, "result": {"resource_id": "7670be81-ca96-49ba-9215-caf1f218954b", "fields": [{"type": "int4", "id": "_id"}, {"type": "text", "id": "opr_desc_txt"}, {"type": "text", "id": "bus_svc_no_txt"}, {"type": "numeric", "id": "bus_dirctn_txt"}, {"type": "numeric", "id": "bus_route_seq_num"}, {"type": "text", "id": "rd_nam"}, {"type": "text", "id": "bus_stop_desc_txt"}, {"type": "text", "id": "op_hr_1_txt"}, {"type": "text", "id": "op_hr_2_txt"}, {"type": "text", "id": "orig_dest_txt"}, {"type": "text", "id": "fare_txt"}, {"type": "numeric", "id": "x_coord"}, {"type": "numeric", "id": "y_coord"}, {"type": "text", "id": "bus_stop_cd"}, {"type": "text", "id": "no_svc_ind"}], "records": [{"fare_txt": "$2.00 ", "bus_svc_no_txt": "na", "y_coord": "103.852418", "bus_stop_cd": "na", "x_coord": "1.388806", "opr_desc_txt": "The MCST Plan No. 1895", "bus_stop_desc_txt": "Grande Vista Condomium", "rd_nam": "Cactus Drive", "orig_dest_txt": "Grande Vista Condominium to Yio Chu Kang / Ang Mo Kio Station", "bus_route_seq_num": "1", "op_hr_1_txt": "6.15am to 6.45pm (Monday to Friday, No Service on Public Holidays)", "no_svc_ind": "Y", "_id": 1, "bus_dirctn_txt": "1", "op_hr_2_txt": "7.00am to 7.45pm (Saturday to Sunday, No Service on Public Holidays)"}, {"fare_txt": "$2.00 ", "bus_svc_no_txt": "na", "y_coord": "103.8438384", "bus_stop_cd": "55189", "x_coord": "1.382619958", "opr_desc_txt": "The MCST Plan No. 1895", "bus_stop_desc_txt": "Bus stop outside Yio Chu Kang MRT Station", "rd_nam": "Ang Mo Kio Avenue 6", "orig_dest_txt": "Grande Vista Condominium to Yio Chu Kang / Ang Mo Kio Station", "bus_route_seq_num": "2", "op_hr_1_txt": "6.15am to 6.45pm (Monday to Friday, No Service on Public Holidays)", "no_svc_ind": "Y", "_id": 2, "bus_dirctn_txt": "1", "op_hr_2_txt": "7.00am to 7.45pm (Saturday to Sunday, No Service on Public Holidays)"}, {"fare_txt": "$2.00 ", "bus_svc_no_txt": "na", "y_coord": "103.8507545", "bus_stop_cd": "54261", "x_coord": "1.369469419", "opr_desc_txt": "The MCST Plan No. 1895", "bus_stop_desc_txt": "Bus stop outside Ang Mo Kio MRT Station", "rd_nam": "Ang Mo Kio Avenue 3", "orig_dest_txt": "Grande Vista Condominium to Yio Chu Kang / Ang Mo Kio Station", "bus_route_seq_num": "3", "op_hr_1_txt": "6.15am to 6.45pm (Monday to Friday, No Service on Public Holidays)", "no_svc_ind": "Y", "_id": 3, "bus_dirctn_txt": "1", "op_hr_2_txt": "7.00am to 7.45pm (Saturday to Sunday, No Service on Public Holidays)"}, {"fare_txt": "$4.00 ", "bus_svc_no_txt": "na", "y_coord": "103.86759", "bus_stop_cd": "na", "x_coord": "1.29664", "opr_desc_txt": "ComfortDelgro Bus", "bus_stop_desc_txt": "Outside Costa Rhu Condominium", "rd_nam": "Rhu Cross", "orig_dest_txt": "Tanjong Rhu to Shenton Way / Suntec City", "bus_route_seq_num": "1", "op_hr_1_txt": "Morning: 8.00am to 9.40am (Monday to Friday)", "no_svc_ind": "Y", "_id": 4, "bus_dirctn_txt": "1", "op_hr_2_txt": "Evening: 6.00pm to 8.00pm (Monday to Friday)"}, {"fare_txt": "$4.00 ", "bus_svc_no_txt": "na", "y_coord": "103.87048", "bus_stop_cd": "na", "x_coord": "1.29716", "opr_desc_txt": "ComfortDelgro Bus", "bus_stop_desc_txt": "Outside No. 130-136 Pebble Bay Condominium", "rd_nam": "Tanjong Rhu Road", "orig_dest_txt": "Tanjong Rhu to Shenton Way / Suntec City", "bus_route_seq_num": "2", "op_hr_1_txt": "Morning: 8.00am to 9.40am (Monday to Friday)", "no_svc_ind": "Y", "_id": 5, "bus_dirctn_txt": "1", "op_hr_2_txt": "Evening: 6.00pm to 8.00pm (Monday to Friday)"}], "_links": {"start": "/api/action/datastore_search?limit=5&resource_id=7670be81-ca96-49ba-9215-caf1f218954b", "next": "/api/action/datastore_search?offset=5&limit=5&resource_id=7670be81-ca96-49ba-9215-caf1f218954b"}, "limit": 5, "total": 3202}}