{"help": "https://data.gov.sg/api/3/action/help_show?name=datastore_search", "success": true, "result": {"resource_id": "ded670a7-5abd-4b81-b590-a9aa78774bdc", "fields": [{"type": "int4", "id": "_id"}, {"type": "text", "id": "type_of_speed_camera"}, {"type": "text", "id": "location"}, {"type": "numeric", "id": "location_latitude"}, {"type": "numeric", "id": "location_longitude"}], "records": [{"location_latitude": "1.298237", "_id": 1, "location": "Ayer Rajah Expressway towards City", "type_of_speed_camera": "Fixed Speed Camera", "location_longitude": "103.781679"}, {"location_latitude": "1.298219", "_id": 2, "location": "Ayer Rajah Expressway towards Jurong", "type_of_speed_camera": "Fixed Speed Camera", "location_longitude": "103.781724"}, {"location_latitude": "1.344737", "_id": 3, "location": "Boon Lay Way towards Commonwealth Avenue West", "type_of_speed_camera": "Fixed Speed Camera", "location_longitude": "103.725491"}, {"location_latitude": "1.344746", "_id": 4, "location": "Boon Lay Way towards Jalan Boon Lay", "type_of_speed_camera": "Fixed Speed Camera", "location_longitude": "103.725518"}, {"location_latitude": "1.360937", "_id": 5, "location": "Bukit Batok Road towards Chua Chu Kang Road", "type_of_speed_camera": "Fixed Speed Camera", "location_longitude": "103.740669"}], "_links": {"start": "/api/action/datastore_search?limit=5&resource_id=ded670a7-5abd-4b81-b590-a9aa78774bdc", "next": "/api/action/datastore_search?offset=5&limit=5&resource_id=ded670a7-5abd-4b81-b590-a9aa78774bdc"}, "limit": 5, "total": 91}}