{"help": "https://data.gov.sg/api/3/action/help_show?name=datastore_search", "success": true, "result": {"resource_id": "c5ccaeb2-2843-48c5-b096-4008fc857d99", "fields": [{"type": "int4", "id": "_id"}, {"type": "numeric", "id": "year"}, {"type": "text", "id": "major_occ"}, {"type": "text", "id": "ind1"}, {"type": "text", "id": "occ_desc"}, {"type": "numeric", "id": "mthly_gross_wage_50_pctile"}, {"type": "numeric", "id": "mthly_basic_wage_50_pctile"}], "records": [{"mthly_gross_wage_50_pctile": "6008", "ind1": "manufacturing", "occ_desc": "industrial and production engineer", "year": "2019", "mthly_basic_wage_50_pctile": "5598", "major_occ": "professionals, managers & executives", "_id": 1}, {"mthly_gross_wage_50_pctile": "5530", "ind1": "manufacturing", "occ_desc": "mechanical engineer", "year": "2019", "mthly_basic_wage_50_pctile": "5159", "major_occ": "professionals, managers & executives", "_id": 2}, {"mthly_gross_wage_50_pctile": "8152", "ind1": "manufacturing", "occ_desc": "manufacturing plant/production manager", "year": "2019", "mthly_basic_wage_50_pctile": "7651", "major_occ": "professionals, managers & executives", "_id": 3}, {"mthly_gross_wage_50_pctile": "6440", "ind1": "food, beverages & tobacco", "occ_desc": "manufacturing plant/production manager", "year": "2019", "mthly_basic_wage_50_pctile": "5999", "major_occ": "professionals, managers & executives", "_id": 4}, {"mthly_gross_wage_50_pctile": "6436", "ind1": "food, beverages & tobacco", "occ_desc": "sales and marketing manager", "year": "2019", "mthly_basic_wage_50_pctile": "5760", "major_occ": "professionals, managers & executives", "_id": 5}], "_links": {"start": "/api/action/datastore_search?limit=5&resource_id=c5ccaeb2-2843-48c5-b096-4008fc857d99", "next": "/api/action/datastore_search?offset=5&limit=5&resource_id=c5ccaeb2-2843-48c5-b096-4008fc857d99"}, "limit": 5, "total": 360}}