{"help": "https://data.gov.sg/api/3/action/help_show?name=datastore_search", "success": true, "result": {"resource_id": "1878d3dd-9151-4d54-bda4-6fe81abf750a", "fields": [{"type": "int4", "id": "_id"}, {"type": "text", "id": "month"}, {"type": "text", "id": "father_race"}, {"type": "text", "id": "child_gender"}, {"type": "numeric", "id": "birth_count"}], "records": [{"birth_count": "158", "father_race": "OTHERS", "child_gender": "F", "_id": 1, "month": "2019-01"}, {"birth_count": "888", "father_race": "CHINESE", "child_gender": "M", "_id": 2, "month": "2019-02"}, {"birth_count": "846", "father_race": "CHINESE", "child_gender": "F", "_id": 3, "month": "2019-02"}, {"birth_count": "157", "father_race": "INDIANS", "child_gender": "M", "_id": 4, "month": "2019-02"}, {"birth_count": "142", "father_race": "INDIANS", "child_gender": "F", "_id": 5, "month": "2019-02"}], "_links": {"start": "/api/action/datastore_search?limit=5&resource_id=1878d3dd-9151-4d54-bda4-6fe81abf750a", "next": "/api/action/datastore_search?offset=5&limit=5&resource_id=1878d3dd-9151-4d54-bda4-6fe81abf750a"}, "limit": 5, "total": 378}}