{"help": "https://data.gov.sg/api/3/action/help_show?name=datastore_search", "success": true, "result": {"resource_id": "e6228b3d-ce05-448b-97fa-95fb6b3fefb9", "fields": [{"type": "int4", "id": "_id"}, {"type": "text", "id": "year"}, {"type": "text", "id": "level_1"}, {"type": "numeric", "id": "value"}], "records": [{"_id": 1, "level_1": "Total Manufacturing", "value": "32479", "year": "1980"}, {"_id": 2, "level_1": "Total Manufacturing", "value": "37653.5", "year": "1981"}, {"_id": 3, "level_1": "Total Manufacturing", "value": "37351.3", "year": "1982"}, {"_id": 4, "level_1": "Total Manufacturing", "value": "38184.2", "year": "1983"}, {"_id": 5, "level_1": "Total Manufacturing", "value": "42063", "year": "1984"}], "_links": {"start": "/api/action/datastore_search?limit=5&resource_id=e6228b3d-ce05-448b-97fa-95fb6b3fefb9", "next": "/api/action/datastore_search?offset=5&limit=5&resource_id=e6228b3d-ce05-448b-97fa-95fb6b3fefb9"}, "limit": 5, "total": 38}}