{"help": "https://data.gov.sg/api/3/action/help_show?name=datastore_search", "success": true, "result": {"resource_id": "a3335df8-56c6-4cf1-95c5-5a2955abfaa4", "fields": [{"type": "int4", "id": "_id"}, {"type": "text", "id": "name_of_foreign_architect"}, {"type": "text", "id": "company"}, {"type": "text", "id": "boa_registered_architect"}, {"type": "text", "id": "project_details"}, {"type": "text", "id": "project_period"}, {"type": "text", "id": "client"}, {"type": "text", "id": "submitted_on"}, {"type": "text", "id": "approved_on"}], "records": [{"project_period": "2017 - 2022", "approved_on": "08-Jan-18", "company": "Denton Corker Marshall Pty Ltd Level 19, 55 Collins Street, Melbourne Vic 3000 Australia", "client": "GLL Prosper Pte Ltd and GLL Thrive Pte Ltd", "submitted_on": "08-Dec-17", "project_details": "Beach Road Project (Provisional Title) Plots 1 and 2 Beach Road", "_id": 1, "boa_registered_architect": "Tan Chee Kiang DP Architects Pte Ltd", "name_of_foreign_architect": "Adrian Arthur FitzGerald"}, {"project_period": "2017 - 2026", "approved_on": "13-Apr-18", "company": "Farrells Suites 1302-02, 13F 625 King's Road, Northpoint Hong Kong", "client": "Land Transport Authority", "submitted_on": "08-Mar-18", "project_details": "Contract H1001 Advance Engineering Study for the Proposed High Speed Rail (HSR) Within Singapore", "_id": 2, "boa_registered_architect": "Ngu King Teng Michael Architects 61 Pte Ltd", "name_of_foreign_architect": "Stefan Wilhelm Krummeck"}, {"project_period": "Aug 2017 - Dec 2020", "approved_on": "13-Apr-18", "company": "BIG CPH Kloverbladsgade 56 2500 Valby Copenhagen, Denmark", "client": "CL Office Trustee Pte Ltd as Trustee-Manager of Glory Office Trust and Glory SR Trustee Pte Ltd As Trustee - Manager of Glory SR Trust", "submitted_on": "14-Mar-18", "project_details": "Proposed Erection of a 51-storey Commercial Development with a Basement and comprising Shopping/ Hawker Centre (Air Space Lot)/Serviced Apartments/Office/ Muliti Storey Carpark and Ancilliary Facilities on Lots 00505N & 00660X-PT TS 01", "_id": 3, "boa_registered_architect": "Lee Kut Cheung RSP Architects Planners & Engineers (Pte) Ltd", "name_of_foreign_architect": "Yang Wei Heng Brian"}, {"project_period": "2017 - 2022", "approved_on": "13-Apr-18", "company": "CallisonRTKL Asia Limited c/o CallisonRTKL International Ltd 333 S. Hope St. C-200 Los Angeles, CA 90071", "client": "Wealthy Link Pte Ltd", "submitted_on": "27-Mar-18", "project_details": "Proposed Commercial Development at Central Boulevard", "_id": 4, "boa_registered_architect": "Ngu King Teng Michael Architects 61 Pte Ltd", "name_of_foreign_architect": "Wu Tzongwuu"}, {"project_period": "Mar 2018 - Mar 2020", "approved_on": "03-Jul-19", "company": "Peluche Pte Ltd 100 Pasir Panjang Road #06-04 Singapore 118518", "client": "Mr. Soh How Tong", "submitted_on": "24-Apr-18", "project_details": "New Erection of a 3-storey Detached Dewelling House on Lot 5293 @ 11 Nim Crescent S(807694)", "_id": 5, "boa_registered_architect": "Wu Huei Siang WASAA Architects & Associates", "name_of_foreign_architect": "Alvin Mark Riberta Felipe"}], "_links": {"start": "/api/action/datastore_search?limit=5&resource_id=a3335df8-56c6-4cf1-95c5-5a2955abfaa4", "next": "/api/action/datastore_search?offset=5&limit=5&resource_id=a3335df8-56c6-4cf1-95c5-5a2955abfaa4"}, "limit": 5, "total": 16}}