{"help": "https://data.gov.sg/api/3/action/help_show?name=datastore_search", "success": true, "result": {"resource_id": "b9d8d509-5cb6-45dc-bb46-9508e670e3c2", "fields": [{"type": "int4", "id": "_id"}, {"type": "text", "id": "tender_no."}, {"type": "text", "id": "tender_description"}, {"type": "text", "id": "agency"}, {"type": "text", "id": "award_date"}, {"type": "text", "id": "tender_detail_status"}, {"type": "text", "id": "supplier_name"}, {"type": "numeric", "id": "awarded_amt"}], "records": [{"tender_no.": "ACR000ETT14000007", "award_date": "6/2/2015", "tender_description": "Provision Of Event Management And Related Services For The Public Accountants Conference 2015. (There is a compulsory briefing on 13 Nov 14 at 10am at ACRA Boardroom. Only representatives who attended this compulsory briefing are eligible to participate in this tender).", "agency": "Accounting And Corporate Regulatory Authority", "awarded_amt": "0", "tender_detail_status": "Awarded to No Suppliers", "supplier_name": "Unknown", "_id": 1}, {"tender_no.": "ACR000ETT14000008", "award_date": "30/4/2015", "tender_description": "Invitation To Tender For The Provision Of Alternate Business Continuity Plan (BCP) Site For ACRA", "agency": "Accounting And Corporate Regulatory Authority", "awarded_amt": "0", "tender_detail_status": "Awarded to No Suppliers", "supplier_name": "Unknown", "_id": 2}, {"tender_no.": "ACR000ETT14000009", "award_date": "28/1/2015", "tender_description": "Invitation To Tender For The Provision Of Manpower Services (Facilities Officer) For ACRA", "agency": "Accounting And Corporate Regulatory Authority", "awarded_amt": "76071.21", "tender_detail_status": "Awarded to Suppliers", "supplier_name": "RMA CONTRACTS PTE. LTD.", "_id": 3}, {"tender_no.": "ACR000ETT15000004", "award_date": "1/7/2015", "tender_description": "Invitation To Tender For The Provision Of Manpower For Software Testing Services For ACRA", "agency": "Accounting And Corporate Regulatory Authority", "awarded_amt": "84000", "tender_detail_status": "Awarded to Suppliers", "supplier_name": "TESCOM (SINGAPORE) SOFTWARE SYSTEMS TESTING PTE LTD.", "_id": 4}, {"tender_no.": "ACR000ETT15000005", "award_date": "24/4/2015", "tender_description": "Proposed Interior Fitting Out Works for ACRA's Office Space at 10 Anson Road, #05-19 & #05-01/15 (Part) International Plaza, Singapore 079903", "agency": "Accounting And Corporate Regulatory Authority", "awarded_amt": "653255", "tender_detail_status": "Awarded to Suppliers", "supplier_name": "MKS GLOBAL PTE. LTD.", "_id": 5}], "_links": {"start": "/api/action/datastore_search?limit=5&resource_id=b9d8d509-5cb6-45dc-bb46-9508e670e3c2", "next": "/api/action/datastore_search?offset=5&limit=5&resource_id=b9d8d509-5cb6-45dc-bb46-9508e670e3c2"}, "limit": 5, "total": 29221}}