{"help": "https://data.gov.sg/api/3/action/help_show?name=datastore_search", "success": true, "result": {"resource_id": "899105b0-af9b-47ed-85d2-ab1c2a8be0e5", "fields": [{"type": "int4", "id": "_id"}, {"type": "text", "id": "executive_level"}, {"type": "text", "id": "public_service_sector"}, {"type": "text", "id": "year"}, {"type": "numeric", "id": "staff_strength"}], "records": [{"public_service_sector": "Civil Service", "_id": 1, "staff_strength": "40160", "executive_level": "Senior Executive & above", "year": "2010"}, {"public_service_sector": "Civil Service", "_id": 2, "staff_strength": "41957", "executive_level": "Senior Executive & above", "year": "2011"}, {"public_service_sector": "Civil Service", "_id": 3, "staff_strength": "44720", "executive_level": "Senior Executive & above", "year": "2012"}, {"public_service_sector": "Civil Service", "_id": 4, "staff_strength": "46656", "executive_level": "Senior Executive & above", "year": "2013"}, {"public_service_sector": "Civil Service", "_id": 5, "staff_strength": "48747", "executive_level": "Senior Executive & above", "year": "2014"}], "_links": {"start": "/api/action/datastore_search?limit=5&resource_id=899105b0-af9b-47ed-85d2-ab1c2a8be0e5", "next": "/api/action/datastore_search?offset=5&limit=5&resource_id=899105b0-af9b-47ed-85d2-ab1c2a8be0e5"}, "limit": 5, "total": 45}}