{"help": "https://data.gov.sg/api/3/action/help_show?name=datastore_search", "success": true, "result": {"resource_id": "7032cf7f-a9d6-4d3e-a819-4206b03a344a", "fields": [{"type": "int4", "id": "_id"}, {"type": "numeric", "id": "year"}, {"type": "text", "id": "sector"}, {"type": "numeric", "id": "rnd_expenditure"}], "records": [{"sector": "Private", "rnd_expenditure": "309.5", "_id": 1, "year": "1990"}, {"sector": "Private", "rnd_expenditure": "442", "_id": 2, "year": "1991"}, {"sector": "Private", "rnd_expenditure": "577.62", "_id": 3, "year": "1992"}, {"sector": "Private", "rnd_expenditure": "618.58", "_id": 4, "year": "1993"}, {"sector": "Private", "rnd_expenditure": "736.23", "_id": 5, "year": "1994"}], "_links": {"start": "/api/action/datastore_search?limit=5&resource_id=7032cf7f-a9d6-4d3e-a819-4206b03a344a", "next": "/api/action/datastore_search?offset=5&limit=5&resource_id=7032cf7f-a9d6-4d3e-a819-4206b03a344a"}, "limit": 5, "total": 58}}