{"help": "https://data.gov.sg/api/3/action/help_show?name=datastore_search", "success": true, "result": {"resource_id": "bb6f5bf8-7d0b-4526-b020-b812ea7d7d89", "fields": [{"type": "int4", "id": "_id"}, {"type": "text", "id": "from"}, {"type": "text", "id": "type_of_property"}, {"type": "text", "id": "annual_value"}, {"type": "numeric", "id": "tax_rate"}], "records": [{"type_of_property": "Non-Residential Properties, including Commercial and Industrial Properties", "tax_rate": "10", "_id": 1, "from": "2003-01-01", "annual_value": "na"}, {"type_of_property": "Non-Owner-Occupied Residential Properties", "tax_rate": "10", "_id": 2, "from": "2003-01-01", "annual_value": "na"}, {"type_of_property": "Non-Owner-Occupied Residential Properties", "tax_rate": "10", "_id": 3, "from": "2014-01-01", "annual_value": "0 - 30,000"}, {"type_of_property": "Non-Owner-Occupied Residential Properties", "tax_rate": "11", "_id": 4, "from": "2014-01-01", "annual_value": "30,001 - 45,000"}, {"type_of_property": "Non-Owner-Occupied Residential Properties", "tax_rate": "13", "_id": 5, "from": "2014-01-01", "annual_value": "45,001 - 60,000"}], "_links": {"start": "/api/action/datastore_search?limit=5&resource_id=bb6f5bf8-7d0b-4526-b020-b812ea7d7d89", "next": "/api/action/datastore_search?offset=5&limit=5&resource_id=bb6f5bf8-7d0b-4526-b020-b812ea7d7d89"}, "limit": 5, "total": 35}}