{"help": "https://data.gov.sg/api/3/action/help_show?name=datastore_search", "success": true, "result": {"resource_id": "9750e831-9abb-4ae4-b889-d2df7f42c658", "fields": [{"type": "int4", "id": "_id"}, {"type": "numeric", "id": "year"}, {"type": "text", "id": "purpose_type"}, {"type": "numeric", "id": "number_of_vessel_calls"}, {"type": "numeric", "id": "gross_tonnage"}], "records": [{"gross_tonnage": "408880", "_id": 1, "purpose_type": "Cargo", "number_of_vessel_calls": "47726", "year": "1995"}, {"gross_tonnage": "34573", "_id": 2, "purpose_type": "Repairs", "number_of_vessel_calls": "4250", "year": "1995"}, {"gross_tonnage": "441550", "_id": 3, "purpose_type": "Bunkers", "number_of_vessel_calls": "21306", "year": "1995"}, {"gross_tonnage": "212058", "_id": 4, "purpose_type": "Supplies", "number_of_vessel_calls": "15753", "year": "1995"}, {"gross_tonnage": "31045", "_id": 5, "purpose_type": "Others", "number_of_vessel_calls": "74472", "year": "1995"}], "_links": {"start": "/api/action/datastore_search?limit=5&resource_id=9750e831-9abb-4ae4-b889-d2df7f42c658", "next": "/api/action/datastore_search?offset=5&limit=5&resource_id=9750e831-9abb-4ae4-b889-d2df7f42c658"}, "limit": 5, "total": 125}}