{"help": "https://data.gov.sg/api/3/action/help_show?name=datastore_search", "success": true, "result": {"resource_id": "98da3a33-d6dc-40a0-9aa0-23e884fd6760", "fields": [{"type": "int4", "id": "_id"}, {"type": "text", "id": "quarter"}, {"type": "text", "id": "sex"}, {"type": "numeric", "id": "average_monthly_earnings"}], "records": [{"quarter": "1998-Q1", "_id": 1, "average_monthly_earnings": "2800", "sex": "total"}, {"quarter": "1998-Q2", "_id": 2, "average_monthly_earnings": "2544", "sex": "total"}, {"quarter": "1998-Q3", "_id": 3, "average_monthly_earnings": "2511", "sex": "total"}, {"quarter": "1998-Q4", "_id": 4, "average_monthly_earnings": "3104", "sex": "total"}, {"quarter": "1999-Q1", "_id": 5, "average_monthly_earnings": "2793", "sex": "total"}], "_links": {"start": "/api/action/datastore_search?limit=5&resource_id=98da3a33-d6dc-40a0-9aa0-23e884fd6760", "next": "/api/action/datastore_search?offset=5&limit=5&resource_id=98da3a33-d6dc-40a0-9aa0-23e884fd6760"}, "limit": 5, "total": 270}}