{"help": "https://data.gov.sg/api/3/action/help_show?name=datastore_search", "success": true, "result": {"resource_id": "9293c581-4eac-45c1-a174-823ac23b2517", "fields": [{"type": "int4", "id": "_id"}, {"type": "text", "id": "month"}, {"type": "text", "id": "cargo_type_primary"}, {"type": "text", "id": "cargo_type_secondary"}, {"type": "numeric", "id": "cargo_throughput"}], "records": [{"cargo_type_secondary": "Containerised", "cargo_throughput": "14071.23", "_id": 1, "cargo_type_primary": "General Cargo", "month": "2001-04"}, {"cargo_type_secondary": "Conventional", "cargo_throughput": "1358.74", "_id": 2, "cargo_type_primary": "General Cargo", "month": "2001-04"}, {"cargo_type_secondary": "Oil", "cargo_throughput": "9141.9", "_id": 3, "cargo_type_primary": "Bulk Cargo", "month": "2001-04"}, {"cargo_type_secondary": "Non-Oil Bulk", "cargo_throughput": "1131.76", "_id": 4, "cargo_type_primary": "Bulk Cargo", "month": "2001-04"}, {"cargo_type_secondary": "Containerised", "cargo_throughput": "14014.46", "_id": 5, "cargo_type_primary": "General Cargo", "month": "2001-05"}], "_links": {"start": "/api/action/datastore_search?limit=5&resource_id=9293c581-4eac-45c1-a174-823ac23b2517", "next": "/api/action/datastore_search?offset=5&limit=5&resource_id=9293c581-4eac-45c1-a174-823ac23b2517"}, "limit": 5, "total": 2172}}