{"help": "https://data.gov.sg/api/3/action/help_show?name=datastore_search", "success": true, "result": {"resource_id": "753fb877-cd66-4fda-bb3f-a3f051381633", "fields": [{"type": "int4", "id": "_id"}, {"type": "text", "id": "year"}, {"type": "text", "id": "level_1"}, {"type": "numeric", "id": "value"}], "records": [{"_id": 1, "level_1": "Total", "value": "738", "year": "1984"}, {"_id": 2, "level_1": "Brides - Secondary & Below", "value": "664", "year": "1984"}, {"_id": 3, "level_1": "Brides - Post-Secondary", "value": "57", "year": "1984"}, {"_id": 4, "level_1": "Brides - University", "value": "7", "year": "1984"}, {"_id": 5, "level_1": "Total", "value": "726", "year": "1985"}], "_links": {"start": "/api/action/datastore_search?limit=5&resource_id=753fb877-cd66-4fda-bb3f-a3f051381633", "next": "/api/action/datastore_search?offset=5&limit=5&resource_id=753fb877-cd66-4fda-bb3f-a3f051381633"}, "limit": 5, "total": 136}}