{"help": "https://data.gov.sg/api/3/action/help_show?name=datastore_search", "success": true, "result": {"resource_id": "85593a23-b801-4f5c-9512-a53ab94adf3c", "fields": [{"type": "int4", "id": "_id"}, {"type": "text", "id": "month"}, {"type": "numeric", "id": "bunker_sales"}], "records": [{"bunker_sales": "1565.3", "_id": 1, "month": "1995-01"}, {"bunker_sales": "1333.7", "_id": 2, "month": "1995-02"}, {"bunker_sales": "1511.1", "_id": 3, "month": "1995-03"}, {"bunker_sales": "1556.9", "_id": 4, "month": "1995-04"}, {"bunker_sales": "1470.1", "_id": 5, "month": "1995-05"}], "_links": {"start": "/api/action/datastore_search?limit=5&resource_id=85593a23-b801-4f5c-9512-a53ab94adf3c", "next": "/api/action/datastore_search?offset=5&limit=5&resource_id=85593a23-b801-4f5c-9512-a53ab94adf3c"}, "limit": 5, "total": 309}}