{"help": "https://data.gov.sg/api/3/action/help_show?name=datastore_search", "success": true, "result": {"resource_id": "d7b8e865-fd1c-44ec-9b9d-854e37f7a019", "fields": [{"type": "int4", "id": "_id"}, {"type": "text", "id": "quarter"}, {"type": "numeric", "id": "overtime_paid_hours"}], "records": [{"overtime_paid_hours": "4.3", "quarter": "1990-Q1", "_id": 1}, {"overtime_paid_hours": "4.6", "quarter": "1990-Q2", "_id": 2}, {"overtime_paid_hours": "4.4", "quarter": "1990-Q3", "_id": 3}, {"overtime_paid_hours": "4.1", "quarter": "1990-Q4", "_id": 4}, {"overtime_paid_hours": "4.2", "quarter": "1991-Q1", "_id": 5}], "_links": {"start": "/api/action/datastore_search?limit=5&resource_id=d7b8e865-fd1c-44ec-9b9d-854e37f7a019", "next": "/api/action/datastore_search?offset=5&limit=5&resource_id=d7b8e865-fd1c-44ec-9b9d-854e37f7a019"}, "limit": 5, "total": 122}}