{"help": "https://data.gov.sg/api/3/action/help_show?name=datastore_search", "success": true, "result": {"resource_id": "fbbfc342-2d4b-4b3d-8c0e-335970e6a3e0", "fields": [{"type": "int4", "id": "_id"}, {"type": "numeric", "id": "year"}, {"type": "text", "id": "age_year"}, {"type": "numeric", "id": "number"}], "records": [{"age_year": "0-<1", "_id": 1, "number": "109165", "year": "2005"}, {"age_year": "1-<2", "_id": 2, "number": "96518", "year": "2005"}, {"age_year": "2-<3", "_id": 3, "number": "78754", "year": "2005"}, {"age_year": "3-<4", "_id": 4, "number": "46496", "year": "2005"}, {"age_year": "4-<5", "_id": 5, "number": "34396", "year": "2005"}], "_links": {"start": "/api/action/datastore_search?limit=5&resource_id=fbbfc342-2d4b-4b3d-8c0e-335970e6a3e0", "next": "/api/action/datastore_search?offset=5&limit=5&resource_id=fbbfc342-2d4b-4b3d-8c0e-335970e6a3e0"}, "limit": 5, "total": 273}}