{"help": "https://data.gov.sg/api/3/action/help_show?name=datastore_search", "success": true, "result": {"resource_id": "18a4ff7d-43d4-4c83-9369-e52efcbd9ee0", "fields": [{"type": "int4", "id": "_id"}, {"type": "text", "id": "year"}, {"type": "text", "id": "level_1"}, {"type": "numeric", "id": "value"}], "records": [{"_id": 1, "level_1": "Total Services Sector, Operating Expenditure", "value": "2644446.2", "year": "2015"}, {"_id": 2, "level_1": "Wholesale Trade - SSIC 46, Operating Expenditure", "value": "2268880.7", "year": "2015"}, {"_id": 3, "level_1": "Retail Trade - SSIC 47, Operating Expenditure", "value": "44422.7", "year": "2015"}, {"_id": 4, "level_1": "Transport & Storage Services - SSIC 49-53, Operating Expenditure", "value": "105993.4", "year": "2015"}, {"_id": 5, "level_1": "Accommodations Services - SSIC 55, Operating Expenditure", "value": "4997.8", "year": "2015"}], "_links": {"start": "/api/action/datastore_search?limit=5&resource_id=18a4ff7d-43d4-4c83-9369-e52efcbd9ee0", "next": "/api/action/datastore_search?offset=5&limit=5&resource_id=18a4ff7d-43d4-4c83-9369-e52efcbd9ee0"}, "limit": 5, "total": 30}}