{"help": "https://data.gov.sg/api/3/action/help_show?name=datastore_search", "success": true, "result": {"resource_id": "60ec62b2-4c53-47bf-94a9-a86e7179daff", "fields": [{"type": "int4", "id": "_id"}, {"type": "text", "id": "year"}, {"type": "numeric", "id": "total_infocomm_jobs"}], "records": [{"_id": 1, "total_infocomm_jobs": "106900", "year": "2002"}, {"_id": 2, "total_infocomm_jobs": "105300", "year": "2003"}, {"_id": 3, "total_infocomm_jobs": "110100", "year": "2004"}, {"_id": 4, "total_infocomm_jobs": "117100", "year": "2005"}, {"_id": 5, "total_infocomm_jobs": "121800", "year": "2006"}], "_links": {"start": "/api/action/datastore_search?limit=5&resource_id=60ec62b2-4c53-47bf-94a9-a86e7179daff", "next": "/api/action/datastore_search?offset=5&limit=5&resource_id=60ec62b2-4c53-47bf-94a9-a86e7179daff"}, "limit": 5, "total": 16}}