{"help": "https://data.gov.sg/api/3/action/help_show?name=datastore_search", "success": true, "result": {"resource_id": "f927c39b-3b44-492e-8b54-174e775e0d98", "fields": [{"type": "int4", "id": "_id"}, {"type": "numeric", "id": "year"}, {"type": "numeric", "id": "sgd_per_unit_of_usd"}], "records": [{"sgd_per_unit_of_usd": "2.0124", "_id": 1, "year": "1988"}, {"sgd_per_unit_of_usd": "1.9503", "_id": 2, "year": "1989"}, {"sgd_per_unit_of_usd": "1.8125", "_id": 3, "year": "1990"}, {"sgd_per_unit_of_usd": "1.7276", "_id": 4, "year": "1991"}, {"sgd_per_unit_of_usd": "1.629", "_id": 5, "year": "1992"}], "_links": {"start": "/api/action/datastore_search?limit=5&resource_id=f927c39b-3b44-492e-8b54-174e775e0d98", "next": "/api/action/datastore_search?offset=5&limit=5&resource_id=f927c39b-3b44-492e-8b54-174e775e0d98"}, "limit": 5, "total": 54}}