{"help": "https://data.gov.sg/api/3/action/help_show?name=datastore_search", "success": true, "result": {"resource_id": "4d9c5bad-e5bb-4431-b0ab-8e44eab6ba57", "fields": [{"type": "int4", "id": "_id"}, {"type": "text", "id": "year"}, {"type": "text", "id": "design_class"}, {"type": "numeric", "id": "design_filings"}, {"type": "text", "id": "rank"}], "records": [{"design_filings": "411", "design_class": "Articles of adornment", "_id": 1, "rank": "1", "year": "2013"}, {"design_filings": "255", "design_class": "Recording, communication or information retrieval equipment", "_id": 2, "rank": "2", "year": "2013"}, {"design_filings": "136", "design_class": "Packages and containers for the transport or handling of goods", "_id": 3, "rank": "3", "year": "2013"}, {"design_filings": "117", "design_class": "Fluid distribution equipment, sanitary heating, ventilation and air-conditioning equipment, solid fuel", "_id": 4, "rank": "4", "year": "2013"}, {"design_filings": "107", "design_class": "Furnishing", "_id": 5, "rank": "5", "year": "2013"}], "_links": {"start": "/api/action/datastore_search?limit=5&resource_id=4d9c5bad-e5bb-4431-b0ab-8e44eab6ba57", "next": "/api/action/datastore_search?offset=5&limit=5&resource_id=4d9c5bad-e5bb-4431-b0ab-8e44eab6ba57"}, "limit": 5, "total": 160}}