{"help": "https://data.gov.sg/api/3/action/help_show?name=datastore_search", "success": true, "result": {"resource_id": "c3591e24-0de1-4c28-9c88-f1b8e12980da", "fields": [{"type": "int4", "id": "_id"}, {"type": "text", "id": "centre_code"}, {"type": "text", "id": "centre_name"}, {"type": "text", "id": "license_issue_date"}, {"type": "numeric", "id": "license_tenure"}], "records": [{"centre_code": "PT8260", "_id": 1, "license_issue_date": "2018-06-01", "centre_name": "CARPE DIEM KIDZ PTE. LTD.", "license_tenure": "36"}, {"centre_code": "PT8942", "_id": 2, "license_issue_date": "2018-05-02", "centre_name": "CARPE DIEM KIDZ PTE. LTD.", "license_tenure": "36"}, {"centre_code": "PT8641", "_id": 3, "license_issue_date": "2019-02-01", "centre_name": "CARPE DIEM KIDZ UNIVERSE PTE. LTD.", "license_tenure": "36"}, {"centre_code": "PT8525", "_id": 4, "license_issue_date": "2018-05-01", "centre_name": "CARPE DIEM KINDERACE PTE. LTD.", "license_tenure": "36"}, {"centre_code": "PT8443", "_id": 5, "license_issue_date": "2020-02-01", "centre_name": "CARPE DIEM KINDERCARE PTE. LTD.", "license_tenure": "24"}], "_links": {"start": "/api/action/datastore_search?limit=5&resource_id=c3591e24-0de1-4c28-9c88-f1b8e12980da", "next": "/api/action/datastore_search?offset=5&limit=5&resource_id=c3591e24-0de1-4c28-9c88-f1b8e12980da"}, "limit": 5, "total": 3544}}