{"help": "https://data.gov.sg/api/3/action/help_show?name=datastore_search", "success": true, "result": {"resource_id": "bb406cd0-753a-4e48-8410-09f9bf2eae0e", "fields": [{"type": "int4", "id": "_id"}, {"type": "numeric", "id": "year"}, {"type": "numeric", "id": "traffic_lights"}], "records": [{"_id": 1, "traffic_lights": "1256", "year": "1994"}, {"_id": 2, "traffic_lights": "1308", "year": "1995"}, {"_id": 3, "traffic_lights": "1381", "year": "1996"}, {"_id": 4, "traffic_lights": "1463", "year": "1997"}, {"_id": 5, "traffic_lights": "1528", "year": "1998"}], "_links": {"start": "/api/action/datastore_search?limit=5&resource_id=bb406cd0-753a-4e48-8410-09f9bf2eae0e", "next": "/api/action/datastore_search?offset=5&limit=5&resource_id=bb406cd0-753a-4e48-8410-09f9bf2eae0e"}, "limit": 5, "total": 24}}