{"help": "https://data.gov.sg/api/3/action/help_show?name=datastore_search", "success": true, "result": {"resource_id": "c29c4134-68a4-4042-afd5-0a9bf05cbc5a", "fields": [{"type": "int4", "id": "_id"}, {"type": "numeric", "id": "year"}, {"type": "text", "id": "level_1"}, {"type": "numeric", "id": "value"}], "records": [{"_id": 1, "level_1": "Total", "value": "31.4", "year": "1980"}, {"_id": 2, "level_1": "Chinese", "value": "31.4", "year": "1980"}, {"_id": 3, "level_1": "Indians", "value": "30.9", "year": "1980"}, {"_id": 4, "level_1": "Others", "value": "32.4", "year": "1980"}, {"_id": 5, "level_1": "Total", "value": "31.7", "year": "1981"}], "_links": {"start": "/api/action/datastore_search?limit=5&resource_id=c29c4134-68a4-4042-afd5-0a9bf05cbc5a", "next": "/api/action/datastore_search?offset=5&limit=5&resource_id=c29c4134-68a4-4042-afd5-0a9bf05cbc5a"}, "limit": 5, "total": 160}}