{"help": "https://data.gov.sg/api/3/action/help_show?name=datastore_search", "success": true, "result": {"resource_id": "2e83721f-f4df-414a-a401-c54b44d3646a", "fields": [{"type": "int4", "id": "_id"}, {"type": "text", "id": "year"}, {"type": "text", "id": "annual_leave_entitlement"}, {"type": "numeric", "id": "distribution"}], "records": [{"distribution": "58.3", "_id": 1, "annual_leave_entitlement": "14 days & below", "year": "2006"}, {"distribution": "33.2", "_id": 2, "annual_leave_entitlement": "15 to 21 days", "year": "2006"}, {"distribution": "8.5", "_id": 3, "annual_leave_entitlement": "over 21 days", "year": "2006"}, {"distribution": "59.4", "_id": 4, "annual_leave_entitlement": "14 days & below", "year": "2008"}, {"distribution": "31.5", "_id": 5, "annual_leave_entitlement": "15 to 21 days", "year": "2008"}], "_links": {"start": "/api/action/datastore_search?limit=5&resource_id=2e83721f-f4df-414a-a401-c54b44d3646a", "next": "/api/action/datastore_search?offset=5&limit=5&resource_id=2e83721f-f4df-414a-a401-c54b44d3646a"}, "limit": 5, "total": 21}}