{"help": "https://data.gov.sg/api/3/action/help_show?name=datastore_search", "success": true, "result": {"resource_id": "0094016c-a6dd-4801-8608-329775e1dab3", "fields": [{"type": "int4", "id": "_id"}, {"type": "numeric", "id": "year"}, {"type": "text", "id": "age"}, {"type": "text", "id": "sex"}, {"type": "numeric", "id": "enrolment_primary"}], "records": [{"age": "13 YRS", "_id": 1, "sex": "MF", "enrolment_primary": "6766", "year": "1992"}, {"age": "13 YRS", "_id": 2, "sex": "F", "enrolment_primary": "2780", "year": "1992"}, {"age": "14 YRS & OVER", "_id": 3, "sex": "MF", "enrolment_primary": "262", "year": "1992"}, {"age": "14 YRS & OVER", "_id": 4, "sex": "F", "enrolment_primary": "95", "year": "1992"}, {"age": "7 YRS", "_id": 5, "sex": "MF", "enrolment_primary": "40410", "year": "1992"}], "_links": {"start": "/api/action/datastore_search?limit=5&resource_id=0094016c-a6dd-4801-8608-329775e1dab3", "next": "/api/action/datastore_search?offset=5&limit=5&resource_id=0094016c-a6dd-4801-8608-329775e1dab3"}, "limit": 5, "total": 1146}}