{"help": "https://data.gov.sg/api/3/action/help_show?name=datastore_search", "success": true, "result": {"resource_id": "496fb5c1-1692-4214-963e-df371d024917", "fields": [{"type": "int4", "id": "_id"}, {"type": "numeric", "id": "year"}, {"type": "text", "id": "course"}, {"type": "numeric", "id": "fee_per_term"}], "records": [{"course": "Technical Engineer Diploma in Automotive Engineering / Technical Engineer Diploma in Machine Technology", "_id": 1, "fee_per_term": "1188.6", "year": "2013"}, {"course": "Technical Diploma in Culinary Arts", "_id": 2, "fee_per_term": "1373.6", "year": "2013"}, {"course": "Technical Engineer Diploma in Automotive Engineering / Technical Engineer Diploma in Machine Technology", "_id": 3, "fee_per_term": "1238.6", "year": "2014"}, {"course": "Technical Diploma in Culinary Arts", "_id": 4, "fee_per_term": "1393.6", "year": "2014"}, {"course": "Technical Engineer Diploma in Automotive Engineering / Technical Engineer Diploma in Machine Technology", "_id": 5, "fee_per_term": "1291.6", "year": "2015"}], "_links": {"start": "/api/action/datastore_search?limit=5&resource_id=496fb5c1-1692-4214-963e-df371d024917", "next": "/api/action/datastore_search?offset=5&limit=5&resource_id=496fb5c1-1692-4214-963e-df371d024917"}, "limit": 5, "total": 16}}