{"help": "https://data.gov.sg/api/3/action/help_show?name=datastore_search", "success": true, "result": {"resource_id": "6d1613d3-85f2-430c-b791-2b29351bbf1d", "fields": [{"type": "int4", "id": "_id"}, {"type": "text", "id": "ura_carpark_name"}, {"type": "text", "id": "parking_place_code"}, {"type": "text", "id": "season_parking_hours"}, {"type": "text", "id": "vehicle_category"}, {"type": "text", "id": "ticket_type"}, {"type": "numeric", "id": "monthly_rate"}], "records": [{"vehicle_category": "Car", "season_parking_hours": "Everyday;7am to 7am (24 hrs)", "ticket_type": "Commercial", "parking_place_code": "GA002", "monthly_rate": "80", "_id": 1, "ura_carpark_name": "ADAM ROAD FOOD CENTRE AREA"}, {"vehicle_category": "Heavy Vehicle", "season_parking_hours": "Everyday;7am to 7am (24 hrs)", "ticket_type": "Commercial", "parking_place_code": "A0052", "monthly_rate": "130", "_id": 2, "ura_carpark_name": "ANCHORVALE CRESCENT HEAVY VEHICLE PARK"}, {"vehicle_category": "Car", "season_parking_hours": "Everyday;7am to 7am (24 hrs)", "ticket_type": "Commercial", "parking_place_code": "A0048", "monthly_rate": "80", "_id": 3, "ura_carpark_name": "ANG MO KIO STREET 63"}, {"vehicle_category": "Car", "season_parking_hours": "Everyday;7am to 7am (24 hrs)", "ticket_type": "Commercial", "parking_place_code": "GB001", "monthly_rate": "80", "_id": 4, "ura_carpark_name": "BALESTIER ROAD AREA"}, {"vehicle_category": "Car", "season_parking_hours": "Everyday;7am to 7am (24 hrs)", "ticket_type": "Residential", "parking_place_code": "GB001", "monthly_rate": "65", "_id": 5, "ura_carpark_name": "BALESTIER ROAD AREA"}], "_links": {"start": "/api/action/datastore_search?limit=5&resource_id=6d1613d3-85f2-430c-b791-2b29351bbf1d", "next": "/api/action/datastore_search?offset=5&limit=5&resource_id=6d1613d3-85f2-430c-b791-2b29351bbf1d"}, "limit": 5, "total": 241}}