{"help": "https://data.gov.sg/api/3/action/help_show?name=datastore_search", "success": true, "result": {"resource_id": "892f3632-1021-4a68-96b8-105474f6be1f", "fields": [{"type": "int4", "id": "_id"}, {"type": "text", "id": "year"}, {"type": "text", "id": "race"}, {"type": "text", "id": "place_of_occurrence"}, {"type": "text", "id": "infant_indicator"}, {"type": "numeric", "id": "death_count"}], "records": [{"place_of_occurrence": "Licensed Sick Receiving Houses", "infant_indicator": "Non-Infant Death", "death_count": "660", "race": "CHINESE", "year": "2016", "_id": 1}, {"place_of_occurrence": "Licensed Sick Receiving Houses", "infant_indicator": "Non-Infant Death", "death_count": "31", "race": "INDIANS", "year": "2016", "_id": 2}, {"place_of_occurrence": "Licensed Sick Receiving Houses", "infant_indicator": "Non-Infant Death", "death_count": "38", "race": "MALAYS", "year": "2016", "_id": 3}, {"place_of_occurrence": "Licensed Sick Receiving Houses", "infant_indicator": "Non-Infant Death", "death_count": "11", "race": "OTHERS", "year": "2016", "_id": 4}, {"place_of_occurrence": "Nursing Homes & Clinics", "infant_indicator": "Non-Infant Death", "death_count": "326", "race": "CHINESE", "year": "2016", "_id": 5}], "_links": {"start": "/api/action/datastore_search?limit=5&resource_id=892f3632-1021-4a68-96b8-105474f6be1f", "next": "/api/action/datastore_search?offset=5&limit=5&resource_id=892f3632-1021-4a68-96b8-105474f6be1f"}, "limit": 5, "total": 111}}