{"help": "https://data.gov.sg/api/3/action/help_show?name=datastore_search", "success": true, "result": {"resource_id": "9c9d18fa-0865-43c9-a24e-8a90c7303a40", "fields": [{"type": "int4", "id": "_id"}, {"type": "numeric", "id": "financial_year"}, {"type": "numeric", "id": "cost_per_dollar_of_tax_collected"}], "records": [{"cost_per_dollar_of_tax_collected": "0.87", "_id": 1, "financial_year": "2000"}, {"cost_per_dollar_of_tax_collected": "0.9", "_id": 2, "financial_year": "2001"}, {"cost_per_dollar_of_tax_collected": "0.99", "_id": 3, "financial_year": "2002"}, {"cost_per_dollar_of_tax_collected": "1.01", "_id": 4, "financial_year": "2003"}, {"cost_per_dollar_of_tax_collected": "1.02", "_id": 5, "financial_year": "2004"}], "_links": {"start": "/api/action/datastore_search?limit=5&resource_id=9c9d18fa-0865-43c9-a24e-8a90c7303a40", "next": "/api/action/datastore_search?offset=5&limit=5&resource_id=9c9d18fa-0865-43c9-a24e-8a90c7303a40"}, "limit": 5, "total": 20}}