{"help": "https://data.gov.sg/api/3/action/help_show?name=datastore_search", "success": true, "result": {"resource_id": "6bc172a4-192f-4ca3-90dc-88ada4f46a64", "fields": [{"type": "int4", "id": "_id"}, {"type": "numeric", "id": "year"}, {"type": "numeric", "id": "incidence_of_retrenchment"}], "records": [{"_id": 1, "incidence_of_retrenchment": "32.7", "year": "1998"}, {"_id": 2, "incidence_of_retrenchment": "16.1", "year": "1999"}, {"_id": 3, "incidence_of_retrenchment": "11.9", "year": "2000"}, {"_id": 4, "incidence_of_retrenchment": "26.3", "year": "2001"}, {"_id": 5, "incidence_of_retrenchment": "19.2", "year": "2002"}], "_links": {"start": "/api/action/datastore_search?limit=5&resource_id=6bc172a4-192f-4ca3-90dc-88ada4f46a64", "next": "/api/action/datastore_search?offset=5&limit=5&resource_id=6bc172a4-192f-4ca3-90dc-88ada4f46a64"}, "limit": 5, "total": 22}}