{"help": "https://data.gov.sg/api/3/action/help_show?name=datastore_search", "success": true, "result": {"resource_id": "abd3b831-e4da-408c-8758-beeaf0b7e49e", "fields": [{"type": "int4", "id": "_id"}, {"type": "numeric", "id": "year"}, {"type": "numeric", "id": "number"}], "records": [{"_id": 1, "number": "94173", "year": "2004"}, {"_id": 2, "number": "94899", "year": "2005"}, {"_id": 3, "number": "96577", "year": "2006"}, {"_id": 4, "number": "95780", "year": "2007"}, {"_id": 5, "number": "99017", "year": "2008"}], "_links": {"start": "/api/action/datastore_search?limit=5&resource_id=abd3b831-e4da-408c-8758-beeaf0b7e49e", "next": "/api/action/datastore_search?offset=5&limit=5&resource_id=abd3b831-e4da-408c-8758-beeaf0b7e49e"}, "limit": 5, "total": 14}}