{"help": "https://data.gov.sg/api/3/action/help_show?name=datastore_search", "success": true, "result": {"resource_id": "35090ddf-276a-48b1-8a96-6525ac5bcb43", "fields": [{"type": "int4", "id": "_id"}, {"type": "numeric", "id": "yr"}, {"type": "numeric", "id": "no_of_claims"}], "records": [{"no_of_claims": "135971", "yr": "2006", "_id": 1}, {"no_of_claims": "158819", "yr": "2007", "_id": 2}, {"no_of_claims": "176709", "yr": "2008", "_id": 3}, {"no_of_claims": "206707", "yr": "2009", "_id": 4}, {"no_of_claims": "235883", "yr": "2010", "_id": 5}], "_links": {"start": "/api/action/datastore_search?limit=5&resource_id=35090ddf-276a-48b1-8a96-6525ac5bcb43", "next": "/api/action/datastore_search?offset=5&limit=5&resource_id=35090ddf-276a-48b1-8a96-6525ac5bcb43"}, "limit": 5, "total": 14}}