{"help": "https://data.gov.sg/api/3/action/help_show?name=datastore_search", "success": true, "result": {"resource_id": "190a43f4-e5f7-4a64-b071-f6352329ce4d", "fields": [{"type": "int4", "id": "_id"}, {"type": "numeric", "id": "financial_year"}, {"type": "text", "id": "application_type"}, {"type": "numeric", "id": "no_of_applications"}], "records": [{"application_type": "new flat buyers", "_id": 1, "financial_year": "2008", "no_of_applications": "936"}, {"application_type": "resale flat buyers", "_id": 2, "financial_year": "2008", "no_of_applications": "14913"}, {"application_type": "existing flat owners (refinance)", "_id": 3, "financial_year": "2008", "no_of_applications": "42"}, {"application_type": "new flat buyers", "_id": 4, "financial_year": "2009", "no_of_applications": "948"}, {"application_type": "resale flat buyers", "_id": 5, "financial_year": "2009", "no_of_applications": "22345"}], "_links": {"start": "/api/action/datastore_search?limit=5&resource_id=190a43f4-e5f7-4a64-b071-f6352329ce4d", "next": "/api/action/datastore_search?offset=5&limit=5&resource_id=190a43f4-e5f7-4a64-b071-f6352329ce4d"}, "limit": 5, "total": 41}}