{"help": "https://data.gov.sg/api/3/action/help_show?name=datastore_search", "success": true, "result": {"resource_id": "d4807660-5601-4ac4-8078-8f9526f53bde", "fields": [{"type": "int4", "id": "_id"}, {"type": "numeric", "id": "year"}, {"type": "text", "id": "age_year"}, {"type": "numeric", "id": "number"}], "records": [{"age_year": "0-<1", "_id": 1, "number": "12122", "year": "2005"}, {"age_year": "1-<2", "_id": 2, "number": "11976", "year": "2005"}, {"age_year": "2-<3", "_id": 3, "number": "14712", "year": "2005"}, {"age_year": "3-<4", "_id": 4, "number": "16599", "year": "2005"}, {"age_year": "4-<5", "_id": 5, "number": "13127", "year": "2005"}], "_links": {"start": "/api/action/datastore_search?limit=5&resource_id=d4807660-5601-4ac4-8078-8f9526f53bde", "next": "/api/action/datastore_search?offset=5&limit=5&resource_id=d4807660-5601-4ac4-8078-8f9526f53bde"}, "limit": 5, "total": 273}}