{"help": "https://data.gov.sg/api/3/action/help_show?name=datastore_search", "success": true, "result": {"resource_id": "fac23a50-44bd-439d-b3f1-f0a0c5083de1", "fields": [{"type": "int4", "id": "_id"}, {"type": "numeric", "id": "year"}, {"type": "text", "id": "sex"}, {"type": "text", "id": "level_of_school"}, {"type": "text", "id": "age"}, {"type": "numeric", "id": "no_of_principals"}], "records": [{"age": "50 - 54", "sex": "MF", "level_of_school": "PRIMARY", "year": "2001", "_id": 1, "no_of_principals": "86"}, {"age": "50 - 54", "sex": "F", "level_of_school": "PRIMARY", "year": "2001", "_id": 2, "no_of_principals": "54"}, {"age": "55 & ABOVE", "sex": "MF", "level_of_school": "PRIMARY", "year": "2001", "_id": 3, "no_of_principals": "49"}, {"age": "55 & ABOVE", "sex": "F", "level_of_school": "PRIMARY", "year": "2001", "_id": 4, "no_of_principals": "29"}, {"age": "30 - 34", "sex": "MF", "level_of_school": "SECONDARY", "year": "2001", "_id": 5, "no_of_principals": "0"}], "_links": {"start": "/api/action/datastore_search?limit=5&resource_id=fac23a50-44bd-439d-b3f1-f0a0c5083de1", "next": "/api/action/datastore_search?offset=5&limit=5&resource_id=fac23a50-44bd-439d-b3f1-f0a0c5083de1"}, "limit": 5, "total": 1528}}