{"help": "https://data.gov.sg/api/3/action/help_show?name=datastore_search", "success": true, "result": {"resource_id": "a62fb07f-9c17-4308-b234-92b620e0148e", "fields": [{"type": "int4", "id": "_id"}, {"type": "text", "id": "year"}, {"type": "text", "id": "applicant_country"}, {"type": "numeric", "id": "trademark_filings_classes"}, {"type": "text", "id": "rank"}], "records": [{"applicant_country": "Singapore", "trademark_filings_classes": "7573", "_id": 1, "rank": "1", "year": "2013"}, {"applicant_country": "United States of America", "trademark_filings_classes": "5977", "_id": 2, "rank": "2", "year": "2013"}, {"applicant_country": "Japan", "trademark_filings_classes": "3760", "_id": 3, "rank": "3", "year": "2013"}, {"applicant_country": "Germany", "trademark_filings_classes": "2425", "_id": 4, "rank": "4", "year": "2013"}, {"applicant_country": "China", "trademark_filings_classes": "2138", "_id": 5, "rank": "5", "year": "2013"}], "_links": {"start": "/api/action/datastore_search?limit=5&resource_id=a62fb07f-9c17-4308-b234-92b620e0148e", "next": "/api/action/datastore_search?offset=5&limit=5&resource_id=a62fb07f-9c17-4308-b234-92b620e0148e"}, "limit": 5, "total": 578}}