{"help": "https://data.gov.sg/api/3/action/help_show?name=datastore_search", "success": true, "result": {"resource_id": "f6bdfe4c-bde0-4313-a10b-82bd0ac634a9", "fields": [{"type": "int4", "id": "_id"}, {"type": "numeric", "id": "year"}, {"type": "text", "id": "cc_rating"}, {"type": "numeric", "id": "number"}], "records": [{"cc_rating": "1000cc and below", "_id": 1, "number": "9514", "year": "2005"}, {"cc_rating": "1001-1600cc", "_id": 2, "number": "258373", "year": "2005"}, {"cc_rating": "1601-2000cc", "_id": 3, "number": "105201", "year": "2005"}, {"cc_rating": "2001-3000cc", "_id": 4, "number": "58257", "year": "2005"}, {"cc_rating": "3001cc and above", "_id": 5, "number": "6849", "year": "2005"}], "_links": {"start": "/api/action/datastore_search?limit=5&resource_id=f6bdfe4c-bde0-4313-a10b-82bd0ac634a9", "next": "/api/action/datastore_search?offset=5&limit=5&resource_id=f6bdfe4c-bde0-4313-a10b-82bd0ac634a9"}, "limit": 5, "total": 65}}