{"help": "https://data.gov.sg/api/3/action/help_show?name=datastore_search", "success": true, "result": {"resource_id": "a48abc58-8b8f-413e-a4ff-6a84cd00584e", "fields": [{"type": "int4", "id": "_id"}, {"type": "numeric", "id": "year"}, {"type": "text", "id": "race"}, {"type": "numeric", "id": "percentage_progress_ite"}], "records": [{"_id": 1, "percentage_progress_ite": "61.8", "race": "Malay", "year": "2008"}, {"_id": 2, "percentage_progress_ite": "64.2", "race": "Chinese", "year": "2008"}, {"_id": 3, "percentage_progress_ite": "58.3", "race": "Indian", "year": "2008"}, {"_id": 4, "percentage_progress_ite": "63.2", "race": "Others", "year": "2008"}, {"_id": 5, "percentage_progress_ite": "62.6", "race": "Overall", "year": "2008"}], "_links": {"start": "/api/action/datastore_search?limit=5&resource_id=a48abc58-8b8f-413e-a4ff-6a84cd00584e", "next": "/api/action/datastore_search?offset=5&limit=5&resource_id=a48abc58-8b8f-413e-a4ff-6a84cd00584e"}, "limit": 5, "total": 60}}