{"help": "https://data.gov.sg/api/3/action/help_show?name=datastore_search", "success": true, "result": {"resource_id": "f7bbdc43-c568-4e60-9afa-b77ba5a14aa0", "fields": [{"type": "int4", "id": "_id"}, {"type": "text", "id": "month"}, {"type": "numeric", "id": "bidding_no"}, {"type": "text", "id": "vehicle_class"}, {"type": "numeric", "id": "quota"}, {"type": "numeric", "id": "bids_success"}, {"type": "numeric", "id": "bids_received"}, {"type": "numeric", "id": "premium"}], "records": [{"vehicle_class": "Category A", "bidding_no": "2", "premium": "78301", "bids_received": "427", "quota": "333", "month": "2013-02", "_id": 1, "bids_success": "329"}, {"vehicle_class": "Category B", "bidding_no": "2", "premium": "92667", "bids_received": "409", "quota": "303", "month": "2013-02", "_id": 2, "bids_success": "299"}, {"vehicle_class": "Category C", "bidding_no": "2", "premium": "53489", "bids_received": "285", "quota": "225", "month": "2013-02", "_id": 3, "bids_success": "225"}, {"vehicle_class": "Category D", "bidding_no": "2", "premium": "1512", "bids_received": "589", "quota": "506", "month": "2013-02", "_id": 4, "bids_success": "469"}, {"vehicle_class": "Category E", "bidding_no": "2", "premium": "91910", "bids_received": "370", "quota": "241", "month": "2013-02", "_id": 5, "bids_success": "200"}], "_links": {"start": "/api/action/datastore_search?limit=5&resource_id=f7bbdc43-c568-4e60-9afa-b77ba5a14aa0", "next": "/api/action/datastore_search?offset=5&limit=5&resource_id=f7bbdc43-c568-4e60-9afa-b77ba5a14aa0"}, "limit": 5, "total": 2085}}