{"help": "https://data.gov.sg/api/3/action/help_show?name=datastore_search", "success": true, "result": {"resource_id": "76469fcd-61d2-41bc-a2d0-9dd4d13b398a", "fields": [{"type": "int4", "id": "_id"}, {"type": "numeric", "id": "year"}, {"type": "text", "id": "race"}, {"type": "numeric", "id": "percentage_pass_mtl"}], "records": [{"_id": 1, "percentage_pass_mtl": "99.8", "race": "Malay", "year": "2008"}, {"_id": 2, "percentage_pass_mtl": "95.6", "race": "Chinese", "year": "2008"}, {"_id": 3, "percentage_pass_mtl": "96.3", "race": "Indian", "year": "2008"}, {"_id": 4, "percentage_pass_mtl": "84.4", "race": "Others", "year": "2008"}, {"_id": 5, "percentage_pass_mtl": "96.7", "race": "Overall", "year": "2008"}], "_links": {"start": "/api/action/datastore_search?limit=5&resource_id=76469fcd-61d2-41bc-a2d0-9dd4d13b398a", "next": "/api/action/datastore_search?offset=5&limit=5&resource_id=76469fcd-61d2-41bc-a2d0-9dd4d13b398a"}, "limit": 5, "total": 60}}