{"help": "https://data.gov.sg/api/3/action/help_show?name=datastore_search", "success": true, "result": {"resource_id": "508b9ba5-ba5f-449e-bc69-e881ba15a018", "fields": [{"type": "int4", "id": "_id"}, {"type": "numeric", "id": "year"}, {"type": "text", "id": "age_years"}, {"type": "numeric", "id": "number"}], "records": [{"age_years": "0-<1", "_id": 1, "number": "776", "year": "2005"}, {"age_years": "1-<2", "_id": 2, "number": "684", "year": "2005"}, {"age_years": "2-<3", "_id": 3, "number": "699", "year": "2005"}, {"age_years": "3-<4", "_id": 4, "number": "639", "year": "2005"}, {"age_years": "4-<5", "_id": 5, "number": "840", "year": "2005"}], "_links": {"start": "/api/action/datastore_search?limit=5&resource_id=508b9ba5-ba5f-449e-bc69-e881ba15a018", "next": "/api/action/datastore_search?offset=5&limit=5&resource_id=508b9ba5-ba5f-449e-bc69-e881ba15a018"}, "limit": 5, "total": 273}}