{"help": "https://data.gov.sg/api/3/action/help_show?name=datastore_search", "success": true, "result": {"resource_id": "115bf8a7-46df-466c-b7fc-375ef3c1b425", "fields": [{"type": "int4", "id": "_id"}, {"type": "numeric", "id": "year"}, {"type": "text", "id": "sex"}, {"type": "text", "id": "course"}, {"type": "numeric", "id": "intake"}, {"type": "numeric", "id": "enrolment"}, {"type": "numeric", "id": "graduates"}], "records": [{"intake": "364", "enrolment": "1448", "sex": "MF", "course": "Law", "year": "2011", "_id": 1, "graduates": "329"}, {"intake": "172", "enrolment": "742", "sex": "F", "course": "Law", "year": "2011", "_id": 2, "graduates": "208"}, {"intake": "174", "enrolment": "673", "sex": "MF", "course": "Mass Communication", "year": "2011", "_id": 3, "graduates": "174"}, {"intake": "135", "enrolment": "490", "sex": "F", "course": "Mass Communication", "year": "2011", "_id": 4, "graduates": "133"}, {"intake": "280", "enrolment": "1328", "sex": "MF", "course": "Medicine", "year": "2011", "_id": 5, "graduates": "255"}], "_links": {"start": "/api/action/datastore_search?limit=5&resource_id=115bf8a7-46df-466c-b7fc-375ef3c1b425", "next": "/api/action/datastore_search?offset=5&limit=5&resource_id=115bf8a7-46df-466c-b7fc-375ef3c1b425"}, "limit": 5, "total": 700}}