{"help": "https://data.gov.sg/api/3/action/help_show?name=datastore_search", "success": true, "result": {"resource_id": "030242d7-b307-485a-8311-c19ad896dcb0", "fields": [{"type": "int4", "id": "_id"}, {"type": "text", "id": "month"}, {"type": "text", "id": "vehicle_type"}, {"type": "numeric", "id": "number"}], "records": [{"_id": 1, "number": "593555", "vehicle_type": "Cars", "month": "2012-01"}, {"_id": 2, "number": "13970", "vehicle_type": "Rental Cars", "month": "2012-01"}, {"_id": 3, "number": "27059", "vehicle_type": "Taxi", "month": "2012-01"}, {"_id": 4, "number": "17037", "vehicle_type": "Buses", "month": "2012-01"}, {"_id": 5, "number": "159854", "vehicle_type": "Goods & Other Vehicles", "month": "2012-01"}], "_links": {"start": "/api/action/datastore_search?limit=5&resource_id=030242d7-b307-485a-8311-c19ad896dcb0", "next": "/api/action/datastore_search?offset=5&limit=5&resource_id=030242d7-b307-485a-8311-c19ad896dcb0"}, "limit": 5, "total": 444}}