{"help": "https://data.gov.sg/api/3/action/help_show?name=datastore_search", "success": true, "result": {"resource_id": "29c6c49c-93f6-4e60-af96-4fc0e1298b14", "fields": [{"type": "int4", "id": "_id"}, {"type": "text", "id": "month"}, {"type": "text", "id": "broadband_connections"}, {"type": "numeric", "id": "no_of_subscriptions"}], "records": [{"no_of_subscriptions": "430519", "broadband_connections": "DSL", "_id": 1, "month": "2008-08"}, {"no_of_subscriptions": "423646", "broadband_connections": "Cable Modem", "_id": 2, "month": "2008-08"}, {"no_of_subscriptions": "433040", "broadband_connections": "DSL", "_id": 3, "month": "2008-09"}, {"no_of_subscriptions": "432755", "broadband_connections": "Cable Modem", "_id": 4, "month": "2008-09"}, {"no_of_subscriptions": "432726", "broadband_connections": "DSL", "_id": 5, "month": "2008-10"}], "_links": {"start": "/api/action/datastore_search?limit=5&resource_id=29c6c49c-93f6-4e60-af96-4fc0e1298b14", "next": "/api/action/datastore_search?offset=5&limit=5&resource_id=29c6c49c-93f6-4e60-af96-4fc0e1298b14"}, "limit": 5, "total": 361}}