{"help": "https://data.gov.sg/api/3/action/help_show?name=datastore_search", "success": true, "result": {"resource_id": "935ddcff-86a8-4f3f-a5a2-42ebef7d179d", "fields": [{"type": "int4", "id": "_id"}, {"type": "numeric", "id": "year"}, {"type": "text", "id": "make"}, {"type": "numeric", "id": "number"}], "records": [{"make": "OTHERS", "_id": 1, "number": "0", "year": "2004"}, {"make": "TOYOTA", "_id": 2, "number": "238", "year": "2005"}, {"make": "MERCEDES BENZ", "_id": 3, "number": "98", "year": "2005"}, {"make": "VOLVO", "_id": 4, "number": "19", "year": "2005"}, {"make": "MAN", "_id": 5, "number": "0", "year": "2005"}], "_links": {"start": "/api/action/datastore_search?limit=5&resource_id=935ddcff-86a8-4f3f-a5a2-42ebef7d179d", "next": "/api/action/datastore_search?offset=5&limit=5&resource_id=935ddcff-86a8-4f3f-a5a2-42ebef7d179d"}, "limit": 5, "total": 437}}