{"help": "https://data.gov.sg/api/3/action/help_show?name=datastore_search", "success": true, "result": {"resource_id": "2f7a2069-1655-42d6-a028-2077536fecb6", "fields": [{"type": "int4", "id": "_id"}, {"type": "numeric", "id": "year"}, {"type": "text", "id": "drug"}, {"type": "text", "id": "unit_of_measure"}, {"type": "text", "id": "amount"}], "records": [{"amount": "213.66", "_id": 1, "unit_of_measure": "GRAMS", "drug": "OPIUM", "year": "2003"}, {"amount": "8.17", "_id": 2, "unit_of_measure": "GRAMS", "drug": "OPIUM", "year": "2004"}, {"amount": "509.78", "_id": 3, "unit_of_measure": "GRAMS", "drug": "OPIUM", "year": "2005"}, {"amount": "85.4", "_id": 4, "unit_of_measure": "GRAMS", "drug": "OPIUM", "year": "2006"}, {"amount": "1.02", "_id": 5, "unit_of_measure": "GRAMS", "drug": "OPIUM", "year": "2007"}], "_links": {"start": "/api/action/datastore_search?limit=5&resource_id=2f7a2069-1655-42d6-a028-2077536fecb6", "next": "/api/action/datastore_search?offset=5&limit=5&resource_id=2f7a2069-1655-42d6-a028-2077536fecb6"}, "limit": 5, "total": 244}}