{"help": "https://data.gov.sg/api/3/action/help_show?name=datastore_search", "success": true, "result": {"resource_id": "07768e9d-222d-466e-a786-e2f90b33c057", "fields": [{"type": "int4", "id": "_id"}, {"type": "text", "id": "year"}, {"type": "text", "id": "sex"}, {"type": "numeric", "id": "hale_years"}], "records": [{"_id": 1, "sex": "Male", "hale_years": "65.6", "year": "1990"}, {"_id": 2, "sex": "Female", "hale_years": "68.5", "year": "1990"}, {"_id": 3, "sex": "Male", "hale_years": "66.6", "year": "1995"}, {"_id": 4, "sex": "Female", "hale_years": "70", "year": "1995"}, {"_id": 5, "sex": "Male", "hale_years": "68.3", "year": "2000"}], "_links": {"start": "/api/action/datastore_search?limit=5&resource_id=07768e9d-222d-466e-a786-e2f90b33c057", "next": "/api/action/datastore_search?offset=5&limit=5&resource_id=07768e9d-222d-466e-a786-e2f90b33c057"}, "limit": 5, "total": 14}}