{"help": "https://data.gov.sg/api/3/action/help_show?name=datastore_search", "success": true, "result": {"resource_id": "4541dd43-89a8-4e4b-881a-0cf1096489d0", "fields": [{"type": "int4", "id": "_id"}, {"type": "numeric", "id": "financial_year"}, {"type": "text", "id": "property_type"}, {"type": "text", "id": "category"}, {"type": "text", "id": "flat_type"}, {"type": "text", "id": "no_of_units"}], "records": [{"category": "Sold", "flat_type": "1-room flats", "_id": 1, "no_of_units": "0", "financial_year": "2006", "property_type": "HDB"}, {"category": "Sold", "flat_type": "2-room flats", "_id": 2, "no_of_units": "101", "financial_year": "2006", "property_type": "HDB"}, {"category": "Sold", "flat_type": "3-room flats", "_id": 3, "no_of_units": "961", "financial_year": "2006", "property_type": "HDB"}, {"category": "Sold", "flat_type": "4-room flats", "_id": 4, "no_of_units": "2290", "financial_year": "2006", "property_type": "HDB"}, {"category": "Sold", "flat_type": "5-room flats", "_id": 5, "no_of_units": "1303", "financial_year": "2006", "property_type": "HDB"}], "_links": {"start": "/api/action/datastore_search?limit=5&resource_id=4541dd43-89a8-4e4b-881a-0cf1096489d0", "next": "/api/action/datastore_search?offset=5&limit=5&resource_id=4541dd43-89a8-4e4b-881a-0cf1096489d0"}, "limit": 5, "total": 536}}