{"help": "https://data.gov.sg/api/3/action/help_show?name=datastore_search", "success": true, "result": {"resource_id": "0195dc7a-2f49-4107-ac7c-3112ca4a09a8", "fields": [{"type": "int4", "id": "_id"}, {"type": "text", "id": "wbt_date"}, {"type": "numeric", "id": "wbt_time"}, {"type": "numeric", "id": "wet_bulb_temperature"}], "records": [{"wbt_date": "2005-12-30", "wet_bulb_temperature": "25.5", "_id": 1, "wbt_time": "15"}, {"wbt_date": "2005-12-30", "wet_bulb_temperature": "26.1", "_id": 2, "wbt_time": "16"}, {"wbt_date": "2005-12-30", "wet_bulb_temperature": "25.8", "_id": 3, "wbt_time": "17"}, {"wbt_date": "2005-12-30", "wet_bulb_temperature": "25.4", "_id": 4, "wbt_time": "18"}, {"wbt_date": "2005-12-30", "wet_bulb_temperature": "25.6", "_id": 5, "wbt_time": "19"}], "_links": {"start": "/api/action/datastore_search?limit=5&resource_id=0195dc7a-2f49-4107-ac7c-3112ca4a09a8", "next": "/api/action/datastore_search?offset=5&limit=5&resource_id=0195dc7a-2f49-4107-ac7c-3112ca4a09a8"}, "limit": 5, "total": 468994}}