{"help": "https://data.gov.sg/api/3/action/help_show?name=datastore_search", "success": true, "result": {"resource_id": "4e97c9f9-c15b-4069-b5ce-0f06ed440e30", "fields": [{"type": "int4", "id": "_id"}, {"type": "numeric", "id": "year"}, {"type": "text", "id": "race"}, {"type": "numeric", "id": "percentage_pass"}], "records": [{"percentage_pass": "58.9", "_id": 1, "race": "Malay", "year": "1987"}, {"percentage_pass": "75.4", "_id": 2, "race": "Chinese", "year": "1987"}, {"percentage_pass": "72.7", "_id": 3, "race": "Indian", "year": "1987"}, {"percentage_pass": "67.6", "_id": 4, "race": "Others", "year": "1987"}, {"percentage_pass": "74.2", "_id": 5, "race": "Overall", "year": "1987"}], "_links": {"start": "/api/action/datastore_search?limit=5&resource_id=4e97c9f9-c15b-4069-b5ce-0f06ed440e30", "next": "/api/action/datastore_search?offset=5&limit=5&resource_id=4e97c9f9-c15b-4069-b5ce-0f06ed440e30"}, "limit": 5, "total": 165}}