{"help": "https://data.gov.sg/api/3/action/help_show?name=datastore_search", "success": true, "result": {"resource_id": "2c6749c6-8271-4281-97ff-fb089cccf0c4", "fields": [{"type": "int4", "id": "_id"}, {"type": "numeric", "id": "year"}, {"type": "numeric", "id": "domestic_waste_disposed"}], "records": [{"domestic_waste_disposed": "1.37", "_id": 1, "year": "2000"}, {"domestic_waste_disposed": "1.38", "_id": 2, "year": "2001"}, {"domestic_waste_disposed": "1.44", "_id": 3, "year": "2002"}, {"domestic_waste_disposed": "1.44", "_id": 4, "year": "2003"}, {"domestic_waste_disposed": "1.41", "_id": 5, "year": "2004"}], "_links": {"start": "/api/action/datastore_search?limit=5&resource_id=2c6749c6-8271-4281-97ff-fb089cccf0c4", "next": "/api/action/datastore_search?offset=5&limit=5&resource_id=2c6749c6-8271-4281-97ff-fb089cccf0c4"}, "limit": 5, "total": 16}}