{"help": "https://data.gov.sg/api/3/action/help_show?name=datastore_search", "success": true, "result": {"resource_id": "34fa59f4-cdb1-4ed1-a6b0-6b97d9e94590", "fields": [{"type": "int4", "id": "_id"}, {"type": "text", "id": "year"}, {"type": "numeric", "id": "total"}, {"type": "numeric", "id": "foreign"}, {"type": "numeric", "id": "local"}], "records": [{"total": "1681", "foreign": "961", "_id": 1, "local": "720", "year": "2013"}, {"total": "1629", "foreign": "853", "_id": 2, "local": "776", "year": "2014"}, {"total": "1618", "foreign": "859", "_id": 3, "local": "759", "year": "2015"}, {"total": "1360", "foreign": "734", "_id": 4, "local": "626", "year": "2016"}, {"total": "1524", "foreign": "936", "_id": 5, "local": "588", "year": "2017"}], "_links": {"start": "/api/action/datastore_search?limit=5&resource_id=34fa59f4-cdb1-4ed1-a6b0-6b97d9e94590", "next": "/api/action/datastore_search?offset=5&limit=5&resource_id=34fa59f4-cdb1-4ed1-a6b0-6b97d9e94590"}, "limit": 5, "total": 5}}