{"help": "https://data.gov.sg/api/3/action/help_show?name=datastore_search", "success": true, "result": {"resource_id": "f42a5a55-9086-4323-be1a-460e382f1c28", "fields": [{"type": "int4", "id": "_id"}, {"type": "text", "id": "month"}, {"type": "text", "id": "mother_race"}, {"type": "text", "id": "birth_attendant"}, {"type": "numeric", "id": "birth_count"}], "records": [{"mother_race": "MALAYS", "birth_count": "5", "birth_attendant": "Delivery without aid of doctor, midwife or nurse", "_id": 1, "month": "2017-10"}, {"mother_race": "CHINESE", "birth_count": "1407", "birth_attendant": "Doctor in Private Sector Hospitals", "_id": 2, "month": "2017-10"}, {"mother_race": "INDIANS", "birth_count": "121", "birth_attendant": "Doctor in Private Sector Hospitals", "_id": 3, "month": "2017-10"}, {"mother_race": "MALAYS", "birth_count": "132", "birth_attendant": "Doctor in Private Sector Hospitals", "_id": 4, "month": "2017-10"}, {"mother_race": "OTHERS", "birth_count": "274", "birth_attendant": "Doctor in Private Sector Hospitals", "_id": 5, "month": "2017-10"}], "_links": {"start": "/api/action/datastore_search?limit=5&resource_id=f42a5a55-9086-4323-be1a-460e382f1c28", "next": "/api/action/datastore_search?offset=5&limit=5&resource_id=f42a5a55-9086-4323-be1a-460e382f1c28"}, "limit": 5, "total": 1030}}