{"help": "https://data.gov.sg/api/3/action/help_show?name=datastore_search", "success": true, "result": {"resource_id": "313be489-62f1-424b-92c5-37fb2a4396bd", "fields": [{"type": "int4", "id": "_id"}, {"type": "numeric", "id": "year"}, {"type": "text", "id": "level_1"}, {"type": "numeric", "id": "value"}], "records": [{"_id": 1, "level_1": "Total Liquefied Petroleum Gas Sales", "value": "74453.3", "year": "1982"}, {"_id": 2, "level_1": "Total Liquefied Petroleum Gas Sales", "value": "78094.6", "year": "1983"}, {"_id": 3, "level_1": "Total Liquefied Petroleum Gas Sales", "value": "81653.3", "year": "1984"}, {"_id": 4, "level_1": "Total Liquefied Petroleum Gas Sales", "value": "82324.2", "year": "1985"}, {"_id": 5, "level_1": "Total Liquefied Petroleum Gas Sales", "value": "105904.2", "year": "1986"}], "_links": {"start": "/api/action/datastore_search?limit=5&resource_id=313be489-62f1-424b-92c5-37fb2a4396bd", "next": "/api/action/datastore_search?offset=5&limit=5&resource_id=313be489-62f1-424b-92c5-37fb2a4396bd"}, "limit": 5, "total": 38}}