{"help": "https://data.gov.sg/api/3/action/help_show?name=datastore_search", "success": true, "result": {"resource_id": "cbbeba46-b5da-43f9-ad7f-eafa52ac313a", "fields": [{"type": "int4", "id": "_id"}, {"type": "text", "id": "name_of_organisation"}, {"type": "text", "id": "type"}, {"type": "text", "id": "description"}], "records": [{"name_of_organisation": "Abdul Hamid Kg Pasiran", "_id": 1, "type": "Mosque", "description": "For Zakat on Wealth throughout the year and Zakat Fitrah in Ramadan"}, {"name_of_organisation": "Ahmad Ibrahim", "_id": 2, "type": "Mosque", "description": "For Zakat on Wealth throughout the year and Zakat Fitrah in Ramadan"}, {"name_of_organisation": "Al Amin", "_id": 3, "type": "Mosque", "description": "For Zakat on Wealth throughout the year and Zakat Fitrah in Ramadan"}, {"name_of_organisation": "Al Ansar", "_id": 4, "type": "Mosque", "description": "For Zakat on Wealth throughout the year and Zakat Fitrah in Ramadan"}, {"name_of_organisation": "Al Falah", "_id": 5, "type": "Mosque", "description": "For Zakat on Wealth throughout the year and Zakat Fitrah in Ramadan"}], "_links": {"start": "/api/action/datastore_search?limit=5&resource_id=cbbeba46-b5da-43f9-ad7f-eafa52ac313a", "next": "/api/action/datastore_search?offset=5&limit=5&resource_id=cbbeba46-b5da-43f9-ad7f-eafa52ac313a"}, "limit": 5, "total": 50}}