{"help": "https://data.gov.sg/api/3/action/help_show?name=datastore_search", "success": true, "result": {"resource_id": "19dea782-8fe1-40d0-834d-70f780ca86f1", "fields": [{"type": "int4", "id": "_id"}, {"type": "numeric", "id": "year"}, {"type": "text", "id": "condition"}, {"type": "numeric", "id": "percentage_diagnoses"}], "records": [{"percentage_diagnoses": "13.8", "_id": 1, "condition": "Hyperlipidemia", "year": "2006"}, {"percentage_diagnoses": "17.2", "_id": 2, "condition": "Hypertensive Disease", "year": "2006"}, {"percentage_diagnoses": "11.9", "_id": 3, "condition": "Acute Upper Respiratory Tract Infection including Influenza", "year": "2006"}, {"percentage_diagnoses": "8.6", "_id": 4, "condition": "Diabetes Mellitus", "year": "2006"}, {"percentage_diagnoses": "14.9", "_id": 5, "condition": "Hyperlipidemia", "year": "2007"}], "_links": {"start": "/api/action/datastore_search?limit=5&resource_id=19dea782-8fe1-40d0-834d-70f780ca86f1", "next": "/api/action/datastore_search?offset=5&limit=5&resource_id=19dea782-8fe1-40d0-834d-70f780ca86f1"}, "limit": 5, "total": 56}}