{"help": "https://data.gov.sg/api/3/action/help_show?name=datastore_search", "success": true, "result": {"resource_id": "ef7e44f1-9b14-4680-a60a-37d2c9dda390", "fields": [{"type": "int4", "id": "_id"}, {"type": "text", "id": "epi_week"}, {"type": "text", "id": "disease"}, {"type": "numeric", "id": "no._of_cases"}], "records": [{"epi_week": "2012-W10", "_id": 1, "disease": "Plague", "no._of_cases": "0"}, {"epi_week": "2012-W10", "_id": 2, "disease": "Pneumococcal Disease (invasive)", "no._of_cases": "9"}, {"epi_week": "2012-W10", "_id": 3, "disease": "Poliomyelitis", "no._of_cases": "0"}, {"epi_week": "2012-W10", "_id": 4, "disease": "Rubella", "no._of_cases": "0"}, {"epi_week": "2012-W10", "_id": 5, "disease": "Salmonellosis(non-enteric fevers)", "no._of_cases": "28"}], "_links": {"start": "/api/action/datastore_search?limit=5&resource_id=ef7e44f1-9b14-4680-a60a-37d2c9dda390", "next": "/api/action/datastore_search?offset=5&limit=5&resource_id=ef7e44f1-9b14-4680-a60a-37d2c9dda390"}, "limit": 5, "total": 30540}}