{"help": "https://data.gov.sg/api/3/action/help_show?name=datastore_search", "success": true, "result": {"resource_id": "56c8d9af-5bf5-49a1-91ce-1ed4b4b191f3", "fields": [{"type": "int4", "id": "_id"}, {"type": "text", "id": "month"}, {"type": "text", "id": "category"}, {"type": "text", "id": "type"}, {"type": "numeric", "id": "number"}], "records": [{"category": "Cars", "_id": 1, "type": "Petrol", "number": "586980", "month": "2016-01"}, {"category": "Cars", "_id": 2, "type": "Diesel", "number": "6297", "month": "2016-01"}, {"category": "Cars", "_id": 3, "type": "Petrol-Electric", "number": "6476", "month": "2016-01"}, {"category": "Cars", "_id": 4, "type": "Petrol-Electric (Plug-In)", "number": "108", "month": "2016-01"}, {"category": "Cars", "_id": 5, "type": "Petrol-CNG", "number": "1917", "month": "2016-01"}], "_links": {"start": "/api/action/datastore_search?limit=5&resource_id=56c8d9af-5bf5-49a1-91ce-1ed4b4b191f3", "next": "/api/action/datastore_search?offset=5&limit=5&resource_id=56c8d9af-5bf5-49a1-91ce-1ed4b4b191f3"}, "limit": 5, "total": 1384}}