{"help": "https://data.gov.sg/api/3/action/help_show?name=datastore_search", "success": true, "result": {"resource_id": "c5817418-a498-4b61-a962-4d36dbc9dbf0", "fields": [{"type": "int4", "id": "_id"}, {"type": "numeric", "id": "year"}, {"type": "numeric", "id": "hazardous_substances_licences_issued_annual"}, {"type": "numeric", "id": "hazardous_substances_permits_issued_annual"}], "records": [{"_id": 1, "hazardous_substances_permits_issued_annual": "1275", "hazardous_substances_licences_issued_annual": "953", "year": "2008"}, {"_id": 2, "hazardous_substances_permits_issued_annual": "1188", "hazardous_substances_licences_issued_annual": "904", "year": "2009"}, {"_id": 3, "hazardous_substances_permits_issued_annual": "1248", "hazardous_substances_licences_issued_annual": "967", "year": "2010"}, {"_id": 4, "hazardous_substances_permits_issued_annual": "1250", "hazardous_substances_licences_issued_annual": "922", "year": "2011"}, {"_id": 5, "hazardous_substances_permits_issued_annual": "1236", "hazardous_substances_licences_issued_annual": "950", "year": "2012"}], "_links": {"start": "/api/action/datastore_search?limit=5&resource_id=c5817418-a498-4b61-a962-4d36dbc9dbf0", "next": "/api/action/datastore_search?offset=5&limit=5&resource_id=c5817418-a498-4b61-a962-4d36dbc9dbf0"}, "limit": 5, "total": 7}}