{"help": "https://data.gov.sg/api/3/action/help_show?name=datastore_search", "success": true, "result": {"resource_id": "56122c03-3fd7-4146-ab22-049c1008ba46", "fields": [{"type": "int4", "id": "_id"}, {"type": "numeric", "id": "year"}, {"type": "text", "id": "level_of_education"}, {"type": "numeric", "id": "gender_parity_index"}], "records": [{"_id": 1, "level_of_education": "PRIMARY EDUCATION", "gender_parity_index": "0.99", "year": "1990"}, {"_id": 2, "level_of_education": "SECONDARY EDUCATION", "gender_parity_index": "1.06", "year": "1990"}, {"_id": 3, "level_of_education": "TERTIARY EDUCATION", "gender_parity_index": "0.77", "year": "1990"}, {"_id": 4, "level_of_education": "PRIMARY EDUCATION", "gender_parity_index": "0.99", "year": "1991"}, {"_id": 5, "level_of_education": "SECONDARY EDUCATION", "gender_parity_index": "1.05", "year": "1991"}], "_links": {"start": "/api/action/datastore_search?limit=5&resource_id=56122c03-3fd7-4146-ab22-049c1008ba46", "next": "/api/action/datastore_search?offset=5&limit=5&resource_id=56122c03-3fd7-4146-ab22-049c1008ba46"}, "limit": 5, "total": 87}}