{"help": "https://data.gov.sg/api/3/action/help_show?name=datastore_search", "success": true, "result": {"resource_id": "ef162500-2768-4489-8870-9f2a12861f12", "fields": [{"type": "int4", "id": "_id"}, {"type": "numeric", "id": "year"}, {"type": "text", "id": "vessel_type"}, {"type": "numeric", "id": "number_of_vessels"}, {"type": "numeric", "id": "gross_tonnage"}], "records": [{"gross_tonnage": "239053.32", "_id": 1, "number_of_vessels": "13477", "vessel_type": "Container", "year": "1995"}, {"gross_tonnage": "48606.53", "_id": 2, "number_of_vessels": "10648", "vessel_type": "Freighter", "year": "1995"}, {"gross_tonnage": "108028.26", "_id": 3, "number_of_vessels": "3985", "vessel_type": "Bulk Carrier", "year": "1995"}, {"gross_tonnage": "240369.03", "_id": 4, "number_of_vessels": "15354", "vessel_type": "Tanker", "year": "1995"}, {"gross_tonnage": "26804.7", "_id": 5, "number_of_vessels": "29514", "vessel_type": "Passenger", "year": "1995"}], "_links": {"start": "/api/action/datastore_search?limit=5&resource_id=ef162500-2768-4489-8870-9f2a12861f12", "next": "/api/action/datastore_search?offset=5&limit=5&resource_id=ef162500-2768-4489-8870-9f2a12861f12"}, "limit": 5, "total": 200}}