{"help": "https://data.gov.sg/api/3/action/help_show?name=datastore_search", "success": true, "result": {"resource_id": "0e3a2fa6-9403-4d3d-b34c-2442fdcc75b4", "fields": [{"type": "int4", "id": "_id"}, {"type": "numeric", "id": "year"}, {"type": "text", "id": "property_location"}, {"type": "text", "id": "mode_of_allocation"}, {"type": "text", "id": "land_area"}, {"type": "text", "id": "gross_floor_area"}, {"type": "text", "id": "tendered_uses"}, {"type": "text", "id": "tenure"}, {"type": "text", "id": "closing_date"}, {"type": "text", "id": "award_date"}, {"type": "text", "id": "awarded_usage"}, {"type": "text", "id": "award_value_per_month_for_the_first_term_tenancy"}, {"type": "text", "id": "successful_bidder"}], "records": [{"award_date": "5/18/2004", "award_value_per_month_for_the_first_term_tenancy": "28288", "awarded_usage": "na", "closing_date": "4 02 2004", "tendered_uses": "Parcel A - Student Hostel Parcel B - Play Field", "tenure": "3+2", "gross_floor_area": "Parcel A - 4612", "mode_of_allocation": "Tender", "land_area": "Parcel A - 8712 Parcel B - 3568", "year": "2004", "property_location": "5 Pearl's Hill Road", "_id": 1, "successful_bidder": "Lim Moi Hong@Stephen Lim"}, {"award_date": "6/14/2004", "award_value_per_month_for_the_first_term_tenancy": "22888", "awarded_usage": "na", "closing_date": "4/30/2004", "tendered_uses": "Arts Related uses(include Arts Gallery, Arts Theatre, Arts School), Education Related Uses(include Music School, Dance School, Drama School, Speech School, Child Development Centre, Play School), Student Hostel, Childcare Centre, Kindergarden", "tenure": "3+3+1", "gross_floor_area": "2985", "mode_of_allocation": "Tender", "land_area": "2478", "year": "2004", "property_location": "2 Adis Road", "_id": 2, "successful_bidder": "Lee Wee Peng"}, {"award_date": "7/15/2004", "award_value_per_month_for_the_first_term_tenancy": "16800", "awarded_usage": "na", "closing_date": "4/30/2004", "tendered_uses": "Kindergarten, Childcare Centre, Association, Nursing Home", "tenure": "3+2", "gross_floor_area": "3223", "mode_of_allocation": "Tender", "land_area": "4038", "year": "2004", "property_location": "148A Silat Avenue", "_id": 3, "successful_bidder": "Orange Valley Investments Pte Ltd"}, {"award_date": "3 09 2004", "award_value_per_month_for_the_first_term_tenancy": "68000", "awarded_usage": "na", "closing_date": "7/13/2004", "tendered_uses": "Foreign System School, Childcare Centre, Kindergarten, Fencing School, Martial Arts School,Archery School,Commercial School (Education & tuition centre), Student Hostel", "tenure": "3+3+2", "gross_floor_area": "3788", "mode_of_allocation": "Tender", "land_area": "7440", "year": "2004", "property_location": "98 Henderson Road", "_id": 4, "successful_bidder": "East Asia School of Business Pte Ltd"}, {"award_date": "6 10 2004", "award_value_per_month_for_the_first_term_tenancy": "10511", "awarded_usage": "na", "closing_date": "7/23/2004", "tendered_uses": "Student Care Centre, Elderly Day Care  Centre, Kindergarten, Childcare Centre, Association/Clubs for Sports related use & Community Service Centre.", "tenure": "3+3+1", "gross_floor_area": "891", "mode_of_allocation": "Tender", "land_area": "3310", "year": "2004", "property_location": "2 Kampong Kapor Road", "_id": 5, "successful_bidder": "Ng Joo Hong"}], "_links": {"start": "/api/action/datastore_search?limit=5&resource_id=0e3a2fa6-9403-4d3d-b34c-2442fdcc75b4", "next": "/api/action/datastore_search?offset=5&limit=5&resource_id=0e3a2fa6-9403-4d3d-b34c-2442fdcc75b4"}, "limit": 5, "total": 435}}