{"help": "https://data.gov.sg/api/3/action/help_show?name=datastore_search", "success": true, "result": {"resource_id": "f9a3e1b6-83a2-46da-aa60-ece012a1c31a", "fields": [{"type": "int4", "id": "_id"}, {"type": "numeric", "id": "year"}, {"type": "text", "id": "race"}, {"type": "numeric", "id": "percentage_pass_eng"}], "records": [{"_id": 1, "percentage_pass_eng": "99.1", "race": "Malay", "year": "2008"}, {"_id": 2, "percentage_pass_eng": "96.4", "race": "Chinese", "year": "2008"}, {"_id": 3, "percentage_pass_eng": "99.6", "race": "Indian", "year": "2008"}, {"_id": 4, "percentage_pass_eng": "98.5", "race": "Others", "year": "2008"}, {"_id": 5, "percentage_pass_eng": "97.5", "race": "Overall", "year": "2008"}], "_links": {"start": "/api/action/datastore_search?limit=5&resource_id=f9a3e1b6-83a2-46da-aa60-ece012a1c31a", "next": "/api/action/datastore_search?offset=5&limit=5&resource_id=f9a3e1b6-83a2-46da-aa60-ece012a1c31a"}, "limit": 5, "total": 60}}