{"help": "https://data.gov.sg/api/3/action/help_show?name=datastore_search", "success": true, "result": {"resource_id": "78c56d0e-1a88-4c13-b13f-8ccf5ed65249", "fields": [{"type": "int4", "id": "_id"}, {"type": "numeric", "id": "year"}, {"type": "text", "id": "category"}, {"type": "numeric", "id": "number"}], "records": [{"category": "Category A", "_id": 1, "number": "59217", "year": "2005"}, {"category": "Category B", "_id": 2, "number": "28859", "year": "2005"}, {"category": "Category C", "_id": 3, "number": "12977", "year": "2005"}, {"category": "Category D", "_id": 4, "number": "9670", "year": "2005"}, {"category": "Taxis", "_id": 5, "number": "5918", "year": "2005"}], "_links": {"start": "/api/action/datastore_search?limit=5&resource_id=78c56d0e-1a88-4c13-b13f-8ccf5ed65249", "next": "/api/action/datastore_search?offset=5&limit=5&resource_id=78c56d0e-1a88-4c13-b13f-8ccf5ed65249"}, "limit": 5, "total": 156}}