{"help": "https://data.gov.sg/api/3/action/help_show?name=datastore_search", "success": true, "result": {"resource_id": "a34107ad-0f95-4d41-9945-7f623f645c79", "fields": [{"type": "int4", "id": "_id"}, {"type": "numeric", "id": "year"}, {"type": "text", "id": "school"}, {"type": "text", "id": "sex"}, {"type": "text", "id": "student_enrolment"}, {"type": "text", "id": "no_of_teacher"}, {"type": "text", "id": "no_of_vice_principal"}, {"type": "text", "id": "no_of_principal"}, {"type": "text", "id": "no_of_education_partners"}], "records": [{"school": "Junior College/Centralised Institute", "no_of_principal": "18", "no_of_vice_principal": "20", "student_enrolment": "24559", "no_of_education_partners": "_", "sex": "MF", "year": "2003", "no_of_teacher": "2059", "_id": 1}, {"school": "Junior College/Centralised Institute", "no_of_principal": "12", "no_of_vice_principal": "16", "student_enrolment": "13206", "no_of_education_partners": "_", "sex": "F", "year": "2003", "no_of_teacher": "1180", "_id": 2}, {"school": "Mixed Level", "no_of_principal": "_", "no_of_vice_principal": "_", "student_enrolment": "_", "no_of_education_partners": "_", "sex": "MF", "year": "2003", "no_of_teacher": "_", "_id": 3}, {"school": "Mixed Level", "no_of_principal": "_", "no_of_vice_principal": "_", "student_enrolment": "_", "no_of_education_partners": "_", "sex": "F", "year": "2003", "no_of_teacher": "_", "_id": 4}, {"school": "Primary", "no_of_principal": "191", "no_of_vice_principal": "140", "student_enrolment": "299939", "no_of_education_partners": "_", "sex": "MF", "year": "2003", "no_of_teacher": "12025", "_id": 5}], "_links": {"start": "/api/action/datastore_search?limit=5&resource_id=a34107ad-0f95-4d41-9945-7f623f645c79", "next": "/api/action/datastore_search?offset=5&limit=5&resource_id=a34107ad-0f95-4d41-9945-7f623f645c79"}, "limit": 5, "total": 136}}