{"help": "https://data.gov.sg/api/3/action/help_show?name=datastore_search", "success": true, "result": {"resource_id": "289badcc-d458-4348-953e-7324b7f859e1", "fields": [{"type": "int4", "id": "_id"}, {"type": "numeric", "id": "year"}, {"type": "text", "id": "make"}, {"type": "numeric", "id": "number"}], "records": [{"make": "TOYOTA", "_id": 1, "number": "28324", "year": "2016"}, {"make": "TRIUMPH", "_id": 2, "number": "6", "year": "2016"}, {"make": "VOLKSWAGEN", "_id": 3, "number": "4014", "year": "2016"}, {"make": "VOLVO", "_id": 4, "number": "1522", "year": "2016"}, {"make": "WULING", "_id": 5, "number": "5", "year": "2016"}], "_links": {"start": "/api/action/datastore_search?limit=5&resource_id=289badcc-d458-4348-953e-7324b7f859e1", "next": "/api/action/datastore_search?offset=5&limit=5&resource_id=289badcc-d458-4348-953e-7324b7f859e1"}, "limit": 5, "total": 698}}