{"help": "https://data.gov.sg/api/3/action/help_show?name=datastore_search", "success": true, "result": {"resource_id": "2778094d-0804-48a3-957e-31ab777eb306", "fields": [{"type": "int4", "id": "_id"}, {"type": "numeric", "id": "year"}, {"type": "text", "id": "sector"}, {"type": "text", "id": "type_of_expenditure"}, {"type": "text", "id": "type_of_cost"}, {"type": "numeric", "id": "rnd_expenditure"}], "records": [{"sector": "Private Sector", "rnd_expenditure": "50.28", "type_of_expenditure": "Capital Expenditure", "type_of_cost": "Land, Buildings & Other Structures", "year": "2018", "_id": 1}, {"sector": "Private Sector", "rnd_expenditure": "380.4", "type_of_expenditure": "Capital Expenditure", "type_of_cost": "Vehicles, Plant, Machinery & Equipment", "year": "2018", "_id": 2}, {"sector": "Private Sector", "rnd_expenditure": "2323.11", "type_of_expenditure": "Manpower Expenditure", "type_of_cost": "Researchers", "year": "2018", "_id": 3}, {"sector": "Private Sector", "rnd_expenditure": "82.16", "type_of_expenditure": "Manpower Expenditure", "type_of_cost": "Technicians", "year": "2018", "_id": 4}, {"sector": "Private Sector", "rnd_expenditure": "172.53", "type_of_expenditure": "Manpower Expenditure", "type_of_cost": "Other Supporting Staff", "year": "2018", "_id": 5}], "_links": {"start": "/api/action/datastore_search?limit=5&resource_id=2778094d-0804-48a3-957e-31ab777eb306", "next": "/api/action/datastore_search?offset=5&limit=5&resource_id=2778094d-0804-48a3-957e-31ab777eb306"}, "limit": 5, "total": 216}}