{"help": "https://data.gov.sg/api/3/action/help_show?name=datastore_search", "success": true, "result": {"resource_id": "e16c0173-3be4-4fa2-ac9f-ee56ecb0ebbc", "fields": [{"type": "int4", "id": "_id"}, {"type": "text", "id": "uen"}, {"type": "text", "id": "hdb_registration_no"}, {"type": "text", "id": "company_name"}, {"type": "text", "id": "address"}, {"type": "numeric", "id": "postal_code"}, {"type": "text", "id": "email_address"}, {"type": "numeric", "id": "contact_no"}], "records": [{"uen": "28713000B", "hdb_registration_no": "HB-01-0014E", "contact_no": "66658311", "postal_code": "609601", "company_name": "CHUAN TONG TRADING CO", "address": "Blk 2 #03 -28C Jurong East St. 21 , IMM Building", "_id": 1, "email_address": "CTGPL@HOTMAIL.COM"}, {"uen": "37111300L", "hdb_registration_no": "HB-01-0022B", "contact_no": "62098692", "postal_code": "539215", "company_name": "CHIAT CHEE RENOVATION CONSTRUCTION & CLEANING SERVICE", "address": "Blk 38 #02 -11 DEFU LANE 10 ,", "_id": 2, "email_address": "ASL_CC@YAHOO.COM.SG"}, {"uen": "35627700C", "hdb_registration_no": "HB-01-0030G", "contact_no": "63160834", "postal_code": "545535", "company_name": "AROWANA RENOVATION & INTERIOR DECOR", "address": "Blk 22 #02 -33 Yio Chu Kang Road , Highland Centre", "_id": 3, "email_address": "AROWANA_RENOVATION@YAHOO.COM.SG"}, {"uen": "201209970W", "hdb_registration_no": "HB-01-0031B", "contact_no": "63688913", "postal_code": "548178", "company_name": "3 E DESIGN PTE. LTD.", "address": "Blk 93 #01 -01 Kovan Rd , Vibes@Kovan", "_id": 4, "email_address": "GERALDLHY@HOTMAIL.COM"}, {"uen": "30659200B", "hdb_registration_no": "HB-01-0035F", "contact_no": "66947190", "postal_code": "410658", "company_name": "ENG TAI CHONG CONTRACTOR", "address": "Blk 658 #08 -162 JALAN TENAGA ,", "_id": 5, "email_address": "ENGTAICHONG@YAHOO.COM.SG"}], "_links": {"start": "/api/action/datastore_search?limit=5&resource_id=e16c0173-3be4-4fa2-ac9f-ee56ecb0ebbc", "next": "/api/action/datastore_search?offset=5&limit=5&resource_id=e16c0173-3be4-4fa2-ac9f-ee56ecb0ebbc"}, "limit": 5, "total": 2170}}