{"help": "https://data.gov.sg/api/3/action/help_show?name=datastore_search", "success": true, "result": {"resource_id": "d39295a1-a953-42dc-88c2-2a276eb8ff81", "fields": [{"type": "int4", "id": "_id"}, {"type": "numeric", "id": "year"}, {"type": "numeric", "id": "inward_consignments_count"}], "records": [{"_id": 1, "inward_consignments_count": "3934500", "year": "2004"}, {"_id": 2, "inward_consignments_count": "2990080", "year": "2005"}, {"_id": 3, "inward_consignments_count": "3831716", "year": "2006"}, {"_id": 4, "inward_consignments_count": "2988900", "year": "2007"}, {"_id": 5, "inward_consignments_count": "3131800", "year": "2008"}], "_links": {"start": "/api/action/datastore_search?limit=5&resource_id=d39295a1-a953-42dc-88c2-2a276eb8ff81", "next": "/api/action/datastore_search?offset=5&limit=5&resource_id=d39295a1-a953-42dc-88c2-2a276eb8ff81"}, "limit": 5, "total": 16}}