{"help": "https://data.gov.sg/api/3/action/help_show?name=datastore_search", "success": true, "result": {"resource_id": "96cabf55-c146-471f-8141-0dfcf47c32ed", "fields": [{"type": "int4", "id": "_id"}, {"type": "text", "id": "year"}, {"type": "text", "id": "applicant_country"}, {"type": "numeric", "id": "design_filings"}, {"type": "text", "id": "rank"}], "records": [{"applicant_country": "Singapore", "_id": 1, "design_filings": "718", "rank": "1", "year": "2013"}, {"applicant_country": "Japan", "_id": 2, "design_filings": "315", "rank": "2", "year": "2013"}, {"applicant_country": "United States of America", "_id": 3, "design_filings": "217", "rank": "3", "year": "2013"}, {"applicant_country": "Republic of Korea", "_id": 4, "design_filings": "124", "rank": "4", "year": "2013"}, {"applicant_country": "Germany", "_id": 5, "design_filings": "54", "rank": "5", "year": "2013"}], "_links": {"start": "/api/action/datastore_search?limit=5&resource_id=96cabf55-c146-471f-8141-0dfcf47c32ed", "next": "/api/action/datastore_search?offset=5&limit=5&resource_id=96cabf55-c146-471f-8141-0dfcf47c32ed"}, "limit": 5, "total": 167}}