{"help": "https://data.gov.sg/api/3/action/help_show?name=datastore_search", "success": true, "result": {"resource_id": "0612a2bb-57cb-423c-9861-9aaa91d0f2db", "fields": [{"type": "int4", "id": "_id"}, {"type": "numeric", "id": "year"}, {"type": "text", "id": "level_1"}, {"type": "numeric", "id": "value"}], "records": [{"_id": 1, "level_1": "Establishments, SSIC 49-53 - Total Transport & Storage Services", "value": "8487", "year": "2000"}, {"_id": 2, "level_1": "Establishments, SSIC 49-53 - Total Transport & Storage Services", "value": "8428", "year": "2001"}, {"_id": 3, "level_1": "Establishments, SSIC 49-53 - Total Transport & Storage Services", "value": "8739", "year": "2002"}, {"_id": 4, "level_1": "Establishments, SSIC 49-53 - Total Transport & Storage Services", "value": "9223", "year": "2003"}, {"_id": 5, "level_1": "Establishments, SSIC 49-53 - Total Transport & Storage Services", "value": "9462", "year": "2004"}], "_links": {"start": "/api/action/datastore_search?limit=5&resource_id=0612a2bb-57cb-423c-9861-9aaa91d0f2db", "next": "/api/action/datastore_search?offset=5&limit=5&resource_id=0612a2bb-57cb-423c-9861-9aaa91d0f2db"}, "limit": 5, "total": 18}}