{"help": "https://data.gov.sg/api/3/action/help_show?name=datastore_search", "success": true, "result": {"resource_id": "65c1093b-0c34-41cf-8f0e-f11318766298", "fields": [{"type": "int4", "id": "_id"}, {"type": "text", "id": "stn_code"}, {"type": "text", "id": "mrt_station_english"}, {"type": "text", "id": "mrt_station_chinese"}, {"type": "text", "id": "mrt_line_english"}, {"type": "text", "id": "mrt_line_chinese"}], "records": [{"mrt_line_chinese": "\u5357\u5317\u7ebf", "mrt_line_english": "North South Line", "stn_code": "NS1", "mrt_station_english": "Jurong East", "mrt_station_chinese": "\u88d5\u5eca\u4e1c", "_id": 1}, {"mrt_line_chinese": "\u5357\u5317\u7ebf", "mrt_line_english": "North South Line", "stn_code": "NS2", "mrt_station_english": "Bukit Batok", "mrt_station_chinese": "\u6b66\u5409\u5df4\u7763", "_id": 2}, {"mrt_line_chinese": "\u5357\u5317\u7ebf", "mrt_line_english": "North South Line", "stn_code": "NS3", "mrt_station_english": "Bukit Gombak", "mrt_station_chinese": "\u6b66\u5409\u7518\u67cf", "_id": 3}, {"mrt_line_chinese": "\u5357\u5317\u7ebf", "mrt_line_english": "North South Line", "stn_code": "NS4", "mrt_station_english": "Choa Chu Kang", "mrt_station_chinese": "\u8521\u539d\u6e2f", "_id": 4}, {"mrt_line_chinese": "\u5357\u5317\u7ebf", "mrt_line_english": "North South Line", "stn_code": "NS5", "mrt_station_english": "Yew Tee", "mrt_station_chinese": "\u6cb9\u6c60", "_id": 5}], "_links": {"start": "/api/action/datastore_search?limit=5&resource_id=65c1093b-0c34-41cf-8f0e-f11318766298", "next": "/api/action/datastore_search?offset=5&limit=5&resource_id=65c1093b-0c34-41cf-8f0e-f11318766298"}, "limit": 5, "total": 184}}