{"help": "https://data.gov.sg/api/3/action/help_show?name=datastore_search", "success": true, "result": {"resource_id": "d23b9636-5812-4b33-951e-b209de710dd5", "fields": [{"type": "int4", "id": "_id"}, {"type": "numeric", "id": "financial_year"}, {"type": "text", "id": "town"}, {"type": "text", "id": "room_type"}, {"type": "numeric", "id": "min_selling_price"}, {"type": "numeric", "id": "max_selling_price"}, {"type": "numeric", "id": "min_selling_price_less_ahg_shg"}, {"type": "numeric", "id": "max_selling_price_less_ahg_shg"}], "records": [{"town": "Punggol", "max_selling_price": "107000", "financial_year": "2008", "_id": 1, "max_selling_price_less_ahg_shg": "0", "room_type": "2-room", "min_selling_price": "82000", "min_selling_price_less_ahg_shg": "0"}, {"town": "Punggol", "max_selling_price": "211000", "financial_year": "2008", "_id": 2, "max_selling_price_less_ahg_shg": "0", "room_type": "3-room", "min_selling_price": "135000", "min_selling_price_less_ahg_shg": "0"}, {"town": "Punggol", "max_selling_price": "327000", "financial_year": "2008", "_id": 3, "max_selling_price_less_ahg_shg": "0", "room_type": "4-room", "min_selling_price": "223000", "min_selling_price_less_ahg_shg": "0"}, {"town": "Punggol", "max_selling_price": "428000", "financial_year": "2008", "_id": 4, "max_selling_price_less_ahg_shg": "0", "room_type": "5-room", "min_selling_price": "305000", "min_selling_price_less_ahg_shg": "0"}, {"town": "Jurong West", "max_selling_price": "160000", "financial_year": "2008", "_id": 5, "max_selling_price_less_ahg_shg": "0", "room_type": "3-room", "min_selling_price": "142000", "min_selling_price_less_ahg_shg": "0"}], "_links": {"start": "/api/action/datastore_search?limit=5&resource_id=d23b9636-5812-4b33-951e-b209de710dd5", "next": "/api/action/datastore_search?offset=5&limit=5&resource_id=d23b9636-5812-4b33-951e-b209de710dd5"}, "limit": 5, "total": 217}}