{"help": "https://data.gov.sg/api/3/action/help_show?name=datastore_search", "success": true, "result": {"resource_id": "5a8f7572-0d46-4ce5-be71-a7081d2c42b0", "fields": [{"type": "int4", "id": "_id"}, {"type": "text", "id": "ura_carpark_name"}, {"type": "text", "id": "type_of_lot"}, {"type": "numeric", "id": "number_of_lots"}], "records": [{"type_of_lot": "Motor Car", "_id": 1, "ura_carpark_name": "TAI SENG DRIVE", "number_of_lots": "8"}, {"type_of_lot": "Motor Car", "_id": 2, "ura_carpark_name": "TAI SENG STREET", "number_of_lots": "17"}, {"type_of_lot": "Motor Car", "_id": 3, "ura_carpark_name": "UBI AVENUE 1", "number_of_lots": "4"}, {"type_of_lot": "Motor Car", "_id": 4, "ura_carpark_name": "UBI AVENUE 3", "number_of_lots": "74"}, {"type_of_lot": "Motor Car", "_id": 5, "ura_carpark_name": "UBI AVENUE 4", "number_of_lots": "10"}], "_links": {"start": "/api/action/datastore_search?limit=5&resource_id=5a8f7572-0d46-4ce5-be71-a7081d2c42b0", "next": "/api/action/datastore_search?offset=5&limit=5&resource_id=5a8f7572-0d46-4ce5-be71-a7081d2c42b0"}, "limit": 5, "total": 4272}}