{"help": "https://data.gov.sg/api/3/action/help_show?name=datastore_search", "success": true, "result": {"resource_id": "ed4ab4f4-b69c-4761-ad0a-a2ce4011a3ec", "fields": [{"type": "int4", "id": "_id"}, {"type": "numeric", "id": "year"}, {"type": "numeric", "id": "percentage"}], "records": [{"percentage": "97.4", "_id": 1, "year": "2001"}, {"percentage": "98.5", "_id": 2, "year": "2002"}, {"percentage": "98.5", "_id": 3, "year": "2003"}, {"percentage": "98.5", "_id": 4, "year": "2004"}, {"percentage": "98.4", "_id": 5, "year": "2005"}], "_links": {"start": "/api/action/datastore_search?limit=5&resource_id=ed4ab4f4-b69c-4761-ad0a-a2ce4011a3ec", "next": "/api/action/datastore_search?offset=5&limit=5&resource_id=ed4ab4f4-b69c-4761-ad0a-a2ce4011a3ec"}, "limit": 5, "total": 18}}