{"help": "https://data.gov.sg/api/3/action/help_show?name=datastore_search", "success": true, "result": {"resource_id": "c7a7d2fd-9d32-4508-92ef-d1019e030a2f", "fields": [{"type": "int4", "id": "_id"}, {"type": "text", "id": "month"}, {"type": "numeric", "id": "temp_mean_daily_max"}], "records": [{"temp_mean_daily_max": "31.7", "_id": 1, "month": "2002-11"}, {"temp_mean_daily_max": "31.3", "_id": 2, "month": "2002-12"}, {"temp_mean_daily_max": "30.1", "_id": 3, "month": "2003-01"}, {"temp_mean_daily_max": "30.8", "_id": 4, "month": "2003-02"}, {"temp_mean_daily_max": "32.3", "_id": 5, "month": "2003-03"}], "_links": {"start": "/api/action/datastore_search?limit=5&resource_id=c7a7d2fd-9d32-4508-92ef-d1019e030a2f", "next": "/api/action/datastore_search?offset=5&limit=5&resource_id=c7a7d2fd-9d32-4508-92ef-d1019e030a2f"}, "limit": 5, "total": 680}}