{"help": "https://data.gov.sg/api/3/action/help_show?name=datastore_search", "success": true, "result": {"resource_id": "9a0370b0-10a2-4311-ae6c-75d33411cbdf", "fields": [{"type": "int4", "id": "_id"}, {"type": "text", "id": "year"}, {"type": "text", "id": "applicant_country"}, {"type": "numeric", "id": "patent_filings"}, {"type": "text", "id": "rank"}], "records": [{"applicant_country": "United States of America", "patent_filings": "3515", "_id": 1, "rank": "1", "year": "2013"}, {"applicant_country": "Japan", "patent_filings": "1384", "_id": 2, "rank": "2", "year": "2013"}, {"applicant_country": "Singapore", "patent_filings": "1143", "_id": 3, "rank": "3", "year": "2013"}, {"applicant_country": "Germany", "patent_filings": "579", "_id": 4, "rank": "4", "year": "2013"}, {"applicant_country": "Switzerland", "patent_filings": "554", "_id": 5, "rank": "5", "year": "2013"}], "_links": {"start": "/api/action/datastore_search?limit=5&resource_id=9a0370b0-10a2-4311-ae6c-75d33411cbdf", "next": "/api/action/datastore_search?offset=5&limit=5&resource_id=9a0370b0-10a2-4311-ae6c-75d33411cbdf"}, "limit": 5, "total": 346}}