{"help": "https://data.gov.sg/api/3/action/help_show?name=datastore_search", "success": true, "result": {"resource_id": "83b2fc37-ce8c-4df4-968b-370fd818138b", "fields": [{"type": "int4", "id": "_id"}, {"type": "text", "id": "month"}, {"type": "text", "id": "town"}, {"type": "text", "id": "flat_type"}, {"type": "text", "id": "block"}, {"type": "text", "id": "street_name"}, {"type": "text", "id": "storey_range"}, {"type": "numeric", "id": "floor_area_sqm"}, {"type": "text", "id": "flat_model"}, {"type": "numeric", "id": "lease_commence_date"}, {"type": "numeric", "id": "resale_price"}], "records": [{"town": "ANG MO KIO", "flat_type": "2 ROOM", "flat_model": "Improved", "floor_area_sqm": "45", "street_name": "ANG MO KIO AVE 4", "resale_price": "250000", "month": "2012-03", "lease_commence_date": "1986", "storey_range": "06 TO 10", "_id": 1, "block": "172"}, {"town": "ANG MO KIO", "flat_type": "2 ROOM", "flat_model": "Improved", "floor_area_sqm": "44", "street_name": "ANG MO KIO AVE 8", "resale_price": "265000", "month": "2012-03", "lease_commence_date": "1980", "storey_range": "01 TO 05", "_id": 2, "block": "510"}, {"town": "ANG MO KIO", "flat_type": "3 ROOM", "flat_model": "New Generation", "floor_area_sqm": "68", "street_name": "ANG MO KIO AVE 4", "resale_price": "315000", "month": "2012-03", "lease_commence_date": "1980", "storey_range": "06 TO 10", "_id": 3, "block": "610"}, {"town": "ANG MO KIO", "flat_type": "3 ROOM", "flat_model": "New Generation", "floor_area_sqm": "67", "street_name": "ANG MO KIO AVE 10", "resale_price": "320000", "month": "2012-03", "lease_commence_date": "1984", "storey_range": "01 TO 05", "_id": 4, "block": "474"}, {"town": "ANG MO KIO", "flat_type": "3 ROOM", "flat_model": "New Generation", "floor_area_sqm": "67", "street_name": "ANG MO KIO AVE 5", "resale_price": "321000", "month": "2012-03", "lease_commence_date": "1980", "storey_range": "06 TO 10", "_id": 5, "block": "604"}], "_links": {"start": "/api/action/datastore_search?limit=5&resource_id=83b2fc37-ce8c-4df4-968b-370fd818138b", "next": "/api/action/datastore_search?offset=5&limit=5&resource_id=83b2fc37-ce8c-4df4-968b-370fd818138b"}, "limit": 5, "total": 52203}}