{"help": "https://data.gov.sg/api/3/action/help_show?name=datastore_search", "success": true, "result": {"resource_id": "32222f4f-f450-4404-83c9-1f162437d2f1", "fields": [{"type": "int4", "id": "_id"}, {"type": "text", "id": "year"}, {"type": "numeric", "id": "internet_usage"}], "records": [{"_id": 1, "internet_usage": "36", "year": "2000"}, {"_id": 2, "internet_usage": "43", "year": "2001"}, {"_id": 3, "internet_usage": "47", "year": "2002"}, {"_id": 4, "internet_usage": "53", "year": "2003"}, {"_id": 5, "internet_usage": "62", "year": "2004"}], "_links": {"start": "/api/action/datastore_search?limit=5&resource_id=32222f4f-f450-4404-83c9-1f162437d2f1", "next": "/api/action/datastore_search?offset=5&limit=5&resource_id=32222f4f-f450-4404-83c9-1f162437d2f1"}, "limit": 5, "total": 19}}