{"help": "https://data.gov.sg/api/3/action/help_show?name=datastore_search", "success": true, "result": {"resource_id": "1c8ea8a5-3f1f-43be-ad36-3e510adbd2d3", "fields": [{"type": "int4", "id": "_id"}, {"type": "numeric", "id": "year"}, {"type": "text", "id": "ethnic_group"}, {"type": "numeric", "id": "crude_death_rate"}, {"type": "numeric", "id": "crude_birth_rate"}, {"type": "numeric", "id": "crude_natural_inc_rate"}], "records": [{"crude_death_rate": "3.4", "crude_birth_rate": "11.3", "crude_natural_inc_rate": "8", "ethnic_group": "Indians", "year": "2008", "_id": 1}, {"crude_death_rate": "1.8", "crude_birth_rate": "23.1", "crude_natural_inc_rate": "21.3", "ethnic_group": "Others", "year": "2008", "_id": 2}, {"crude_death_rate": "4.5", "crude_birth_rate": "8.8", "crude_natural_inc_rate": "4.4", "ethnic_group": "Chinese", "year": "2009", "_id": 3}, {"crude_death_rate": "4.6", "crude_birth_rate": "12", "crude_natural_inc_rate": "7.4", "ethnic_group": "Malays", "year": "2009", "_id": 4}, {"crude_death_rate": "3.3", "crude_birth_rate": "11.2", "crude_natural_inc_rate": "7.9", "ethnic_group": "Indians", "year": "2009", "_id": 5}], "_links": {"start": "/api/action/datastore_search?limit=5&resource_id=1c8ea8a5-3f1f-43be-ad36-3e510adbd2d3", "next": "/api/action/datastore_search?offset=5&limit=5&resource_id=1c8ea8a5-3f1f-43be-ad36-3e510adbd2d3"}, "limit": 5, "total": 242}}