{"help": "https://data.gov.sg/api/3/action/help_show?name=datastore_search", "success": true, "result": {"resource_id": "666ed30a-8344-4213-9d2e-076eeafeddd3", "fields": [{"type": "int4", "id": "_id"}, {"type": "numeric", "id": "financial_year"}, {"type": "numeric", "id": "no_of_units"}], "records": [{"_id": 1, "no_of_units": "9870", "financial_year": "2008"}, {"_id": 2, "no_of_units": "13177", "financial_year": "2009"}, {"_id": 3, "no_of_units": "18849", "financial_year": "2010"}, {"_id": 4, "no_of_units": "36820", "financial_year": "2011"}, {"_id": 5, "no_of_units": "26537", "financial_year": "2012"}], "_links": {"start": "/api/action/datastore_search?limit=5&resource_id=666ed30a-8344-4213-9d2e-076eeafeddd3", "next": "/api/action/datastore_search?offset=5&limit=5&resource_id=666ed30a-8344-4213-9d2e-076eeafeddd3"}, "limit": 5, "total": 11}}