{"help": "https://data.gov.sg/api/3/action/help_show?name=datastore_search", "success": true, "result": {"resource_id": "78c7c9db-c42f-4f93-b711-e8041aaa7933", "fields": [{"type": "int4", "id": "_id"}, {"type": "numeric", "id": "financial_year"}, {"type": "text", "id": "tax_type"}, {"type": "numeric", "id": "tax_collected"}], "records": [{"tax_type": "Income Tax", "_id": 1, "financial_year": "2002", "tax_collected": "10876295"}, {"tax_type": "Goods and Services Tax", "_id": 2, "financial_year": "2002", "tax_collected": "2166493"}, {"tax_type": "Property Tax", "_id": 3, "financial_year": "2002", "tax_collected": "1232593"}, {"tax_type": "Stamp Duty", "_id": 4, "financial_year": "2002", "tax_collected": "695437"}, {"tax_type": "Betting Taxes", "_id": 5, "financial_year": "2002", "tax_collected": "1549545"}], "_links": {"start": "/api/action/datastore_search?limit=5&resource_id=78c7c9db-c42f-4f93-b711-e8041aaa7933", "next": "/api/action/datastore_search?offset=5&limit=5&resource_id=78c7c9db-c42f-4f93-b711-e8041aaa7933"}, "limit": 5, "total": 140}}