{"help": "https://data.gov.sg/api/3/action/help_show?name=datastore_search", "success": true, "result": {"resource_id": "22600569-848a-40af-af4c-b6f60c35c711", "fields": [{"type": "int4", "id": "_id"}, {"type": "numeric", "id": "year"}, {"type": "text", "id": "sex"}, {"type": "text", "id": "school_type"}, {"type": "numeric", "id": "students_pri"}, {"type": "numeric", "id": "teachers_pri"}], "records": [{"teachers_pri": "7244", "sex": "MF", "school_type": "Govt", "year": "1980", "students_pri": "214187", "_id": 1}, {"teachers_pri": "4834", "sex": "F", "school_type": "Govt", "year": "1980", "students_pri": "101232", "_id": 2}, {"teachers_pri": "2837", "sex": "MF", "school_type": "Aided", "year": "1980", "students_pri": "77323", "_id": 3}, {"teachers_pri": "1908", "sex": "F", "school_type": "Aided", "year": "1980", "students_pri": "37971", "_id": 4}, {"teachers_pri": "7260", "sex": "MF", "school_type": "Govt", "year": "1981", "students_pri": "210245", "_id": 5}], "_links": {"start": "/api/action/datastore_search?limit=5&resource_id=22600569-848a-40af-af4c-b6f60c35c711", "next": "/api/action/datastore_search?offset=5&limit=5&resource_id=22600569-848a-40af-af4c-b6f60c35c711"}, "limit": 5, "total": 160}}