{"help": "https://data.gov.sg/api/3/action/help_show?name=datastore_search", "success": true, "result": {"resource_id": "05013da4-7d23-4eb0-a0a9-ab34d64ffe38", "fields": [{"type": "int4", "id": "_id"}, {"type": "numeric", "id": "year"}, {"type": "text", "id": "level_1"}, {"type": "text", "id": "level_2"}, {"type": "text", "id": "level_3"}, {"type": "numeric", "id": "value"}], "records": [{"value": "939", "year": "2015", "_id": 1, "level_1": "Total", "level_2": "Total", "level_3": "Total"}, {"value": "21.6", "year": "2015", "_id": 2, "level_1": "Total", "level_2": "Age Group Of Husband (Years) - Below 30", "level_3": "Total"}, {"value": "70.2", "year": "2015", "_id": 3, "level_1": "Total", "level_2": "Age Group Of Husband (Years) - 30 - 34", "level_3": "Total"}, {"value": "100.3", "year": "2015", "_id": 4, "level_1": "Total", "level_2": "Age Group Of Husband (Years) - 35 - 39", "level_3": "Total"}, {"value": "114.9", "year": "2015", "_id": 5, "level_1": "Total", "level_2": "Age Group Of Husband (Years) - 40 - 44", "level_3": "Total"}], "_links": {"start": "/api/action/datastore_search?limit=5&resource_id=05013da4-7d23-4eb0-a0a9-ab34d64ffe38", "next": "/api/action/datastore_search?offset=5&limit=5&resource_id=05013da4-7d23-4eb0-a0a9-ab34d64ffe38"}, "limit": 5, "total": 60}}