{"help": "https://data.gov.sg/api/3/action/help_show?name=datastore_search", "success": true, "result": {"resource_id": "6ed0a70b-5559-480e-a76f-cbe55e59a7a7", "fields": [{"type": "int4", "id": "_id"}, {"type": "numeric", "id": "year"}, {"type": "text", "id": "gender"}, {"type": "numeric", "id": "newborns"}], "records": [{"gender": "Females", "_id": 1, "newborns": "19207", "year": "2017"}, {"gender": "Unknown", "_id": 2, "newborns": "0", "year": "2017"}, {"gender": "Males", "_id": 3, "newborns": "20093", "year": "2018"}, {"gender": "Females", "_id": 4, "newborns": "18945", "year": "2018"}, {"gender": "Unknown", "_id": 5, "newborns": "1", "year": "2018"}], "_links": {"start": "/api/action/datastore_search?limit=5&resource_id=6ed0a70b-5559-480e-a76f-cbe55e59a7a7", "next": "/api/action/datastore_search?offset=5&limit=5&resource_id=6ed0a70b-5559-480e-a76f-cbe55e59a7a7"}, "limit": 5, "total": 116}}