{"help": "https://data.gov.sg/api/3/action/help_show?name=datastore_search", "success": true, "result": {"resource_id": "79a62357-49ec-4d78-9d00-50b0cf73084c", "fields": [{"type": "int4", "id": "_id"}, {"type": "numeric", "id": "year"}, {"type": "numeric", "id": "recurrent_expenditure_total"}], "records": [{"_id": 1, "recurrent_expenditure_total": "712732", "year": "1981"}, {"_id": 2, "recurrent_expenditure_total": "983751", "year": "1982"}, {"_id": 3, "recurrent_expenditure_total": "1107113", "year": "1983"}, {"_id": 4, "recurrent_expenditure_total": "1272559", "year": "1984"}, {"_id": 5, "recurrent_expenditure_total": "1388186", "year": "1985"}], "_links": {"start": "/api/action/datastore_search?limit=5&resource_id=79a62357-49ec-4d78-9d00-50b0cf73084c", "next": "/api/action/datastore_search?offset=5&limit=5&resource_id=79a62357-49ec-4d78-9d00-50b0cf73084c"}, "limit": 5, "total": 39}}