{"help": "https://data.gov.sg/api/3/action/help_show?name=datastore_search", "success": true, "result": {"resource_id": "5f5d0ac8-5161-4165-ab21-755642ab386b", "fields": [{"type": "int4", "id": "_id"}, {"type": "numeric", "id": "year"}, {"type": "text", "id": "level_1"}, {"type": "text", "id": "level_2"}, {"type": "numeric", "id": "value"}], "records": [{"value": "1225.3", "_id": 1, "level_1": "Total", "level_2": "Total", "year": "2015"}, {"value": "981.1", "_id": 2, "level_1": "Total", "level_2": "HDB Dwellings", "year": "2015"}, {"value": "170.8", "_id": 3, "level_1": "Total", "level_2": "Condominiums And Other Apartments", "year": "2015"}, {"value": "69.2", "_id": 4, "level_1": "Total", "level_2": "Landed Properties", "year": "2015"}, {"value": "4.2", "_id": 5, "level_1": "Total", "level_2": "Others", "year": "2015"}], "_links": {"start": "/api/action/datastore_search?limit=5&resource_id=5f5d0ac8-5161-4165-ab21-755642ab386b", "next": "/api/action/datastore_search?offset=5&limit=5&resource_id=5f5d0ac8-5161-4165-ab21-755642ab386b"}, "limit": 5, "total": 30}}