{"help": "https://data.gov.sg/api/3/action/help_show?name=datastore_search", "success": true, "result": {"resource_id": "63c7f244-dbbf-466e-a8e7-80722c930e27", "fields": [{"type": "int4", "id": "_id"}, {"type": "numeric", "id": "year"}, {"type": "text", "id": "level_1"}, {"type": "numeric", "id": "value"}], "records": [{"_id": 1, "level_1": "Vietnam", "value": "527.7", "year": "2006"}, {"_id": 2, "level_1": "ASEAN", "value": "9267", "year": "2006"}, {"_id": 3, "level_1": "Europe", "value": "16796.5", "year": "2006"}, {"_id": 4, "level_1": "Belgium", "value": "415", "year": "2006"}, {"_id": 5, "level_1": "Denmark", "value": "1307.6", "year": "2006"}], "_links": {"start": "/api/action/datastore_search?limit=5&resource_id=63c7f244-dbbf-466e-a8e7-80722c930e27", "next": "/api/action/datastore_search?offset=5&limit=5&resource_id=63c7f244-dbbf-466e-a8e7-80722c930e27"}, "limit": 5, "total": 491}}