{"help": "https://data.gov.sg/api/3/action/help_show?name=datastore_search", "success": true, "result": {"resource_id": "7accfce4-306f-4074-9108-3b6dba14d1ab", "fields": [{"type": "int4", "id": "_id"}, {"type": "numeric", "id": "year"}, {"type": "text", "id": "status"}, {"type": "text", "id": "race"}, {"type": "numeric", "id": "no_of_inhalant_abusers_arrested"}], "records": [{"status": "Total", "_id": 1, "no_of_inhalant_abusers_arrested": "49", "race": "Chinese", "year": "2003"}, {"status": "Total", "_id": 2, "no_of_inhalant_abusers_arrested": "81", "race": "Chinese", "year": "2004"}, {"status": "Total", "_id": 3, "no_of_inhalant_abusers_arrested": "48", "race": "Chinese", "year": "2005"}, {"status": "Total", "_id": 4, "no_of_inhalant_abusers_arrested": "192", "race": "Chinese", "year": "2006"}, {"status": "Total", "_id": 5, "no_of_inhalant_abusers_arrested": "285", "race": "Chinese", "year": "2007"}], "_links": {"start": "/api/action/datastore_search?limit=5&resource_id=7accfce4-306f-4074-9108-3b6dba14d1ab", "next": "/api/action/datastore_search?offset=5&limit=5&resource_id=7accfce4-306f-4074-9108-3b6dba14d1ab"}, "limit": 5, "total": 136}}