{"help": "https://data.gov.sg/api/3/action/help_show?name=datastore_search", "success": true, "result": {"resource_id": "9e26f922-03a1-4a11-96e7-dea61bd67a8c", "fields": [{"type": "int4", "id": "_id"}, {"type": "text", "id": "quarter"}, {"type": "text", "id": "level_1"}, {"type": "numeric", "id": "value"}], "records": [{"quarter": "2015-Q3", "_id": 1, "level_1": "Quarterly Composite Leading Index", "value": "99.5"}, {"quarter": "2015-Q4", "_id": 2, "level_1": "Quarterly Composite Leading Index", "value": "98.8"}, {"quarter": "2016-Q1", "_id": 3, "level_1": "Quarterly Composite Leading Index", "value": "98.4"}, {"quarter": "2016-Q2", "_id": 4, "level_1": "Quarterly Composite Leading Index", "value": "100"}, {"quarter": "2016-Q3", "_id": 5, "level_1": "Quarterly Composite Leading Index", "value": "100.7"}], "_links": {"start": "/api/action/datastore_search?limit=5&resource_id=9e26f922-03a1-4a11-96e7-dea61bd67a8c", "next": "/api/action/datastore_search?offset=5&limit=5&resource_id=9e26f922-03a1-4a11-96e7-dea61bd67a8c"}, "limit": 5, "total": 190}}