{"help": "https://data.gov.sg/api/3/action/help_show?name=datastore_search", "success": true, "result": {"resource_id": "bf14cb00-8793-4654-821a-61bf1c5fca35", "fields": [{"type": "int4", "id": "_id"}, {"type": "numeric", "id": "year"}, {"type": "text", "id": "level_1"}, {"type": "numeric", "id": "value"}], "records": [{"_id": 1, "level_1": "Goods Producing Industries", "value": "21.2", "year": "1960"}, {"_id": 2, "level_1": "Services Producing Industries", "value": "75.4", "year": "1960"}, {"_id": 3, "level_1": "Ownership Of Dwellings", "value": "3.4", "year": "1960"}, {"_id": 4, "level_1": "Goods Producing Industries", "value": "21.5", "year": "1961"}, {"_id": 5, "level_1": "Services Producing Industries", "value": "75.2", "year": "1961"}], "_links": {"start": "/api/action/datastore_search?limit=5&resource_id=bf14cb00-8793-4654-821a-61bf1c5fca35", "next": "/api/action/datastore_search?offset=5&limit=5&resource_id=bf14cb00-8793-4654-821a-61bf1c5fca35"}, "limit": 5, "total": 180}}