{"help": "https://data.gov.sg/api/3/action/help_show?name=datastore_search", "success": true, "result": {"resource_id": "df81d2cd-dba0-4b02-b3c9-3c837f10ef89", "fields": [{"type": "int4", "id": "_id"}, {"type": "numeric", "id": "year"}, {"type": "text", "id": "age_year"}, {"type": "numeric", "id": "number"}], "records": [{"age_year": "0-<1", "_id": 1, "number": "14138", "year": "2005"}, {"age_year": "1-<2", "_id": 2, "number": "14898", "year": "2005"}, {"age_year": "2-<3", "_id": 3, "number": "13689", "year": "2005"}, {"age_year": "3-<4", "_id": 4, "number": "9394", "year": "2005"}, {"age_year": "4-<5", "_id": 5, "number": "12379", "year": "2005"}], "_links": {"start": "/api/action/datastore_search?limit=5&resource_id=df81d2cd-dba0-4b02-b3c9-3c837f10ef89", "next": "/api/action/datastore_search?offset=5&limit=5&resource_id=df81d2cd-dba0-4b02-b3c9-3c837f10ef89"}, "limit": 5, "total": 273}}