{"help": "https://data.gov.sg/api/3/action/help_show?name=datastore_search", "success": true, "result": {"resource_id": "ba95254c-3783-47b5-8dc3-8432595b4a9a", "fields": [{"type": "int4", "id": "_id"}, {"type": "text", "id": "year"}, {"type": "numeric", "id": "qualified_driving_licence_holders"}], "records": [{"qualified_driving_licence_holders": "1437422", "_id": 1, "year": "2007"}, {"qualified_driving_licence_holders": "1511751", "_id": 2, "year": "2008"}, {"qualified_driving_licence_holders": "1606451", "_id": 3, "year": "2009"}, {"qualified_driving_licence_holders": "1676357", "_id": 4, "year": "2010"}, {"qualified_driving_licence_holders": "1726480", "_id": 5, "year": "2011"}], "_links": {"start": "/api/action/datastore_search?limit=5&resource_id=ba95254c-3783-47b5-8dc3-8432595b4a9a", "next": "/api/action/datastore_search?offset=5&limit=5&resource_id=ba95254c-3783-47b5-8dc3-8432595b4a9a"}, "limit": 5, "total": 12}}