{"help": "https://data.gov.sg/api/3/action/help_show?name=datastore_search", "success": true, "result": {"resource_id": "a0179f41-b408-406b-8ded-a0371788db0e", "fields": [{"type": "int4", "id": "_id"}, {"type": "numeric", "id": "year"}, {"type": "numeric", "id": "average_number_of_days"}], "records": [{"average_number_of_days": "5.8", "_id": 1, "year": "2006"}, {"average_number_of_days": "6.1", "_id": 2, "year": "2007"}, {"average_number_of_days": "7.1", "_id": 3, "year": "2008"}, {"average_number_of_days": "4.6", "_id": 4, "year": "2009"}, {"average_number_of_days": "6.3", "_id": 5, "year": "2010"}], "_links": {"start": "/api/action/datastore_search?limit=5&resource_id=a0179f41-b408-406b-8ded-a0371788db0e", "next": "/api/action/datastore_search?offset=5&limit=5&resource_id=a0179f41-b408-406b-8ded-a0371788db0e"}, "limit": 5, "total": 8}}