{"help": "https://data.gov.sg/api/3/action/help_show?name=datastore_search", "success": true, "result": {"resource_id": "0e185366-f2a0-489f-bce8-17b4a24ea339", "fields": [{"type": "int4", "id": "_id"}, {"type": "numeric", "id": "year"}, {"type": "numeric", "id": "dengueincidencerate"}], "records": [{"_id": 1, "dengueincidencerate": "180.6", "year": "2007"}, {"_id": 2, "dengueincidencerate": "137", "year": "2008"}, {"_id": 3, "dengueincidencerate": "83.9", "year": "2009"}, {"_id": 4, "dengueincidencerate": "98.1", "year": "2010"}, {"_id": 5, "dengueincidencerate": "98.3", "year": "2011"}], "_links": {"start": "/api/action/datastore_search?limit=5&resource_id=0e185366-f2a0-489f-bce8-17b4a24ea339", "next": "/api/action/datastore_search?offset=5&limit=5&resource_id=0e185366-f2a0-489f-bce8-17b4a24ea339"}, "limit": 5, "total": 9}}