{"help": "https://data.gov.sg/api/3/action/help_show?name=datastore_search", "success": true, "result": {"resource_id": "7bfa57fa-da30-495e-8dc1-4b7bcbc8d7de", "fields": [{"type": "int4", "id": "_id"}, {"type": "numeric", "id": "year"}, {"type": "text", "id": "age"}, {"type": "text", "id": "sex"}, {"type": "numeric", "id": "enrolment_secondary"}], "records": [{"enrolment_secondary": "14158", "age": "16 YRS", "_id": 1, "sex": "MF", "year": "1992"}, {"enrolment_secondary": "6573", "age": "16 YRS", "_id": 2, "sex": "F", "year": "1992"}, {"enrolment_secondary": "6068", "age": "17 YRS", "_id": 3, "sex": "MF", "year": "1992"}, {"enrolment_secondary": "2581", "age": "17 YRS", "_id": 4, "sex": "F", "year": "1992"}, {"enrolment_secondary": "1507", "age": "18 YRS", "_id": 5, "sex": "MF", "year": "1992"}], "_links": {"start": "/api/action/datastore_search?limit=5&resource_id=7bfa57fa-da30-495e-8dc1-4b7bcbc8d7de", "next": "/api/action/datastore_search?offset=5&limit=5&resource_id=7bfa57fa-da30-495e-8dc1-4b7bcbc8d7de"}, "limit": 5, "total": 1146}}