{"help": "https://data.gov.sg/api/3/action/help_show?name=datastore_search", "success": true, "result": {"resource_id": "8c00bf08-9124-479e-aeca-7cc411d884c4", "fields": [{"type": "int4", "id": "_id"}, {"type": "text", "id": "month"}, {"type": "text", "id": "town"}, {"type": "text", "id": "flat_type"}, {"type": "text", "id": "block"}, {"type": "text", "id": "street_name"}, {"type": "text", "id": "storey_range"}, {"type": "numeric", "id": "floor_area_sqm"}, {"type": "text", "id": "flat_model"}, {"type": "numeric", "id": "lease_commence_date"}, {"type": "numeric", "id": "resale_price"}], "records": [{"town": "ANG MO KIO", "flat_type": "3 ROOM", "flat_model": "Improved", "floor_area_sqm": "69", "street_name": "ANG MO KIO AVE 4", "resale_price": "147000", "month": "2000-01", "lease_commence_date": "1986", "storey_range": "07 TO 09", "_id": 1, "block": "170"}, {"town": "ANG MO KIO", "flat_type": "3 ROOM", "flat_model": "Improved", "floor_area_sqm": "61", "street_name": "ANG MO KIO AVE 4", "resale_price": "144000", "month": "2000-01", "lease_commence_date": "1986", "storey_range": "04 TO 06", "_id": 2, "block": "174"}, {"town": "ANG MO KIO", "flat_type": "3 ROOM", "flat_model": "New Generation", "floor_area_sqm": "73", "street_name": "ANG MO KIO AVE 1", "resale_price": "159000", "month": "2000-01", "lease_commence_date": "1976", "storey_range": "07 TO 09", "_id": 3, "block": "216"}, {"town": "ANG MO KIO", "flat_type": "3 ROOM", "flat_model": "New Generation", "floor_area_sqm": "73", "street_name": "ANG MO KIO AVE 1", "resale_price": "167000", "month": "2000-01", "lease_commence_date": "1976", "storey_range": "07 TO 09", "_id": 4, "block": "215"}, {"town": "ANG MO KIO", "flat_type": "3 ROOM", "flat_model": "New Generation", "floor_area_sqm": "67", "street_name": "ANG MO KIO AVE 1", "resale_price": "163000", "month": "2000-01", "lease_commence_date": "1976", "storey_range": "07 TO 09", "_id": 5, "block": "218"}], "_links": {"start": "/api/action/datastore_search?limit=5&resource_id=8c00bf08-9124-479e-aeca-7cc411d884c4", "next": "/api/action/datastore_search?offset=5&limit=5&resource_id=8c00bf08-9124-479e-aeca-7cc411d884c4"}, "limit": 5, "total": 369651}}