{"help": "https://data.gov.sg/api/3/action/help_show?name=datastore_search", "success": true, "result": {"resource_id": "32c21434-862a-486d-b9cd-e3064f2afc74", "fields": [{"type": "int4", "id": "_id"}, {"type": "numeric", "id": "seq_no"}, {"type": "text", "id": "instn_code"}, {"type": "text", "id": "instn_name"}, {"type": "text", "id": "instn_srvc_type_cde"}, {"type": "text", "id": "instn_srvc_type"}, {"type": "text", "id": "instn_blk_hse_no"}, {"type": "text", "id": "instn_street_name"}, {"type": "text", "id": "instn_flr_no"}, {"type": "text", "id": "instn_unit_no"}, {"type": "text", "id": "instn_bldg_name"}, {"type": "numeric", "id": "instn_pc"}, {"type": "text", "id": "instn_ofc_no"}, {"type": "text", "id": "instn_email"}, {"type": "text", "id": "ap_user_name"}], "records": [{"instn_code": "PT9160", "instn_srvc_type_cde": "CC", "instn_street_name": "YISHUN INDUSTRIAL STREET 1", "instn_email": "YS@ZOO-PHONICS.COM.SG", "ap_user_name": "na", "instn_unit_no": "02", "instn_blk_hse_no": "5", "instn_srvc_type": "Childcare Centre", "instn_name": "SAFARI HOUSE PRESCHOOL YISHUN", "instn_ofc_no": "67107328", "seq_no": "201500000373", "instn_pc": "768161", "instn_flr_no": "01", "_id": 1, "instn_bldg_name": "NORTH SPRING BIZHUB"}, {"instn_code": "15C0226", "instn_srvc_type_cde": "HC", "instn_street_name": "SERANGOON NORTH AVENUE 2", "instn_email": "na", "ap_user_name": "na", "instn_unit_no": "01", "instn_blk_hse_no": "151", "instn_srvc_type": "Healthcare Institution", "instn_name": "TSI & PARTNERS FAMILY CLINIC", "instn_ofc_no": "63834818", "seq_no": "201500000372", "instn_pc": "550151", "instn_flr_no": "01", "_id": 2, "instn_bldg_name": "na"}, {"instn_code": "SS20150009", "instn_srvc_type_cde": "OS", "instn_street_name": "BENDEMEER ROAD", "instn_email": "ueyecare@yahoo.com.sg", "ap_user_name": "na", "instn_unit_no": "641", "instn_blk_hse_no": "27", "instn_srvc_type": "Optical Shop", "instn_name": "UNITED EYECARE (BOON KENG) LLP", "instn_ofc_no": "62978298", "seq_no": "201500000366", "instn_pc": "330027", "instn_flr_no": "01", "_id": 3, "instn_bldg_name": "BENDEMEER SHOPPING MALL"}, {"instn_code": "YM0160", "instn_srvc_type_cde": "CC", "instn_street_name": "WOODLANDS CRESCENT", "instn_email": "ccadm@myworld.org.sg", "ap_user_name": "na", "instn_unit_no": "82", "instn_blk_hse_no": "787B", "instn_srvc_type": "Childcare Centre", "instn_name": "MY WORLD PRESCHOOL LTD.", "instn_ofc_no": "63621566", "seq_no": "201500000364", "instn_pc": "732787", "instn_flr_no": "01", "_id": 4, "instn_bldg_name": "na"}, {"instn_code": "YM0159", "instn_srvc_type_cde": "CC", "instn_street_name": "YISHUN STREET 22", "instn_email": "ccynl@myworld.org.sg", "ap_user_name": "na", "instn_unit_no": "58", "instn_blk_hse_no": "270", "instn_srvc_type": "Childcare Centre", "instn_name": "MY WORLD PRESCHOOL LTD.", "instn_ofc_no": "67560729", "seq_no": "201500000363", "instn_pc": "760270", "instn_flr_no": "01", "_id": 5, "instn_bldg_name": "na"}], "_links": {"start": "/api/action/datastore_search?limit=5&resource_id=32c21434-862a-486d-b9cd-e3064f2afc74", "next": "/api/action/datastore_search?offset=5&limit=5&resource_id=32c21434-862a-486d-b9cd-e3064f2afc74"}, "limit": 5, "total": 4601}}