{"help": "https://data.gov.sg/api/3/action/help_show?name=datastore_search", "success": true, "result": {"resource_id": "01597490-ef28-4df9-9517-ba95f04b560b", "fields": [{"type": "int4", "id": "_id"}, {"type": "numeric", "id": "year"}, {"type": "text", "id": "level"}, {"type": "text", "id": "type_of_school"}, {"type": "text", "id": "qualification"}, {"type": "text", "id": "sex"}, {"type": "numeric", "id": "no_of_teacher"}, {"type": "numeric", "id": "no_of_vice_principal"}, {"type": "numeric", "id": "no_of_principal"}], "records": [{"no_of_principal": "3", "no_of_vice_principal": "0", "level": "Secondary", "type_of_school": "Specialised Independent", "sex": "MF", "qualification": "Graduate", "year": "2008", "no_of_teacher": "102", "_id": 1}, {"no_of_principal": "0", "no_of_vice_principal": "0", "level": "Secondary", "type_of_school": "Specialised Independent", "sex": "MF", "qualification": "Non-Graduate", "year": "2008", "no_of_teacher": "3", "_id": 2}, {"no_of_principal": "2", "no_of_vice_principal": "0", "level": "Secondary", "type_of_school": "Specialised Independent", "sex": "F", "qualification": "Graduate", "year": "2008", "no_of_teacher": "57", "_id": 3}, {"no_of_principal": "0", "no_of_vice_principal": "0", "level": "Secondary", "type_of_school": "Specialised Independent", "sex": "F", "qualification": "Non-Graduate", "year": "2008", "no_of_teacher": "1", "_id": 4}, {"no_of_principal": "12", "no_of_vice_principal": "20", "level": "Junior College/Centralised Institute", "type_of_school": "Government", "sex": "MF", "qualification": "Graduate", "year": "2008", "no_of_teacher": "1652", "_id": 5}], "_links": {"start": "/api/action/datastore_search?limit=5&resource_id=01597490-ef28-4df9-9517-ba95f04b560b", "next": "/api/action/datastore_search?offset=5&limit=5&resource_id=01597490-ef28-4df9-9517-ba95f04b560b"}, "limit": 5, "total": 1032}}