{"help": "https://data.gov.sg/api/3/action/help_show?name=datastore_search", "success": true, "result": {"resource_id": "dae281ef-bc6c-46f1-98e3-e3ae26834a09", "fields": [{"type": "int4", "id": "_id"}, {"type": "numeric", "id": "year"}, {"type": "text", "id": "occ_desc"}, {"type": "text", "id": "estab_size1"}, {"type": "numeric", "id": "mthly_gross_wage_50_pctile"}, {"type": "numeric", "id": "mthly_basic_wage_50_pctile"}], "records": [{"mthly_gross_wage_50_pctile": "8203", "mthly_basic_wage_50_pctile": "8000", "occ_desc": "managing director/chief executive officer", "year": "2019", "estab_size1": "all", "_id": 1}, {"mthly_gross_wage_50_pctile": "12258", "mthly_basic_wage_50_pctile": "11400", "occ_desc": "chief operating officer/general manager", "year": "2019", "estab_size1": "all", "_id": 2}, {"mthly_gross_wage_50_pctile": "7790", "mthly_basic_wage_50_pctile": "7659", "occ_desc": "budgeting and financial accounting manager (including financial controller)", "year": "2019", "estab_size1": "all", "_id": 3}, {"mthly_gross_wage_50_pctile": "6476", "mthly_basic_wage_50_pctile": "6372", "occ_desc": "administration manager", "year": "2019", "estab_size1": "all", "_id": 4}, {"mthly_gross_wage_50_pctile": "7548", "mthly_basic_wage_50_pctile": "7358", "occ_desc": "human resource manager", "year": "2019", "estab_size1": "all", "_id": 5}], "_links": {"start": "/api/action/datastore_search?limit=5&resource_id=dae281ef-bc6c-46f1-98e3-e3ae26834a09", "next": "/api/action/datastore_search?offset=5&limit=5&resource_id=dae281ef-bc6c-46f1-98e3-e3ae26834a09"}, "limit": 5, "total": 305}}