{"help": "https://data.gov.sg/api/3/action/help_show?name=datastore_search", "success": true, "result": {"resource_id": "207cb45b-dd8a-45f2-b7ff-20dd8718fa86", "fields": [{"type": "int4", "id": "_id"}, {"type": "numeric", "id": "year"}, {"type": "text", "id": "level_1"}, {"type": "text", "id": "level_2"}, {"type": "numeric", "id": "value"}], "records": [{"value": "2147.8", "_id": 1, "level_1": "Total", "level_2": "Total", "year": "2015"}, {"value": "100.9", "_id": 2, "level_1": "Total", "level_2": "Ang Mo Kio", "year": "2015"}, {"value": "150.1", "_id": 3, "level_1": "Total", "level_2": "Bedok", "year": "2015"}, {"value": "49.4", "_id": 4, "level_1": "Total", "level_2": "Bishan", "year": "2015"}, {"value": "75.5", "_id": 5, "level_1": "Total", "level_2": "Bukit Batok", "year": "2015"}], "_links": {"start": "/api/action/datastore_search?limit=5&resource_id=207cb45b-dd8a-45f2-b7ff-20dd8718fa86", "next": "/api/action/datastore_search?offset=5&limit=5&resource_id=207cb45b-dd8a-45f2-b7ff-20dd8718fa86"}, "limit": 5, "total": 360}}