{"help": "https://data.gov.sg/api/3/action/help_show?name=datastore_search", "success": true, "result": {"resource_id": "872df965-f054-4918-86b6-0c10de51eb3f", "fields": [{"type": "int4", "id": "_id"}, {"type": "numeric", "id": "year"}, {"type": "text", "id": "level_1"}, {"type": "numeric", "id": "value"}], "records": [{"_id": 1, "level_1": "GDP At Current Market Prices", "value": "2157.4", "year": "1960"}, {"_id": 2, "level_1": "GDP At Current Market Prices", "value": "2340.7", "year": "1961"}, {"_id": 3, "level_1": "GDP At Current Market Prices", "value": "2529.3", "year": "1962"}, {"_id": 4, "level_1": "GDP At Current Market Prices", "value": "2809", "year": "1963"}, {"_id": 5, "level_1": "GDP At Current Market Prices", "value": "2737.2", "year": "1964"}], "_links": {"start": "/api/action/datastore_search?limit=5&resource_id=872df965-f054-4918-86b6-0c10de51eb3f", "next": "/api/action/datastore_search?offset=5&limit=5&resource_id=872df965-f054-4918-86b6-0c10de51eb3f"}, "limit": 5, "total": 59}}