{"help": "https://data.gov.sg/api/3/action/help_show?name=datastore_search", "success": true, "result": {"resource_id": "83265d1f-2010-4b4f-9c99-528a914ff059", "fields": [{"type": "int4", "id": "_id"}, {"type": "numeric", "id": "year"}, {"type": "text", "id": "bunker_type"}, {"type": "numeric", "id": "bunker_sales"}], "records": [{"bunker_type": "Marine Gas Oil", "bunker_sales": "1317.3", "_id": 1, "year": "1995"}, {"bunker_type": "Marine Diesel Oil", "bunker_sales": "700.1", "_id": 2, "year": "1995"}, {"bunker_type": "Marine Fuel Oil 180 cst", "bunker_sales": "4754.6", "_id": 3, "year": "1995"}, {"bunker_type": "Marine Fuel Oil 380 cst", "bunker_sales": "9396.7", "_id": 4, "year": "1995"}, {"bunker_type": "Marine Fuel Oil 500 cst +", "bunker_sales": "0", "_id": 5, "year": "1995"}], "_links": {"start": "/api/action/datastore_search?limit=5&resource_id=83265d1f-2010-4b4f-9c99-528a914ff059", "next": "/api/action/datastore_search?offset=5&limit=5&resource_id=83265d1f-2010-4b4f-9c99-528a914ff059"}, "limit": 5, "total": 500}}