{"help": "https://data.gov.sg/api/3/action/help_show?name=datastore_search", "success": true, "result": {"resource_id": "bca703e8-f436-44d7-bede-860c37edaae4", "fields": [{"type": "int4", "id": "_id"}, {"type": "text", "id": "year"}, {"type": "text", "id": "level_1"}, {"type": "numeric", "id": "value"}], "records": [{"_id": 1, "level_1": "Total", "value": "170", "year": "1980"}, {"_id": 2, "level_1": "Wives Aged Under 25 Years", "value": "65", "year": "1980"}, {"_id": 3, "level_1": "Wives Aged 25-29 Years", "value": "86", "year": "1980"}, {"_id": 4, "level_1": "Wives Aged 30-34 Years", "value": "14", "year": "1980"}, {"_id": 5, "level_1": "Wives Aged 35-39 Years", "value": "1", "year": "1980"}], "_links": {"start": "/api/action/datastore_search?limit=5&resource_id=bca703e8-f436-44d7-bede-860c37edaae4", "next": "/api/action/datastore_search?offset=5&limit=5&resource_id=bca703e8-f436-44d7-bede-860c37edaae4"}, "limit": 5, "total": 266}}