{"help": "https://data.gov.sg/api/3/action/help_show?name=datastore_search", "success": true, "result": {"resource_id": "a3bf7c2a-937c-4f8b-922a-cb7ae3388ffa", "fields": [{"type": "int4", "id": "_id"}, {"type": "numeric", "id": "year"}, {"type": "numeric", "id": "carbon_intensity_of_electricity_generation"}], "records": [{"_id": 1, "carbon_intensity_of_electricity_generation": "0.5109", "year": "2007"}, {"_id": 2, "carbon_intensity_of_electricity_generation": "0.5027", "year": "2008"}, {"_id": 3, "carbon_intensity_of_electricity_generation": "0.5042", "year": "2009"}, {"_id": 4, "carbon_intensity_of_electricity_generation": "0.5154", "year": "2010"}, {"_id": 5, "carbon_intensity_of_electricity_generation": "0.5146", "year": "2011"}], "_links": {"start": "/api/action/datastore_search?limit=5&resource_id=a3bf7c2a-937c-4f8b-922a-cb7ae3388ffa", "next": "/api/action/datastore_search?offset=5&limit=5&resource_id=a3bf7c2a-937c-4f8b-922a-cb7ae3388ffa"}, "limit": 5, "total": 7}}