{"help": "https://data.gov.sg/api/3/action/help_show?name=datastore_search", "success": true, "result": {"resource_id": "11fda2ce-004e-4fff-9c93-ee2208fa1b5e", "fields": [{"type": "int4", "id": "_id"}, {"type": "numeric", "id": "yr"}, {"type": "numeric", "id": "con_received"}], "records": [{"yr": "2010", "_id": 1, "con_received": "21993000000"}, {"yr": "2011", "_id": 2, "con_received": "24628000000"}, {"yr": "2012", "_id": 3, "con_received": "26048000000"}, {"yr": "2013", "_id": 4, "con_received": "28530000000"}, {"yr": "2014", "_id": 5, "con_received": "29722000000"}], "_links": {"start": "/api/action/datastore_search?limit=5&resource_id=11fda2ce-004e-4fff-9c93-ee2208fa1b5e", "next": "/api/action/datastore_search?offset=5&limit=5&resource_id=11fda2ce-004e-4fff-9c93-ee2208fa1b5e"}, "limit": 5, "total": 7}}