{"help": "https://data.gov.sg/api/3/action/help_show?name=datastore_search", "success": true, "result": {"resource_id": "83c21090-bd19-4b54-ab6b-d999c251edcf", "fields": [{"type": "int4", "id": "_id"}, {"type": "numeric", "id": "year"}, {"type": "text", "id": "level_1"}, {"type": "text", "id": "level_2"}, {"type": "numeric", "id": "value"}], "records": [{"value": "16", "_id": 1, "level_1": "Total", "level_2": "Murder", "year": "2011"}, {"value": "406", "_id": 2, "level_1": "Total", "level_2": "Serious Hurt", "year": "2011"}, {"value": "150", "_id": 3, "level_1": "Total", "level_2": "Rape", "year": "2011"}, {"value": "1396", "_id": 4, "level_1": "Total", "level_2": "Outrage Of Modesty", "year": "2011"}, {"value": "172", "_id": 5, "level_1": "Total", "level_2": "Rioting", "year": "2011"}], "_links": {"start": "/api/action/datastore_search?limit=5&resource_id=83c21090-bd19-4b54-ab6b-d999c251edcf", "next": "/api/action/datastore_search?offset=5&limit=5&resource_id=83c21090-bd19-4b54-ab6b-d999c251edcf"}, "limit": 5, "total": 90}}