{"help": "https://data.gov.sg/api/3/action/help_show?name=datastore_search", "success": true, "result": {"resource_id": "d68321b6-c438-425d-b9f4-d5777eee9e77", "fields": [{"type": "int4", "id": "_id"}, {"type": "text", "id": "year"}, {"type": "text", "id": "accident_classification"}, {"type": "text", "id": "road_user_group"}, {"type": "text", "id": "causes_of_accident"}, {"type": "text", "id": "number_of_accidents"}], "records": [{"accident_classification": "FATAL", "number_of_accidents": "59", "road_user_group": "Drivers, Riders or Cyclists", "year": "2012", "_id": 1, "causes_of_accident": "Failing to Keep a Proper Lookout"}, {"accident_classification": "FATAL", "number_of_accidents": "50", "road_user_group": "Drivers, Riders or Cyclists", "year": "2012", "_id": 2, "causes_of_accident": "Failing to Have Proper Control"}, {"accident_classification": "FATAL", "number_of_accidents": "9", "road_user_group": "Drivers, Riders or Cyclists", "year": "2012", "_id": 3, "causes_of_accident": "Failing to Give Way to Traffic with Right of Way"}, {"accident_classification": "FATAL", "number_of_accidents": "6", "road_user_group": "Drivers, Riders or Cyclists", "year": "2012", "_id": 4, "causes_of_accident": "Changing Lane without Due Care"}, {"accident_classification": "FATAL", "number_of_accidents": "9", "road_user_group": "Drivers, Riders or Cyclists", "year": "2012", "_id": 5, "causes_of_accident": "Disobeying Traffic Light Signals Resulting in Accidents with Vehicle"}], "_links": {"start": "/api/action/datastore_search?limit=5&resource_id=d68321b6-c438-425d-b9f4-d5777eee9e77", "next": "/api/action/datastore_search?offset=5&limit=5&resource_id=d68321b6-c438-425d-b9f4-d5777eee9e77"}, "limit": 5, "total": 328}}