{"help": "https://data.gov.sg/api/3/action/help_show?name=datastore_search", "success": true, "result": {"resource_id": "85deb904-fbf9-46bc-80fd-9676213bbf1f", "fields": [{"type": "int4", "id": "_id"}, {"type": "text", "id": "month"}, {"type": "text", "id": "vehicle_class"}, {"type": "numeric", "id": "pqp"}], "records": [{"vehicle_class": "Category A", "pqp": "18266", "_id": 1, "month": "2010-02"}, {"vehicle_class": "Category B", "pqp": "19146", "_id": 2, "month": "2010-02"}, {"vehicle_class": "Category C", "pqp": "18212", "_id": 3, "month": "2010-02"}, {"vehicle_class": "Category D", "pqp": "867", "_id": 4, "month": "2010-02"}, {"vehicle_class": "Category A", "pqp": "19331", "_id": 5, "month": "2010-03"}], "_links": {"start": "/api/action/datastore_search?limit=5&resource_id=85deb904-fbf9-46bc-80fd-9676213bbf1f", "next": "/api/action/datastore_search?offset=5&limit=5&resource_id=85deb904-fbf9-46bc-80fd-9676213bbf1f"}, "limit": 5, "total": 984}}