{"help": "https://data.gov.sg/api/3/action/help_show?name=datastore_search", "success": true, "result": {"resource_id": "b28674bf-8119-4c5f-95ef-d6263285a316", "fields": [{"type": "int4", "id": "_id"}, {"type": "numeric", "id": "year"}, {"type": "text", "id": "level_1"}, {"type": "text", "id": "level_2"}, {"type": "text", "id": "level_3"}, {"type": "numeric", "id": "value"}], "records": [{"value": "98", "year": "2013", "_id": 1, "level_1": "Total", "level_2": "Audio-Visual Products", "level_3": "Television"}, {"value": "78.9", "year": "2013", "_id": 2, "level_1": "Total", "level_2": "Audio-Visual Products", "level_3": "Player and Recorder"}, {"value": "61.1", "year": "2013", "_id": 3, "level_1": "Total", "level_2": "Audio-Visual Products", "level_3": "Pay TV Subscription"}, {"value": "98.6", "year": "2013", "_id": 4, "level_1": "Total", "level_2": "Household Appliances", "level_3": "Refrigerator"}, {"value": "63.3", "year": "2013", "_id": 5, "level_1": "Total", "level_2": "Household Appliances", "level_3": "Microwave Oven"}], "_links": {"start": "/api/action/datastore_search?limit=5&resource_id=b28674bf-8119-4c5f-95ef-d6263285a316", "next": "/api/action/datastore_search?offset=5&limit=5&resource_id=b28674bf-8119-4c5f-95ef-d6263285a316"}, "limit": 5, "total": 198}}