{"help": "https://data.gov.sg/api/3/action/help_show?name=datastore_search", "success": true, "result": {"resource_id": "f0cf2243-390d-4225-812a-262befc71293", "fields": [{"type": "int4", "id": "_id"}, {"type": "numeric", "id": "year"}, {"type": "text", "id": "level_1"}, {"type": "numeric", "id": "value"}], "records": [{"_id": 1, "level_1": "Grooms - First Marriages", "value": "28", "year": "1990"}, {"_id": 2, "level_1": "Grooms - Remarriages", "value": "38", "year": "1990"}, {"_id": 3, "level_1": "Brides - Total Marriages", "value": "25.6", "year": "1990"}, {"_id": 4, "level_1": "Brides - First Marriages", "value": "25.3", "year": "1990"}, {"_id": 5, "level_1": "Brides - Remarriages", "value": "32.6", "year": "1990"}], "_links": {"start": "/api/action/datastore_search?limit=5&resource_id=f0cf2243-390d-4225-812a-262befc71293", "next": "/api/action/datastore_search?offset=5&limit=5&resource_id=f0cf2243-390d-4225-812a-262befc71293"}, "limit": 5, "total": 173}}