{"help": "https://data.gov.sg/api/3/action/help_show?name=datastore_search", "success": true, "result": {"resource_id": "a6e31127-1d6d-4e45-8b02-2cd3d8f62457", "fields": [{"type": "int4", "id": "_id"}, {"type": "text", "id": "year"}, {"type": "text", "id": "level_1"}, {"type": "text", "id": "level_2"}, {"type": "numeric", "id": "value"}], "records": [{"value": "1697.1", "_id": 1, "level_1": "Total", "level_2": "Total", "year": "2013"}, {"value": "281.7", "_id": 2, "level_1": "Total", "level_2": "Food and Non-Alcoholic Beverages", "year": "2013"}, {"value": "31.8", "_id": 3, "level_1": "Total", "level_2": "Clothing and Footwear", "year": "2013"}, {"value": "265.8", "_id": 4, "level_1": "Total", "level_2": "Housing and Utilities", "year": "2013"}, {"value": "148.2", "_id": 5, "level_1": "Total", "level_2": "Furnishings, Household Equipment and Routine Household Maintenance", "year": "2013"}], "_links": {"start": "/api/action/datastore_search?limit=5&resource_id=a6e31127-1d6d-4e45-8b02-2cd3d8f62457", "next": "/api/action/datastore_search?offset=5&limit=5&resource_id=a6e31127-1d6d-4e45-8b02-2cd3d8f62457"}, "limit": 5, "total": 168}}