{"help": "https://data.gov.sg/api/3/action/help_show?name=datastore_search", "success": true, "result": {"resource_id": "77b9059f-cc9a-4f4f-a495-9c268945191b", "fields": [{"type": "int4", "id": "_id"}, {"type": "numeric", "id": "year"}, {"type": "numeric", "id": "rh_mean_daily"}, {"type": "numeric", "id": "rh_mean_daily_minimum"}, {"type": "numeric", "id": "rh_means_daily_maximum"}], "records": [{"rh_mean_daily": "81.9", "_id": 1, "rh_mean_daily_minimum": "63.1", "rh_means_daily_maximum": "94.2", "year": "1982"}, {"rh_mean_daily": "82.3", "_id": 2, "rh_mean_daily_minimum": "63.6", "rh_means_daily_maximum": "94.7", "year": "1983"}, {"rh_mean_daily": "84.6", "_id": 3, "rh_mean_daily_minimum": "66.5", "rh_means_daily_maximum": "95.9", "year": "1984"}, {"rh_mean_daily": "83.2", "_id": 4, "rh_mean_daily_minimum": "64.1", "rh_means_daily_maximum": "95.3", "year": "1985"}, {"rh_mean_daily": "82.9", "_id": 5, "rh_mean_daily_minimum": "63.6", "rh_means_daily_maximum": "94.9", "year": "1986"}], "_links": {"start": "/api/action/datastore_search?limit=5&resource_id=77b9059f-cc9a-4f4f-a495-9c268945191b", "next": "/api/action/datastore_search?offset=5&limit=5&resource_id=77b9059f-cc9a-4f4f-a495-9c268945191b"}, "limit": 5, "total": 38}}