{"help": "https://data.gov.sg/api/3/action/help_show?name=datastore_search", "success": true, "result": {"resource_id": "1d20089c-07ac-40f4-9ea1-b41c635f3b93", "fields": [{"type": "int4", "id": "_id"}, {"type": "numeric", "id": "rank"}, {"type": "numeric", "id": "latest_year"}, {"type": "text", "id": "report"}, {"type": "text", "id": "country"}], "records": [{"report": "imd_wdcr", "country": "USA", "_id": 1, "latest_year": "2018", "rank": "1"}, {"report": "imd_wdcr", "country": "Singapore", "_id": 2, "latest_year": "2018", "rank": "2"}, {"report": "imd_wdcr", "country": "Sweden", "_id": 3, "latest_year": "2018", "rank": "3"}, {"report": "imd_wdcr", "country": "Denmark", "_id": 4, "latest_year": "2018", "rank": "4"}, {"report": "imd_wdcr", "country": "Switzerland", "_id": 5, "latest_year": "2018", "rank": "5"}], "_links": {"start": "/api/action/datastore_search?limit=5&resource_id=1d20089c-07ac-40f4-9ea1-b41c635f3b93", "next": "/api/action/datastore_search?offset=5&limit=5&resource_id=1d20089c-07ac-40f4-9ea1-b41c635f3b93"}, "limit": 5, "total": 121}}