{"help": "https://data.gov.sg/api/3/action/help_show?name=datastore_search", "success": true, "result": {"resource_id": "e4c8461f-e7de-4fc3-ad25-cf068ae09509", "fields": [{"type": "int4", "id": "_id"}, {"type": "numeric", "id": "year"}, {"type": "numeric", "id": "total_waste_incinerated"}], "records": [{"total_waste_incinerated": "2.44", "_id": 1, "year": "2000"}, {"total_waste_incinerated": "2.55", "_id": 2, "year": "2001"}, {"total_waste_incinerated": "2.42", "_id": 3, "year": "2002"}, {"total_waste_incinerated": "2.31", "_id": 4, "year": "2003"}, {"total_waste_incinerated": "2.26", "_id": 5, "year": "2004"}], "_links": {"start": "/api/action/datastore_search?limit=5&resource_id=e4c8461f-e7de-4fc3-ad25-cf068ae09509", "next": "/api/action/datastore_search?offset=5&limit=5&resource_id=e4c8461f-e7de-4fc3-ad25-cf068ae09509"}, "limit": 5, "total": 16}}