{"help": "https://data.gov.sg/api/3/action/help_show?name=datastore_search", "success": true, "result": {"resource_id": "d62d01a0-e3cd-4f48-bf77-35f8d327902a", "fields": [{"type": "int4", "id": "_id"}, {"type": "text", "id": "quarter"}, {"type": "text", "id": "investment_schm_type"}, {"type": "numeric", "id": "no_of_mbrs"}], "records": [{"investment_schm_type": "CPF investment scheme (ordinary account)", "quarter": "2004-Q1", "_id": 1, "no_of_mbrs": "723000"}, {"investment_schm_type": "CPF investment scheme (special account)", "quarter": "2004-Q1", "_id": 2, "no_of_mbrs": "431000"}, {"investment_schm_type": "CPF investment scheme (ordinary account)", "quarter": "2004-Q2", "_id": 3, "no_of_mbrs": "730000"}, {"investment_schm_type": "CPF investment scheme (special account)", "quarter": "2004-Q2", "_id": 4, "no_of_mbrs": "433000"}, {"investment_schm_type": "CPF investment scheme (ordinary account)", "quarter": "2004-Q3", "_id": 5, "no_of_mbrs": "736000"}], "_links": {"start": "/api/action/datastore_search?limit=5&resource_id=d62d01a0-e3cd-4f48-bf77-35f8d327902a", "next": "/api/action/datastore_search?offset=5&limit=5&resource_id=d62d01a0-e3cd-4f48-bf77-35f8d327902a"}, "limit": 5, "total": 120}}