{"help": "https://data.gov.sg/api/3/action/help_show?name=datastore_search", "success": true, "result": {"resource_id": "585c24a5-76cd-4c48-9341-9223de5adc1d", "fields": [{"type": "int4", "id": "_id"}, {"type": "text", "id": "month"}, {"type": "numeric", "id": "rh_extremes_minimum"}], "records": [{"_id": 1, "rh_extremes_minimum": "56", "month": "2002-11"}, {"_id": 2, "rh_extremes_minimum": "56", "month": "2002-12"}, {"_id": 3, "rh_extremes_minimum": "56", "month": "2003-01"}, {"_id": 4, "rh_extremes_minimum": "55", "month": "2003-02"}, {"_id": 5, "rh_extremes_minimum": "54", "month": "2003-03"}], "_links": {"start": "/api/action/datastore_search?limit=5&resource_id=585c24a5-76cd-4c48-9341-9223de5adc1d", "next": "/api/action/datastore_search?offset=5&limit=5&resource_id=585c24a5-76cd-4c48-9341-9223de5adc1d"}, "limit": 5, "total": 680}}