{"help": "https://data.gov.sg/api/3/action/help_show?name=datastore_search", "success": true, "result": {"resource_id": "b063ccfd-65af-465e-b60a-ddd97d78e7a1", "fields": [{"type": "int4", "id": "_id"}, {"type": "numeric", "id": "year"}, {"type": "numeric", "id": "temp_mean_daily_max"}], "records": [{"temp_mean_daily_max": "31.4", "_id": 1, "year": "1982"}, {"temp_mean_daily_max": "31.7", "_id": 2, "year": "1983"}, {"temp_mean_daily_max": "30.8", "_id": 3, "year": "1984"}, {"temp_mean_daily_max": "31.3", "_id": 4, "year": "1985"}, {"temp_mean_daily_max": "31.1", "_id": 5, "year": "1986"}], "_links": {"start": "/api/action/datastore_search?limit=5&resource_id=b063ccfd-65af-465e-b60a-ddd97d78e7a1", "next": "/api/action/datastore_search?offset=5&limit=5&resource_id=b063ccfd-65af-465e-b60a-ddd97d78e7a1"}, "limit": 5, "total": 38}}