{"help": "https://data.gov.sg/api/3/action/help_show?name=datastore_search", "success": true, "result": {"resource_id": "0afcc45c-ba18-432d-8ce1-f2c5910ffff6", "fields": [{"type": "int4", "id": "_id"}, {"type": "text", "id": "year"}, {"type": "text", "id": "level_1"}, {"type": "numeric", "id": "value"}], "records": [{"_id": 1, "level_1": "Total Citizen", "value": "1874778", "year": "1970"}, {"_id": 2, "level_1": "Total Male Citizens", "value": "962773", "year": "1970"}, {"_id": 3, "level_1": "Total Female Citizens", "value": "912005", "year": "1970"}, {"_id": 4, "level_1": "Total Malays", "value": "264361", "year": "1970"}, {"_id": 5, "level_1": "Total Male Malays", "value": "137734", "year": "1970"}], "_links": {"start": "/api/action/datastore_search?limit=5&resource_id=0afcc45c-ba18-432d-8ce1-f2c5910ffff6", "next": "/api/action/datastore_search?offset=5&limit=5&resource_id=0afcc45c-ba18-432d-8ce1-f2c5910ffff6"}, "limit": 5, "total": 465}}