{"help": "https://data.gov.sg/api/3/action/help_show?name=datastore_search", "success": true, "result": {"resource_id": "40e0f743-8ecc-483c-b76e-28ab78331916", "fields": [{"type": "int4", "id": "_id"}, {"type": "text", "id": "year"}, {"type": "text", "id": "level_1"}, {"type": "text", "id": "level_2"}, {"type": "numeric", "id": "value"}], "records": [{"value": "2222", "_id": 1, "level_1": "First Marriages", "level_2": "Groom Older By 2 Years", "year": "2001"}, {"value": "1849", "_id": 2, "level_1": "First Marriages", "level_2": "Groom Older By 3 Years", "year": "2001"}, {"value": "1592", "_id": 3, "level_1": "First Marriages", "level_2": "Groom Older By 4 Years", "year": "2001"}, {"value": "1288", "_id": 4, "level_1": "First Marriages", "level_2": "Groom Older By 5 Years", "year": "2001"}, {"value": "857", "_id": 5, "level_1": "First Marriages", "level_2": "Groom Older By 6 Years", "year": "2001"}], "_links": {"start": "/api/action/datastore_search?limit=5&resource_id=40e0f743-8ecc-483c-b76e-28ab78331916", "next": "/api/action/datastore_search?offset=5&limit=5&resource_id=40e0f743-8ecc-483c-b76e-28ab78331916"}, "limit": 5, "total": 3790}}