{"help": "https://data.gov.sg/api/3/action/help_show?name=datastore_search", "success": true, "result": {"resource_id": "ce12ba22-1940-49fe-9fd1-a077cd19f3cb", "fields": [{"type": "int4", "id": "_id"}, {"type": "text", "id": "quarter"}, {"type": "numeric", "id": "provisional_permission"}, {"type": "numeric", "id": "written_permission"}, {"type": "numeric", "id": "building_plan_approval"}, {"type": "numeric", "id": "building_commencement"}, {"type": "numeric", "id": "building_completion"}], "records": [{"_id": 1, "building_commencement": "3564", "building_plan_approval": "4300", "provisional_permission": "2881", "quarter": "2013-Q4", "building_completion": "3631", "written_permission": "3697"}, {"_id": 2, "building_commencement": "3841", "building_plan_approval": "3687", "provisional_permission": "322", "quarter": "2014-Q1", "building_completion": "4114", "written_permission": "3954"}, {"_id": 3, "building_commencement": "2808", "building_plan_approval": "3311", "provisional_permission": "1115", "quarter": "2014-Q2", "building_completion": "4902", "written_permission": "1131"}, {"_id": 4, "building_commencement": "3291", "building_plan_approval": "1300", "provisional_permission": "3420", "quarter": "2014-Q3", "building_completion": "4559", "written_permission": "415"}, {"_id": 5, "building_commencement": "1631", "building_plan_approval": "977", "provisional_permission": "811", "quarter": "2014-Q4", "building_completion": "6366", "written_permission": "2954"}], "_links": {"start": "/api/action/datastore_search?limit=5&resource_id=ce12ba22-1940-49fe-9fd1-a077cd19f3cb", "next": "/api/action/datastore_search?offset=5&limit=5&resource_id=ce12ba22-1940-49fe-9fd1-a077cd19f3cb"}, "limit": 5, "total": 20}}