{"help": "https://data.gov.sg/api/3/action/help_show?name=datastore_search", "success": true, "result": {"resource_id": "dfffd17c-d8eb-42ec-b98d-00c07e7c23a0", "fields": [{"type": "int4", "id": "_id"}, {"type": "text", "id": "quarter"}, {"type": "text", "id": "age1"}, {"type": "text", "id": "reentry_rate"}], "records": [{"quarter": "2000-Q1", "_id": 1, "reentry_rate": "86.3", "age1": "Below 30"}, {"quarter": "2000-Q1", "_id": 2, "reentry_rate": "76.9", "age1": "30 - 39"}, {"quarter": "2000-Q1", "_id": 3, "reentry_rate": "74", "age1": "40 & Over"}, {"quarter": "2000-Q1", "_id": 4, "reentry_rate": "75.7", "age1": "40 - 49"}, {"quarter": "2000-Q1", "_id": 5, "reentry_rate": "70.9", "age1": "50 & Over"}], "_links": {"start": "/api/action/datastore_search?limit=5&resource_id=dfffd17c-d8eb-42ec-b98d-00c07e7c23a0", "next": "/api/action/datastore_search?offset=5&limit=5&resource_id=dfffd17c-d8eb-42ec-b98d-00c07e7c23a0"}, "limit": 5, "total": 574}}