{"help": "https://data.gov.sg/api/3/action/help_show?name=datastore_search", "success": true, "result": {"resource_id": "4e3bf316-a46b-4cd8-a794-37d088dcbd0c", "fields": [{"type": "int4", "id": "_id"}, {"type": "numeric", "id": "year"}, {"type": "numeric", "id": "school_life_expectancy"}], "records": [{"school_life_expectancy": "12.7", "_id": 1, "year": "2000"}, {"school_life_expectancy": "12.6", "_id": 2, "year": "2001"}, {"school_life_expectancy": "12.7", "_id": 3, "year": "2002"}, {"school_life_expectancy": "12.7", "_id": 4, "year": "2003"}, {"school_life_expectancy": "12.6", "_id": 5, "year": "2004"}], "_links": {"start": "/api/action/datastore_search?limit=5&resource_id=4e3bf316-a46b-4cd8-a794-37d088dcbd0c", "next": "/api/action/datastore_search?offset=5&limit=5&resource_id=4e3bf316-a46b-4cd8-a794-37d088dcbd0c"}, "limit": 5, "total": 19}}