{"help": "https://data.gov.sg/api/3/action/help_show?name=datastore_search", "success": true, "result": {"resource_id": "3368e329-b1c8-4472-b336-3c374247ec2f", "fields": [{"type": "int4", "id": "_id"}, {"type": "text", "id": "year"}, {"type": "text", "id": "industry"}, {"type": "numeric", "id": "no_of_members"}], "records": [{"industry": "Manufacturing", "_id": 1, "no_of_members": "116517", "year": "2009"}, {"industry": "Construction", "_id": 2, "no_of_members": "25317", "year": "2009"}, {"industry": "Wholesale & Retail Trade", "_id": 3, "no_of_members": "78819", "year": "2009"}, {"industry": "Accommodation & Food Services", "_id": 4, "no_of_members": "37276", "year": "2009"}, {"industry": "Transport & Storage and Information & Communications", "_id": 5, "no_of_members": "92430", "year": "2009"}], "_links": {"start": "/api/action/datastore_search?limit=5&resource_id=3368e329-b1c8-4472-b336-3c374247ec2f", "next": "/api/action/datastore_search?offset=5&limit=5&resource_id=3368e329-b1c8-4472-b336-3c374247ec2f"}, "limit": 5, "total": 450}}