{"help": "https://data.gov.sg/api/3/action/help_show?name=datastore_search", "success": true, "result": {"resource_id": "461161bc-6f8e-4f8d-84a6-deaed81b4a6c", "fields": [{"type": "int4", "id": "_id"}, {"type": "text", "id": "firm_name"}, {"type": "text", "id": "firm_address"}, {"type": "text", "id": "firm_phone"}, {"type": "text", "id": "firm_fax"}, {"type": "text", "id": "firm_email"}], "records": [{"firm_address": "Penthouse Atelier, 35 Peminpin Place, Singapore 576032", "firm_email": "caihq@caihub.com", "firm_fax": "62256268", "firm_phone": "62256678", "firm_name": "Chartered Architects International", "_id": 1}, {"firm_address": "Blk 20 Balam Road, #02-154, Singapore 370020", "firm_email": "checkin.arch@gmail.com", "firm_fax": "na", "firm_phone": "+65 82337152", "firm_name": "CHECK:IN Architects", "_id": 2}, {"firm_address": "Blk 531 Upper Cross Street, #03-63 Hong Lim Complex, Singapore 050531", "firm_email": "na", "firm_fax": "65363628", "firm_phone": "62360910", "firm_name": "Chik & Yeo Architects", "_id": 3}, {"firm_address": "Blk 750C Chai Chee Road, #02-01 Viva Business Park, Singapore 469003", "firm_email": "na", "firm_fax": "62646652", "firm_phone": "63237020", "firm_name": "Chin Kam, architects", "_id": 4}, {"firm_address": "27B West Coast Park, #02-10, Singapore 127722", "firm_email": "architectcht@gmail.com", "firm_fax": "na", "firm_phone": "96343796", "firm_name": "CHT Chartered Architects", "_id": 5}], "_links": {"start": "/api/action/datastore_search?limit=5&resource_id=461161bc-6f8e-4f8d-84a6-deaed81b4a6c", "next": "/api/action/datastore_search?offset=5&limit=5&resource_id=461161bc-6f8e-4f8d-84a6-deaed81b4a6c"}, "limit": 5, "total": 1274}}