{"help": "https://data.gov.sg/api/3/action/help_show?name=datastore_search", "success": true, "result": {"resource_id": "1e5b2dd3-97fb-44e4-9f88-c6415ef230cd", "fields": [{"type": "int4", "id": "_id"}, {"type": "numeric", "id": "year"}, {"type": "text", "id": "institution_type"}, {"type": "text", "id": "facility_type_a"}, {"type": "text", "id": "public_private"}, {"type": "numeric", "id": "no_of_facilities"}, {"type": "numeric", "id": "no_beds"}], "records": [{"no_beds": "6416", "no_of_facilities": "7", "institution_type": "Hospital", "year": "2009", "_id": 1, "public_private": "Public", "facility_type_a": "Acute"}, {"no_beds": "303", "no_of_facilities": "1", "institution_type": "Hospital", "year": "2009", "_id": 2, "public_private": "Not-for-Profit", "facility_type_a": "Acute"}, {"no_beds": "1570", "no_of_facilities": "6", "institution_type": "Hospital", "year": "2009", "_id": 3, "public_private": "Private", "facility_type_a": "Acute"}, {"no_beds": "2040", "no_of_facilities": "1", "institution_type": "Hospital", "year": "2009", "_id": 4, "public_private": "Public", "facility_type_a": "Psychiatric Hospitals"}, {"no_beds": "0", "no_of_facilities": "0", "institution_type": "Hospital", "year": "2009", "_id": 5, "public_private": "Not-for-Profit", "facility_type_a": "Psychiatric Hospitals"}], "_links": {"start": "/api/action/datastore_search?limit=5&resource_id=1e5b2dd3-97fb-44e4-9f88-c6415ef230cd", "next": "/api/action/datastore_search?offset=5&limit=5&resource_id=1e5b2dd3-97fb-44e4-9f88-c6415ef230cd"}, "limit": 5, "total": 165}}