{"help": "https://data.gov.sg/api/3/action/help_show?name=datastore_search", "success": true, "result": {"resource_id": "ab91d3d5-e86f-42d0-ad74-3735917fed79", "fields": [{"type": "int4", "id": "_id"}, {"type": "text", "id": "year"}, {"type": "text", "id": "level_1"}, {"type": "numeric", "id": "value"}], "records": [{"_id": 1, "level_1": "Total", "value": "170", "year": "1980"}, {"_id": 2, "level_1": "Single (Wife)", "value": "169", "year": "1980"}, {"_id": 3, "level_1": "Divorced (Wife)", "value": "0", "year": "1980"}, {"_id": 4, "level_1": "Widowed (Wife)", "value": "0", "year": "1980"}, {"_id": 5, "level_1": "Unknown Marital Status (Wife)", "value": "1", "year": "1980"}], "_links": {"start": "/api/action/datastore_search?limit=5&resource_id=ab91d3d5-e86f-42d0-ad74-3735917fed79", "next": "/api/action/datastore_search?offset=5&limit=5&resource_id=ab91d3d5-e86f-42d0-ad74-3735917fed79"}, "limit": 5, "total": 195}}