{"help": "https://data.gov.sg/api/3/action/help_show?name=datastore_search", "success": true, "result": {"resource_id": "7e472f55-d032-4d26-ba82-73f8b5e527d9", "fields": [{"type": "int4", "id": "_id"}, {"type": "text", "id": "month"}, {"type": "text", "id": "work_pass_type"}, {"type": "numeric", "id": "count"}], "records": [{"count": "187900", "_id": 1, "work_pass_type": "employment_pass", "month": "2015-12"}, {"count": "178600", "_id": 2, "work_pass_type": "s_pass", "month": "2015-12"}, {"count": "997100", "_id": 3, "work_pass_type": "work_permit", "month": "2015-12"}, {"count": "23600", "_id": 4, "work_pass_type": "other_work_passes", "month": "2015-12"}, {"count": "192300", "_id": 5, "work_pass_type": "employment_pass", "month": "2016-12"}], "_links": {"start": "/api/action/datastore_search?limit=5&resource_id=7e472f55-d032-4d26-ba82-73f8b5e527d9", "next": "/api/action/datastore_search?offset=5&limit=5&resource_id=7e472f55-d032-4d26-ba82-73f8b5e527d9"}, "limit": 5, "total": 24}}