{"help": "https://data.gov.sg/api/3/action/help_show?name=datastore_search", "success": true, "result": {"resource_id": "7e227620-eea6-4232-bb60-d2c6bbdc3a81", "fields": [{"type": "int4", "id": "_id"}, {"type": "text", "id": "quarter"}, {"type": "numeric", "id": "recruitment_rate"}, {"type": "numeric", "id": "resignation_rate"}], "records": [{"resignation_rate": "4.8", "quarter": "1990-Q1", "_id": 1, "recruitment_rate": "4.8"}, {"resignation_rate": "4.4", "quarter": "1990-Q2", "_id": 2, "recruitment_rate": "5.2"}, {"resignation_rate": "3.7", "quarter": "1990-Q3", "_id": 3, "recruitment_rate": "4.4"}, {"resignation_rate": "3", "quarter": "1990-Q4", "_id": 4, "recruitment_rate": "3.9"}, {"resignation_rate": "4", "quarter": "1991-Q1", "_id": 5, "recruitment_rate": "3.9"}], "_links": {"start": "/api/action/datastore_search?limit=5&resource_id=7e227620-eea6-4232-bb60-d2c6bbdc3a81", "next": "/api/action/datastore_search?offset=5&limit=5&resource_id=7e227620-eea6-4232-bb60-d2c6bbdc3a81"}, "limit": 5, "total": 122}}