{"help": "https://data.gov.sg/api/3/action/help_show?name=datastore_search", "success": true, "result": {"resource_id": "fb23a58e-0689-4a95-8b2f-5d128c2013bd", "fields": [{"type": "int4", "id": "_id"}, {"type": "numeric", "id": "year"}, {"type": "text", "id": "level_1"}, {"type": "numeric", "id": "value"}], "records": [{"_id": 1, "level_1": "Total", "value": "170", "year": "1980"}, {"_id": 2, "level_1": "Chinese", "value": "155", "year": "1980"}, {"_id": 3, "level_1": "Indians", "value": "14", "year": "1980"}, {"_id": 4, "level_1": "Others", "value": "0", "year": "1980"}, {"_id": 5, "level_1": "Inter-ethnic", "value": "1", "year": "1980"}], "_links": {"start": "/api/action/datastore_search?limit=5&resource_id=fb23a58e-0689-4a95-8b2f-5d128c2013bd", "next": "/api/action/datastore_search?offset=5&limit=5&resource_id=fb23a58e-0689-4a95-8b2f-5d128c2013bd"}, "limit": 5, "total": 200}}