{"help": "https://data.gov.sg/api/3/action/help_show?name=datastore_search", "success": true, "result": {"resource_id": "116e56d3-c226-47f2-b376-18b0d6be9c5f", "fields": [{"type": "int4", "id": "_id"}, {"type": "text", "id": "month"}, {"type": "text", "id": "make"}, {"type": "text", "id": "fuel_type"}, {"type": "text", "id": "vehicle_type"}, {"type": "numeric", "id": "number"}], "records": [{"vehicle_type": "Goods cum Passenger Vehicles", "make": "ISUZU", "number": "1", "month": "2016-09", "_id": 1, "fuel_type": "Diesel"}, {"vehicle_type": "Goods cum Passenger Vehicles", "make": "MITSUBISHI", "number": "8", "month": "2016-09", "_id": 2, "fuel_type": "Diesel"}, {"vehicle_type": "Goods cum Passenger Vehicles", "make": "NISSAN", "number": "3", "month": "2016-09", "_id": 3, "fuel_type": "Diesel"}, {"vehicle_type": "Goods cum Passenger Vehicles", "make": "TOYOTA", "number": "1", "month": "2016-09", "_id": 4, "fuel_type": "Diesel"}, {"vehicle_type": "Light Goods Vehicles", "make": "BOMAG", "number": "1", "month": "2016-09", "_id": 5, "fuel_type": "Diesel"}], "_links": {"start": "/api/action/datastore_search?limit=5&resource_id=116e56d3-c226-47f2-b376-18b0d6be9c5f", "next": "/api/action/datastore_search?offset=5&limit=5&resource_id=116e56d3-c226-47f2-b376-18b0d6be9c5f"}, "limit": 5, "total": 6470}}