{"help": "https://data.gov.sg/api/3/action/help_show?name=datastore_search", "success": true, "result": {"resource_id": "8a087b7c-a11b-4da8-bbb6-ac933f465acd", "fields": [{"type": "int4", "id": "_id"}, {"type": "text", "id": "complete_date_txt"}, {"type": "text", "id": "town_txt"}, {"type": "text", "id": "represented"}, {"type": "text", "id": "salesperson_name"}, {"type": "text", "id": "salesperson_reg_no"}], "records": [{"salesperson_reg_no": "R000841B", "town_txt": "ANG MO KIO", "salesperson_name": "WOO PING PING (YU PING PING)", "complete_date_txt": "April 2018", "represented": "Seller", "_id": 1}, {"salesperson_reg_no": "R024338A", "town_txt": "SERANGOON", "salesperson_name": "CHOO XUNCHI", "complete_date_txt": "April 2018", "represented": "Seller", "_id": 2}, {"salesperson_reg_no": "R045869H", "town_txt": "WOODLANDS", "salesperson_name": "NG KEE HENG (HUANG QIHENG)", "complete_date_txt": "April 2018", "represented": "Seller", "_id": 3}, {"salesperson_reg_no": "R047080I", "town_txt": "ANG MO KIO", "salesperson_name": "R ADAIKALAM", "complete_date_txt": "April 2018", "represented": "Seller", "_id": 4}, {"salesperson_reg_no": "R011043H", "town_txt": "HOUGANG", "salesperson_name": "LIM JOO HENG", "complete_date_txt": "April 2018", "represented": "Seller", "_id": 5}], "_links": {"start": "/api/action/datastore_search?limit=5&resource_id=8a087b7c-a11b-4da8-bbb6-ac933f465acd", "next": "/api/action/datastore_search?offset=5&limit=5&resource_id=8a087b7c-a11b-4da8-bbb6-ac933f465acd"}, "limit": 5, "total": 203146}}