{"help": "https://data.gov.sg/api/3/action/help_show?name=datastore_search", "success": true, "result": {"resource_id": "5bcf4ee1-9e3b-4824-81ef-00dcc12f16c0", "fields": [{"type": "int4", "id": "_id"}, {"type": "numeric", "id": "year"}, {"type": "text", "id": "level_1"}, {"type": "numeric", "id": "value"}], "records": [{"_id": 1, "level_1": "Total", "value": "22.9", "year": "1980"}, {"_id": 2, "level_1": "Malays", "value": "22.8", "year": "1980"}, {"_id": 3, "level_1": "Indians", "value": "22.7", "year": "1980"}, {"_id": 4, "level_1": "Others", "value": "24.1", "year": "1980"}, {"_id": 5, "level_1": "Total", "value": "23", "year": "1981"}], "_links": {"start": "/api/action/datastore_search?limit=5&resource_id=5bcf4ee1-9e3b-4824-81ef-00dcc12f16c0", "next": "/api/action/datastore_search?offset=5&limit=5&resource_id=5bcf4ee1-9e3b-4824-81ef-00dcc12f16c0"}, "limit": 5, "total": 160}}