{"help": "https://data.gov.sg/api/3/action/help_show?name=datastore_search", "success": true, "result": {"resource_id": "94ba6f5e-c319-4628-b66d-3ad64a91443c", "fields": [{"type": "int4", "id": "_id"}, {"type": "numeric", "id": "year"}, {"type": "text", "id": "sector"}, {"type": "numeric", "id": "count"}], "records": [{"sector": "Active Practice", "count": "1727", "_id": 1, "year": "2006"}, {"sector": "Not in Active Practice", "count": "219", "_id": 2, "year": "2006"}, {"sector": "Active Practice", "count": "1794", "_id": 3, "year": "2007"}, {"sector": "Not in Active Practice", "count": "256", "_id": 4, "year": "2007"}, {"sector": "Active Practice", "count": "1846", "_id": 5, "year": "2008"}], "_links": {"start": "/api/action/datastore_search?limit=5&resource_id=94ba6f5e-c319-4628-b66d-3ad64a91443c", "next": "/api/action/datastore_search?offset=5&limit=5&resource_id=94ba6f5e-c319-4628-b66d-3ad64a91443c"}, "limit": 5, "total": 28}}