{"help": "https://data.gov.sg/api/3/action/help_show?name=datastore_search", "success": true, "result": {"resource_id": "21727d9f-dc4f-4992-a354-4375a3a766c4", "fields": [{"type": "int4", "id": "_id"}, {"type": "numeric", "id": "year"}, {"type": "numeric", "id": "kg_per_day_per_person"}], "records": [{"kg_per_day_per_person": "0.93", "_id": 1, "year": "2000"}, {"kg_per_day_per_person": "0.91", "_id": 2, "year": "2001"}, {"kg_per_day_per_person": "0.94", "_id": 3, "year": "2002"}, {"kg_per_day_per_person": "0.94", "_id": 4, "year": "2003"}, {"kg_per_day_per_person": "0.91", "_id": 5, "year": "2004"}], "_links": {"start": "/api/action/datastore_search?limit=5&resource_id=21727d9f-dc4f-4992-a354-4375a3a766c4", "next": "/api/action/datastore_search?offset=5&limit=5&resource_id=21727d9f-dc4f-4992-a354-4375a3a766c4"}, "limit": 5, "total": 16}}