{"help": "https://data.gov.sg/api/3/action/help_show?name=datastore_search", "success": true, "result": {"resource_id": "b50a0c64-b2d1-42df-96c2-a5dd9ee794a6", "fields": [{"type": "int4", "id": "_id"}, {"type": "text", "id": "year"}, {"type": "numeric", "id": "internet_access"}], "records": [{"internet_access": "61", "_id": 1, "year": "2005"}, {"internet_access": "60", "_id": 2, "year": "2006"}, {"internet_access": "85", "_id": 3, "year": "2007"}, {"internet_access": "89", "_id": 4, "year": "2008"}, {"internet_access": "90", "_id": 5, "year": "2009"}], "_links": {"start": "/api/action/datastore_search?limit=5&resource_id=b50a0c64-b2d1-42df-96c2-a5dd9ee794a6", "next": "/api/action/datastore_search?offset=5&limit=5&resource_id=b50a0c64-b2d1-42df-96c2-a5dd9ee794a6"}, "limit": 5, "total": 14}}