{"help": "https://data.gov.sg/api/3/action/help_show?name=datastore_search", "success": true, "result": {"resource_id": "32c3e5e3-4c48-4753-a150-54e2fd1f03ab", "fields": [{"type": "int4", "id": "_id"}, {"type": "text", "id": "quarter"}, {"type": "text", "id": "level_1"}, {"type": "numeric", "id": "value"}], "records": [{"quarter": "1975-Q1", "_id": 1, "level_1": "GDP At Current Market Prices", "value": "3209.4"}, {"quarter": "1975-Q2", "_id": 2, "level_1": "GDP At Current Market Prices", "value": "3307"}, {"quarter": "1975-Q3", "_id": 3, "level_1": "GDP At Current Market Prices", "value": "3519.3"}, {"quarter": "1975-Q4", "_id": 4, "level_1": "GDP At Current Market Prices", "value": "3693"}, {"quarter": "1976-Q1", "_id": 5, "level_1": "GDP At Current Market Prices", "value": "3545.1"}], "_links": {"start": "/api/action/datastore_search?limit=5&resource_id=32c3e5e3-4c48-4753-a150-54e2fd1f03ab", "next": "/api/action/datastore_search?offset=5&limit=5&resource_id=32c3e5e3-4c48-4753-a150-54e2fd1f03ab"}, "limit": 5, "total": 178}}