{"help": "https://data.gov.sg/api/3/action/help_show?name=datastore_search", "success": true, "result": {"resource_id": "58461bbc-2e45-435b-9775-e68e5a936acf", "fields": [{"type": "int4", "id": "_id"}, {"type": "text", "id": "month"}, {"type": "numeric", "id": "total_loans"}, {"type": "numeric", "id": "total_loans_business"}, {"type": "numeric", "id": "total_loans_consumer"}], "records": [{"total_loans_business": "195720", "total_loans_consumer": "98096.1", "_id": 1, "total_loans": "293816.4", "month": "2004-03"}, {"total_loans_business": "196774.5", "total_loans_consumer": "98634.3", "_id": 2, "total_loans": "295409", "month": "2004-04"}, {"total_loans_business": "199022.1", "total_loans_consumer": "99722.4", "_id": 3, "total_loans": "298744.2", "month": "2004-05"}, {"total_loans_business": "199974.2", "total_loans_consumer": "100971.5", "_id": 4, "total_loans": "300945.9", "month": "2004-06"}, {"total_loans_business": "202125", "total_loans_consumer": "101358.6", "_id": 5, "total_loans": "303484", "month": "2004-07"}], "_links": {"start": "/api/action/datastore_search?limit=5&resource_id=58461bbc-2e45-435b-9775-e68e5a936acf", "next": "/api/action/datastore_search?offset=5&limit=5&resource_id=58461bbc-2e45-435b-9775-e68e5a936acf"}, "limit": 5, "total": 138}}