{"help": "https://data.gov.sg/api/3/action/help_show?name=datastore_search", "success": true, "result": {"resource_id": "21e87da6-94bb-4219-a607-1a928494b3a5", "fields": [{"type": "int4", "id": "_id"}, {"type": "numeric", "id": "year"}, {"type": "numeric", "id": "inward_containers_count"}], "records": [{"_id": 1, "inward_containers_count": "926700", "year": "2004"}, {"_id": 2, "inward_containers_count": "782500", "year": "2005"}, {"_id": 3, "inward_containers_count": "804896", "year": "2006"}, {"_id": 4, "inward_containers_count": "874700", "year": "2007"}, {"_id": 5, "inward_containers_count": "886300", "year": "2008"}], "_links": {"start": "/api/action/datastore_search?limit=5&resource_id=21e87da6-94bb-4219-a607-1a928494b3a5", "next": "/api/action/datastore_search?offset=5&limit=5&resource_id=21e87da6-94bb-4219-a607-1a928494b3a5"}, "limit": 5, "total": 16}}