{"help": "https://data.gov.sg/api/3/action/help_show?name=datastore_search", "success": true, "result": {"resource_id": "adbbddd3-30e2-445f-a123-29bee150a6fe", "fields": [{"type": "int4", "id": "_id"}, {"type": "text", "id": "month"}, {"type": "text", "id": "town"}, {"type": "text", "id": "flat_type"}, {"type": "text", "id": "block"}, {"type": "text", "id": "street_name"}, {"type": "text", "id": "storey_range"}, {"type": "numeric", "id": "floor_area_sqm"}, {"type": "text", "id": "flat_model"}, {"type": "numeric", "id": "lease_commence_date"}, {"type": "numeric", "id": "resale_price"}], "records": [{"town": "ANG MO KIO", "flat_type": "1 ROOM", "flat_model": "IMPROVED", "floor_area_sqm": "31", "street_name": "ANG MO KIO AVE 1", "resale_price": "9000", "month": "1990-01", "lease_commence_date": "1977", "storey_range": "10 TO 12", "_id": 1, "block": "309"}, {"town": "ANG MO KIO", "flat_type": "1 ROOM", "flat_model": "IMPROVED", "floor_area_sqm": "31", "street_name": "ANG MO KIO AVE 1", "resale_price": "6000", "month": "1990-01", "lease_commence_date": "1977", "storey_range": "04 TO 06", "_id": 2, "block": "309"}, {"town": "ANG MO KIO", "flat_type": "1 ROOM", "flat_model": "IMPROVED", "floor_area_sqm": "31", "street_name": "ANG MO KIO AVE 1", "resale_price": "8000", "month": "1990-01", "lease_commence_date": "1977", "storey_range": "10 TO 12", "_id": 3, "block": "309"}, {"town": "ANG MO KIO", "flat_type": "1 ROOM", "flat_model": "IMPROVED", "floor_area_sqm": "31", "street_name": "ANG MO KIO AVE 1", "resale_price": "6000", "month": "1990-01", "lease_commence_date": "1977", "storey_range": "07 TO 09", "_id": 4, "block": "309"}, {"town": "ANG MO KIO", "flat_type": "3 ROOM", "flat_model": "NEW GENERATION", "floor_area_sqm": "73", "street_name": "ANG MO KIO AVE 1", "resale_price": "47200", "month": "1990-01", "lease_commence_date": "1976", "storey_range": "04 TO 06", "_id": 5, "block": "216"}], "_links": {"start": "/api/action/datastore_search?limit=5&resource_id=adbbddd3-30e2-445f-a123-29bee150a6fe", "next": "/api/action/datastore_search?offset=5&limit=5&resource_id=adbbddd3-30e2-445f-a123-29bee150a6fe"}, "limit": 5, "total": 287200}}