{"help": "https://data.gov.sg/api/3/action/help_show?name=datastore_search", "success": true, "result": {"resource_id": "0f42bc70-bc6b-4d0d-b7b8-8eda4f39b8f0", "fields": [{"type": "int4", "id": "_id"}, {"type": "numeric", "id": "year"}, {"type": "text", "id": "level_1"}, {"type": "numeric", "id": "value"}], "records": [{"_id": 1, "level_1": "Unlicensed Moneylending Cases Recorded", "value": "1566", "year": "2011"}, {"_id": 2, "level_1": "Unlicensed Moneylending Harassment Cases Recorded", "value": "11776", "year": "2011"}, {"_id": 3, "level_1": "Number Of Persons Arrested For Unlicensed Moneylending", "value": "1608", "year": "2011"}, {"_id": 4, "level_1": "Number Of Persons Arrested For Unlicensed Moneylending Harassment", "value": "373", "year": "2011"}, {"_id": 5, "level_1": "Unlicensed Moneylending Cases Recorded", "value": "1851", "year": "2012"}], "_links": {"start": "/api/action/datastore_search?limit=5&resource_id=0f42bc70-bc6b-4d0d-b7b8-8eda4f39b8f0", "next": "/api/action/datastore_search?offset=5&limit=5&resource_id=0f42bc70-bc6b-4d0d-b7b8-8eda4f39b8f0"}, "limit": 5, "total": 32}}