{"help": "https://data.gov.sg/api/3/action/help_show?name=datastore_search", "success": true, "result": {"resource_id": "4c90bf70-17d8-404f-a0e0-00adc93f6f42", "fields": [{"type": "int4", "id": "_id"}, {"type": "text", "id": "quarter"}, {"type": "text", "id": "level_1"}, {"type": "numeric", "id": "value"}], "records": [{"quarter": "1980-Q1", "_id": 1, "level_1": "Unit Labour Cost Of Overall Economy", "value": "54.2"}, {"quarter": "1980-Q2", "_id": 2, "level_1": "Unit Labour Cost Of Overall Economy", "value": "55.3"}, {"quarter": "1980-Q3", "_id": 3, "level_1": "Unit Labour Cost Of Overall Economy", "value": "56.1"}, {"quarter": "1980-Q4", "_id": 4, "level_1": "Unit Labour Cost Of Overall Economy", "value": "56.5"}, {"quarter": "1981-Q1", "_id": 5, "level_1": "Unit Labour Cost Of Overall Economy", "value": "58.6"}], "_links": {"start": "/api/action/datastore_search?limit=5&resource_id=4c90bf70-17d8-404f-a0e0-00adc93f6f42", "next": "/api/action/datastore_search?offset=5&limit=5&resource_id=4c90bf70-17d8-404f-a0e0-00adc93f6f42"}, "limit": 5, "total": 160}}