{"help": "https://data.gov.sg/api/3/action/help_show?name=datastore_search", "success": true, "result": {"resource_id": "63c1097c-5ca9-4dbf-a3f9-3e7f34bac29e", "fields": [{"type": "int4", "id": "_id"}, {"type": "numeric", "id": "year"}, {"type": "numeric", "id": "overstayers_count"}], "records": [{"_id": 1, "overstayers_count": "2180", "year": "2011"}, {"_id": 2, "overstayers_count": "1890", "year": "2012"}, {"_id": 3, "overstayers_count": "1930", "year": "2013"}, {"_id": 4, "overstayers_count": "1690", "year": "2014"}, {"_id": 5, "overstayers_count": "1591", "year": "2015"}], "_links": {"start": "/api/action/datastore_search?limit=5&resource_id=63c1097c-5ca9-4dbf-a3f9-3e7f34bac29e", "next": "/api/action/datastore_search?offset=5&limit=5&resource_id=63c1097c-5ca9-4dbf-a3f9-3e7f34bac29e"}, "limit": 5, "total": 9}}