{"help": "https://data.gov.sg/api/3/action/help_show?name=datastore_search", "success": true, "result": {"resource_id": "23087f44-56bf-41cd-a598-4667c9705f5f", "fields": [{"type": "int4", "id": "_id"}, {"type": "text", "id": "month"}, {"type": "numeric", "id": "total_internet_dialup"}], "records": [{"_id": 1, "total_internet_dialup": "129100", "month": "1996-12"}, {"_id": 2, "total_internet_dialup": "139000", "month": "1997-01"}, {"_id": 3, "total_internet_dialup": "149000", "month": "1997-02"}, {"_id": 4, "total_internet_dialup": "162000", "month": "1997-03"}, {"_id": 5, "total_internet_dialup": "175000", "month": "1997-04"}], "_links": {"start": "/api/action/datastore_search?limit=5&resource_id=23087f44-56bf-41cd-a598-4667c9705f5f", "next": "/api/action/datastore_search?offset=5&limit=5&resource_id=23087f44-56bf-41cd-a598-4667c9705f5f"}, "limit": 5, "total": 270}}