{"help": "https://data.gov.sg/api/3/action/help_show?name=datastore_search", "success": true, "result": {"resource_id": "087f64e3-9f69-46de-8d70-6d96676b1bfa", "fields": [{"type": "int4", "id": "_id"}, {"type": "numeric", "id": "year"}, {"type": "text", "id": "rail_type"}, {"type": "numeric", "id": "length"}], "records": [{"length": "109.4", "_id": 1, "rail_type": "mrt", "year": "2005"}, {"length": "28.8", "_id": 2, "rail_type": "lrt", "year": "2005"}, {"length": "109.4", "_id": 3, "rail_type": "mrt", "year": "2006"}, {"length": "28.8", "_id": 4, "rail_type": "lrt", "year": "2006"}, {"length": "109.4", "_id": 5, "rail_type": "mrt", "year": "2007"}], "_links": {"start": "/api/action/datastore_search?limit=5&resource_id=087f64e3-9f69-46de-8d70-6d96676b1bfa", "next": "/api/action/datastore_search?offset=5&limit=5&resource_id=087f64e3-9f69-46de-8d70-6d96676b1bfa"}, "limit": 5, "total": 24}}