{"help": "https://data.gov.sg/api/3/action/help_show?name=datastore_search", "success": true, "result": {"resource_id": "c38de333-7219-44f4-b2bc-0c73b56a05b8", "fields": [{"type": "int4", "id": "_id"}, {"type": "numeric", "id": "year"}, {"type": "text", "id": "mother_age"}, {"type": "text", "id": "child_birth_weight"}, {"type": "text", "id": "child_gender"}, {"type": "text", "id": "period_of_gestation"}, {"type": "numeric", "id": "still_births_count"}], "records": [{"period_of_gestation": "28", "child_gender": "F", "year": "2018", "still_births_count": "2", "mother_age": "30  -  34", "child_birth_weight": "1000 - 1499", "_id": 1}, {"period_of_gestation": "31", "child_gender": "F", "year": "2018", "still_births_count": "1", "mother_age": "30  -  34", "child_birth_weight": "1000 - 1499", "_id": 2}, {"period_of_gestation": "32", "child_gender": "M", "year": "2018", "still_births_count": "1", "mother_age": "30  -  34", "child_birth_weight": "1000 - 1499", "_id": 3}, {"period_of_gestation": "32", "child_gender": "F", "year": "2018", "still_births_count": "1", "mother_age": "30  -  34", "child_birth_weight": "1000 - 1499", "_id": 4}, {"period_of_gestation": "29", "child_gender": "M", "year": "2018", "still_births_count": "3", "mother_age": "35  -  39", "child_birth_weight": "1000 - 1499", "_id": 5}], "_links": {"start": "/api/action/datastore_search?limit=5&resource_id=c38de333-7219-44f4-b2bc-0c73b56a05b8", "next": "/api/action/datastore_search?offset=5&limit=5&resource_id=c38de333-7219-44f4-b2bc-0c73b56a05b8"}, "limit": 5, "total": 346}}