{"help": "https://data.gov.sg/api/3/action/help_show?name=datastore_search", "success": true, "result": {"resource_id": "bdd267bf-2ded-4ed7-8834-08b4ec977e7a", "fields": [{"type": "int4", "id": "_id"}, {"type": "numeric", "id": "year"}, {"type": "text", "id": "level_1"}, {"type": "numeric", "id": "value"}], "records": [{"_id": 1, "level_1": "Total Persons Arrested", "value": "18561", "year": "2011"}, {"_id": 2, "level_1": "Singaporeans/ Permanent Residents", "value": "14668", "year": "2011"}, {"_id": 3, "level_1": "Foreigners", "value": "3893", "year": "2011"}, {"_id": 4, "level_1": "Above 21 Years Old", "value": "14280", "year": "2011"}, {"_id": 5, "level_1": "21 Years Old And Below", "value": "4281", "year": "2011"}], "_links": {"start": "/api/action/datastore_search?limit=5&resource_id=bdd267bf-2ded-4ed7-8834-08b4ec977e7a", "next": "/api/action/datastore_search?offset=5&limit=5&resource_id=bdd267bf-2ded-4ed7-8834-08b4ec977e7a"}, "limit": 5, "total": 48}}