{"help": "https://data.gov.sg/api/3/action/help_show?name=datastore_search", "success": true, "result": {"resource_id": "7c650576-e174-4f35-8cff-96105f1c4fdd", "fields": [{"type": "int4", "id": "_id"}, {"type": "text", "id": "year"}, {"type": "text", "id": "level_1"}, {"type": "numeric", "id": "value"}], "records": [{"_id": 1, "level_1": "Total", "value": "17471", "year": "1980"}, {"_id": 2, "level_1": "Brides Aged Under 20 Years", "value": "1687", "year": "1980"}, {"_id": 3, "level_1": "Brides Aged 20-24 Years", "value": "9501", "year": "1980"}, {"_id": 4, "level_1": "Brides Aged 25-29 Years", "value": "4973", "year": "1980"}, {"_id": 5, "level_1": "Brides Aged 30-34 Years", "value": "1024", "year": "1980"}], "_links": {"start": "/api/action/datastore_search?limit=5&resource_id=7c650576-e174-4f35-8cff-96105f1c4fdd", "next": "/api/action/datastore_search?offset=5&limit=5&resource_id=7c650576-e174-4f35-8cff-96105f1c4fdd"}, "limit": 5, "total": 351}}