{"help": "https://data.gov.sg/api/3/action/help_show?name=datastore_search", "success": true, "result": {"resource_id": "9709359e-81b7-47b4-b185-db0ff873d97f", "fields": [{"type": "int4", "id": "_id"}, {"type": "numeric", "id": "financial_year"}, {"type": "numeric", "id": "no_of_cases"}, {"type": "numeric", "id": "tax_and_penalty_arising"}], "records": [{"tax_and_penalty_arising": "41349", "_id": 1, "financial_year": "2002", "no_of_cases": "65"}, {"tax_and_penalty_arising": "26529", "_id": 2, "financial_year": "2003", "no_of_cases": "81"}, {"tax_and_penalty_arising": "22418", "_id": 3, "financial_year": "2004", "no_of_cases": "83"}, {"tax_and_penalty_arising": "32412", "_id": 4, "financial_year": "2005", "no_of_cases": "92"}, {"tax_and_penalty_arising": "20712", "_id": 5, "financial_year": "2006", "no_of_cases": "96"}], "_links": {"start": "/api/action/datastore_search?limit=5&resource_id=9709359e-81b7-47b4-b185-db0ff873d97f", "next": "/api/action/datastore_search?offset=5&limit=5&resource_id=9709359e-81b7-47b4-b185-db0ff873d97f"}, "limit": 5, "total": 18}}