{"help": "https://data.gov.sg/api/3/action/help_show?name=datastore_search", "success": true, "result": {"resource_id": "98c669ca-bd54-4b2a-be06-86eef9a3c429", "fields": [{"type": "int4", "id": "_id"}, {"type": "text", "id": "quarter"}, {"type": "numeric", "id": "reentry_rate"}], "records": [{"quarter": "2000-Q1", "_id": 1, "reentry_rate": "77.2"}, {"quarter": "2000-Q2", "_id": 2, "reentry_rate": "75.4"}, {"quarter": "2000-Q3", "_id": 3, "reentry_rate": "73.2"}, {"quarter": "2000-Q4", "_id": 4, "reentry_rate": "75.3"}, {"quarter": "2001-Q1", "_id": 5, "reentry_rate": "74.8"}], "_links": {"start": "/api/action/datastore_search?limit=5&resource_id=98c669ca-bd54-4b2a-be06-86eef9a3c429", "next": "/api/action/datastore_search?offset=5&limit=5&resource_id=98c669ca-bd54-4b2a-be06-86eef9a3c429"}, "limit": 5, "total": 82}}