{"help": "https://data.gov.sg/api/3/action/help_show?name=datastore_search", "success": true, "result": {"resource_id": "2403315c-93b9-4f65-b97b-8132077037eb", "fields": [{"type": "int4", "id": "_id"}, {"type": "numeric", "id": "year_of_assessment"}, {"type": "numeric", "id": "no_of_indv_assessed"}, {"type": "numeric", "id": "total_income"}, {"type": "numeric", "id": "donations"}, {"type": "numeric", "id": "assessable_income"}], "records": [{"total_income": "71878947", "assessable_income": "71624730", "no_of_indv_assessed": "1734218", "donations": "254217", "year_of_assessment": "2004", "_id": 1}, {"total_income": "71594148", "assessable_income": "71347123", "no_of_indv_assessed": "1528861", "donations": "247025", "year_of_assessment": "2005", "_id": 2}, {"total_income": "75480305", "assessable_income": "75156326", "no_of_indv_assessed": "1461040", "donations": "323978", "year_of_assessment": "2006", "_id": 3}, {"total_income": "84724808", "assessable_income": "84442770", "no_of_indv_assessed": "1522175", "donations": "282038", "year_of_assessment": "2007", "_id": 4}, {"total_income": "98848536", "assessable_income": "98491184", "no_of_indv_assessed": "1616707", "donations": "357352", "year_of_assessment": "2008", "_id": 5}], "_links": {"start": "/api/action/datastore_search?limit=5&resource_id=2403315c-93b9-4f65-b97b-8132077037eb", "next": "/api/action/datastore_search?offset=5&limit=5&resource_id=2403315c-93b9-4f65-b97b-8132077037eb"}, "limit": 5, "total": 16}}