{"help": "https://data.gov.sg/api/3/action/help_show?name=datastore_search", "success": true, "result": {"resource_id": "53afd03a-c33b-40fe-a761-61247c4125e9", "fields": [{"type": "int4", "id": "_id"}, {"type": "text", "id": "quarter"}, {"type": "text", "id": "level_1"}, {"type": "numeric", "id": "value"}], "records": [{"quarter": "1995-Q1", "_id": 1, "level_1": "Total Services Sector", "value": "28"}, {"quarter": "1995-Q2", "_id": 2, "level_1": "Total Services Sector", "value": "22"}, {"quarter": "1995-Q3", "_id": 3, "level_1": "Total Services Sector", "value": "24"}, {"quarter": "1995-Q4", "_id": 4, "level_1": "Total Services Sector", "value": "4"}, {"quarter": "1996-Q1", "_id": 5, "level_1": "Total Services Sector", "value": "11"}], "_links": {"start": "/api/action/datastore_search?limit=5&resource_id=53afd03a-c33b-40fe-a761-61247c4125e9", "next": "/api/action/datastore_search?offset=5&limit=5&resource_id=53afd03a-c33b-40fe-a761-61247c4125e9"}, "limit": 5, "total": 101}}