{"help": "https://data.gov.sg/api/3/action/help_show?name=datastore_search", "success": true, "result": {"resource_id": "144dbc6b-6113-4fa4-a583-c471eafce539", "fields": [{"type": "int4", "id": "_id"}, {"type": "text", "id": "quarter"}, {"type": "text", "id": "flat_type"}, {"type": "numeric", "id": "no_of_resale_applications"}], "records": [{"flat_type": "1-ROOM", "quarter": "2019-Q3", "_id": 1, "no_of_resale_applications": "1"}, {"flat_type": "2-ROOM", "quarter": "2019-Q3", "_id": 2, "no_of_resale_applications": "139"}, {"flat_type": "3-ROOM", "quarter": "2019-Q3", "_id": 3, "no_of_resale_applications": "1540"}, {"flat_type": "4-ROOM", "quarter": "2019-Q3", "_id": 4, "no_of_resale_applications": "2553"}, {"flat_type": "5-ROOM", "quarter": "2019-Q3", "_id": 5, "no_of_resale_applications": "1547"}], "_links": {"start": "/api/action/datastore_search?limit=5&resource_id=144dbc6b-6113-4fa4-a583-c471eafce539", "next": "/api/action/datastore_search?offset=5&limit=5&resource_id=144dbc6b-6113-4fa4-a583-c471eafce539"}, "limit": 5, "total": 348}}