{"help": "https://data.gov.sg/api/3/action/help_show?name=datastore_search", "success": true, "result": {"resource_id": "07553b43-2277-4497-9873-a00a92f37f3e", "fields": [{"type": "int4", "id": "_id"}, {"type": "numeric", "id": "year"}, {"type": "text", "id": "status"}, {"type": "numeric", "id": "no_of_drug_abusers"}], "records": [{"status": "Total", "_id": 1, "no_of_drug_abusers": "1809", "year": "2003"}, {"status": "Total", "_id": 2, "no_of_drug_abusers": "956", "year": "2004"}, {"status": "Total", "_id": 3, "no_of_drug_abusers": "793", "year": "2005"}, {"status": "Total", "_id": 4, "no_of_drug_abusers": "1218", "year": "2006"}, {"status": "Total", "_id": 5, "no_of_drug_abusers": "2211", "year": "2007"}], "_links": {"start": "/api/action/datastore_search?limit=5&resource_id=07553b43-2277-4497-9873-a00a92f37f3e", "next": "/api/action/datastore_search?offset=5&limit=5&resource_id=07553b43-2277-4497-9873-a00a92f37f3e"}, "limit": 5, "total": 51}}