{"help": "https://data.gov.sg/api/3/action/help_show?name=datastore_search", "success": true, "result": {"resource_id": "a7813918-1abd-4c1d-9783-c99483d701b9", "fields": [{"type": "int4", "id": "_id"}, {"type": "text", "id": "quarter"}, {"type": "text", "id": "education1"}, {"type": "numeric", "id": "reentry_rate"}], "records": [{"quarter": "2000-Q1", "_id": 1, "education1": "Below Secondary", "reentry_rate": "74.2"}, {"quarter": "2000-Q1", "_id": 2, "education1": "Secondary", "reentry_rate": "80.2"}, {"quarter": "2000-Q1", "_id": 3, "education1": "Post-Secondary (Non-Tertiary)", "reentry_rate": "80.6"}, {"quarter": "2000-Q1", "_id": 4, "education1": "Diploma & Professional Qualification", "reentry_rate": "81.3"}, {"quarter": "2000-Q1", "_id": 5, "education1": "Degree", "reentry_rate": "77.4"}], "_links": {"start": "/api/action/datastore_search?limit=5&resource_id=a7813918-1abd-4c1d-9783-c99483d701b9", "next": "/api/action/datastore_search?offset=5&limit=5&resource_id=a7813918-1abd-4c1d-9783-c99483d701b9"}, "limit": 5, "total": 410}}