{"help": "https://data.gov.sg/api/3/action/help_show?name=datastore_search", "success": true, "result": {"resource_id": "032ac035-7a69-4e09-9007-7426ddef63e4", "fields": [{"type": "int4", "id": "_id"}, {"type": "numeric", "id": "financial_year"}, {"type": "text", "id": "actual_revised_estimated"}, {"type": "text", "id": "type"}, {"type": "text", "id": "category"}, {"type": "text", "id": "class"}, {"type": "numeric", "id": "amount"}], "records": [{"category": "Running Cost", "actual_revised_estimated": "Actual", "amount": "3063", "financial_year": "1997", "_id": 1, "type": "Operating", "class": "Expenditure on Manpower"}, {"category": "Running Cost", "actual_revised_estimated": "Actual", "amount": "2896", "financial_year": "1998", "_id": 2, "type": "Operating", "class": "Expenditure on Manpower"}, {"category": "Running Cost", "actual_revised_estimated": "Actual", "amount": "2872", "financial_year": "1999", "_id": 3, "type": "Operating", "class": "Expenditure on Manpower"}, {"category": "Running Cost", "actual_revised_estimated": "Actual", "amount": "3276", "financial_year": "2000", "_id": 4, "type": "Operating", "class": "Expenditure on Manpower"}, {"category": "Running Cost", "actual_revised_estimated": "Actual", "amount": "3351", "financial_year": "2001", "_id": 5, "type": "Operating", "class": "Expenditure on Manpower"}], "_links": {"start": "/api/action/datastore_search?limit=5&resource_id=032ac035-7a69-4e09-9007-7426ddef63e4", "next": "/api/action/datastore_search?offset=5&limit=5&resource_id=032ac035-7a69-4e09-9007-7426ddef63e4"}, "limit": 5, "total": 192}}