{"help": "https://data.gov.sg/api/3/action/help_show?name=datastore_search", "success": true, "result": {"resource_id": "7331cfb7-051f-4e25-937a-46d47f5ecf7e", "fields": [{"type": "int4", "id": "_id"}, {"type": "numeric", "id": "year"}, {"type": "text", "id": "level_1"}, {"type": "text", "id": "level_2"}, {"type": "numeric", "id": "value"}], "records": [{"value": "1221", "_id": 1, "level_1": "Brides - Post-secondary", "level_2": "Grooms - University", "year": "2000"}, {"value": "340", "_id": 2, "level_1": "Brides - University", "level_2": "Grooms - Secondary & Below", "year": "2000"}, {"value": "686", "_id": 3, "level_1": "Brides - University", "level_2": "Grooms - Post-secondary", "year": "2000"}, {"value": "4000", "_id": 4, "level_1": "Brides - University", "level_2": "Grooms - University", "year": "2000"}, {"value": "5887", "_id": 5, "level_1": "Total", "level_2": "Grooms - Secondary & Below", "year": "2001"}], "_links": {"start": "/api/action/datastore_search?limit=5&resource_id=7331cfb7-051f-4e25-937a-46d47f5ecf7e", "next": "/api/action/datastore_search?offset=5&limit=5&resource_id=7331cfb7-051f-4e25-937a-46d47f5ecf7e"}, "limit": 5, "total": 664}}