{"help": "https://data.gov.sg/api/3/action/help_show?name=datastore_search", "success": true, "result": {"resource_id": "42ff9cfe-abe5-4b54-beda-c88f9bb438ee", "fields": [{"type": "int4", "id": "_id"}, {"type": "text", "id": "month"}, {"type": "text", "id": "town"}, {"type": "text", "id": "flat_type"}, {"type": "text", "id": "block"}, {"type": "text", "id": "street_name"}, {"type": "text", "id": "storey_range"}, {"type": "numeric", "id": "floor_area_sqm"}, {"type": "text", "id": "flat_model"}, {"type": "numeric", "id": "lease_commence_date"}, {"type": "text", "id": "remaining_lease"}, {"type": "numeric", "id": "resale_price"}], "records": [{"town": "ANG MO KIO", "flat_type": "3 ROOM", "flat_model": "New Generation", "floor_area_sqm": "67", "street_name": "ANG MO KIO AVE 10", "resale_price": "235000", "month": "2019-10", "remaining_lease": "58 years 10 months", "lease_commence_date": "1979", "storey_range": "07 TO 09", "_id": 1, "block": "442"}, {"town": "ANG MO KIO", "flat_type": "3 ROOM", "flat_model": "New Generation", "floor_area_sqm": "68", "street_name": "ANG MO KIO AVE 10", "resale_price": "286000", "month": "2019-10", "remaining_lease": "60 years 04 months", "lease_commence_date": "1981", "storey_range": "13 TO 15", "_id": 2, "block": "549"}, {"town": "ANG MO KIO", "flat_type": "3 ROOM", "flat_model": "New Generation", "floor_area_sqm": "67", "street_name": "ANG MO KIO AVE 10", "resale_price": "255000", "month": "2019-10", "remaining_lease": "58 years 09 months", "lease_commence_date": "1979", "storey_range": "04 TO 06", "_id": 3, "block": "475"}, {"town": "ANG MO KIO", "flat_type": "3 ROOM", "flat_model": "New Generation", "floor_area_sqm": "67", "street_name": "ANG MO KIO AVE 10", "resale_price": "259000", "month": "2019-10", "remaining_lease": "58 years 03 months", "lease_commence_date": "1979", "storey_range": "04 TO 06", "_id": 4, "block": "435"}, {"town": "ANG MO KIO", "flat_type": "3 ROOM", "flat_model": "New Generation", "floor_area_sqm": "68", "street_name": "ANG MO KIO AVE 10", "resale_price": "290000", "month": "2019-10", "remaining_lease": "60 years 03 months", "lease_commence_date": "1981", "storey_range": "07 TO 09", "_id": 5, "block": "541"}], "_links": {"start": "/api/action/datastore_search?limit=5&resource_id=42ff9cfe-abe5-4b54-beda-c88f9bb438ee", "next": "/api/action/datastore_search?offset=5&limit=5&resource_id=42ff9cfe-abe5-4b54-beda-c88f9bb438ee"}, "limit": 5, "total": 102448}}