{"help": "https://data.gov.sg/api/3/action/help_show?name=datastore_search", "success": true, "result": {"resource_id": "1bdcdf81-c3b0-4636-a496-543507ae39e4", "fields": [{"type": "int4", "id": "_id"}, {"type": "numeric", "id": "year"}, {"type": "numeric", "id": "no_hawker_stalls"}], "records": [{"_id": 1, "no_hawker_stalls": "5613", "year": "1989"}, {"_id": 2, "no_hawker_stalls": "5184", "year": "1990"}, {"_id": 3, "no_hawker_stalls": "4530", "year": "1991"}, {"_id": 4, "no_hawker_stalls": "4332", "year": "1992"}, {"_id": 5, "no_hawker_stalls": "4157", "year": "1993"}], "_links": {"start": "/api/action/datastore_search?limit=5&resource_id=1bdcdf81-c3b0-4636-a496-543507ae39e4", "next": "/api/action/datastore_search?offset=5&limit=5&resource_id=1bdcdf81-c3b0-4636-a496-543507ae39e4"}, "limit": 5, "total": 26}}