{"help": "https://data.gov.sg/api/3/action/help_show?name=datastore_search", "success": true, "result": {"resource_id": "c85e8a1f-4b26-4cb5-be57-cfc7c88ea9bf", "fields": [{"type": "int4", "id": "_id"}, {"type": "text", "id": "quarter"}, {"type": "text", "id": "industry1"}, {"type": "text", "id": "industry2"}, {"type": "text", "id": "industry3"}, {"type": "text", "id": "employment_change"}], "records": [{"_id": 1, "employment_change": "0.3", "quarter": "1996-Q1", "industry3": "other manufacturing industries", "industry2": "other manufacturing industries", "industry1": "manufacturing"}, {"_id": 2, "employment_change": "12", "quarter": "1996-Q1", "industry3": "construction", "industry2": "construction", "industry1": "construction"}, {"_id": 3, "employment_change": "-0.2", "quarter": "1996-Q1", "industry3": "wholesale trade", "industry2": "wholesale and retail trade", "industry1": "services"}, {"_id": 4, "employment_change": "-0.3", "quarter": "1996-Q1", "industry3": "retail trade", "industry2": "wholesale and retail trade", "industry1": "services"}, {"_id": 5, "employment_change": "0.4", "quarter": "1996-Q1", "industry3": "transport, storage and communications", "industry2": "transport, storage and communications", "industry1": "services"}], "_links": {"start": "/api/action/datastore_search?limit=5&resource_id=c85e8a1f-4b26-4cb5-be57-cfc7c88ea9bf", "next": "/api/action/datastore_search?offset=5&limit=5&resource_id=c85e8a1f-4b26-4cb5-be57-cfc7c88ea9bf"}, "limit": 5, "total": 2914}}