{"help": "https://data.gov.sg/api/3/action/help_show?name=datastore_search", "success": true, "result": {"resource_id": "ee96eb56-d310-4eaf-8094-d89469d37b92", "fields": [{"type": "int4", "id": "_id"}, {"type": "text", "id": "year"}, {"type": "text", "id": "gender"}, {"type": "numeric", "id": "number"}], "records": [{"gender": "male", "_id": 1, "number": "66", "year": "2000"}, {"gender": "female", "_id": 2, "number": "34", "year": "2000"}, {"gender": "male", "_id": 3, "number": "67", "year": "2001"}, {"gender": "female", "_id": 4, "number": "33", "year": "2001"}, {"gender": "male", "_id": 5, "number": "67", "year": "2002"}], "_links": {"start": "/api/action/datastore_search?limit=5&resource_id=ee96eb56-d310-4eaf-8094-d89469d37b92", "next": "/api/action/datastore_search?offset=5&limit=5&resource_id=ee96eb56-d310-4eaf-8094-d89469d37b92"}, "limit": 5, "total": 36}}