{"help": "https://data.gov.sg/api/3/action/help_show?name=datastore_search", "success": true, "result": {"resource_id": "a7becfc0-0b11-4c36-8afe-b1d6b2f1ccc0", "fields": [{"type": "int4", "id": "_id"}, {"type": "text", "id": "year"}, {"type": "text", "id": "level_1"}, {"type": "numeric", "id": "value"}], "records": [{"_id": 1, "level_1": "GDP In Chained (2015) Dollars", "value": "8189.3", "year": "1960"}, {"_id": 2, "level_1": "GDP In Chained (2015) Dollars", "value": "8855.7", "year": "1961"}, {"_id": 3, "level_1": "GDP In Chained (2015) Dollars", "value": "9524.6", "year": "1962"}, {"_id": 4, "level_1": "GDP In Chained (2015) Dollars", "value": "10480.9", "year": "1963"}, {"_id": 5, "level_1": "GDP In Chained (2015) Dollars", "value": "10155.7", "year": "1964"}], "_links": {"start": "/api/action/datastore_search?limit=5&resource_id=a7becfc0-0b11-4c36-8afe-b1d6b2f1ccc0", "next": "/api/action/datastore_search?offset=5&limit=5&resource_id=a7becfc0-0b11-4c36-8afe-b1d6b2f1ccc0"}, "limit": 5, "total": 59}}