{"help": "https://data.gov.sg/api/3/action/help_show?name=datastore_search", "success": true, "result": {"resource_id": "25e920f5-fcd9-4d43-a726-ba9a2c49ad37", "fields": [{"type": "int4", "id": "_id"}, {"type": "text", "id": "month"}, {"type": "numeric", "id": "number"}], "records": [{"_id": 1, "number": "44836", "month": "2013-01"}, {"_id": 2, "number": "44623", "month": "2013-02"}, {"_id": 3, "number": "44347", "month": "2013-03"}, {"_id": 4, "number": "44049", "month": "2013-04"}, {"_id": 5, "number": "43760", "month": "2013-05"}], "_links": {"start": "/api/action/datastore_search?limit=5&resource_id=25e920f5-fcd9-4d43-a726-ba9a2c49ad37", "next": "/api/action/datastore_search?offset=5&limit=5&resource_id=25e920f5-fcd9-4d43-a726-ba9a2c49ad37"}, "limit": 5, "total": 62}}