{"help": "https://data.gov.sg/api/3/action/help_show?name=datastore_search", "success": true, "result": {"resource_id": "5ff9f12a-d8fb-42fe-ab14-da39a8bd3d90", "fields": [{"type": "int4", "id": "_id"}, {"type": "text", "id": "year"}, {"type": "text", "id": "level_1"}, {"type": "numeric", "id": "value"}], "records": [{"_id": 1, "level_1": "GDP At Current Market Prices", "value": "25869.6", "year": "1980"}, {"_id": 2, "level_1": "GDP At Current Market Prices", "value": "30352", "year": "1981"}, {"_id": 3, "level_1": "GDP At Current Market Prices", "value": "33981.2", "year": "1982"}, {"_id": 4, "level_1": "GDP At Current Market Prices", "value": "38058", "year": "1983"}, {"_id": 5, "level_1": "GDP At Current Market Prices", "value": "41730.4", "year": "1984"}], "_links": {"start": "/api/action/datastore_search?limit=5&resource_id=5ff9f12a-d8fb-42fe-ab14-da39a8bd3d90", "next": "/api/action/datastore_search?offset=5&limit=5&resource_id=5ff9f12a-d8fb-42fe-ab14-da39a8bd3d90"}, "limit": 5, "total": 39}}