{"help": "https://data.gov.sg/api/3/action/help_show?name=datastore_search", "success": true, "result": {"resource_id": "3b2d8ef0-599f-471d-b670-e6cf8c244df4", "fields": [{"type": "int4", "id": "_id"}, {"type": "text", "id": "year"}, {"type": "text", "id": "patent_field_of_invention"}, {"type": "numeric", "id": "patent_grants"}, {"type": "text", "id": "rank"}], "records": [{"patent_grants": "1884", "patent_field_of_invention": "Chemistry; Metallurgy", "_id": 1, "rank": "1", "year": "2013"}, {"patent_grants": "1371", "patent_field_of_invention": "Human Necessities", "_id": 2, "rank": "2", "year": "2013"}, {"patent_grants": "1282", "patent_field_of_invention": "Electricity", "_id": 3, "rank": "3", "year": "2013"}, {"patent_grants": "1076", "patent_field_of_invention": "Physics", "_id": 4, "rank": "4", "year": "2013"}, {"patent_grants": "1059", "patent_field_of_invention": "Performing Operations; Transporting", "_id": 5, "rank": "5", "year": "2013"}], "_links": {"start": "/api/action/datastore_search?limit=5&resource_id=3b2d8ef0-599f-471d-b670-e6cf8c244df4", "next": "/api/action/datastore_search?offset=5&limit=5&resource_id=3b2d8ef0-599f-471d-b670-e6cf8c244df4"}, "limit": 5, "total": 40}}