{"help": "https://data.gov.sg/api/3/action/help_show?name=datastore_search", "success": true, "result": {"resource_id": "ea83e99b-12f6-4960-901c-ff9f3ef1c7a2", "fields": [{"type": "int4", "id": "_id"}, {"type": "text", "id": "year"}, {"type": "numeric", "id": "computer_access"}], "records": [{"computer_access": "75", "_id": 1, "year": "2013"}, {"computer_access": "74", "_id": 2, "year": "2014"}, {"computer_access": "70", "_id": 3, "year": "2015"}, {"computer_access": "70", "_id": 4, "year": "2016"}, {"computer_access": "73", "_id": 5, "year": "2017"}], "_links": {"start": "/api/action/datastore_search?limit=5&resource_id=ea83e99b-12f6-4960-901c-ff9f3ef1c7a2", "next": "/api/action/datastore_search?offset=5&limit=5&resource_id=ea83e99b-12f6-4960-901c-ff9f3ef1c7a2"}, "limit": 5, "total": 6}}