{"help": "https://data.gov.sg/api/3/action/help_show?name=datastore_search", "success": true, "result": {"resource_id": "e496ae38-989e-4eac-977d-e64c9e91a20f", "fields": [{"type": "int4", "id": "_id"}, {"type": "text", "id": "fare_type"}, {"type": "text", "id": "applicable_time"}, {"type": "text", "id": "distance"}, {"type": "numeric", "id": "fare_per_ride"}], "records": [{"fare_per_ride": "170", "distance": "Up to 3.2 km", "fare_type": "Single trip", "_id": 1, "applicable_time": "All timings"}, {"fare_per_ride": "190", "distance": "3.3 km - 4.2 km", "fare_type": "Single trip", "_id": 2, "applicable_time": "All timings"}, {"fare_per_ride": "190", "distance": "4.3 km - 5.2 km", "fare_type": "Single trip", "_id": 3, "applicable_time": "All timings"}, {"fare_per_ride": "190", "distance": "5.3 km - 6.2 km", "fare_type": "Single trip", "_id": 4, "applicable_time": "All timings"}, {"fare_per_ride": "210", "distance": "6.3 km - 7.2 km", "fare_type": "Single trip", "_id": 5, "applicable_time": "All timings"}], "_links": {"start": "/api/action/datastore_search?limit=5&resource_id=e496ae38-989e-4eac-977d-e64c9e91a20f", "next": "/api/action/datastore_search?offset=5&limit=5&resource_id=e496ae38-989e-4eac-977d-e64c9e91a20f"}, "limit": 5, "total": 429}}