{"help": "https://data.gov.sg/api/3/action/help_show?name=datastore_search", "success": true, "result": {"resource_id": "76576970-0602-4865-b00b-b5e3464e795d", "fields": [{"type": "int4", "id": "_id"}, {"type": "text", "id": "year"}, {"type": "text", "id": "level_1"}, {"type": "numeric", "id": "value"}], "records": [{"_id": 1, "level_1": "Total Trade In Services", "value": "96452.4", "year": "2000"}, {"_id": 2, "level_1": "Total Trade In Services", "value": "102892.5", "year": "2001"}, {"_id": 3, "level_1": "Total Trade In Services", "value": "109710.5", "year": "2002"}, {"_id": 4, "level_1": "Total Trade In Services", "value": "122427.9", "year": "2003"}, {"_id": 5, "level_1": "Total Trade In Services", "value": "150911.1", "year": "2004"}], "_links": {"start": "/api/action/datastore_search?limit=5&resource_id=76576970-0602-4865-b00b-b5e3464e795d", "next": "/api/action/datastore_search?offset=5&limit=5&resource_id=76576970-0602-4865-b00b-b5e3464e795d"}, "limit": 5, "total": 19}}