{"help": "https://data.gov.sg/api/3/action/help_show?name=datastore_search", "success": true, "result": {"resource_id": "e1f8e77a-aebe-4e7b-b81a-8f5c51dbba25", "fields": [{"type": "int4", "id": "_id"}, {"type": "numeric", "id": "from"}, {"type": "text", "id": "chargeable_income"}, {"type": "numeric", "id": "tax_rate"}], "records": [{"tax_rate": "0", "_id": 1, "from": "2003", "chargeable_income": "0 - 20,000"}, {"tax_rate": "4", "_id": 2, "from": "2003", "chargeable_income": "20,001 - 30,000"}, {"tax_rate": "6", "_id": 3, "from": "2003", "chargeable_income": "30,001 - 40,000"}, {"tax_rate": "9", "_id": 4, "from": "2003", "chargeable_income": "40,001 - 80,000"}, {"tax_rate": "15", "_id": 5, "from": "2003", "chargeable_income": "80,001 - 160,000"}], "_links": {"start": "/api/action/datastore_search?limit=5&resource_id=e1f8e77a-aebe-4e7b-b81a-8f5c51dbba25", "next": "/api/action/datastore_search?offset=5&limit=5&resource_id=e1f8e77a-aebe-4e7b-b81a-8f5c51dbba25"}, "limit": 5, "total": 41}}