{"help": "https://data.gov.sg/api/3/action/help_show?name=datastore_search", "success": true, "result": {"resource_id": "f3ab6139-0a17-42da-848f-03d48913eda6", "fields": [{"type": "int4", "id": "_id"}, {"type": "numeric", "id": "year"}, {"type": "numeric", "id": "arrival_passengers_count"}, {"type": "numeric", "id": "depart_passengers_count"}], "records": [{"depart_passengers_count": "65682800", "_id": 1, "arrival_passengers_count": "65460100", "year": "2004"}, {"depart_passengers_count": "66730100", "_id": 2, "arrival_passengers_count": "66313400", "year": "2005"}, {"depart_passengers_count": "67801000", "_id": 3, "arrival_passengers_count": "67870300", "year": "2006"}, {"depart_passengers_count": "71520400", "_id": 4, "arrival_passengers_count": "72159800", "year": "2007"}, {"depart_passengers_count": "74216800", "_id": 5, "arrival_passengers_count": "74419500", "year": "2008"}], "_links": {"start": "/api/action/datastore_search?limit=5&resource_id=f3ab6139-0a17-42da-848f-03d48913eda6", "next": "/api/action/datastore_search?offset=5&limit=5&resource_id=f3ab6139-0a17-42da-848f-03d48913eda6"}, "limit": 5, "total": 16}}