{"help": "https://data.gov.sg/api/3/action/help_show?name=datastore_search", "success": true, "result": {"resource_id": "618f597f-550b-4293-815e-b67b4b1408c1", "fields": [{"type": "int4", "id": "_id"}, {"type": "numeric", "id": "year"}, {"type": "numeric", "id": "livestock_slaughtered"}], "records": [{"_id": 1, "livestock_slaughtered": "465004", "year": "1999"}, {"_id": 2, "livestock_slaughtered": "317995", "year": "2000"}, {"_id": 3, "livestock_slaughtered": "346652", "year": "2001"}, {"_id": 4, "livestock_slaughtered": "327831", "year": "2002"}, {"_id": 5, "livestock_slaughtered": "292065", "year": "2003"}], "_links": {"start": "/api/action/datastore_search?limit=5&resource_id=618f597f-550b-4293-815e-b67b4b1408c1", "next": "/api/action/datastore_search?offset=5&limit=5&resource_id=618f597f-550b-4293-815e-b67b4b1408c1"}, "limit": 5, "total": 19}}