{"help": "https://data.gov.sg/api/3/action/help_show?name=datastore_search", "success": true, "result": {"resource_id": "85183e12-cf96-437e-b048-d06f6b84f228", "fields": [{"type": "int4", "id": "_id"}, {"type": "numeric", "id": "year"}, {"type": "text", "id": "graduate_type"}, {"type": "text", "id": "no_of_graduates"}], "records": [{"_id": 1, "graduate_type": "Medical", "no_of_graduates": "229", "year": "2006"}, {"_id": 2, "graduate_type": "Nursing", "no_of_graduates": "1140", "year": "2006"}, {"_id": 3, "graduate_type": "Allied Health Professionals", "no_of_graduates": "115", "year": "2006"}, {"_id": 4, "graduate_type": "Dentistry", "no_of_graduates": "30", "year": "2006"}, {"_id": 5, "graduate_type": "Oral Health Therapist", "no_of_graduates": "na", "year": "2006"}], "_links": {"start": "/api/action/datastore_search?limit=5&resource_id=85183e12-cf96-437e-b048-d06f6b84f228", "next": "/api/action/datastore_search?offset=5&limit=5&resource_id=85183e12-cf96-437e-b048-d06f6b84f228"}, "limit": 5, "total": 372}}