{"help": "https://data.gov.sg/api/3/action/help_show?name=datastore_search", "success": true, "result": {"resource_id": "a41ce851-728e-4d65-8dc5-e0515a01ff31", "fields": [{"type": "int4", "id": "_id"}, {"type": "text", "id": "salesperson_name"}, {"type": "text", "id": "registration_no"}, {"type": "text", "id": "registration_start_date"}, {"type": "text", "id": "registration_end_date"}, {"type": "text", "id": "estate_agent_name"}, {"type": "text", "id": "estate_agent_license_no"}], "records": [{"registration_end_date": "2020-12-31", "estate_agent_license_no": "L3008022J", "salesperson_name": "ALEX LEE GUAN YI (ALEX LEE)", "registration_no": "R013315B", "registration_start_date": "2013-01-02", "estate_agent_name": "PROPNEX REALTY PTE LTD", "_id": 1}, {"registration_end_date": "2020-12-31", "estate_agent_license_no": "L3002382K", "salesperson_name": "ALEX LIM CHEE WENG (LIN ZHIRONG) (ALEX LIM)", "registration_no": "R019566B", "registration_start_date": "2018-08-23", "estate_agent_name": "ERA REALTY NETWORK PTE LTD", "_id": 2}, {"registration_end_date": "2020-12-31", "estate_agent_license_no": "L3009250K", "salesperson_name": "ALEX ROY", "registration_no": "R059801E", "registration_start_date": "2020-01-01", "estate_agent_name": "ORANGETEE & TIE PTE LTD", "_id": 3}, {"registration_end_date": "2020-12-31", "estate_agent_license_no": "L3006852K", "salesperson_name": "ALEX SUN KAI HOONG (ALEX)", "registration_no": "R001585J", "registration_start_date": "2015-02-11", "estate_agent_name": "SRA REALTY NETWORK PTE LTD", "_id": 4}, {"registration_end_date": "2020-12-31", "estate_agent_license_no": "L3002382K", "salesperson_name": "ALEX TAN JIAN XIANG (ALEX TAN)", "registration_no": "R060210A", "registration_start_date": "2018-08-23", "estate_agent_name": "ERA REALTY NETWORK PTE LTD", "_id": 5}], "_links": {"start": "/api/action/datastore_search?limit=5&resource_id=a41ce851-728e-4d65-8dc5-e0515a01ff31", "next": "/api/action/datastore_search?offset=5&limit=5&resource_id=a41ce851-728e-4d65-8dc5-e0515a01ff31"}, "limit": 5, "total": 61802}}