{"help": "https://data.gov.sg/api/3/action/help_show?name=datastore_search", "success": true, "result": {"resource_id": "0637fd8b-af8f-45c6-8996-a6bae892145f", "fields": [{"type": "int4", "id": "_id"}, {"type": "text", "id": "year"}, {"type": "text", "id": "market_segment"}, {"type": "numeric", "id": "domestic_revenue"}], "records": [{"_id": 1, "market_segment": "hardware", "domestic_revenue": "2.98", "year": "2001"}, {"_id": 2, "market_segment": "software", "domestic_revenue": "0.9", "year": "2001"}, {"_id": 3, "market_segment": "it_services", "domestic_revenue": "3.2", "year": "2001"}, {"_id": 4, "market_segment": "telecommunication_services", "domestic_revenue": "5.85", "year": "2001"}, {"_id": 5, "market_segment": "content_services", "domestic_revenue": "1.32", "year": "2001"}], "_links": {"start": "/api/action/datastore_search?limit=5&resource_id=0637fd8b-af8f-45c6-8996-a6bae892145f", "next": "/api/action/datastore_search?offset=5&limit=5&resource_id=0637fd8b-af8f-45c6-8996-a6bae892145f"}, "limit": 5, "total": 85}}