{"help": "https://data.gov.sg/api/3/action/help_show?name=datastore_search", "success": true, "result": {"resource_id": "6b91b997-0805-4def-89ab-c38f6ee20639", "fields": [{"type": "int4", "id": "_id"}, {"type": "text", "id": "year"}, {"type": "text", "id": "level_1"}, {"type": "numeric", "id": "value"}], "records": [{"_id": 1, "level_1": "Total", "value": "3717", "year": "1984"}, {"_id": 2, "level_1": "Brides - Secondary & Below", "value": "3463", "year": "1984"}, {"_id": 3, "level_1": "Brides - Post-secondary", "value": "219", "year": "1984"}, {"_id": 4, "level_1": "Brides - University", "value": "18", "year": "1984"}, {"_id": 5, "level_1": "Total", "value": "3777", "year": "1985"}], "_links": {"start": "/api/action/datastore_search?limit=5&resource_id=6b91b997-0805-4def-89ab-c38f6ee20639", "next": "/api/action/datastore_search?offset=5&limit=5&resource_id=6b91b997-0805-4def-89ab-c38f6ee20639"}, "limit": 5, "total": 140}}