{"help": "https://data.gov.sg/api/3/action/help_show?name=datastore_search", "success": true, "result": {"resource_id": "2ddefb03-17f6-41cb-aec2-b69e18106257", "fields": [{"type": "int4", "id": "_id"}, {"type": "numeric", "id": "year"}, {"type": "numeric", "id": "females"}, {"type": "numeric", "id": "males"}], "records": [{"males": "726", "_id": 1, "females": "2332", "year": "2010"}, {"males": "648", "_id": 2, "females": "2223", "year": "2011"}, {"males": "735", "_id": 3, "females": "2334", "year": "2012"}, {"males": "764", "_id": 4, "females": "2383", "year": "2013"}, {"males": "757", "_id": 5, "females": "2194", "year": "2014"}], "_links": {"start": "/api/action/datastore_search?limit=5&resource_id=2ddefb03-17f6-41cb-aec2-b69e18106257", "next": "/api/action/datastore_search?offset=5&limit=5&resource_id=2ddefb03-17f6-41cb-aec2-b69e18106257"}, "limit": 5, "total": 10}}