{"help": "https://data.gov.sg/api/3/action/help_show?name=datastore_search", "success": true, "result": {"resource_id": "6b7d9cf3-43d6-4657-984f-7a697fff65c0", "fields": [{"type": "int4", "id": "_id"}, {"type": "text", "id": "month"}, {"type": "text", "id": "mother_occupation"}, {"type": "text", "id": "order"}, {"type": "numeric", "id": "birth_count"}], "records": [{"mother_occupation": "AGRICULTURAL & FISHERY WORKERS", "birth_count": "2", "_id": 1, "order": "2nd", "month": "2016-01"}, {"mother_occupation": "CLEANERS, LABOURERS & REL WORKERS", "birth_count": "1", "_id": 2, "order": "1st", "month": "2016-01"}, {"mother_occupation": "CLEANERS, LABOURERS & REL WORKERS", "birth_count": "1", "_id": 3, "order": "2nd", "month": "2016-01"}, {"mother_occupation": "CLEANERS, LABOURERS & REL WORKERS", "birth_count": "2", "_id": 4, "order": "3rd", "month": "2016-01"}, {"mother_occupation": "CLERICAL WORKERS", "birth_count": "61", "_id": 5, "order": "1st", "month": "2016-01"}], "_links": {"start": "/api/action/datastore_search?limit=5&resource_id=6b7d9cf3-43d6-4657-984f-7a697fff65c0", "next": "/api/action/datastore_search?offset=5&limit=5&resource_id=6b7d9cf3-43d6-4657-984f-7a697fff65c0"}, "limit": 5, "total": 1651}}