{"help": "https://data.gov.sg/api/3/action/help_show?name=datastore_search", "success": true, "result": {"resource_id": "186b9935-fe96-4961-879d-9903a174122a", "fields": [{"type": "int4", "id": "_id"}, {"type": "numeric", "id": "year"}, {"type": "text", "id": "level_1"}, {"type": "text", "id": "level_2"}, {"type": "text", "id": "level_3"}, {"type": "text", "id": "level_4"}, {"type": "numeric", "id": "value"}], "records": [{"value": "24.8", "year": "2015", "level_4": "Literate", "_id": 1, "level_1": "Malays", "level_2": "35 - 44 Years", "level_3": "Males"}, {"value": "1.2", "year": "2015", "level_4": "One Language Only", "_id": 2, "level_1": "Malays", "level_2": "35 - 44 Years", "level_3": "Males"}, {"value": "22.8", "year": "2015", "level_4": "Two Languages Only", "_id": 3, "level_1": "Malays", "level_2": "35 - 44 Years", "level_3": "Males"}, {"value": "0.8", "year": "2015", "level_4": "Three Or More Languages", "_id": 4, "level_1": "Malays", "level_2": "35 - 44 Years", "level_3": "Males"}, {"value": "28.7", "year": "2015", "level_4": "Total", "_id": 5, "level_1": "Malays", "level_2": "35 - 44 Years", "level_3": "Females"}], "_links": {"start": "/api/action/datastore_search?limit=5&resource_id=186b9935-fe96-4961-879d-9903a174122a", "next": "/api/action/datastore_search?offset=5&limit=5&resource_id=186b9935-fe96-4961-879d-9903a174122a"}, "limit": 5, "total": 1090}}