{"help": "https://data.gov.sg/api/3/action/help_show?name=datastore_search", "success": true, "result": {"resource_id": "ceb94ae8-9d00-40b0-8191-fc5ff05857a0", "fields": [{"type": "int4", "id": "_id"}, {"type": "numeric", "id": "year"}, {"type": "text", "id": "type_of_educational_institutions"}, {"type": "text", "id": "development_expenditure"}], "records": [{"_id": 1, "development_expenditure": "25969", "type_of_educational_institutions": "Institute of Technical Education", "year": "1985"}, {"_id": 2, "development_expenditure": "12670", "type_of_educational_institutions": "Junior Colleges / Centralised Institute", "year": "1985"}, {"_id": 3, "development_expenditure": "1117", "type_of_educational_institutions": "MOE HQ", "year": "1985"}, {"_id": 4, "development_expenditure": "3004", "type_of_educational_institutions": "National Institute of Education", "year": "1985"}, {"_id": 5, "development_expenditure": "136", "type_of_educational_institutions": "Others", "year": "1985"}], "_links": {"start": "/api/action/datastore_search?limit=5&resource_id=ceb94ae8-9d00-40b0-8191-fc5ff05857a0", "next": "/api/action/datastore_search?offset=5&limit=5&resource_id=ceb94ae8-9d00-40b0-8191-fc5ff05857a0"}, "limit": 5, "total": 350}}