{"help": "https://data.gov.sg/api/3/action/help_show?name=datastore_search", "success": true, "result": {"resource_id": "72488eb3-c04e-4588-b5c8-09ed7d7a8efe", "fields": [{"type": "int4", "id": "_id"}, {"type": "numeric", "id": "year"}, {"type": "text", "id": "number_of_staff"}, {"type": "numeric", "id": "prevalence"}], "records": [{"number_of_staff": "5 to 49", "_id": 1, "prevalence": "0", "year": "2006"}, {"number_of_staff": "50 to 199", "_id": 2, "prevalence": "0.515", "year": "2006"}, {"number_of_staff": "200 and more", "_id": 3, "prevalence": "0.69", "year": "2006"}, {"number_of_staff": "5 to 49", "_id": 4, "prevalence": "0.275", "year": "2010"}, {"number_of_staff": "50 to 199", "_id": 5, "prevalence": "0.526", "year": "2010"}], "_links": {"start": "/api/action/datastore_search?limit=5&resource_id=72488eb3-c04e-4588-b5c8-09ed7d7a8efe", "next": "/api/action/datastore_search?offset=5&limit=5&resource_id=72488eb3-c04e-4588-b5c8-09ed7d7a8efe"}, "limit": 5, "total": 6}}