{"help": "https://data.gov.sg/api/3/action/help_show?name=datastore_search", "success": true, "result": {"resource_id": "f1270a83-f3e4-413e-b95e-a63817b14fcb", "fields": [{"type": "int4", "id": "_id"}, {"type": "numeric", "id": "year"}, {"type": "text", "id": "race"}, {"type": "numeric", "id": "percentage_psle_eng"}], "records": [{"percentage_psle_eng": "92", "_id": 1, "race": "Malay", "year": "1997"}, {"percentage_psle_eng": "96.7", "_id": 2, "race": "Chinese", "year": "1997"}, {"percentage_psle_eng": "95.5", "_id": 3, "race": "Indian", "year": "1997"}, {"percentage_psle_eng": "97.1", "_id": 4, "race": "Others", "year": "1997"}, {"percentage_psle_eng": "95.9", "_id": 5, "race": "Overall", "year": "1997"}], "_links": {"start": "/api/action/datastore_search?limit=5&resource_id=f1270a83-f3e4-413e-b95e-a63817b14fcb", "next": "/api/action/datastore_search?offset=5&limit=5&resource_id=f1270a83-f3e4-413e-b95e-a63817b14fcb"}, "limit": 5, "total": 115}}