{"help": "https://data.gov.sg/api/3/action/help_show?name=datastore_search", "success": true, "result": {"resource_id": "59fb2635-2390-4b8f-b8e7-38b61c8d64a7", "fields": [{"type": "int4", "id": "_id"}, {"type": "text", "id": "month"}, {"type": "text", "id": "level_1"}, {"type": "numeric", "id": "value"}], "records": [{"_id": 1, "level_1": "Number Of Air Passenger Departures", "value": "11355", "month": "1961-01"}, {"_id": 2, "level_1": "Number Of Air Passenger Departures", "value": "11060", "month": "1961-02"}, {"_id": 3, "level_1": "Number Of Air Passenger Departures", "value": "12884", "month": "1961-03"}, {"_id": 4, "level_1": "Number Of Air Passenger Departures", "value": "13162", "month": "1961-04"}, {"_id": 5, "level_1": "Number Of Air Passenger Departures", "value": "11895", "month": "1961-05"}], "_links": {"start": "/api/action/datastore_search?limit=5&resource_id=59fb2635-2390-4b8f-b8e7-38b61c8d64a7", "next": "/api/action/datastore_search?offset=5&limit=5&resource_id=59fb2635-2390-4b8f-b8e7-38b61c8d64a7"}, "limit": 5, "total": 1420}}