{"help": "https://data.gov.sg/api/3/action/help_show?name=datastore_search", "success": true, "result": {"resource_id": "2bc8eac9-8183-4e78-bf3e-9572a21a0ba4", "fields": [{"type": "int4", "id": "_id"}, {"type": "text", "id": "date"}, {"type": "numeric", "id": "exchange_rate_usd"}], "records": [{"date": "1988-01-08", "exchange_rate_usd": "2.0443", "_id": 1}, {"date": "1988-01-15", "exchange_rate_usd": "2.0313", "_id": 2}, {"date": "1988-01-22", "exchange_rate_usd": "2.0205", "_id": 3}, {"date": "1988-01-29", "exchange_rate_usd": "2.0182", "_id": 4}, {"date": "1988-02-05", "exchange_rate_usd": "2.016", "_id": 5}], "_links": {"start": "/api/action/datastore_search?limit=5&resource_id=2bc8eac9-8183-4e78-bf3e-9572a21a0ba4", "next": "/api/action/datastore_search?offset=5&limit=5&resource_id=2bc8eac9-8183-4e78-bf3e-9572a21a0ba4"}, "limit": 5, "total": 3993}}