{"help": "https://data.gov.sg/api/3/action/help_show?name=datastore_search", "success": true, "result": {"resource_id": "ce5d2248-9cc2-40b1-9571-bb5873f785bf", "fields": [{"type": "int4", "id": "_id"}, {"type": "numeric", "id": "year"}, {"type": "text", "id": "level_1"}, {"type": "text", "id": "level_2"}, {"type": "text", "id": "value"}], "records": [{"value": "na", "_id": 1, "level_1": "Acute Hospitals Admissions", "level_2": "Public", "year": "1984"}, {"value": "na", "_id": 2, "level_1": "Acute Hospitals Admissions", "level_2": "Non-public", "year": "1984"}, {"value": "na", "_id": 3, "level_1": "Psychiatric Hospitals Admissions", "level_2": "Public", "year": "1984"}, {"value": "na", "_id": 4, "level_1": "Psychiatric Hospitals Admissions", "level_2": "Non-public", "year": "1984"}, {"value": "na", "_id": 5, "level_1": "Community Hospitals Admissions", "level_2": "Public", "year": "1984"}], "_links": {"start": "/api/action/datastore_search?limit=5&resource_id=ce5d2248-9cc2-40b1-9571-bb5873f785bf", "next": "/api/action/datastore_search?offset=5&limit=5&resource_id=ce5d2248-9cc2-40b1-9571-bb5873f785bf"}, "limit": 5, "total": 216}}