{"help": "https://data.gov.sg/api/3/action/help_show?name=datastore_search", "success": true, "result": {"resource_id": "3fcc2131-28e4-40bb-9e92-680d0282399e", "fields": [{"type": "int4", "id": "_id"}, {"type": "numeric", "id": "year"}, {"type": "text", "id": "make"}, {"type": "numeric", "id": "number"}], "records": [{"make": "Triumph", "_id": 1, "number": "0", "year": "2008"}, {"make": "Austin", "_id": 2, "number": "0", "year": "2008"}, {"make": "Holden", "_id": 3, "number": "0", "year": "2008"}, {"make": "Saab", "_id": 4, "number": "117", "year": "2008"}, {"make": "Skoda", "_id": 5, "number": "17", "year": "2008"}], "_links": {"start": "/api/action/datastore_search?limit=5&resource_id=3fcc2131-28e4-40bb-9e92-680d0282399e", "next": "/api/action/datastore_search?offset=5&limit=5&resource_id=3fcc2131-28e4-40bb-9e92-680d0282399e"}, "limit": 5, "total": 651}}