{"help": "https://data.gov.sg/api/3/action/help_show?name=datastore_search", "success": true, "result": {"resource_id": "411db285-c292-443d-8d44-d04c6a011637", "fields": [{"type": "int4", "id": "_id"}, {"type": "numeric", "id": "year"}, {"type": "text", "id": "level_1"}, {"type": "numeric", "id": "value"}], "records": [{"_id": 1, "level_1": "Gross Fixed Capital Formation", "value": "204.9", "year": "1960"}, {"_id": 2, "level_1": "Gross Fixed Capital Formation (Public Sector)", "value": "59.8", "year": "1960"}, {"_id": 3, "level_1": "Gross Fixed Capital Formation (Private Sector)", "value": "145.1", "year": "1960"}, {"_id": 4, "level_1": "Gross Fixed Capital Formation", "value": "297.3", "year": "1961"}, {"_id": 5, "level_1": "Gross Fixed Capital Formation (Public Sector)", "value": "88.3", "year": "1961"}], "_links": {"start": "/api/action/datastore_search?limit=5&resource_id=411db285-c292-443d-8d44-d04c6a011637", "next": "/api/action/datastore_search?offset=5&limit=5&resource_id=411db285-c292-443d-8d44-d04c6a011637"}, "limit": 5, "total": 180}}