{"help": "https://data.gov.sg/api/3/action/help_show?name=datastore_search", "success": true, "result": {"resource_id": "98cfaddf-8af3-4baf-9ebc-16de62093771", "fields": [{"type": "int4", "id": "_id"}, {"type": "numeric", "id": "year"}, {"type": "text", "id": "type_of_institution"}, {"type": "numeric", "id": "number_of_institution"}], "records": [{"number_of_institution": "6", "_id": 1, "type_of_institution": "Full-time Islamic Religious School (Madrasah)", "year": "2000"}, {"number_of_institution": "0", "_id": 2, "type_of_institution": "Privately Funded School", "year": "2000"}, {"number_of_institution": "18", "_id": 3, "type_of_institution": "Special Education School", "year": "2000"}, {"number_of_institution": "6", "_id": 4, "type_of_institution": "Full-time Islamic Religious School (Madrasah)", "year": "2001"}, {"number_of_institution": "0", "_id": 5, "type_of_institution": "Privately Funded School", "year": "2001"}], "_links": {"start": "/api/action/datastore_search?limit=5&resource_id=98cfaddf-8af3-4baf-9ebc-16de62093771", "next": "/api/action/datastore_search?offset=5&limit=5&resource_id=98cfaddf-8af3-4baf-9ebc-16de62093771"}, "limit": 5, "total": 60}}