{"help": "https://data.gov.sg/api/3/action/help_show?name=datastore_search", "success": true, "result": {"resource_id": "294756bc-9cf6-41c9-872a-487f4bd191b6", "fields": [{"type": "int4", "id": "_id"}, {"type": "numeric", "id": "year"}, {"type": "text", "id": "level_1"}, {"type": "text", "id": "level_2"}, {"type": "text", "id": "level_3"}, {"type": "numeric", "id": "value"}], "records": [{"value": "228.2", "year": "1960", "_id": 1, "level_1": "GDP At Current Market Prices", "level_2": "Goods Producing Industries", "level_3": "Manufacturing"}, {"value": "67.7", "year": "1960", "_id": 2, "level_1": "GDP At Current Market Prices", "level_2": "Goods Producing Industries", "level_3": "Construction"}, {"value": "57", "year": "1960", "_id": 3, "level_1": "GDP At Current Market Prices", "level_2": "Goods Producing Industries", "level_3": "Utilities"}, {"value": "79.9", "year": "1960", "_id": 4, "level_1": "GDP At Current Market Prices", "level_2": "Goods Producing Industries", "level_3": "Other Goods Industries"}, {"value": "601.5", "year": "1960", "_id": 5, "level_1": "GDP At Current Market Prices", "level_2": "Services Producing Industries", "level_3": "Wholesale & Retail Trade"}], "_links": {"start": "/api/action/datastore_search?limit=5&resource_id=294756bc-9cf6-41c9-872a-487f4bd191b6", "next": "/api/action/datastore_search?offset=5&limit=5&resource_id=294756bc-9cf6-41c9-872a-487f4bd191b6"}, "limit": 5, "total": 649}}