{"help": "https://data.gov.sg/api/3/action/help_show?name=datastore_search", "success": true, "result": {"resource_id": "84d2e9ce-e210-4755-b320-7f884699d7c5", "fields": [{"type": "int4", "id": "_id"}, {"type": "numeric", "id": "financial_year"}, {"type": "text", "id": "engineering_project"}, {"type": "numeric", "id": "area_reclaimed"}], "records": [{"engineering_project": "East Coast Phases 1-7", "_id": 1, "financial_year": "1991", "area_reclaimed": "1525"}, {"engineering_project": "North-Eastern Coast Phases 1-3", "_id": 2, "financial_year": "1991", "area_reclaimed": "472"}, {"engineering_project": "Punggol", "_id": 3, "financial_year": "1991", "area_reclaimed": "276"}, {"engineering_project": "Kallang Basin", "_id": 4, "financial_year": "1991", "area_reclaimed": "199"}, {"engineering_project": "West Coast", "_id": 5, "financial_year": "1991", "area_reclaimed": "86"}], "_links": {"start": "/api/action/datastore_search?limit=5&resource_id=84d2e9ce-e210-4755-b320-7f884699d7c5", "next": "/api/action/datastore_search?offset=5&limit=5&resource_id=84d2e9ce-e210-4755-b320-7f884699d7c5"}, "limit": 5, "total": 356}}