{"help": "https://data.gov.sg/api/3/action/help_show?name=datastore_search", "success": true, "result": {"resource_id": "db3aa9df-d7c2-460c-a50a-0a99ab74ba6a", "fields": [{"type": "int4", "id": "_id"}, {"type": "text", "id": "year"}, {"type": "text", "id": "level_1"}, {"type": "numeric", "id": "value"}], "records": [{"_id": 1, "level_1": "Crude Death Rate", "value": "6.2", "year": "1960"}, {"_id": 2, "level_1": "Age-standardised Death Rate", "value": "10.8", "year": "1960"}, {"_id": 3, "level_1": "Crude Death Rate", "value": "5.9", "year": "1961"}, {"_id": 4, "level_1": "Age-standardised Death Rate", "value": "10.6", "year": "1961"}, {"_id": 5, "level_1": "Crude Death Rate", "value": "5.8", "year": "1962"}], "_links": {"start": "/api/action/datastore_search?limit=5&resource_id=db3aa9df-d7c2-460c-a50a-0a99ab74ba6a", "next": "/api/action/datastore_search?offset=5&limit=5&resource_id=db3aa9df-d7c2-460c-a50a-0a99ab74ba6a"}, "limit": 5, "total": 118}}