{"help": "https://data.gov.sg/api/3/action/help_show?name=datastore_search", "success": true, "result": {"resource_id": "7040ea00-8c8f-417c-bf55-3b779c3eacbb", "fields": [{"type": "int4", "id": "_id"}, {"type": "text", "id": "quarter"}, {"type": "numeric", "id": "retrench"}, {"type": "numeric", "id": "retrench_permanent"}, {"type": "numeric", "id": "retrench_term_contract"}], "records": [{"retrench": "8830", "quarter": "1998-Q1", "_id": 1, "retrench_permanent": "7130", "retrench_term_contract": "1700"}, {"retrench": "7750", "quarter": "1998-Q2", "_id": 2, "retrench_permanent": "7310", "retrench_term_contract": "440"}, {"retrench": "7620", "quarter": "1998-Q3", "_id": 3, "retrench_permanent": "6630", "retrench_term_contract": "990"}, {"retrench": "8600", "quarter": "1998-Q4", "_id": 4, "retrench_permanent": "8010", "retrench_term_contract": "590"}, {"retrench": "3700", "quarter": "1999-Q1", "_id": 5, "retrench_permanent": "3400", "retrench_term_contract": "300"}], "_links": {"start": "/api/action/datastore_search?limit=5&resource_id=7040ea00-8c8f-417c-bf55-3b779c3eacbb", "next": "/api/action/datastore_search?offset=5&limit=5&resource_id=7040ea00-8c8f-417c-bf55-3b779c3eacbb"}, "limit": 5, "total": 90}}