{"help": "https://data.gov.sg/api/3/action/help_show?name=datastore_search", "success": true, "result": {"resource_id": "20b875ff-ca78-4f60-9bcd-b6cdee1b35eb", "fields": [{"type": "int4", "id": "_id"}, {"type": "text", "id": "year"}, {"type": "text", "id": "level_1"}, {"type": "numeric", "id": "value"}], "records": [{"_id": 1, "level_1": "Gross National Income (US Million Dollars)", "value": "717.6", "year": "1960"}, {"_id": 2, "level_1": "Gross National Saving (US Million Dollars)", "value": "-15", "year": "1960"}, {"_id": 3, "level_1": "Gross Capital Formation (US Million Dollars)", "value": "79.9", "year": "1960"}, {"_id": 4, "level_1": "Gross National Income (US Million Dollars)", "value": "779.2", "year": "1961"}, {"_id": 5, "level_1": "Gross National Saving (US Million Dollars)", "value": "-14.5", "year": "1961"}], "_links": {"start": "/api/action/datastore_search?limit=5&resource_id=20b875ff-ca78-4f60-9bcd-b6cdee1b35eb", "next": "/api/action/datastore_search?offset=5&limit=5&resource_id=20b875ff-ca78-4f60-9bcd-b6cdee1b35eb"}, "limit": 5, "total": 177}}