{"help": "https://data.gov.sg/api/3/action/help_show?name=datastore_search", "success": true, "result": {"resource_id": "aacf7acc-3210-4cde-9be7-10f6a2c801eb", "fields": [{"type": "int4", "id": "_id"}, {"type": "numeric", "id": "year"}, {"type": "text", "id": "father_race"}, {"type": "text", "id": "mother_race"}, {"type": "numeric", "id": "birth_count"}], "records": [{"mother_race": "CHINESE", "father_race": "CHINESE", "_id": 1, "birth_count": "21440", "year": "2017"}, {"mother_race": "INDIANS", "father_race": "CHINESE", "_id": 2, "birth_count": "61", "year": "2017"}, {"mother_race": "MALAYS", "father_race": "CHINESE", "_id": 3, "birth_count": "261", "year": "2017"}, {"mother_race": "OTHERS", "father_race": "CHINESE", "_id": 4, "birth_count": "1598", "year": "2017"}, {"mother_race": "CHINESE", "father_race": "INDIANS", "_id": 5, "birth_count": "288", "year": "2017"}], "_links": {"start": "/api/action/datastore_search?limit=5&resource_id=aacf7acc-3210-4cde-9be7-10f6a2c801eb", "next": "/api/action/datastore_search?offset=5&limit=5&resource_id=aacf7acc-3210-4cde-9be7-10f6a2c801eb"}, "limit": 5, "total": 48}}