{"help": "https://data.gov.sg/api/3/action/help_show?name=datastore_search", "success": true, "result": {"resource_id": "f2451c6c-1469-4d8b-8c4f-a4aab9de40e3", "fields": [{"type": "int4", "id": "_id"}, {"type": "numeric", "id": "year"}, {"type": "numeric", "id": "ave_daily_traffic_volume_entering_city"}], "records": [{"ave_daily_traffic_volume_entering_city": "246000", "_id": 1, "year": "2004"}, {"ave_daily_traffic_volume_entering_city": "244000", "_id": 2, "year": "2005"}, {"ave_daily_traffic_volume_entering_city": "270400", "_id": 3, "year": "2006"}, {"ave_daily_traffic_volume_entering_city": "278300", "_id": 4, "year": "2007"}, {"ave_daily_traffic_volume_entering_city": "278100", "_id": 5, "year": "2008"}], "_links": {"start": "/api/action/datastore_search?limit=5&resource_id=f2451c6c-1469-4d8b-8c4f-a4aab9de40e3", "next": "/api/action/datastore_search?offset=5&limit=5&resource_id=f2451c6c-1469-4d8b-8c4f-a4aab9de40e3"}, "limit": 5, "total": 11}}