{"help": "https://data.gov.sg/api/3/action/help_show?name=datastore_search", "success": true, "result": {"resource_id": "90c88291-70b2-445a-8570-aeac68eba122", "fields": [{"type": "int4", "id": "_id"}, {"type": "numeric", "id": "year"}, {"type": "text", "id": "report_title"}, {"type": "text", "id": "rank"}], "records": [{"report_title": "IMD WDCR", "_id": 1, "rank": "1", "year": "2014"}, {"report_title": "WEF GITR NRI", "_id": 2, "rank": "2", "year": "2014"}, {"report_title": "ITU IDI", "_id": 3, "rank": "16", "year": "2014"}, {"report_title": "IMD WCY", "_id": 4, "rank": "3", "year": "2014"}, {"report_title": "IMD WCY Tech Infra", "_id": 5, "rank": "2", "year": "2014"}], "_links": {"start": "/api/action/datastore_search?limit=5&resource_id=90c88291-70b2-445a-8570-aeac68eba122", "next": "/api/action/datastore_search?offset=5&limit=5&resource_id=90c88291-70b2-445a-8570-aeac68eba122"}, "limit": 5, "total": 42}}