{"help": "https://data.gov.sg/api/3/action/help_show?name=datastore_search", "success": true, "result": {"resource_id": "05141172-264c-4a2b-89fd-e2a88e83ed47", "fields": [{"type": "int4", "id": "_id"}, {"type": "text", "id": "month"}, {"type": "text", "id": "level_1"}, {"type": "numeric", "id": "value"}], "records": [{"_id": 1, "level_1": "M3", "value": "82388.3", "month": "1991-01"}, {"_id": 2, "level_1": "M3", "value": "82666.3", "month": "1991-02"}, {"_id": 3, "level_1": "M3", "value": "83606.2", "month": "1991-03"}, {"_id": 4, "level_1": "M3", "value": "84332.7", "month": "1991-04"}, {"_id": 5, "level_1": "M3", "value": "85458", "month": "1991-05"}], "_links": {"start": "/api/action/datastore_search?limit=5&resource_id=05141172-264c-4a2b-89fd-e2a88e83ed47", "next": "/api/action/datastore_search?offset=5&limit=5&resource_id=05141172-264c-4a2b-89fd-e2a88e83ed47"}, "limit": 5, "total": 351}}