{"help": "https://data.gov.sg/api/3/action/help_show?name=datastore_search", "success": true, "result": {"resource_id": "42f2996c-e552-4dee-a32f-9537fc64df06", "fields": [{"type": "int4", "id": "_id"}, {"type": "text", "id": "month"}, {"type": "numeric", "id": "cargo_throughput"}], "records": [{"cargo_throughput": "45171.27", "_id": 1, "month": "2015-11"}, {"cargo_throughput": "46276.47", "_id": 2, "month": "2015-12"}, {"cargo_throughput": "45918.05", "_id": 3, "month": "2016-01"}, {"cargo_throughput": "46718.74", "_id": 4, "month": "2016-02"}, {"cargo_throughput": "49494.68", "_id": 5, "month": "2016-03"}], "_links": {"start": "/api/action/datastore_search?limit=5&resource_id=42f2996c-e552-4dee-a32f-9537fc64df06", "next": "/api/action/datastore_search?offset=5&limit=5&resource_id=42f2996c-e552-4dee-a32f-9537fc64df06"}, "limit": 5, "total": 368}}