{"help": "https://data.gov.sg/api/3/action/help_show?name=datastore_search", "success": true, "result": {"resource_id": "817d2cd2-8531-433a-b048-e0543b6fda7a", "fields": [{"type": "int4", "id": "_id"}, {"type": "numeric", "id": "year"}, {"type": "text", "id": "make"}, {"type": "numeric", "id": "number"}], "records": [{"make": "DAELIM", "_id": 1, "number": "1745", "year": "2013"}, {"make": "DERBI", "_id": 2, "number": "77", "year": "2013"}, {"make": "DUCATI", "_id": 3, "number": "1201", "year": "2013"}, {"make": "EMAX", "_id": 4, "number": "5", "year": "2013"}, {"make": "GAS GAS", "_id": 5, "number": "5", "year": "2013"}], "_links": {"start": "/api/action/datastore_search?limit=5&resource_id=817d2cd2-8531-433a-b048-e0543b6fda7a", "next": "/api/action/datastore_search?offset=5&limit=5&resource_id=817d2cd2-8531-433a-b048-e0543b6fda7a"}, "limit": 5, "total": 301}}