{"help": "https://data.gov.sg/api/3/action/help_show?name=datastore_search", "success": true, "result": {"resource_id": "6d8044d1-ee0c-4a58-9e96-24713212a8a1", "fields": [{"type": "int4", "id": "_id"}, {"type": "numeric", "id": "year"}, {"type": "text", "id": "race"}, {"type": "text", "id": "percentage_p1_cohort_post_sec"}], "records": [{"_id": 1, "percentage_p1_cohort_post_sec": "45.1", "race": "Malay", "year": "1995"}, {"_id": 2, "percentage_p1_cohort_post_sec": "73.3", "race": "Chinese", "year": "1995"}, {"_id": 3, "percentage_p1_cohort_post_sec": "50.1", "race": "Indian", "year": "1995"}, {"_id": 4, "percentage_p1_cohort_post_sec": "na", "race": "Others", "year": "1995"}, {"_id": 5, "percentage_p1_cohort_post_sec": "67.7", "race": "All", "year": "1995"}], "_links": {"start": "/api/action/datastore_search?limit=5&resource_id=6d8044d1-ee0c-4a58-9e96-24713212a8a1", "next": "/api/action/datastore_search?offset=5&limit=5&resource_id=6d8044d1-ee0c-4a58-9e96-24713212a8a1"}, "limit": 5, "total": 125}}