{"help": "https://data.gov.sg/api/3/action/help_show?name=datastore_search", "success": true, "result": {"resource_id": "c06a7521-0efb-4e7e-84f0-4a9db7dd03fe", "fields": [{"type": "int4", "id": "_id"}, {"type": "numeric", "id": "year"}, {"type": "text", "id": "category"}, {"type": "numeric", "id": "number"}], "records": [{"category": "Category A", "_id": 1, "number": "68468", "year": "2005"}, {"category": "Category B", "_id": 2, "number": "40699", "year": "2005"}, {"category": "Category C", "_id": 3, "number": "14821", "year": "2005"}, {"category": "Category C-ETS", "_id": 4, "number": "0", "year": "2005"}, {"category": "Category D", "_id": 5, "number": "12146", "year": "2005"}], "_links": {"start": "/api/action/datastore_search?limit=5&resource_id=c06a7521-0efb-4e7e-84f0-4a9db7dd03fe", "next": "/api/action/datastore_search?offset=5&limit=5&resource_id=c06a7521-0efb-4e7e-84f0-4a9db7dd03fe"}, "limit": 5, "total": 91}}