{"help": "https://data.gov.sg/api/3/action/help_show?name=datastore_search", "success": true, "result": {"resource_id": "5d6ab53d-3e08-4719-958f-87f222ea7358", "fields": [{"type": "int4", "id": "_id"}, {"type": "text", "id": "year"}, {"type": "text", "id": "employment_size"}, {"type": "numeric", "id": "web_presence"}], "records": [{"web_presence": "39", "_id": 1, "employment_size": "below 10 employees", "year": "2012"}, {"web_presence": "68", "_id": 2, "employment_size": "between 10 to 199 employees", "year": "2012"}, {"web_presence": "96", "_id": 3, "employment_size": "200 or more employees", "year": "2012"}, {"web_presence": "39", "_id": 4, "employment_size": "below 10 employees", "year": "2013"}, {"web_presence": "66", "_id": 5, "employment_size": "between 10 to 199 employees", "year": "2013"}], "_links": {"start": "/api/action/datastore_search?limit=5&resource_id=5d6ab53d-3e08-4719-958f-87f222ea7358", "next": "/api/action/datastore_search?offset=5&limit=5&resource_id=5d6ab53d-3e08-4719-958f-87f222ea7358"}, "limit": 5, "total": 15}}