{"help": "https://data.gov.sg/api/3/action/help_show?name=datastore_search", "success": true, "result": {"resource_id": "f61bad0e-9bd1-4e01-be5b-1eea0a5c9a67", "fields": [{"type": "int4", "id": "_id"}, {"type": "numeric", "id": "year"}, {"type": "text", "id": "level_1"}, {"type": "text", "id": "level_2"}, {"type": "text", "id": "level_3"}, {"type": "numeric", "id": "value"}], "records": [{"value": "157", "year": "2015", "_id": 1, "level_1": "Total", "level_2": "Males", "level_3": "97"}, {"value": "107", "year": "2015", "_id": 2, "level_1": "Total", "level_2": "Males", "level_3": "98"}, {"value": "87", "year": "2015", "_id": 3, "level_1": "Total", "level_2": "Males", "level_3": "99"}, {"value": "416", "year": "2015", "_id": 4, "level_1": "Total", "level_2": "Males", "level_3": "100 & Over"}, {"value": "1986062", "year": "2015", "_id": 5, "level_1": "Total", "level_2": "Females", "level_3": "Total"}], "_links": {"start": "/api/action/datastore_search?limit=5&resource_id=f61bad0e-9bd1-4e01-be5b-1eea0a5c9a67", "next": "/api/action/datastore_search?offset=5&limit=5&resource_id=f61bad0e-9bd1-4e01-be5b-1eea0a5c9a67"}, "limit": 5, "total": 2860}}