{"help": "https://data.gov.sg/api/3/action/help_show?name=datastore_search", "success": true, "result": {"resource_id": "35559d2b-092e-439b-97e9-7bb6e7a7145e", "fields": [{"type": "int4", "id": "_id"}, {"type": "numeric", "id": "year"}, {"type": "text", "id": "type_of_goods"}, {"type": "numeric", "id": "no_of_licenses"}], "records": [{"no_of_licenses": "4521", "_id": 1, "type_of_goods": "Cooked Food", "year": "1981"}, {"no_of_licenses": "4216", "_id": 2, "type_of_goods": "Market Produce", "year": "1981"}, {"no_of_licenses": "1508", "_id": 3, "type_of_goods": "Piece and Sundries", "year": "1981"}, {"no_of_licenses": "4340", "_id": 4, "type_of_goods": "Cooked Food", "year": "1982"}, {"no_of_licenses": "4158", "_id": 5, "type_of_goods": "Market Produce", "year": "1982"}], "_links": {"start": "/api/action/datastore_search?limit=5&resource_id=35559d2b-092e-439b-97e9-7bb6e7a7145e", "next": "/api/action/datastore_search?offset=5&limit=5&resource_id=35559d2b-092e-439b-97e9-7bb6e7a7145e"}, "limit": 5, "total": 105}}