{"help": "https://data.gov.sg/api/3/action/help_show?name=datastore_search", "success": true, "result": {"resource_id": "94f28911-38b7-4a15-a6da-c4e204a8d08e", "fields": [{"type": "int4", "id": "_id"}, {"type": "text", "id": "year"}, {"type": "text", "id": "level_1"}, {"type": "text", "id": "level_2"}, {"type": "numeric", "id": "value"}], "records": [{"value": "4724.5", "_id": 1, "level_1": "Total", "level_2": "Total", "year": "2013"}, {"value": "423.8", "_id": 2, "level_1": "Total", "level_2": "Food and Non-Alcoholic Beverages", "year": "2013"}, {"value": "53.4", "_id": 3, "level_1": "Total", "level_2": "Alcoholic Beverages and Tobacco", "year": "2013"}, {"value": "156", "_id": 4, "level_1": "Total", "level_2": "Clothing and Footwear", "year": "2013"}, {"value": "424.1", "_id": 5, "level_1": "Total", "level_2": "Housing and Utilities", "year": "2013"}], "_links": {"start": "/api/action/datastore_search?limit=5&resource_id=94f28911-38b7-4a15-a6da-c4e204a8d08e", "next": "/api/action/datastore_search?offset=5&limit=5&resource_id=94f28911-38b7-4a15-a6da-c4e204a8d08e"}, "limit": 5, "total": 108}}