{"help": "https://data.gov.sg/api/3/action/help_show?name=datastore_search", "success": true, "result": {"resource_id": "963f7db6-900f-4401-8889-973b74abf00a", "fields": [{"type": "int4", "id": "_id"}, {"type": "text", "id": "quarter"}, {"type": "text", "id": "flat_type"}, {"type": "numeric", "id": "no_of_approvals"}], "records": [{"flat_type": "1-room", "quarter": "2007-Q1", "_id": 1, "no_of_approvals": "1"}, {"flat_type": "2-room", "quarter": "2007-Q1", "_id": 2, "no_of_approvals": "22"}, {"flat_type": "3-room", "quarter": "2007-Q1", "_id": 3, "no_of_approvals": "847"}, {"flat_type": "4-room", "quarter": "2007-Q1", "_id": 4, "no_of_approvals": "735"}, {"flat_type": "5-room", "quarter": "2007-Q1", "_id": 5, "no_of_approvals": "602"}], "_links": {"start": "/api/action/datastore_search?limit=5&resource_id=963f7db6-900f-4401-8889-973b74abf00a", "next": "/api/action/datastore_search?offset=5&limit=5&resource_id=963f7db6-900f-4401-8889-973b74abf00a"}, "limit": 5, "total": 324}}