{"help": "https://data.gov.sg/api/3/action/help_show?name=datastore_search", "success": true, "result": {"resource_id": "90a7bddf-3f04-480b-a67c-97b77e796217", "fields": [{"type": "int4", "id": "_id"}, {"type": "numeric", "id": "year"}, {"type": "text", "id": "level_1"}, {"type": "numeric", "id": "value"}], "records": [{"_id": 1, "level_1": "Total", "value": "18703", "year": "1984"}, {"_id": 2, "level_1": "Brides - Secondary & Below", "value": "15584", "year": "1984"}, {"_id": 3, "level_1": "Brides - Post-secondary", "value": "2220", "year": "1984"}, {"_id": 4, "level_1": "Brides - University", "value": "899", "year": "1984"}, {"_id": 5, "level_1": "Total", "value": "17308", "year": "1985"}], "_links": {"start": "/api/action/datastore_search?limit=5&resource_id=90a7bddf-3f04-480b-a67c-97b77e796217", "next": "/api/action/datastore_search?offset=5&limit=5&resource_id=90a7bddf-3f04-480b-a67c-97b77e796217"}, "limit": 5, "total": 144}}