{"help": "https://data.gov.sg/api/3/action/help_show?name=datastore_search", "success": true, "result": {"resource_id": "66e8de4e-0fd9-469f-9c56-be0cdc438467", "fields": [{"type": "int4", "id": "_id"}, {"type": "numeric", "id": "year"}, {"type": "text", "id": "level_1"}, {"type": "text", "id": "level_2"}, {"type": "numeric", "id": "value"}], "records": [{"value": "1059.2", "_id": 1, "level_1": "Total", "level_2": "Total", "year": "2015"}, {"value": "849.4", "_id": 2, "level_1": "Total", "level_2": "HDB Dwellings", "year": "2015"}, {"value": "142", "_id": 3, "level_1": "Total", "level_2": "Condominiums And Other Apartments", "year": "2015"}, {"value": "64.8", "_id": 4, "level_1": "Total", "level_2": "Landed Properties", "year": "2015"}, {"value": "2.9", "_id": 5, "level_1": "Total", "level_2": "Others", "year": "2015"}], "_links": {"start": "/api/action/datastore_search?limit=5&resource_id=66e8de4e-0fd9-469f-9c56-be0cdc438467", "next": "/api/action/datastore_search?offset=5&limit=5&resource_id=66e8de4e-0fd9-469f-9c56-be0cdc438467"}, "limit": 5, "total": 62}}