{"help": "https://data.gov.sg/api/3/action/help_show?name=datastore_search", "success": true, "result": {"resource_id": "f546ae02-8748-4eac-ba60-78a04438e22c", "fields": [{"type": "int4", "id": "_id"}, {"type": "text", "id": "period"}, {"type": "text", "id": "region"}, {"type": "text", "id": "cor"}, {"type": "text", "id": "moa"}, {"type": "numeric", "id": "arv_count"}], "records": [{"cor": "Total", "region": "Total", "period": "2013-01", "moa": "Air", "_id": 1, "arv_count": "984350"}, {"cor": "Total", "region": "Total", "period": "2013-01", "moa": "Sea", "_id": 2, "arv_count": "129074"}, {"cor": "Total", "region": "Total", "period": "2013-01", "moa": "Land", "_id": 3, "arv_count": "178294"}, {"cor": "Total", "region": "Total", "period": "2013-02", "moa": "Air", "_id": 4, "arv_count": "916372"}, {"cor": "Total", "region": "Total", "period": "2013-02", "moa": "Sea", "_id": 5, "arv_count": "125634"}], "_links": {"start": "/api/action/datastore_search?limit=5&resource_id=f546ae02-8748-4eac-ba60-78a04438e22c", "next": "/api/action/datastore_search?offset=5&limit=5&resource_id=f546ae02-8748-4eac-ba60-78a04438e22c"}, "limit": 5, "total": 2592}}