{"help": "https://data.gov.sg/api/3/action/help_show?name=datastore_search", "success": true, "result": {"resource_id": "73eab944-01e6-4954-bdd3-7c798e65ed2c", "fields": [{"type": "int4", "id": "_id"}, {"type": "text", "id": "month"}, {"type": "text", "id": "company"}, {"type": "numeric", "id": "taxi_fleet"}], "records": [{"taxi_fleet": "11482", "company": "Comfort", "_id": 1, "month": "2010-02"}, {"taxi_fleet": "3812", "company": "CityCab", "_id": 2, "month": "2010-02"}, {"taxi_fleet": "3241", "company": "TransCab", "_id": 3, "month": "2010-02"}, {"taxi_fleet": "2575", "company": "SMRT", "_id": 4, "month": "2010-02"}, {"taxi_fleet": "402", "company": "Individual Yellow- Top", "_id": 5, "month": "2010-02"}], "_links": {"start": "/api/action/datastore_search?limit=5&resource_id=73eab944-01e6-4954-bdd3-7c798e65ed2c", "next": "/api/action/datastore_search?offset=5&limit=5&resource_id=73eab944-01e6-4954-bdd3-7c798e65ed2c"}, "limit": 5, "total": 712}}