{"help": "https://data.gov.sg/api/3/action/help_show?name=datastore_search", "success": true, "result": {"resource_id": "7204565c-7342-40ec-9362-75da1e1d5910", "fields": [{"type": "int4", "id": "_id"}, {"type": "numeric", "id": "year"}, {"type": "text", "id": "level_1"}, {"type": "text", "id": "level_2"}, {"type": "text", "id": "value"}], "records": [{"value": "8", "_id": 1, "level_1": "Central Police Division - Marina Bay NPC", "level_2": "Robbery", "year": "2012"}, {"value": "6", "_id": 2, "level_1": "Central Police Division - Marina Bay NPC", "level_2": "Housebreaking", "year": "2012"}, {"value": "3", "_id": 3, "level_1": "Central Police Division - Marina Bay NPC", "level_2": "Snatch Theft", "year": "2012"}, {"value": "4", "_id": 4, "level_1": "Central Police Division - Marina Bay NPC", "level_2": "Theft Of Motor Vehicle", "year": "2012"}, {"value": "85", "_id": 5, "level_1": "Central Police Division - Marina Bay NPC", "level_2": "Outrage Of Modesty", "year": "2012"}], "_links": {"start": "/api/action/datastore_search?limit=5&resource_id=7204565c-7342-40ec-9362-75da1e1d5910", "next": "/api/action/datastore_search?offset=5&limit=5&resource_id=7204565c-7342-40ec-9362-75da1e1d5910"}, "limit": 5, "total": 3590}}