{"help": "https://data.gov.sg/api/3/action/help_show?name=datastore_search", "success": true, "result": {"resource_id": "35d35683-19dd-4043-b90f-4d9cdac08741", "fields": [{"type": "int4", "id": "_id"}, {"type": "text", "id": "month"}, {"type": "text", "id": "level_1"}, {"type": "numeric", "id": "value"}], "records": [{"_id": 1, "level_1": "Import Price Index - Overall Items", "value": "78.305", "month": "1974-01"}, {"_id": 2, "level_1": "Non-oil Import Price Index", "value": "105.574", "month": "1974-01"}, {"_id": 3, "level_1": "Import Price Index - Overall Items", "value": "78.305", "month": "1974-02"}, {"_id": 4, "level_1": "Non-oil Import Price Index", "value": "105.574", "month": "1974-02"}, {"_id": 5, "level_1": "Import Price Index - Overall Items", "value": "78.586", "month": "1974-03"}], "_links": {"start": "/api/action/datastore_search?limit=5&resource_id=35d35683-19dd-4043-b90f-4d9cdac08741", "next": "/api/action/datastore_search?offset=5&limit=5&resource_id=35d35683-19dd-4043-b90f-4d9cdac08741"}, "limit": 5, "total": 1074}}