{"help": "https://data.gov.sg/api/3/action/help_show?name=datastore_search", "success": true, "result": {"resource_id": "04e048ff-cf28-4e59-93f5-3eaf2e6e8c6f", "fields": [{"type": "int4", "id": "_id"}, {"type": "numeric", "id": "year"}, {"type": "text", "id": "level_1"}, {"type": "numeric", "id": "value"}], "records": [{"_id": 1, "level_1": "Total", "value": "4487", "year": "1984"}, {"_id": 2, "level_1": "Malays", "value": "3494", "year": "1984"}, {"_id": 3, "level_1": "Indians", "value": "234", "year": "1984"}, {"_id": 4, "level_1": "Others", "value": "25", "year": "1984"}, {"_id": 5, "level_1": "Inter-ethnic", "value": "734", "year": "1984"}], "_links": {"start": "/api/action/datastore_search?limit=5&resource_id=04e048ff-cf28-4e59-93f5-3eaf2e6e8c6f", "next": "/api/action/datastore_search?offset=5&limit=5&resource_id=04e048ff-cf28-4e59-93f5-3eaf2e6e8c6f"}, "limit": 5, "total": 175}}