{"help": "https://data.gov.sg/api/3/action/help_show?name=datastore_search", "success": true, "result": {"resource_id": "0db7afb5-bd73-4ae9-ba30-cc7037551cab", "fields": [{"type": "int4", "id": "_id"}, {"type": "text", "id": "month"}, {"type": "numeric", "id": "number_of_vessels"}, {"type": "numeric", "id": "gross_tonnage"}], "records": [{"gross_tonnage": "209418.93", "_id": 1, "number_of_vessels": "11046", "month": "2015-11"}, {"gross_tonnage": "223665.96", "_id": 2, "number_of_vessels": "11428", "month": "2015-12"}, {"gross_tonnage": "228884.75", "_id": 3, "number_of_vessels": "11657", "month": "2016-01"}, {"gross_tonnage": "204270.93", "_id": 4, "number_of_vessels": "10621", "month": "2016-02"}, {"gross_tonnage": "227512.94", "_id": 5, "number_of_vessels": "11789", "month": "2016-03"}], "_links": {"start": "/api/action/datastore_search?limit=5&resource_id=0db7afb5-bd73-4ae9-ba30-cc7037551cab", "next": "/api/action/datastore_search?offset=5&limit=5&resource_id=0db7afb5-bd73-4ae9-ba30-cc7037551cab"}, "limit": 5, "total": 368}}