{"help": "https://data.gov.sg/api/3/action/help_show?name=datastore_search", "success": true, "result": {"resource_id": "678526b5-65b3-435b-b306-b6e63af1ac3e", "fields": [{"type": "int4", "id": "_id"}, {"type": "numeric", "id": "year"}, {"type": "numeric", "id": "number_of_tankers"}, {"type": "numeric", "id": "gross_tonnage"}], "records": [{"gross_tonnage": "313271.04", "number_of_tankers": "16919", "_id": 1, "year": "2002"}, {"gross_tonnage": "311770.07", "number_of_tankers": "17084", "_id": 2, "year": "2003"}, {"gross_tonnage": "331720.47", "number_of_tankers": "17576", "_id": 3, "year": "2004"}, {"gross_tonnage": "349629.6", "number_of_tankers": "17315", "_id": 4, "year": "2005"}, {"gross_tonnage": "405572.72", "number_of_tankers": "18195", "_id": 5, "year": "2006"}], "_links": {"start": "/api/action/datastore_search?limit=5&resource_id=678526b5-65b3-435b-b306-b6e63af1ac3e", "next": "/api/action/datastore_search?offset=5&limit=5&resource_id=678526b5-65b3-435b-b306-b6e63af1ac3e"}, "limit": 5, "total": 18}}