{"help": "https://data.gov.sg/api/3/action/help_show?name=datastore_search", "success": true, "result": {"resource_id": "e45d605c-0737-49b3-87d7-d8acc1d7b362", "fields": [{"type": "int4", "id": "_id"}, {"type": "numeric", "id": "year"}, {"type": "text", "id": "vehicle_type"}, {"type": "numeric", "id": "number"}], "records": [{"_id": 1, "number": "23955", "vehicle_type": "Cars", "year": "2005"}, {"_id": 2, "number": "42984", "vehicle_type": "Motorcycles", "year": "2005"}, {"_id": 3, "number": "1031", "vehicle_type": "Buses", "year": "2005"}, {"_id": 4, "number": "9977", "vehicle_type": "Goods & Other Vehicles", "year": "2005"}, {"_id": 5, "number": "250", "vehicle_type": "Tax Exempted Vehicles", "year": "2005"}], "_links": {"start": "/api/action/datastore_search?limit=5&resource_id=e45d605c-0737-49b3-87d7-d8acc1d7b362", "next": "/api/action/datastore_search?offset=5&limit=5&resource_id=e45d605c-0737-49b3-87d7-d8acc1d7b362"}, "limit": 5, "total": 65}}