{"help": "https://data.gov.sg/api/3/action/help_show?name=datastore_search", "success": true, "result": {"resource_id": "bf4624e5-ebe1-41f0-9de3-40d3dce7772f", "fields": [{"type": "int4", "id": "_id"}, {"type": "text", "id": "month"}, {"type": "numeric", "id": "consumer_numbers"}, {"type": "numeric", "id": "organisation_accounts"}, {"type": "numeric", "id": "numbers_checked_million"}], "records": [{"_id": 1, "organisation_accounts": "485", "consumer_numbers": "393951", "numbers_checked_million": "0", "month": "2013-12"}, {"_id": 2, "organisation_accounts": "1160", "consumer_numbers": "56038", "numbers_checked_million": "48.41", "month": "2014-01"}, {"_id": 3, "organisation_accounts": "887", "consumer_numbers": "130483", "numbers_checked_million": "32.72", "month": "2014-02"}, {"_id": 4, "organisation_accounts": "675", "consumer_numbers": "18684", "numbers_checked_million": "32.35", "month": "2014-03"}, {"_id": 5, "organisation_accounts": "365", "consumer_numbers": "27504", "numbers_checked_million": "36.11", "month": "2014-04"}], "_links": {"start": "/api/action/datastore_search?limit=5&resource_id=bf4624e5-ebe1-41f0-9de3-40d3dce7772f", "next": "/api/action/datastore_search?offset=5&limit=5&resource_id=bf4624e5-ebe1-41f0-9de3-40d3dce7772f"}, "limit": 5, "total": 83}}