{"help": "https://data.gov.sg/api/3/action/help_show?name=datastore_search", "success": true, "result": {"resource_id": "e5274807-bcc7-4d37-b39f-ab06fec24647", "fields": [{"type": "int4", "id": "_id"}, {"type": "text", "id": "month"}, {"type": "text", "id": "work_pass_type"}, {"type": "numeric", "id": "count"}], "records": [{"count": "231500", "_id": 1, "work_pass_type": "foreign_domestic_worker", "month": "2015-12"}, {"count": "423300", "_id": 2, "work_pass_type": "construction_marine_process", "month": "2015-12"}, {"count": "239700", "_id": 3, "work_pass_type": "foreign_domestic_worker", "month": "2016-12"}, {"count": "407500", "_id": 4, "work_pass_type": "construction_marine_process", "month": "2016-12"}, {"count": "246800", "_id": 5, "work_pass_type": "foreign_domestic_worker", "month": "2017-12"}], "_links": {"start": "/api/action/datastore_search?limit=5&resource_id=e5274807-bcc7-4d37-b39f-ab06fec24647", "next": "/api/action/datastore_search?offset=5&limit=5&resource_id=e5274807-bcc7-4d37-b39f-ab06fec24647"}, "limit": 5, "total": 12}}