{"help": "https://data.gov.sg/api/3/action/help_show?name=datastore_search", "success": true, "result": {"resource_id": "d0efb5d7-9348-41d8-9acf-ddbadca8fb22", "fields": [{"type": "int4", "id": "_id"}, {"type": "numeric", "id": "year"}, {"type": "text", "id": "type"}, {"type": "text", "id": "age"}, {"type": "numeric", "id": "number_reported"}, {"type": "numeric", "id": "number_passed"}, {"type": "numeric", "id": "passing_rate"}], "records": [{"number_passed": "0", "number_reported": "0", "age": "9", "passing_rate": "0", "year": "2009", "_id": 1, "type": "Taxis"}, {"number_passed": "0", "number_reported": "0", "age": "10", "passing_rate": "0", "year": "2009", "_id": 2, "type": "Taxis"}, {"number_passed": "0", "number_reported": "0", "age": ">10", "passing_rate": "0", "year": "2009", "_id": 3, "type": "Taxis"}, {"number_passed": "9993", "number_reported": "10841", "age": "1", "passing_rate": "92.17784337", "year": "2009", "_id": 4, "type": "Goods & Other Vehicles"}, {"number_passed": "12291", "number_reported": "13466", "age": "2", "passing_rate": "91.27432051", "year": "2009", "_id": 5, "type": "Goods & Other Vehicles"}], "_links": {"start": "/api/action/datastore_search?limit=5&resource_id=d0efb5d7-9348-41d8-9acf-ddbadca8fb22", "next": "/api/action/datastore_search?offset=5&limit=5&resource_id=d0efb5d7-9348-41d8-9acf-ddbadca8fb22"}, "limit": 5, "total": 542}}