{"help": "https://data.gov.sg/api/3/action/help_show?name=datastore_search", "success": true, "result": {"resource_id": "f02b6455-0761-4ea2-9c37-556e9e7229ff", "fields": [{"type": "int4", "id": "_id"}, {"type": "text", "id": "month"}, {"type": "numeric", "id": "number_of_electronic_searches"}], "records": [{"_id": 1, "number_of_electronic_searches": "14174", "month": "2008-04"}, {"_id": 2, "number_of_electronic_searches": "13360", "month": "2008-05"}, {"_id": 3, "number_of_electronic_searches": "13287", "month": "2008-06"}, {"_id": 4, "number_of_electronic_searches": "16094", "month": "2008-07"}, {"_id": 5, "number_of_electronic_searches": "12765", "month": "2008-08"}], "_links": {"start": "/api/action/datastore_search?limit=5&resource_id=f02b6455-0761-4ea2-9c37-556e9e7229ff", "next": "/api/action/datastore_search?offset=5&limit=5&resource_id=f02b6455-0761-4ea2-9c37-556e9e7229ff"}, "limit": 5, "total": 132}}