{"help": "https://data.gov.sg/api/3/action/help_show?name=datastore_search", "success": true, "result": {"resource_id": "80bfffce-a8ff-4243-8978-8c888b2f83cf", "fields": [{"type": "int4", "id": "_id"}, {"type": "text", "id": "month"}, {"type": "text", "id": "level_1"}, {"type": "text", "id": "value"}], "records": [{"_id": 1, "level_1": "All Items", "value": "0.7", "month": "2003-09"}, {"_id": 2, "level_1": "All Items Less Imputed Rentals On Owner-occupied Accommodation", "value": "na", "month": "2003-09"}, {"_id": 3, "level_1": "All Items Less Accommodation", "value": "1", "month": "2003-09"}, {"_id": 4, "level_1": "MAS Core Inflation Measure", "value": "1.2", "month": "2003-09"}, {"_id": 5, "level_1": "All Items", "value": "0.6", "month": "2003-10"}], "_links": {"start": "/api/action/datastore_search?limit=5&resource_id=80bfffce-a8ff-4243-8978-8c888b2f83cf", "next": "/api/action/datastore_search?offset=5&limit=5&resource_id=80bfffce-a8ff-4243-8978-8c888b2f83cf"}, "limit": 5, "total": 3544}}