{"help": "https://data.gov.sg/api/3/action/help_show?name=datastore_search", "success": true, "result": {"resource_id": "a5da7a66-058b-471f-bef1-32ab129473cb", "fields": [{"type": "int4", "id": "_id"}, {"type": "numeric", "id": "start_year"}, {"type": "numeric", "id": "end_year"}, {"type": "text", "id": "flat_type"}, {"type": "numeric", "id": "no_of_completed_units"}], "records": [{"no_of_completed_units": "53777", "end_year": "1965", "start_year": "1960", "_id": 1, "flat_type": "dwelling_units"}, {"no_of_completed_units": "653", "end_year": "1965", "start_year": "1960", "_id": 2, "flat_type": "commercial developments"}, {"no_of_completed_units": "63448", "end_year": "1970", "start_year": "1966", "_id": 3, "flat_type": "dwelling_units"}, {"no_of_completed_units": "2791", "end_year": "1970", "start_year": "1966", "_id": 4, "flat_type": "commercial developments"}, {"no_of_completed_units": "110362", "end_year": "1975", "start_year": "1971", "_id": 5, "flat_type": "dwelling_units"}], "_links": {"start": "/api/action/datastore_search?limit=5&resource_id=a5da7a66-058b-471f-bef1-32ab129473cb", "next": "/api/action/datastore_search?offset=5&limit=5&resource_id=a5da7a66-058b-471f-bef1-32ab129473cb"}, "limit": 5, "total": 28}}