{"help": "https://data.gov.sg/api/3/action/help_show?name=datastore_search", "success": true, "result": {"resource_id": "105f3ee1-4cfa-4079-bbf1-7c96fbf9a896", "fields": [{"type": "int4", "id": "_id"}, {"type": "numeric", "id": "year"}, {"type": "numeric", "id": "no_of_green_vehicles"}], "records": [{"_id": 1, "no_of_green_vehicles": "35", "year": "2003"}, {"_id": 2, "no_of_green_vehicles": "79", "year": "2004"}, {"_id": 3, "no_of_green_vehicles": "198", "year": "2005"}, {"_id": 4, "no_of_green_vehicles": "716", "year": "2006"}, {"_id": 5, "no_of_green_vehicles": "1543", "year": "2007"}], "_links": {"start": "/api/action/datastore_search?limit=5&resource_id=105f3ee1-4cfa-4079-bbf1-7c96fbf9a896", "next": "/api/action/datastore_search?offset=5&limit=5&resource_id=105f3ee1-4cfa-4079-bbf1-7c96fbf9a896"}, "limit": 5, "total": 12}}