{"help": "https://data.gov.sg/api/3/action/help_show?name=datastore_search", "success": true, "result": {"resource_id": "9dcdd20c-e24c-46a4-9044-cc2b2745a7fc", "fields": [{"type": "int4", "id": "_id"}, {"type": "numeric", "id": "year"}, {"type": "text", "id": "category"}, {"type": "text", "id": "level_of_education"}, {"type": "text", "id": "sex"}, {"type": "numeric", "id": "gross_enrolment_ratio"}], "records": [{"category": "COMBINED GROSS ENROLMENT RATIO", "sex": "MF", "level_of_education": "ALL LEVELS", "year": "2015", "gross_enrolment_ratio": "112", "_id": 1}, {"category": "COMBINED GROSS ENROLMENT RATIO", "sex": "M", "level_of_education": "ALL LEVELS", "year": "2015", "gross_enrolment_ratio": "109.8", "_id": 2}, {"category": "COMBINED GROSS ENROLMENT RATIO", "sex": "F", "level_of_education": "ALL LEVELS", "year": "2015", "gross_enrolment_ratio": "114.2", "_id": 3}, {"category": "GROSS ENROLMENT RATIO", "sex": "MF", "level_of_education": "PRIMARY EDUCATION", "year": "2015", "gross_enrolment_ratio": "100.9", "_id": 4}, {"category": "GROSS ENROLMENT RATIO", "sex": "M", "level_of_education": "PRIMARY EDUCATION", "year": "2015", "gross_enrolment_ratio": "100.9", "_id": 5}], "_links": {"start": "/api/action/datastore_search?limit=5&resource_id=9dcdd20c-e24c-46a4-9044-cc2b2745a7fc", "next": "/api/action/datastore_search?offset=5&limit=5&resource_id=9dcdd20c-e24c-46a4-9044-cc2b2745a7fc"}, "limit": 5, "total": 396}}