{"help": "https://data.gov.sg/api/3/action/help_show?name=datastore_search", "success": true, "result": {"resource_id": "73708bb1-fc26-4c79-817f-27b8a7f24e46", "fields": [{"type": "int4", "id": "_id"}, {"type": "numeric", "id": "financial_year"}, {"type": "numeric", "id": "no_of_applications"}], "records": [{"no_of_applications": "37939", "_id": 1, "financial_year": "2008"}, {"no_of_applications": "69201", "_id": 2, "financial_year": "2009"}, {"no_of_applications": "63760", "_id": 3, "financial_year": "2010"}, {"no_of_applications": "67805", "_id": 4, "financial_year": "2011"}, {"no_of_applications": "57156", "_id": 5, "financial_year": "2012"}], "_links": {"start": "/api/action/datastore_search?limit=5&resource_id=73708bb1-fc26-4c79-817f-27b8a7f24e46", "next": "/api/action/datastore_search?offset=5&limit=5&resource_id=73708bb1-fc26-4c79-817f-27b8a7f24e46"}, "limit": 5, "total": 11}}