{"help": "https://data.gov.sg/api/3/action/help_show?name=datastore_search", "success": true, "result": {"resource_id": "534c146a-80f2-4f24-bab7-3684e1de68c1", "fields": [{"type": "int4", "id": "_id"}, {"type": "text", "id": "month"}, {"type": "numeric", "id": "total_mobile_subscription"}], "records": [{"_id": 1, "total_mobile_subscription": "414000", "month": "1997-01"}, {"_id": 2, "total_mobile_subscription": "423000", "month": "1997-02"}, {"_id": 3, "total_mobile_subscription": "431000", "month": "1997-03"}, {"_id": 4, "total_mobile_subscription": "479000", "month": "1997-04"}, {"_id": 5, "total_mobile_subscription": "510000", "month": "1997-05"}], "_links": {"start": "/api/action/datastore_search?limit=5&resource_id=534c146a-80f2-4f24-bab7-3684e1de68c1", "next": "/api/action/datastore_search?offset=5&limit=5&resource_id=534c146a-80f2-4f24-bab7-3684e1de68c1"}, "limit": 5, "total": 269}}