{"help": "https://data.gov.sg/api/3/action/help_show?name=datastore_search", "success": true, "result": {"resource_id": "243b0a65-da1d-4fbc-879c-7c5af410a90a", "fields": [{"type": "int4", "id": "_id"}, {"type": "text", "id": "year"}, {"type": "text", "id": "region"}, {"type": "numeric", "id": "export_revenue"}], "records": [{"region": "north asia", "_id": 1, "export_revenue": "22", "year": "2007"}, {"region": "south asia", "_id": 2, "export_revenue": "10", "year": "2007"}, {"region": "central asia", "_id": 3, "export_revenue": "0", "year": "2007"}, {"region": "oceania", "_id": 4, "export_revenue": "6", "year": "2007"}, {"region": "middle east", "_id": 5, "export_revenue": "3", "year": "2007"}], "_links": {"start": "/api/action/datastore_search?limit=5&resource_id=243b0a65-da1d-4fbc-879c-7c5af410a90a", "next": "/api/action/datastore_search?offset=5&limit=5&resource_id=243b0a65-da1d-4fbc-879c-7c5af410a90a"}, "limit": 5, "total": 110}}