{"help": "https://data.gov.sg/api/3/action/help_show?name=datastore_search", "success": true, "result": {"resource_id": "aa650271-7c04-4705-a1ba-9f0467aef3e9", "fields": [{"type": "int4", "id": "_id"}, {"type": "numeric", "id": "year"}, {"type": "numeric", "id": "co2_emissions"}], "records": [{"co2_emissions": "39905", "_id": 1, "year": "2007"}, {"co2_emissions": "38524", "_id": 2, "year": "2008"}, {"co2_emissions": "39465", "_id": 3, "year": "2009"}, {"co2_emissions": "43122", "_id": 4, "year": "2010"}, {"co2_emissions": "45281", "_id": 5, "year": "2011"}], "_links": {"start": "/api/action/datastore_search?limit=5&resource_id=aa650271-7c04-4705-a1ba-9f0467aef3e9", "next": "/api/action/datastore_search?offset=5&limit=5&resource_id=aa650271-7c04-4705-a1ba-9f0467aef3e9"}, "limit": 5, "total": 7}}