{"help": "https://data.gov.sg/api/3/action/help_show?name=datastore_search", "success": true, "result": {"resource_id": "ab75ed14-5a82-480a-b3c9-72e46176e036", "fields": [{"type": "int4", "id": "_id"}, {"type": "numeric", "id": "year"}, {"type": "text", "id": "status"}, {"type": "numeric", "id": "no_of_inhalant_abusers_arrested"}], "records": [{"status": "Total", "_id": 1, "no_of_inhalant_abusers_arrested": "149", "year": "2003"}, {"status": "Total", "_id": 2, "no_of_inhalant_abusers_arrested": "184", "year": "2004"}, {"status": "Total", "_id": 3, "no_of_inhalant_abusers_arrested": "120", "year": "2005"}, {"status": "Total", "_id": 4, "no_of_inhalant_abusers_arrested": "403", "year": "2006"}, {"status": "Total", "_id": 5, "no_of_inhalant_abusers_arrested": "644", "year": "2007"}], "_links": {"start": "/api/action/datastore_search?limit=5&resource_id=ab75ed14-5a82-480a-b3c9-72e46176e036", "next": "/api/action/datastore_search?offset=5&limit=5&resource_id=ab75ed14-5a82-480a-b3c9-72e46176e036"}, "limit": 5, "total": 51}}