{"help": "https://data.gov.sg/api/3/action/help_show?name=datastore_search", "success": true, "result": {"resource_id": "b7977127-e0ae-4bcf-9234-d0def6555afd", "fields": [{"type": "int4", "id": "_id"}, {"type": "numeric", "id": "year"}, {"type": "text", "id": "level_1"}, {"type": "text", "id": "value"}], "records": [{"_id": 1, "level_1": "Washing Machine", "value": "1.8", "year": "1973"}, {"_id": 2, "level_1": "Air-conditioner", "value": "2.7", "year": "1973"}, {"_id": 3, "level_1": "Microwave Oven", "value": "na", "year": "1973"}, {"_id": 4, "level_1": "Vacuum Cleaner", "value": "na", "year": "1973"}, {"_id": 5, "level_1": "Car", "value": "17", "year": "1973"}], "_links": {"start": "/api/action/datastore_search?limit=5&resource_id=b7977127-e0ae-4bcf-9234-d0def6555afd", "next": "/api/action/datastore_search?offset=5&limit=5&resource_id=b7977127-e0ae-4bcf-9234-d0def6555afd"}, "limit": 5, "total": 170}}