{"help": "https://data.gov.sg/api/3/action/help_show?name=datastore_search", "success": true, "result": {"resource_id": "6d296c9a-f98e-489a-a35b-81ccc4317aa9", "fields": [{"type": "int4", "id": "_id"}, {"type": "numeric", "id": "year"}, {"type": "numeric", "id": "total_foreign_reserve_sgd"}, {"type": "numeric", "id": "special_drawing_rights"}, {"type": "numeric", "id": "imf_reserve_position"}, {"type": "numeric", "id": "gold_and_foreign_exchange"}, {"type": "numeric", "id": "total_foreign_reserve_usd"}], "records": [{"imf_reserve_position": "0", "gold_and_foreign_exchange": "1151.4", "total_foreign_reserve_sgd": "1151.4", "special_drawing_rights": "0", "year": "1963", "total_foreign_reserve_usd": "376.3", "_id": 1}, {"imf_reserve_position": "0", "gold_and_foreign_exchange": "1138.1", "total_foreign_reserve_sgd": "1138.1", "special_drawing_rights": "0", "year": "1964", "total_foreign_reserve_usd": "370.7", "_id": 2}, {"imf_reserve_position": "0", "gold_and_foreign_exchange": "1068.6", "total_foreign_reserve_sgd": "1068.6", "special_drawing_rights": "0", "year": "1965", "total_foreign_reserve_usd": "349.2", "_id": 3}, {"imf_reserve_position": "23", "gold_and_foreign_exchange": "1184.3", "total_foreign_reserve_sgd": "1207.3", "special_drawing_rights": "0", "year": "1966", "total_foreign_reserve_usd": "392", "_id": 4}, {"imf_reserve_position": "23", "gold_and_foreign_exchange": "1494.2", "total_foreign_reserve_sgd": "1517.2", "special_drawing_rights": "0", "year": "1967", "total_foreign_reserve_usd": "494.2", "_id": 5}], "_links": {"start": "/api/action/datastore_search?limit=5&resource_id=6d296c9a-f98e-489a-a35b-81ccc4317aa9", "next": "/api/action/datastore_search?offset=5&limit=5&resource_id=6d296c9a-f98e-489a-a35b-81ccc4317aa9"}, "limit": 5, "total": 52}}