{"help": "https://data.gov.sg/api/3/action/help_show?name=datastore_search", "success": true, "result": {"resource_id": "b44e10b2-9505-44b6-beb0-d463a16e33d8", "fields": [{"type": "int4", "id": "_id"}, {"type": "numeric", "id": "year"}, {"type": "text", "id": "level_1"}, {"type": "text", "id": "level_2"}, {"type": "text", "id": "level_3"}, {"type": "numeric", "id": "value"}], "records": [{"value": "3275.9", "year": "2015", "_id": 1, "level_1": "Total", "level_2": "Total", "level_3": "Total"}, {"value": "104", "year": "2015", "_id": 2, "level_1": "Total", "level_2": "Total", "level_3": "Not Literate"}, {"value": "3171.8", "year": "2015", "_id": 3, "level_1": "Total", "level_2": "Total", "level_3": "Literate"}, {"value": "850.2", "year": "2015", "_id": 4, "level_1": "Total", "level_2": "Total", "level_3": "One Language Only"}, {"value": "2152.6", "year": "2015", "_id": 5, "level_1": "Total", "level_2": "Total", "level_3": "Two Languages Only"}], "_links": {"start": "/api/action/datastore_search?limit=5&resource_id=b44e10b2-9505-44b6-beb0-d463a16e33d8", "next": "/api/action/datastore_search?offset=5&limit=5&resource_id=b44e10b2-9505-44b6-beb0-d463a16e33d8"}, "limit": 5, "total": 90}}