{"help": "https://data.gov.sg/api/3/action/help_show?name=datastore_search", "success": true, "result": {"resource_id": "d9f4f45c-80ea-49e3-b5d5-ce21cf464ded", "fields": [{"type": "int4", "id": "_id"}, {"type": "numeric", "id": "calendar_year"}, {"type": "text", "id": "type_of_stamp_duty"}, {"type": "numeric", "id": "no_of_transactions"}, {"type": "numeric", "id": "stamp_duty_assessed"}], "records": [{"stamp_duty_assessed": "1516789", "no_of_transactions": "38962", "_id": 1, "type_of_stamp_duty": "Buyer's Stamp Duty", "calendar_year": "2011"}, {"stamp_duty_assessed": "3103", "no_of_transactions": "34", "_id": 2, "type_of_stamp_duty": "Additional Buyer's Stamp Duty", "calendar_year": "2011"}, {"stamp_duty_assessed": "23145", "no_of_transactions": "542", "_id": 3, "type_of_stamp_duty": "Seller's Stamp Duty", "calendar_year": "2011"}, {"stamp_duty_assessed": "1594691", "no_of_transactions": "42761", "_id": 4, "type_of_stamp_duty": "Buyer's Stamp Duty", "calendar_year": "2012"}, {"stamp_duty_assessed": "762211", "no_of_transactions": "8261", "_id": 5, "type_of_stamp_duty": "Additional Buyer's Stamp Duty", "calendar_year": "2012"}], "_links": {"start": "/api/action/datastore_search?limit=5&resource_id=d9f4f45c-80ea-49e3-b5d5-ce21cf464ded", "next": "/api/action/datastore_search?offset=5&limit=5&resource_id=d9f4f45c-80ea-49e3-b5d5-ce21cf464ded"}, "limit": 5, "total": 27}}