{"help": "https://data.gov.sg/api/3/action/help_show?name=datastore_search", "success": true, "result": {"resource_id": "1a6feec8-5443-4206-8eb0-6fc3f7846c45", "fields": [{"type": "int4", "id": "_id"}, {"type": "numeric", "id": "year"}, {"type": "text", "id": "capacity"}, {"type": "numeric", "id": "number"}], "records": [{"_id": 1, "capacity": "<10", "number": "1467", "year": "2005"}, {"_id": 2, "capacity": "10-15", "number": "4234", "year": "2005"}, {"_id": 3, "capacity": "16-20", "number": "986", "year": "2005"}, {"_id": 4, "capacity": "21-25", "number": "250", "year": "2005"}, {"_id": 5, "capacity": "26-30", "number": "569", "year": "2005"}], "_links": {"start": "/api/action/datastore_search?limit=5&resource_id=1a6feec8-5443-4206-8eb0-6fc3f7846c45", "next": "/api/action/datastore_search?offset=5&limit=5&resource_id=1a6feec8-5443-4206-8eb0-6fc3f7846c45"}, "limit": 5, "total": 182}}