{"help": "https://data.gov.sg/api/3/action/help_show?name=datastore_search", "success": true, "result": {"resource_id": "549e6ff4-19a0-4c14-878c-acce80fe6155", "fields": [{"type": "int4", "id": "_id"}, {"type": "numeric", "id": "year"}, {"type": "text", "id": "category"}, {"type": "numeric", "id": "number_of_tankers"}, {"type": "numeric", "id": "gross_tonnage"}], "records": [{"category": "Oil Tankers", "number_of_tankers": "13148", "_id": 1, "gross_tonnage": "264325.38", "year": "2002"}, {"category": "Chemical Tankers", "number_of_tankers": "2328", "_id": 2, "gross_tonnage": "16328.93", "year": "2002"}, {"category": "LNG & LPG Tankers", "number_of_tankers": "1443", "_id": 3, "gross_tonnage": "32616.73", "year": "2002"}, {"category": "Oil Tankers", "number_of_tankers": "12943", "_id": 4, "gross_tonnage": "259533.03", "year": "2003"}, {"category": "Chemical Tankers", "number_of_tankers": "2777", "_id": 5, "gross_tonnage": "19734.11", "year": "2003"}], "_links": {"start": "/api/action/datastore_search?limit=5&resource_id=549e6ff4-19a0-4c14-878c-acce80fe6155", "next": "/api/action/datastore_search?offset=5&limit=5&resource_id=549e6ff4-19a0-4c14-878c-acce80fe6155"}, "limit": 5, "total": 54}}