{"help": "https://data.gov.sg/api/3/action/help_show?name=datastore_search", "success": true, "result": {"resource_id": "5ac1eec1-90cd-4ca3-9cb0-b333ff86184c", "fields": [{"type": "int4", "id": "_id"}, {"type": "text", "id": "year"}, {"type": "text", "id": "level_1"}, {"type": "numeric", "id": "value"}], "records": [{"_id": 1, "level_1": "Grooms - Total Marriages", "value": "27.1", "year": "1961"}, {"_id": 2, "level_1": "Grooms - First Marriages", "value": "25.9", "year": "1961"}, {"_id": 3, "level_1": "Grooms - Remarriages", "value": "35.6", "year": "1961"}, {"_id": 4, "level_1": "Brides - Total Marriages", "value": "20.3", "year": "1961"}, {"_id": 5, "level_1": "Brides - First Marriages", "value": "18.8", "year": "1961"}], "_links": {"start": "/api/action/datastore_search?limit=5&resource_id=5ac1eec1-90cd-4ca3-9cb0-b333ff86184c", "next": "/api/action/datastore_search?offset=5&limit=5&resource_id=5ac1eec1-90cd-4ca3-9cb0-b333ff86184c"}, "limit": 5, "total": 348}}