{"help": "https://data.gov.sg/api/3/action/help_show?name=datastore_search", "success": true, "result": {"resource_id": "5aa8cad9-6ff1-449d-a933-9283bf9b06e9", "fields": [{"type": "int4", "id": "_id"}, {"type": "numeric", "id": "period"}, {"type": "text", "id": "region"}, {"type": "text", "id": "cor"}, {"type": "text", "id": "moa"}, {"type": "numeric", "id": "arv_count"}], "records": [{"cor": "South Africa (Rep of)", "region": "AFRICA", "period": "2013", "moa": "Air", "_id": 1, "arv_count": "27681"}, {"cor": "South Africa (Rep of)", "region": "AFRICA", "period": "2013", "moa": "Land", "_id": 2, "arv_count": "2262"}, {"cor": "South Africa (Rep of)", "region": "AFRICA", "period": "2013", "moa": "Sea", "_id": 3, "arv_count": "2047"}, {"cor": "South Africa (Rep of)", "region": "AFRICA", "period": "2014", "moa": "Air", "_id": 4, "arv_count": "25694"}, {"cor": "South Africa (Rep of)", "region": "AFRICA", "period": "2014", "moa": "Land", "_id": 5, "arv_count": "2171"}], "_links": {"start": "/api/action/datastore_search?limit=5&resource_id=5aa8cad9-6ff1-449d-a933-9283bf9b06e9", "next": "/api/action/datastore_search?offset=5&limit=5&resource_id=5aa8cad9-6ff1-449d-a933-9283bf9b06e9"}, "limit": 5, "total": 414}}