{"help": "https://data.gov.sg/api/3/action/help_show?name=datastore_search", "success": true, "result": {"resource_id": "3608e8fb-3882-4eb7-9dbd-11f527816980", "fields": [{"type": "int4", "id": "_id"}, {"type": "numeric", "id": "year"}, {"type": "text", "id": "cargo_type_primary"}, {"type": "text", "id": "cargo_type_secondary"}, {"type": "numeric", "id": "cargo_throughput"}], "records": [{"cargo_type_secondary": "Containerised", "cargo_throughput": "154500.12", "_id": 1, "cargo_type_primary": "General Cargo", "year": "1995"}, {"cargo_type_secondary": "Conventional", "cargo_throughput": "15244.79", "_id": 2, "cargo_type_primary": "General Cargo", "year": "1995"}, {"cargo_type_secondary": "Oil", "cargo_throughput": "126374.98", "_id": 3, "cargo_type_primary": "Bulk Cargo", "year": "1995"}, {"cargo_type_secondary": "Non-Oil Bulk", "cargo_throughput": "9364.11", "_id": 4, "cargo_type_primary": "Bulk Cargo", "year": "1995"}, {"cargo_type_secondary": "Containerised", "cargo_throughput": "160278.76", "_id": 5, "cargo_type_primary": "General Cargo", "year": "1996"}], "_links": {"start": "/api/action/datastore_search?limit=5&resource_id=3608e8fb-3882-4eb7-9dbd-11f527816980", "next": "/api/action/datastore_search?offset=5&limit=5&resource_id=3608e8fb-3882-4eb7-9dbd-11f527816980"}, "limit": 5, "total": 100}}