{"help": "https://data.gov.sg/api/3/action/help_show?name=datastore_search", "success": true, "result": {"resource_id": "04787aed-3c46-4854-839f-6c0755a2ffdc", "fields": [{"type": "int4", "id": "_id"}, {"type": "text", "id": "year"}, {"type": "text", "id": "icd_main_category"}, {"type": "text", "id": "icd_detail_category"}, {"type": "text", "id": "gender"}, {"type": "text", "id": "death_age"}, {"type": "numeric", "id": "death_count"}], "records": [{"gender": "F", "icd_detail_category": "1-061-Remainder of diseases of the nervous system(G04-G25,G31-G98)", "death_count": "11", "death_age": "50 - 59", "year": "2018", "_id": 1, "icd_main_category": "1-058-Diseases of the nervous system(G00-G98)"}, {"gender": "F", "icd_detail_category": "1-061-Remainder of diseases of the nervous system(G04-G25,G31-G98)", "death_count": "5", "death_age": "60 - 64", "year": "2018", "_id": 2, "icd_main_category": "1-058-Diseases of the nervous system(G00-G98)"}, {"gender": "F", "icd_detail_category": "1-061-Remainder of diseases of the nervous system(G04-G25,G31-G98)", "death_count": "7", "death_age": "65 - 69", "year": "2018", "_id": 3, "icd_main_category": "1-058-Diseases of the nervous system(G00-G98)"}, {"gender": "F", "icd_detail_category": "1-061-Remainder of diseases of the nervous system(G04-G25,G31-G98)", "death_count": "6", "death_age": "70 - 74", "year": "2018", "_id": 4, "icd_main_category": "1-058-Diseases of the nervous system(G00-G98)"}, {"gender": "F", "icd_detail_category": "1-061-Remainder of diseases of the nervous system(G04-G25,G31-G98)", "death_count": "13", "death_age": "75 - 79", "year": "2018", "_id": 5, "icd_main_category": "1-058-Diseases of the nervous system(G00-G98)"}], "_links": {"start": "/api/action/datastore_search?limit=5&resource_id=04787aed-3c46-4854-839f-6c0755a2ffdc", "next": "/api/action/datastore_search?offset=5&limit=5&resource_id=04787aed-3c46-4854-839f-6c0755a2ffdc"}, "limit": 5, "total": 1786}}