{"help": "https://data.gov.sg/api/3/action/help_show?name=datastore_search", "success": true, "result": {"resource_id": "d987f947-a05e-4033-90aa-2b7108e05552", "fields": [{"type": "int4", "id": "_id"}, {"type": "text", "id": "effective_from"}, {"type": "numeric", "id": "full_retirement_sum"}], "records": [{"effective_from": "1/7/2003", "full_retirement_sum": "80000", "_id": 1}, {"effective_from": "1/7/2004", "full_retirement_sum": "84500", "_id": 2}, {"effective_from": "1/7/2005", "full_retirement_sum": "90000", "_id": 3}, {"effective_from": "1/7/2006", "full_retirement_sum": "94600", "_id": 4}, {"effective_from": "1/7/2007", "full_retirement_sum": "99600", "_id": 5}], "_links": {"start": "/api/action/datastore_search?limit=5&resource_id=d987f947-a05e-4033-90aa-2b7108e05552", "next": "/api/action/datastore_search?offset=5&limit=5&resource_id=d987f947-a05e-4033-90aa-2b7108e05552"}, "limit": 5, "total": 16}}