{"help": "https://data.gov.sg/api/3/action/help_show?name=datastore_search", "success": true, "result": {"resource_id": "e24fe486-d60d-44ff-a1a8-df144f59d87a", "fields": [{"type": "int4", "id": "_id"}, {"type": "text", "id": "quarter"}, {"type": "text", "id": "level_1"}, {"type": "numeric", "id": "value"}], "records": [{"quarter": "1975-Q1", "_id": 1, "level_1": "GDP In Chained (2015) Dollars", "value": "7540.5"}, {"quarter": "1975-Q2", "_id": 2, "level_1": "GDP In Chained (2015) Dollars", "value": "7675.8"}, {"quarter": "1975-Q3", "_id": 3, "level_1": "GDP In Chained (2015) Dollars", "value": "7830.8"}, {"quarter": "1975-Q4", "_id": 4, "level_1": "GDP In Chained (2015) Dollars", "value": "7942.3"}, {"quarter": "1976-Q1", "_id": 5, "level_1": "GDP In Chained (2015) Dollars", "value": "8163.7"}], "_links": {"start": "/api/action/datastore_search?limit=5&resource_id=e24fe486-d60d-44ff-a1a8-df144f59d87a", "next": "/api/action/datastore_search?offset=5&limit=5&resource_id=e24fe486-d60d-44ff-a1a8-df144f59d87a"}, "limit": 5, "total": 180}}