{"help": "https://data.gov.sg/api/3/action/help_show?name=datastore_search", "success": true, "result": {"resource_id": "5ec61a83-3982-4939-8ec6-80daec6c0783", "fields": [{"type": "int4", "id": "_id"}, {"type": "numeric", "id": "year"}, {"type": "text", "id": "level_1"}, {"type": "text", "id": "level_2"}, {"type": "numeric", "id": "value"}], "records": [{"value": "3735.9", "_id": 1, "level_1": "Operating Receipts, SSIC 49-53 - Total Transport & Storage Services", "level_2": "SSIC 49/5221 - Land Transport And Supporting Services To Land Transport", "year": "2000"}, {"value": "16331.4", "_id": 2, "level_1": "Operating Receipts, SSIC 49-53 - Total Transport & Storage Services", "level_2": "SSIC 50/5222/5225 - Water Transport And Supporting Services To Water Transport", "year": "2000"}, {"value": "12052.2", "_id": 3, "level_1": "Operating Receipts, SSIC 49-53 - Total Transport & Storage Services", "level_2": "SSIC 51/5223 - Air Transport And Supporting Services To Air Transport", "year": "2000"}, {"value": "1045.4", "_id": 4, "level_1": "Operating Receipts, SSIC 49-53 - Total Transport & Storage Services", "level_2": "SSIC 521 - Warehousing & Storage", "year": "2000"}, {"value": "2154.7", "_id": 5, "level_1": "Operating Receipts, SSIC 49-53 - Total Transport & Storage Services", "level_2": "SSIC 5224/5229 - Others", "year": "2000"}], "_links": {"start": "/api/action/datastore_search?limit=5&resource_id=5ec61a83-3982-4939-8ec6-80daec6c0783", "next": "/api/action/datastore_search?offset=5&limit=5&resource_id=5ec61a83-3982-4939-8ec6-80daec6c0783"}, "limit": 5, "total": 432}}