{"help": "https://data.gov.sg/api/3/action/help_show?name=datastore_search", "success": true, "result": {"resource_id": "6b1ec2ff-7c38-4ce9-9bbb-af865b4d78cb", "fields": [{"type": "int4", "id": "_id"}, {"type": "text", "id": "quarter"}, {"type": "text", "id": "town"}, {"type": "text", "id": "flat_type"}, {"type": "text", "id": "median_rent"}], "records": [{"town": "BUKIT TIMAH", "flat_type": "3-RM", "quarter": "2005-Q3", "_id": 1, "median_rent": "-"}, {"town": "BUKIT TIMAH", "flat_type": "4-RM", "quarter": "2005-Q3", "_id": 2, "median_rent": "-"}, {"town": "BUKIT TIMAH", "flat_type": "5-RM", "quarter": "2005-Q3", "_id": 3, "median_rent": "-"}, {"town": "BUKIT TIMAH", "flat_type": "EXEC", "quarter": "2005-Q3", "_id": 4, "median_rent": "-"}, {"town": "CENTRAL", "flat_type": "1-RM", "quarter": "2005-Q3", "_id": 5, "median_rent": "na"}], "_links": {"start": "/api/action/datastore_search?limit=5&resource_id=6b1ec2ff-7c38-4ce9-9bbb-af865b4d78cb", "next": "/api/action/datastore_search?offset=5&limit=5&resource_id=6b1ec2ff-7c38-4ce9-9bbb-af865b4d78cb"}, "limit": 5, "total": 19234}}