{"help": "https://data.gov.sg/api/3/action/help_show?name=datastore_search", "success": true, "result": {"resource_id": "6b14bb1a-4b77-444b-8c40-339e227bc246", "fields": [{"type": "int4", "id": "_id"}, {"type": "numeric", "id": "shs_year"}, {"type": "text", "id": "ethnic_group"}, {"type": "text", "id": "age_group"}, {"type": "numeric", "id": "percentage"}], "records": [{"ethnic_group": "Chinese", "percentage": "15.8", "_id": 1, "shs_year": "2008", "age_group": "Below 15"}, {"ethnic_group": "Chinese", "percentage": "73.2", "_id": 2, "shs_year": "2008", "age_group": "15-64"}, {"ethnic_group": "Chinese", "percentage": "11", "_id": 3, "shs_year": "2008", "age_group": "65 & above"}, {"ethnic_group": "Malay", "percentage": "23.7", "_id": 4, "shs_year": "2008", "age_group": "Below 15"}, {"ethnic_group": "Malay", "percentage": "70.2", "_id": 5, "shs_year": "2008", "age_group": "15-64"}], "_links": {"start": "/api/action/datastore_search?limit=5&resource_id=6b14bb1a-4b77-444b-8c40-339e227bc246", "next": "/api/action/datastore_search?offset=5&limit=5&resource_id=6b14bb1a-4b77-444b-8c40-339e227bc246"}, "limit": 5, "total": 30}}