{"help": "https://data.gov.sg/api/3/action/help_show?name=datastore_search", "success": true, "result": {"resource_id": "5793edc5-aeea-4242-a1dc-17f2b3f2cc39", "fields": [{"type": "int4", "id": "_id"}, {"type": "numeric", "id": "year"}, {"type": "numeric", "id": "average_daily_passenger_journeys"}, {"type": "numeric", "id": "average_journey_distances"}], "records": [{"average_daily_passenger_journeys": "3099000", "_id": 1, "average_journey_distances": "9.4", "year": "2004"}, {"average_daily_passenger_journeys": "3138000", "_id": 2, "average_journey_distances": "9.6", "year": "2005"}, {"average_daily_passenger_journeys": "3267000", "_id": 3, "average_journey_distances": "9.6", "year": "2006"}, {"average_daily_passenger_journeys": "3450000", "_id": 4, "average_journey_distances": "9.6", "year": "2007"}, {"average_daily_passenger_journeys": "3635000", "_id": 5, "average_journey_distances": "9.7", "year": "2008"}], "_links": {"start": "/api/action/datastore_search?limit=5&resource_id=5793edc5-aeea-4242-a1dc-17f2b3f2cc39", "next": "/api/action/datastore_search?offset=5&limit=5&resource_id=5793edc5-aeea-4242-a1dc-17f2b3f2cc39"}, "limit": 5, "total": 11}}