{"help": "https://data.gov.sg/api/3/action/help_show?name=datastore_search", "success": true, "result": {"resource_id": "f17cb073-d086-4435-b3a7-b430e593433e", "fields": [{"type": "int4", "id": "_id"}, {"type": "numeric", "id": "year"}, {"type": "numeric", "id": "no_of_accounts"}, {"type": "numeric", "id": "total_balance"}, {"type": "numeric", "id": "average_balance"}, {"type": "numeric", "id": "amount_withdrawn"}], "records": [{"no_of_accounts": "2700000", "average_balance": "13600", "total_balance": "36.9", "amount_withdrawn": "445", "year": "2006", "_id": 1}, {"no_of_accounts": "2800000", "average_balance": "14100", "total_balance": "39.3", "amount_withdrawn": "517", "year": "2007", "_id": 2}, {"no_of_accounts": "2900000", "average_balance": "14900", "total_balance": "42.4", "amount_withdrawn": "558", "year": "2008", "_id": 3}, {"no_of_accounts": "2900000", "average_balance": "15700", "total_balance": "45.8", "amount_withdrawn": "601", "year": "2009", "_id": 4}, {"no_of_accounts": "3000000", "average_balance": "16900", "total_balance": "50.2", "amount_withdrawn": "678", "year": "2010", "_id": 5}], "_links": {"start": "/api/action/datastore_search?limit=5&resource_id=f17cb073-d086-4435-b3a7-b430e593433e", "next": "/api/action/datastore_search?offset=5&limit=5&resource_id=f17cb073-d086-4435-b3a7-b430e593433e"}, "limit": 5, "total": 14}}