{"help": "https://data.gov.sg/api/3/action/help_show?name=datastore_search", "success": true, "result": {"resource_id": "c7a8f439-ce5c-419a-8c74-1d98eba1ffe5", "fields": [{"type": "int4", "id": "_id"}, {"type": "text", "id": "year"}, {"type": "text", "id": "level_1"}, {"type": "numeric", "id": "value"}], "records": [{"_id": 1, "level_1": "Grooms - Total Marriages", "value": "27.3", "year": "1961"}, {"_id": 2, "level_1": "Grooms - First Marriages", "value": "27.2", "year": "1961"}, {"_id": 3, "level_1": "Grooms - Remarriages", "value": "40.4", "year": "1961"}, {"_id": 4, "level_1": "Brides - Total Marriages", "value": "23.3", "year": "1961"}, {"_id": 5, "level_1": "Brides - First Marriages", "value": "23.3", "year": "1961"}], "_links": {"start": "/api/action/datastore_search?limit=5&resource_id=c7a8f439-ce5c-419a-8c74-1d98eba1ffe5", "next": "/api/action/datastore_search?offset=5&limit=5&resource_id=c7a8f439-ce5c-419a-8c74-1d98eba1ffe5"}, "limit": 5, "total": 348}}