{"help": "https://data.gov.sg/api/3/action/help_show?name=datastore_search", "success": true, "result": {"resource_id": "2f751d6b-4357-4d99-83cf-c8d938df7a0f", "fields": [{"type": "int4", "id": "_id"}, {"type": "numeric", "id": "year"}, {"type": "text", "id": "level_1"}, {"type": "text", "id": "value"}], "records": [{"_id": 1, "level_1": "White Sugar (Per 2 Kilogram)", "value": "3.22", "year": "2018"}, {"_id": 2, "level_1": "Instant Coffee (Per 200 Gram)", "value": "10.12", "year": "2018"}, {"_id": 3, "level_1": "Aerated Soft Drinks (Per 4 Cans)", "value": "2.62", "year": "2018"}, {"_id": 4, "level_1": "Non-aerated Soft Drinks (Per 6 Packets)", "value": "2.37", "year": "2018"}, {"_id": 5, "level_1": "Beer (Per 6 Cans)", "value": "16.32", "year": "2018"}], "_links": {"start": "/api/action/datastore_search?limit=5&resource_id=2f751d6b-4357-4d99-83cf-c8d938df7a0f", "next": "/api/action/datastore_search?offset=5&limit=5&resource_id=2f751d6b-4357-4d99-83cf-c8d938df7a0f"}, "limit": 5, "total": 780}}