{"help": "https://data.gov.sg/api/3/action/help_show?name=datastore_search", "success": true, "result": {"resource_id": "41f522f1-3534-45aa-9b60-151e368e0a3e", "fields": [{"type": "int4", "id": "_id"}, {"type": "text", "id": "year"}, {"type": "text", "id": "mother_nationality"}, {"type": "text", "id": "father_nationality"}, {"type": "numeric", "id": "birth_count"}], "records": [{"birth_count": "150", "_id": 1, "mother_nationality": "AMERICAN", "father_nationality": "AMERICAN", "year": "2016"}, {"birth_count": "7", "_id": 2, "mother_nationality": "AUSTRALIAN", "father_nationality": "AMERICAN", "year": "2016"}, {"birth_count": "10", "_id": 3, "mother_nationality": "BRITISH", "father_nationality": "AMERICAN", "year": "2016"}, {"birth_count": "5", "_id": 4, "mother_nationality": "INDIAN,PAKISTANI,BANGLADESHI & SRI LANKAN", "father_nationality": "AMERICAN", "year": "2016"}, {"birth_count": "11", "_id": 5, "mother_nationality": "INDONESIAN", "father_nationality": "AMERICAN", "year": "2016"}], "_links": {"start": "/api/action/datastore_search?limit=5&resource_id=41f522f1-3534-45aa-9b60-151e368e0a3e", "next": "/api/action/datastore_search?offset=5&limit=5&resource_id=41f522f1-3534-45aa-9b60-151e368e0a3e"}, "limit": 5, "total": 336}}