{"help": "https://data.gov.sg/api/3/action/help_show?name=datastore_search", "success": true, "result": {"resource_id": "6ea4c3b6-651c-47c1-b452-4a313e0a3203", "fields": [{"type": "int4", "id": "_id"}, {"type": "numeric", "id": "year"}, {"type": "numeric", "id": "harbourers_count"}], "records": [{"_id": 1, "harbourers_count": "40", "year": "2011"}, {"_id": 2, "harbourers_count": "77", "year": "2012"}, {"_id": 3, "harbourers_count": "233", "year": "2013"}, {"_id": 4, "harbourers_count": "250", "year": "2014"}, {"_id": 5, "harbourers_count": "416", "year": "2015"}], "_links": {"start": "/api/action/datastore_search?limit=5&resource_id=6ea4c3b6-651c-47c1-b452-4a313e0a3203", "next": "/api/action/datastore_search?offset=5&limit=5&resource_id=6ea4c3b6-651c-47c1-b452-4a313e0a3203"}, "limit": 5, "total": 9}}