{"help": "https://data.gov.sg/api/3/action/help_show?name=datastore_search", "success": true, "result": {"resource_id": "44611e52-4a37-4071-810b-cfbdf858b32a", "fields": [{"type": "int4", "id": "_id"}, {"type": "numeric", "id": "year"}, {"type": "text", "id": "race"}, {"type": "numeric", "id": "percentage_pass_mtl"}], "records": [{"_id": 1, "percentage_pass_mtl": "99.2", "race": "Malay", "year": "1997"}, {"_id": 2, "percentage_pass_mtl": "97.4", "race": "Chinese", "year": "1997"}, {"_id": 3, "percentage_pass_mtl": "96.1", "race": "Indian", "year": "1997"}, {"_id": 4, "percentage_pass_mtl": "81", "race": "Others", "year": "1997"}, {"_id": 5, "percentage_pass_mtl": "97.3", "race": "Overall", "year": "1997"}], "_links": {"start": "/api/action/datastore_search?limit=5&resource_id=44611e52-4a37-4071-810b-cfbdf858b32a", "next": "/api/action/datastore_search?offset=5&limit=5&resource_id=44611e52-4a37-4071-810b-cfbdf858b32a"}, "limit": 5, "total": 115}}