{"help": "https://data.gov.sg/api/3/action/help_show?name=datastore_search", "success": true, "result": {"resource_id": "cdb112c9-ee83-40fa-af6d-72c46bdd7d73", "fields": [{"type": "int4", "id": "_id"}, {"type": "numeric", "id": "yr"}, {"type": "numeric", "id": "no_of_wdl"}], "records": [{"yr": "2010", "_id": 1, "no_of_wdl": "240000"}, {"yr": "2011", "_id": 2, "no_of_wdl": "263000"}, {"yr": "2012", "_id": 3, "no_of_wdl": "280000"}, {"yr": "2013", "_id": 4, "no_of_wdl": "295000"}, {"yr": "2014", "_id": 5, "no_of_wdl": "331000"}], "_links": {"start": "/api/action/datastore_search?limit=5&resource_id=cdb112c9-ee83-40fa-af6d-72c46bdd7d73", "next": "/api/action/datastore_search?offset=5&limit=5&resource_id=cdb112c9-ee83-40fa-af6d-72c46bdd7d73"}, "limit": 5, "total": 7}}