{"help": "https://data.gov.sg/api/3/action/help_show?name=datastore_search", "success": true, "result": {"resource_id": "80310a46-d724-43b5-a1c9-3420fec2b17e", "fields": [{"type": "int4", "id": "_id"}, {"type": "numeric", "id": "year"}, {"type": "numeric", "id": "number_of_vessels"}, {"type": "numeric", "id": "gross_tonnage"}], "records": [{"gross_tonnage": "710572.53", "_id": 1, "number_of_vessels": "104014", "year": "1995"}, {"gross_tonnage": "768520.57", "_id": 2, "number_of_vessels": "117723", "year": "1996"}, {"gross_tonnage": "808304.79", "_id": 3, "number_of_vessels": "130333", "year": "1997"}, {"gross_tonnage": "857655", "_id": 4, "number_of_vessels": "140922", "year": "1998"}, {"gross_tonnage": "877127", "_id": 5, "number_of_vessels": "141523", "year": "1999"}], "_links": {"start": "/api/action/datastore_search?limit=5&resource_id=80310a46-d724-43b5-a1c9-3420fec2b17e", "next": "/api/action/datastore_search?offset=5&limit=5&resource_id=80310a46-d724-43b5-a1c9-3420fec2b17e"}, "limit": 5, "total": 25}}