{"help": "https://data.gov.sg/api/3/action/help_show?name=datastore_search", "success": true, "result": {"resource_id": "ed6ca640-a1e6-4435-b06a-493981a620cd", "fields": [{"type": "int4", "id": "_id"}, {"type": "text", "id": "quarter"}, {"type": "numeric", "id": "job_vacancy"}], "records": [{"job_vacancy": "45100", "quarter": "1990-Q1", "_id": 1}, {"job_vacancy": "46100", "quarter": "1990-Q2", "_id": 2}, {"job_vacancy": "47300", "quarter": "1990-Q3", "_id": 3}, {"job_vacancy": "36100", "quarter": "1990-Q4", "_id": 4}, {"job_vacancy": "40400", "quarter": "1991-Q1", "_id": 5}], "_links": {"start": "/api/action/datastore_search?limit=5&resource_id=ed6ca640-a1e6-4435-b06a-493981a620cd", "next": "/api/action/datastore_search?offset=5&limit=5&resource_id=ed6ca640-a1e6-4435-b06a-493981a620cd"}, "limit": 5, "total": 122}}