{"help": "https://data.gov.sg/api/3/action/help_show?name=datastore_search", "success": true, "result": {"resource_id": "5662835a-fded-4047-a537-986f7c3bd382", "fields": [{"type": "int4", "id": "_id"}, {"type": "text", "id": "year"}, {"type": "text", "id": "segment"}, {"type": "numeric", "id": "infocomm_industry_revenue"}], "records": [{"_id": 1, "segment": "hardware", "infocomm_industry_revenue": "11.47", "year": "2001"}, {"_id": 2, "segment": "software", "infocomm_industry_revenue": "6.14", "year": "2001"}, {"_id": 3, "segment": "it_services", "infocomm_industry_revenue": "7.61", "year": "2001"}, {"_id": 4, "segment": "telecommuncation_services", "infocomm_industry_revenue": "3.78", "year": "2001"}, {"_id": 5, "segment": "content_services", "infocomm_industry_revenue": "1.64", "year": "2001"}], "_links": {"start": "/api/action/datastore_search?limit=5&resource_id=5662835a-fded-4047-a537-986f7c3bd382", "next": "/api/action/datastore_search?offset=5&limit=5&resource_id=5662835a-fded-4047-a537-986f7c3bd382"}, "limit": 5, "total": 85}}