{"help": "https://data.gov.sg/api/3/action/help_show?name=datastore_search", "success": true, "result": {"resource_id": "72295dbd-bece-4424-b2da-5dc20ad93617", "fields": [{"type": "int4", "id": "_id"}, {"type": "text", "id": "centre_code"}, {"type": "text", "id": "centre_name"}, {"type": "text", "id": "incidental_charges"}, {"type": "text", "id": "frequency"}, {"type": "numeric", "id": "amount"}], "records": [{"centre_code": "PT9123", "centre_name": "JUS INFANTS @ EAST COAST PTE. LTD.", "incidental_charges": "Deposit (Class A) - Singaporean PR", "amount": "1980", "frequency": "Once", "_id": 1}, {"centre_code": "PT9445", "centre_name": "JUS INFANTS @ MACPHERSON PTE LTD", "incidental_charges": "Registration fee", "amount": "380", "frequency": "Once", "_id": 2}, {"centre_code": "PT9445", "centre_name": "JUS INFANTS @ MACPHERSON PTE LTD", "incidental_charges": "Deposit (Class A) - Foreigners", "amount": "1980", "frequency": "Once", "_id": 3}, {"centre_code": "PT9445", "centre_name": "JUS INFANTS @ MACPHERSON PTE LTD", "incidental_charges": "Deposit (Class A) - Singaporean Citizen", "amount": "1980", "frequency": "Once", "_id": 4}, {"centre_code": "PT9445", "centre_name": "JUS INFANTS @ MACPHERSON PTE LTD", "incidental_charges": "Deposit (Class A) - Singaporean PR", "amount": "1980", "frequency": "Once", "_id": 5}], "_links": {"start": "/api/action/datastore_search?limit=5&resource_id=72295dbd-bece-4424-b2da-5dc20ad93617", "next": "/api/action/datastore_search?offset=5&limit=5&resource_id=72295dbd-bece-4424-b2da-5dc20ad93617"}, "limit": 5, "total": 16900}}