{"help": "https://data.gov.sg/api/3/action/help_show?name=datastore_search", "success": true, "result": {"resource_id": "1bdc3a3e-27bd-4b5b-b13a-2e36528fb785", "fields": [{"type": "int4", "id": "_id"}, {"type": "numeric", "id": "year"}, {"type": "numeric", "id": "ozone_maximum_8hour_mean"}], "records": [{"_id": 1, "ozone_maximum_8hour_mean": "112", "year": "2000"}, {"_id": 2, "ozone_maximum_8hour_mean": "133", "year": "2001"}, {"_id": 3, "ozone_maximum_8hour_mean": "131", "year": "2002"}, {"_id": 4, "ozone_maximum_8hour_mean": "118", "year": "2003"}, {"_id": 5, "ozone_maximum_8hour_mean": "146", "year": "2004"}], "_links": {"start": "/api/action/datastore_search?limit=5&resource_id=1bdc3a3e-27bd-4b5b-b13a-2e36528fb785", "next": "/api/action/datastore_search?offset=5&limit=5&resource_id=1bdc3a3e-27bd-4b5b-b13a-2e36528fb785"}, "limit": 5, "total": 20}}