{"help": "https://data.gov.sg/api/3/action/help_show?name=datastore_search", "success": true, "result": {"resource_id": "7b184af5-b718-4c93-b217-c3bb3ab304f4", "fields": [{"type": "int4", "id": "_id"}, {"type": "numeric", "id": "year"}, {"type": "text", "id": "level_of_education"}, {"type": "text", "id": "sex"}, {"type": "numeric", "id": "total_net_enrolment_rate"}], "records": [{"total_net_enrolment_rate": "99.9", "sex": "MF", "_id": 1, "level_of_education": "primary education", "year": "2016"}, {"total_net_enrolment_rate": "99.9", "sex": "M", "_id": 2, "level_of_education": "primary education", "year": "2016"}, {"total_net_enrolment_rate": "100", "sex": "F", "_id": 3, "level_of_education": "primary education", "year": "2016"}, {"total_net_enrolment_rate": "99.9", "sex": "MF", "_id": 4, "level_of_education": "lower secondary education", "year": "2016"}, {"total_net_enrolment_rate": "100", "sex": "M", "_id": 5, "level_of_education": "lower secondary education", "year": "2016"}], "_links": {"start": "/api/action/datastore_search?limit=5&resource_id=7b184af5-b718-4c93-b217-c3bb3ab304f4", "next": "/api/action/datastore_search?offset=5&limit=5&resource_id=7b184af5-b718-4c93-b217-c3bb3ab304f4"}, "limit": 5, "total": 27}}