{"help": "https://data.gov.sg/api/3/action/help_show?name=datastore_search", "success": true, "result": {"resource_id": "8f473ff2-c96c-4b42-bfa9-88625dcbf0d5", "fields": [{"type": "int4", "id": "_id"}, {"type": "text", "id": "year"}, {"type": "text", "id": "sick_leave"}, {"type": "numeric", "id": "avg_days_per_absentee"}, {"type": "numeric", "id": "avg_days_per_employee"}], "records": [{"sick_leave": "hospitalisation leave", "_id": 1, "avg_days_per_employee": "0.7", "avg_days_per_absentee": "16", "year": "2011"}, {"sick_leave": "outpatient sick leave", "_id": 2, "avg_days_per_employee": "2.7", "avg_days_per_absentee": "4.7", "year": "2011"}, {"sick_leave": "hospitalisation leave", "_id": 3, "avg_days_per_employee": "0.7", "avg_days_per_absentee": "14.3", "year": "2013"}, {"sick_leave": "outpatient sick leave", "_id": 4, "avg_days_per_employee": "2.8", "avg_days_per_absentee": "4.7", "year": "2013"}, {"sick_leave": "hospitalisation leave", "_id": 5, "avg_days_per_employee": "0.8", "avg_days_per_absentee": "14.2", "year": "2015"}], "_links": {"start": "/api/action/datastore_search?limit=5&resource_id=8f473ff2-c96c-4b42-bfa9-88625dcbf0d5", "next": "/api/action/datastore_search?offset=5&limit=5&resource_id=8f473ff2-c96c-4b42-bfa9-88625dcbf0d5"}, "limit": 5, "total": 8}}