{"help": "https://data.gov.sg/api/3/action/help_show?name=datastore_search", "success": true, "result": {"resource_id": "87ecee71-f6c5-41f2-ba58-0eca37502dab", "fields": [{"type": "int4", "id": "_id"}, {"type": "text", "id": "year"}, {"type": "text", "id": "housing_type"}, {"type": "numeric", "id": "computer_access_at_home"}], "records": [{"computer_access_at_home": "78", "_id": 1, "housing_type": "private", "year": "2000"}, {"computer_access_at_home": "58", "_id": 2, "housing_type": "public", "year": "2000"}, {"computer_access_at_home": "81", "_id": 3, "housing_type": "private", "year": "2001"}, {"computer_access_at_home": "60", "_id": 4, "housing_type": "public", "year": "2001"}, {"computer_access_at_home": "87", "_id": 5, "housing_type": "private", "year": "2002"}], "_links": {"start": "/api/action/datastore_search?limit=5&resource_id=87ecee71-f6c5-41f2-ba58-0eca37502dab", "next": "/api/action/datastore_search?offset=5&limit=5&resource_id=87ecee71-f6c5-41f2-ba58-0eca37502dab"}, "limit": 5, "total": 38}}